G04 EAGLE Gerber RS-274X export*
G75*
%MOMM*%
%FSLAX34Y34*%
%LPD*%
%INSoldermask Bottom*%
%IPPOS*%
%AMOC8*
5,1,8,0,0,1.08239X$1,22.5*%
G01*
%ADD10C,1.727200*%
%ADD11P,2.034460X8X22.500000*%
%ADD12C,3.403200*%
%ADD13C,1.993900*%


D10*
X520700Y449580D02*
X520700Y464820D01*
X546100Y464820D02*
X546100Y449580D01*
X571500Y449580D02*
X571500Y464820D01*
X520700Y500380D02*
X520700Y515620D01*
X546100Y515620D02*
X546100Y500380D01*
X571500Y500380D02*
X571500Y515620D01*
X520700Y551180D02*
X520700Y566420D01*
X546100Y566420D02*
X546100Y551180D01*
X571500Y551180D02*
X571500Y566420D01*
D11*
X355600Y609600D03*
X330200Y127000D03*
X381000Y609600D03*
X406400Y609600D03*
X431800Y609600D03*
X457200Y609600D03*
X330200Y609600D03*
X304800Y609600D03*
X279400Y609600D03*
X238760Y609600D03*
X213360Y609600D03*
X187960Y609600D03*
X162560Y609600D03*
X137160Y609600D03*
X111760Y609600D03*
X86360Y609600D03*
X60960Y609600D03*
X355600Y127000D03*
X381000Y127000D03*
X406400Y127000D03*
X431800Y127000D03*
X457200Y127000D03*
X279400Y127000D03*
X254000Y127000D03*
X228600Y127000D03*
X203200Y127000D03*
X177800Y127000D03*
X152400Y127000D03*
D12*
X-25400Y609600D03*
X482600Y457200D03*
X-38100Y127000D03*
D13*
X562547Y404400D02*
X580454Y404400D01*
X580454Y354400D02*
X562547Y354400D01*
X562547Y304400D02*
X580454Y304400D01*
X580454Y254400D02*
X562547Y254400D01*
X562547Y204400D02*
X580454Y204400D01*
X580454Y154400D02*
X562547Y154400D01*
D10*
X520700Y601980D02*
X520700Y617220D01*
X546100Y617220D02*
X546100Y601980D01*
X571500Y601980D02*
X571500Y617220D01*
X596900Y617220D02*
X596900Y601980D01*
D13*
X638547Y570700D02*
X656454Y570700D01*
X656454Y520700D02*
X638547Y520700D01*
X638547Y470700D02*
X656454Y470700D01*
M02*
