(.../Documents/EAGLE/ulps/pcb-gcode.ulp)
(Copyright 2005 - 2012 by John Johnson)
(See readme.txt for licensing terms.)
(This file generated from the board:)
(.../EAGLE/projects/shapeoko/1shape.brd)
(Current profile is .../EAGLE/ulps/profiles/generic.pp  )
(This file generated 25/11/19 15:07)
(Settings from pcb-machine.h)
(spindle on time = 0.0000)
(  Tool Size)
(0.4000 )
(spindle speed = 30000.0000)
(tool change at 0.0000 0.0000 30.0000 )
(feed rate xy = F80.00 )
(feed rate z  = F20.00 )
(Z Axis Settings)
(  High     Up        Down     Drill)
(3.0000 	2.0000 	-0.0800 	-1.6700 )
(Settings from pcb-defaults.h)
(isolate min = 0.0254)
(isolate max = 1.0000)
(isolate step = 0.5000)
(Generated top outlines, top drill, top stencil, )
(Unit of measure: mm)
(Metric Mode)
G21
(Absolute Coordinates)
G90
S30000
G00 Z3.0000 
G00 X0.0000 Y0.0000 
M03
S10000
G04 P0.000000
G00 Z2.0000 
G00 X13.0290 Y6.1134 
G01 Z-0.0800 F20.00 
G01 X12.9626 Y6.2128 F80.00 
G01 X12.9169 Y6.3231 
G01 X12.8936 Y6.4403 
G01 X12.8936 Y13.5597 
G01 X12.9169 Y13.6769 
G01 X12.9626 Y13.7872 
G01 X13.0290 Y13.8866 
G01 X13.1134 Y13.9710 
G01 X34.6134 Y35.4710 
G01 X34.7128 Y35.5374 
G01 X34.8231 Y35.5831 
G01 X34.9403 Y35.6064 
G01 X55.1463 Y35.6064 
G01 X55.1615 Y35.7024 
G01 X55.2160 Y35.8702 
G01 X55.2961 Y36.0274 
G01 X55.3998 Y36.1701 
G01 X55.5245 Y36.2949 
G01 X55.6672 Y36.3986 
G01 X55.8244 Y36.4786 
G01 X55.9922 Y36.5331 
G01 X56.1664 Y36.5607 
G01 X58.1336 Y36.5607 
G01 X58.3078 Y36.5331 
G01 X58.4756 Y36.4786 
G01 X58.6328 Y36.3986 
G01 X58.7755 Y36.2949 
G01 X58.9002 Y36.1701 
G01 X59.0039 Y36.0274 
G01 X59.0840 Y35.8702 
G01 X59.1385 Y35.7024 
G01 X59.1661 Y35.5282 
G01 X59.1661 Y35.3518 
G01 X59.1385 Y35.1776 
G01 X59.0840 Y35.0098 
G01 X59.0039 Y34.8526 
G01 X58.9002 Y34.7099 
G01 X58.7755 Y34.5851 
G01 X58.6328 Y34.4814 
G01 X58.4756 Y34.4014 
G01 X58.3078 Y34.3468 
G01 X58.1336 Y34.3192 
G01 X56.1664 Y34.3192 
G01 X55.9922 Y34.3468 
G01 X55.8483 Y34.3936 
G01 X35.2512 Y34.3936 
G01 X14.1064 Y13.2488 
G01 X14.1064 Y6.7512 
G01 X14.7512 Y6.1064 
G01 X43.7488 Y6.1064 
G01 X44.7391 Y7.0967 
G01 X44.6564 Y7.1794 
G01 X44.6564 Y8.0606 
G01 X45.2794 Y8.6836 
G01 X45.3936 Y8.6836 
G01 X45.3936 Y11.6364 
G01 X45.2794 Y11.6364 
G01 X44.6564 Y12.2594 
G01 X44.6564 Y13.1406 
G01 X45.2794 Y13.7636 
G01 X46.1606 Y13.7636 
G01 X46.7836 Y13.1406 
G01 X46.7836 Y12.2594 
G01 X46.6064 Y12.0822 
G01 X46.6064 Y8.2378 
G01 X46.7836 Y8.0606 
G01 X46.7836 Y7.1794 
G01 X46.1606 Y6.5564 
G01 X45.9140 Y6.5564 
G01 X44.3866 Y5.0290 
G01 X44.2872 Y4.9626 
G01 X44.1769 Y4.9169 
G01 X44.0597 Y4.8936 
G01 X14.4403 Y4.8936 
G01 X14.3231 Y4.9169 
G01 X14.2128 Y4.9626 
G01 X14.1134 Y5.0290 
G01 X14.0290 Y5.1134 
G01 X13.0290 Y6.1134 
G00 Z2.0000 
G00 X14.1764 Y7.1794 
G01 Z-0.0800 F20.00 
G01 X14.1764 Y8.0606 F80.00 
G01 X14.7994 Y8.6836 
G01 X14.8936 Y8.6836 
G01 X14.8936 Y11.6364 
G01 X14.7994 Y11.6364 
G01 X14.1764 Y12.2594 
G01 X14.1764 Y13.1406 
G01 X14.7994 Y13.7636 
G01 X15.6806 Y13.7636 
G01 X16.3036 Y13.1406 
G01 X16.3036 Y12.2594 
G01 X16.1064 Y12.0622 
G01 X16.1064 Y8.2578 
G01 X16.3036 Y8.0606 
G01 X16.3036 Y7.1794 
G01 X15.6806 Y6.5564 
G01 X14.7994 Y6.5564 
G01 X14.1764 Y7.1794 
G00 Z2.0000 
G00 X16.7164 Y7.1794 
G01 Z-0.0800 F20.00 
G01 X16.7164 Y8.0606 F80.00 
G01 X17.3394 Y8.6836 
G01 X17.3936 Y8.6836 
G01 X17.3936 Y11.6364 
G01 X17.3394 Y11.6364 
G01 X16.7164 Y12.2594 
G01 X16.7164 Y13.1406 
G01 X17.3394 Y13.7636 
G01 X18.2206 Y13.7636 
G01 X18.8436 Y13.1406 
G01 X18.8436 Y12.2594 
G01 X18.6064 Y12.0222 
G01 X18.6064 Y8.2978 
G01 X18.8436 Y8.0606 
G01 X18.8436 Y7.1794 
G01 X18.2206 Y6.5564 
G01 X17.3394 Y6.5564 
G01 X16.7164 Y7.1794 
G00 Z2.0000 
G00 X19.2564 Y7.1794 
G01 Z-0.0800 F20.00 
G01 X19.2564 Y8.0606 F80.00 
G01 X19.8794 Y8.6836 
G01 X19.8936 Y11.6364 
G01 X19.2564 Y12.2594 
G01 X19.2564 Y13.1406 
G01 X19.8794 Y13.7636 
G01 X20.4060 Y13.7636 
G01 X32.0290 Y25.3866 
G01 X32.1134 Y25.4710 
G01 X32.2128 Y25.5374 
G01 X32.3231 Y25.5831 
G01 X32.4403 Y25.6064 
G01 X55.1463 Y25.6064 
G01 X55.1615 Y25.7024 
G01 X55.2160 Y25.8702 
G01 X55.2961 Y26.0274 
G01 X55.3998 Y26.1701 
G01 X55.5245 Y26.2949 
G01 X55.6672 Y26.3986 
G01 X55.8244 Y26.4786 
G01 X55.9922 Y26.5331 
G01 X56.1664 Y26.5607 
G01 X56.3936 Y26.5607 
G01 X56.3936 Y29.3193 
G01 X56.1664 Y29.3193 
G01 X55.9922 Y29.3468 
G01 X55.8244 Y29.4014 
G01 X55.6672 Y29.4814 
G01 X55.5245 Y29.5851 
G01 X55.3998 Y29.7099 
G01 X55.2961 Y29.8526 
G01 X55.2160 Y30.0098 
G01 X55.1615 Y30.1776 
G01 X55.1339 Y30.3518 
G01 X55.1339 Y30.5282 
G01 X55.1615 Y30.7024 
G01 X55.2160 Y30.8702 
G01 X55.2961 Y31.0274 
G01 X55.3998 Y31.1701 
G01 X55.5245 Y31.2949 
G01 X55.6672 Y31.3986 
G01 X55.8244 Y31.4786 
G01 X55.9922 Y31.5331 
G01 X56.1664 Y31.5607 
G01 X57.7032 Y31.5607 
G01 X59.3936 Y33.2512 
G01 X59.3936 Y41.2488 
G01 X57.0290 Y43.6134 
G01 X56.9626 Y43.7128 
G01 X56.9169 Y43.8231 
G01 X56.8936 Y43.9403 
G01 X56.8936 Y44.0023 
G01 X56.8620 Y44.0085 
G01 X56.6823 Y44.0830 
G01 X56.5206 Y44.1910 
G01 X56.3830 Y44.3286 
G01 X56.2750 Y44.4903 
G01 X56.2005 Y44.6700 
G01 X56.1626 Y44.8607 
G01 X56.1626 Y46.5793 
G01 X56.2005 Y46.7700 
G01 X56.2750 Y46.9497 
G01 X56.3830 Y47.1114 
G01 X56.3936 Y49.3980 
G01 X56.2750 Y49.5703 
G01 X56.2005 Y49.7500 
G01 X56.1626 Y49.9407 
G01 X56.1626 Y51.6593 
G01 X56.2005 Y51.8500 
G01 X56.2750 Y52.0297 
G01 X56.3830 Y52.1914 
G01 X56.3936 Y54.4780 
G01 X56.2750 Y54.6503 
G01 X56.2005 Y54.8300 
G01 X56.1626 Y55.0207 
G01 X56.1626 Y56.7392 
G01 X56.2005 Y56.9300 
G01 X56.2750 Y57.1097 
G01 X56.3830 Y57.2714 
G01 X56.5206 Y57.4090 
G01 X56.6823 Y57.5170 
G01 X56.8620 Y57.5915 
G01 X57.0527 Y57.6294 
G01 X57.2473 Y57.6294 
G01 X57.4380 Y57.5915 
G01 X57.6177 Y57.5170 
G01 X57.7794 Y57.4090 
G01 X57.9154 Y57.2730 
G01 X58.8936 Y58.2512 
G01 X58.8936 Y59.6126 
G01 X58.8150 Y59.7303 
G01 X58.7405 Y59.9100 
G01 X58.7026 Y60.1007 
G01 X58.7026 Y61.8192 
G01 X58.7405 Y62.0100 
G01 X58.8150 Y62.1897 
G01 X58.9230 Y62.3514 
G01 X59.0606 Y62.4890 
G01 X59.2223 Y62.5970 
G01 X59.4020 Y62.6715 
G01 X59.5927 Y62.7094 
G01 X59.7873 Y62.7094 
G01 X59.9780 Y62.6715 
G01 X60.1577 Y62.5970 
G01 X60.3194 Y62.4890 
G01 X60.4570 Y62.3514 
G01 X60.5650 Y62.1897 
G01 X60.6395 Y62.0100 
G01 X60.6774 Y61.8192 
G01 X60.6774 Y60.1007 
G01 X60.6395 Y59.9100 
G01 X60.5650 Y59.7303 
G01 X60.4570 Y59.5686 
G01 X60.3194 Y59.4310 
G01 X60.1577 Y59.3230 
G01 X60.1064 Y59.3017 
G01 X60.1064 Y57.9403 
G01 X60.0831 Y57.8231 
G01 X60.0374 Y57.7128 
G01 X59.9710 Y57.6134 
G01 X58.1374 Y55.7798 
G01 X58.1374 Y55.0207 
G01 X58.0995 Y54.8300 
G01 X58.0250 Y54.6503 
G01 X57.9170 Y54.4886 
G01 X57.7794 Y54.3510 
G01 X57.6177 Y54.2430 
G01 X57.6064 Y52.4417 
G01 X57.7794 Y52.3290 
G01 X57.9170 Y52.1914 
G01 X58.0250 Y52.0297 
G01 X58.0995 Y51.8500 
G01 X58.1374 Y51.6593 
G01 X58.1374 Y49.9407 
G01 X58.0995 Y49.7500 
G01 X58.0250 Y49.5703 
G01 X57.9170 Y49.4086 
G01 X57.7794 Y49.2710 
G01 X57.6177 Y49.1630 
G01 X57.6064 Y47.3617 
G01 X57.7794 Y47.2490 
G01 X57.9170 Y47.1114 
G01 X58.0250 Y46.9497 
G01 X58.0995 Y46.7700 
G01 X58.1374 Y46.5793 
G01 X58.1374 Y44.8607 
G01 X58.1064 Y44.7049 
G01 X58.1064 Y44.2512 
G01 X60.3866 Y41.9710 
G01 X60.4710 Y41.8866 
G01 X60.5374 Y41.7872 
G01 X60.5831 Y41.6769 
G01 X60.6064 Y41.5597 
G01 X60.6064 Y32.9403 
G01 X60.5831 Y32.8231 
G01 X60.5374 Y32.7128 
G01 X60.4710 Y32.6134 
G01 X58.9539 Y31.0963 
G01 X59.0039 Y31.0274 
G01 X59.0840 Y30.8702 
G01 X59.1385 Y30.7024 
G01 X59.1661 Y30.5282 
G01 X59.1661 Y30.3518 
G01 X59.1385 Y30.1776 
G01 X59.0840 Y30.0098 
G01 X59.0039 Y29.8526 
G01 X58.9002 Y29.7099 
G01 X58.7755 Y29.5851 
G01 X58.6328 Y29.4814 
G01 X58.4756 Y29.4014 
G01 X58.3078 Y29.3468 
G01 X58.1336 Y29.3193 
G01 X57.6064 Y29.3193 
G01 X57.6064 Y26.5607 
G01 X58.1336 Y26.5607 
G01 X58.3078 Y26.5331 
G01 X58.4756 Y26.4786 
G01 X58.6328 Y26.3986 
G01 X58.7755 Y26.2949 
G01 X58.9002 Y26.1701 
G01 X59.0039 Y26.0274 
G01 X59.0840 Y25.8702 
G01 X59.1385 Y25.7024 
G01 X59.1661 Y25.5282 
G01 X59.1661 Y25.3518 
G01 X59.1385 Y25.1776 
G01 X59.0840 Y25.0098 
G01 X59.0039 Y24.8526 
G01 X58.9002 Y24.7099 
G01 X58.7755 Y24.5851 
G01 X58.6328 Y24.4814 
G01 X58.4756 Y24.4014 
G01 X58.3078 Y24.3468 
G01 X58.1336 Y24.3193 
G01 X56.1664 Y24.3193 
G01 X55.9922 Y24.3468 
G01 X55.8483 Y24.3936 
G01 X32.7512 Y24.3936 
G01 X21.3836 Y13.0260 
G01 X21.3836 Y12.2594 
G01 X21.1064 Y11.9822 
G01 X21.1064 Y8.3378 
G01 X21.3836 Y8.0606 
G01 X21.3836 Y7.1794 
G01 X20.7606 Y6.5564 
G01 X19.8794 Y6.5564 
G01 X19.2564 Y7.1794 
G00 Z2.0000 
G00 X21.7964 Y7.1794 
G01 Z-0.0800 F20.00 
G01 X21.7964 Y8.0606 F80.00 
G01 X22.3936 Y8.6578 
G01 X22.3936 Y11.6622 
G01 X21.7964 Y12.2594 
G01 X21.7964 Y13.1406 
G01 X22.4194 Y13.7636 
G01 X23.3006 Y13.7636 
G01 X23.9236 Y13.1406 
G01 X23.9236 Y12.2594 
G01 X23.6064 Y11.9422 
G01 X23.6064 Y8.3778 
G01 X23.9236 Y8.0606 
G01 X23.9236 Y7.1794 
G01 X23.3006 Y6.5564 
G01 X22.4194 Y6.5564 
G01 X21.7964 Y7.1794 
G00 Z2.0000 
G00 X24.3364 Y7.1794 
G01 Z-0.0800 F20.00 
G01 X24.3364 Y8.0606 F80.00 
G01 X24.8936 Y8.6178 
G01 X24.8936 Y11.7022 
G01 X24.3364 Y12.2594 
G01 X24.3364 Y13.1406 
G01 X24.9594 Y13.7636 
G01 X25.4060 Y13.7636 
G01 X27.0290 Y15.3866 
G01 X27.1134 Y15.4710 
G01 X27.2128 Y15.5374 
G01 X27.3231 Y15.5831 
G01 X27.4403 Y15.6064 
G01 X55.1463 Y15.6064 
G01 X55.1615 Y15.7024 
G01 X55.2160 Y15.8702 
G01 X55.2961 Y16.0274 
G01 X55.3998 Y16.1701 
G01 X55.5245 Y16.2949 
G01 X55.6672 Y16.3986 
G01 X55.8244 Y16.4786 
G01 X55.9922 Y16.5331 
G01 X56.1664 Y16.5607 
G01 X56.3936 Y16.5607 
G01 X56.3936 Y19.3193 
G01 X56.1664 Y19.3193 
G01 X55.9922 Y19.3468 
G01 X55.8244 Y19.4014 
G01 X55.6672 Y19.4814 
G01 X55.5245 Y19.5851 
G01 X55.3998 Y19.7099 
G01 X55.2961 Y19.8526 
G01 X55.2160 Y20.0098 
G01 X55.1615 Y20.1776 
G01 X55.1339 Y20.3518 
G01 X55.1339 Y20.5282 
G01 X55.1615 Y20.7024 
G01 X55.2160 Y20.8702 
G01 X55.2961 Y21.0274 
G01 X55.3998 Y21.1701 
G01 X55.5245 Y21.2949 
G01 X55.6672 Y21.3986 
G01 X55.8244 Y21.4786 
G01 X55.9922 Y21.5331 
G01 X56.1664 Y21.5607 
G01 X57.7032 Y21.5607 
G01 X60.8936 Y24.7512 
G01 X60.8936 Y62.2488 
G01 X60.2488 Y62.8936 
G01 X59.2512 Y62.8936 
G01 X58.1374 Y61.7798 
G01 X58.1374 Y60.1007 
G01 X58.0995 Y59.9100 
G01 X58.0250 Y59.7303 
G01 X57.9170 Y59.5686 
G01 X57.7794 Y59.4310 
G01 X57.6177 Y59.3230 
G01 X57.6064 Y58.9403 
G01 X57.5831 Y58.8231 
G01 X57.5374 Y58.7128 
G01 X57.4710 Y58.6134 
G01 X55.6064 Y56.7488 
G01 X55.6064 Y56.0310 
G01 X55.6093 Y56.0024 
G01 X55.6064 Y55.9714 
G01 X55.6064 Y55.9403 
G01 X55.6008 Y55.9121 
G01 X55.5981 Y55.8835 
G01 X55.5974 Y55.0207 
G01 X55.5595 Y54.8300 
G01 X55.4850 Y54.6503 
G01 X55.3770 Y54.4886 
G01 X55.2394 Y54.3510 
G01 X55.1064 Y54.2621 
G01 X55.1064 Y52.4178 
G01 X55.2394 Y52.3290 
G01 X55.3770 Y52.1914 
G01 X55.4850 Y52.0297 
G01 X55.5595 Y51.8500 
G01 X55.5974 Y51.6593 
G01 X55.5974 Y49.9407 
G01 X55.5595 Y49.7500 
G01 X55.4850 Y49.5703 
G01 X55.3770 Y49.4086 
G01 X55.2394 Y49.2710 
G01 X55.1064 Y49.1822 
G01 X55.1064 Y47.3378 
G01 X55.2394 Y47.2490 
G01 X55.3770 Y47.1114 
G01 X55.4850 Y46.9497 
G01 X55.5595 Y46.7700 
G01 X55.5974 Y46.5793 
G01 X55.5974 Y44.8607 
G01 X55.5595 Y44.6700 
G01 X55.4850 Y44.4903 
G01 X55.3770 Y44.3286 
G01 X55.2394 Y44.1910 
G01 X55.0777 Y44.0830 
G01 X54.8980 Y44.0085 
G01 X54.7073 Y43.9706 
G01 X54.5127 Y43.9706 
G01 X54.3220 Y44.0085 
G01 X54.1423 Y44.0830 
G01 X53.9806 Y44.1910 
G01 X53.8430 Y44.3286 
G01 X53.7350 Y44.4903 
G01 X53.6605 Y44.6700 
G01 X53.6226 Y44.8607 
G01 X53.6226 Y46.5793 
G01 X53.6605 Y46.7700 
G01 X53.7350 Y46.9497 
G01 X53.8430 Y47.1114 
G01 X53.8936 Y47.1620 
G01 X53.8936 Y49.3580 
G01 X53.8430 Y49.4086 
G01 X53.7350 Y49.5703 
G01 X53.6605 Y49.7500 
G01 X53.6226 Y49.9407 
G01 X53.6226 Y51.6593 
G01 X53.6605 Y51.8500 
G01 X53.7350 Y52.0297 
G01 X53.8430 Y52.1914 
G01 X53.8936 Y52.2420 
G01 X53.8936 Y54.4380 
G01 X53.8430 Y54.4886 
G01 X53.7350 Y54.6503 
G01 X53.6605 Y54.8300 
G01 X53.6226 Y55.0207 
G01 X53.6226 Y56.7392 
G01 X53.6605 Y56.9300 
G01 X53.7350 Y57.1097 
G01 X53.8430 Y57.2714 
G01 X53.9806 Y57.4090 
G01 X54.1423 Y57.5170 
G01 X54.3220 Y57.5915 
G01 X54.5127 Y57.6294 
G01 X54.7073 Y57.6294 
G01 X54.7611 Y57.6187 
G01 X56.3936 Y59.2512 
G01 X56.3936 Y59.5580 
G01 X56.2750 Y59.7303 
G01 X56.2005 Y59.9100 
G01 X56.1626 Y60.1007 
G01 X56.1626 Y61.8192 
G01 X56.2005 Y62.0100 
G01 X56.2750 Y62.1897 
G01 X56.3830 Y62.3514 
G01 X56.5206 Y62.4890 
G01 X56.6823 Y62.5970 
G01 X56.8620 Y62.6715 
G01 X57.0527 Y62.7094 
G01 X57.2473 Y62.7094 
G01 X57.3345 Y62.6920 
G01 X58.5290 Y63.8866 
G01 X58.6134 Y63.9710 
G01 X58.7128 Y64.0374 
G01 X58.8231 Y64.0831 
G01 X58.9403 Y64.1064 
G01 X60.5597 Y64.1064 
G01 X60.6769 Y64.0831 
G01 X60.7872 Y64.0374 
G01 X60.8866 Y63.9710 
G01 X61.8866 Y62.9710 
G01 X61.9710 Y62.8866 
G01 X62.0374 Y62.7872 
G01 X62.0831 Y62.6769 
G01 X62.1064 Y62.5597 
G01 X62.1064 Y24.4403 
G01 X62.0831 Y24.3231 
G01 X62.0374 Y24.2128 
G01 X61.9710 Y24.1134 
G01 X58.9539 Y21.0963 
G01 X59.0039 Y21.0274 
G01 X59.0840 Y20.8702 
G01 X59.1385 Y20.7024 
G01 X59.1661 Y20.5282 
G01 X59.1661 Y20.3518 
G01 X59.1385 Y20.1776 
G01 X59.0840 Y20.0098 
G01 X59.0039 Y19.8526 
G01 X58.9002 Y19.7099 
G01 X58.7755 Y19.5851 
G01 X58.6328 Y19.4814 
G01 X58.4756 Y19.4014 
G01 X58.3078 Y19.3468 
G01 X58.1336 Y19.3193 
G01 X57.6064 Y19.3193 
G01 X57.6064 Y16.5607 
G01 X58.1336 Y16.5607 
G01 X58.3078 Y16.5331 
G01 X58.4756 Y16.4786 
G01 X58.6328 Y16.3986 
G01 X58.7755 Y16.2949 
G01 X58.9002 Y16.1701 
G01 X59.0039 Y16.0274 
G01 X59.0840 Y15.8702 
G01 X59.1385 Y15.7024 
G01 X59.1661 Y15.5282 
G01 X59.1661 Y15.3518 
G01 X59.1385 Y15.1776 
G01 X59.0840 Y15.0098 
G01 X59.0039 Y14.8526 
G01 X58.9002 Y14.7099 
G01 X58.7755 Y14.5851 
G01 X58.6328 Y14.4814 
G01 X58.4756 Y14.4014 
G01 X58.3078 Y14.3468 
G01 X58.1336 Y14.3193 
G01 X56.1664 Y14.3193 
G01 X55.9922 Y14.3468 
G01 X55.8483 Y14.3936 
G01 X27.7512 Y14.3936 
G01 X26.4636 Y13.1060 
G01 X26.4636 Y12.2594 
G01 X26.1064 Y11.9022 
G01 X26.1064 Y8.4178 
G01 X26.4636 Y8.0606 
G01 X26.4636 Y7.1794 
G01 X25.8406 Y6.5564 
G01 X24.9594 Y6.5564 
G01 X24.3364 Y7.1794 
G00 Z2.0000 
G00 X26.8764 Y7.1794 
G01 Z-0.0800 F20.00 
G01 X26.8764 Y8.0606 F80.00 
G01 X27.3936 Y8.5778 
G01 X27.3936 Y11.7422 
G01 X26.8764 Y12.2594 
G01 X26.8764 Y13.1406 
G01 X27.4994 Y13.7636 
G01 X28.3806 Y13.7636 
G01 X29.0036 Y13.1406 
G01 X29.0036 Y12.2594 
G01 X28.6064 Y11.8622 
G01 X28.6064 Y8.4578 
G01 X29.0036 Y8.0606 
G01 X29.0036 Y7.1794 
G01 X28.3806 Y6.5564 
G01 X27.4994 Y6.5564 
G01 X26.8764 Y7.1794 
G00 Z2.0000 
G00 X31.9564 Y7.1794 
G01 Z-0.0800 F20.00 
G01 X31.9564 Y8.0606 F80.00 
G01 X32.3936 Y8.4978 
G01 X32.3936 Y11.8222 
G01 X31.9564 Y12.2594 
G01 X31.9564 Y13.1406 
G01 X32.5794 Y13.7636 
G01 X33.4606 Y13.7636 
G01 X34.0836 Y13.1406 
G01 X34.0836 Y12.2594 
G01 X33.6064 Y11.7822 
G01 X33.6064 Y8.5378 
G01 X34.0836 Y8.0606 
G01 X34.0836 Y7.1794 
G01 X33.4606 Y6.5564 
G01 X32.5794 Y6.5564 
G01 X31.9564 Y7.1794 
G00 Z2.0000 
G00 X34.4964 Y7.1794 
G01 Z-0.0800 F20.00 
G01 X34.4964 Y8.0606 F80.00 
G01 X34.8936 Y8.4578 
G01 X34.8936 Y11.8622 
G01 X34.4964 Y12.2594 
G01 X34.4964 Y13.1406 
G01 X35.1194 Y13.7636 
G01 X36.0006 Y13.7636 
G01 X36.6236 Y13.1406 
G01 X36.6236 Y12.2594 
G01 X36.1064 Y11.7422 
G01 X36.1064 Y8.5778 
G01 X36.6236 Y8.0606 
G01 X36.6236 Y7.1794 
G01 X36.0006 Y6.5564 
G01 X35.1194 Y6.5564 
G01 X34.4964 Y7.1794 
G00 Z2.0000 
G00 X37.0364 Y7.1794 
G01 Z-0.0800 F20.00 
G01 X37.0364 Y8.0606 F80.00 
G01 X37.3936 Y8.4178 
G01 X37.3936 Y11.9022 
G01 X37.0364 Y12.2594 
G01 X37.0364 Y13.1406 
G01 X37.6594 Y13.7636 
G01 X38.5406 Y13.7636 
G01 X39.1636 Y13.1406 
G01 X39.1636 Y12.2594 
G01 X38.6064 Y11.7022 
G01 X38.6064 Y8.6178 
G01 X39.1636 Y8.0606 
G01 X39.1636 Y7.1794 
G01 X38.5406 Y6.5564 
G01 X37.6594 Y6.5564 
G01 X37.0364 Y7.1794 
G00 Z2.0000 
G00 X39.5764 Y7.1794 
G01 Z-0.0800 F20.00 
G01 X39.5764 Y8.0606 F80.00 
G01 X39.8936 Y8.3778 
G01 X39.8936 Y11.9422 
G01 X39.5764 Y12.2594 
G01 X39.5764 Y13.1406 
G01 X40.1994 Y13.7636 
G01 X41.0806 Y13.7636 
G01 X41.7036 Y13.1406 
G01 X41.7036 Y12.2594 
G01 X41.1064 Y11.6622 
G01 X41.1064 Y8.6578 
G01 X41.7036 Y8.0606 
G01 X41.7036 Y7.1794 
G01 X41.0806 Y6.5564 
G01 X40.1994 Y6.5564 
G01 X39.5764 Y7.1794 
G00 Z2.0000 
G00 X42.1164 Y7.1794 
G01 Z-0.0800 F20.00 
G01 X42.1164 Y8.0606 F80.00 
G01 X42.3936 Y8.3378 
G01 X42.3936 Y11.9822 
G01 X42.1164 Y12.2594 
G01 X42.1164 Y13.1406 
G01 X42.7394 Y13.7636 
G01 X43.6206 Y13.7636 
G01 X44.2436 Y13.1406 
G01 X44.2436 Y12.2594 
G01 X43.6206 Y11.6364 
G01 X43.6064 Y8.6836 
G01 X44.2436 Y8.0606 
G01 X44.2436 Y7.1794 
G01 X43.6206 Y6.5564 
G01 X42.7394 Y6.5564 
G01 X42.1164 Y7.1794 
G00 Z2.0000 
G00 X49.5597 Y36.8936 
G01 Z-0.0800 F20.00 
G01 X21.9403 Y36.8936 F80.00 
G01 X21.8231 Y36.9169 
G01 X21.7128 Y36.9626 
G01 X21.6134 Y37.0290 
G01 X3.6134 Y55.0290 
G01 X3.5290 Y55.1134 
G01 X3.4626 Y55.2128 
G01 X3.4169 Y55.3231 
G01 X3.3936 Y55.4403 
G01 X3.3936 Y61.5597 
G01 X3.4169 Y61.6769 
G01 X3.4626 Y61.7872 
G01 X3.5290 Y61.8866 
G01 X5.0290 Y63.3866 
G01 X5.1134 Y63.4710 
G01 X5.2128 Y63.5374 
G01 X5.3231 Y63.5831 
G01 X5.4403 Y63.6064 
G01 X14.5597 Y63.6064 
G01 X14.6769 Y63.5831 
G01 X14.7872 Y63.5374 
G01 X14.8866 Y63.4710 
G01 X16.3340 Y62.0236 
G01 X16.6966 Y62.0236 
G01 X17.3196 Y61.4006 
G01 X17.3196 Y60.5194 
G01 X17.1064 Y60.3062 
G01 X17.1064 Y56.5338 
G01 X17.3196 Y56.3206 
G01 X17.3196 Y55.4394 
G01 X16.6966 Y54.8164 
G01 X15.8154 Y54.8164 
G01 X15.1924 Y55.4394 
G01 X15.1924 Y56.3206 
G01 X15.8154 Y56.9436 
G01 X15.8936 Y56.9436 
G01 X15.8936 Y59.8964 
G01 X15.8154 Y59.8964 
G01 X15.1924 Y60.5194 
G01 X15.1924 Y61.4006 
G01 X14.2488 Y62.3936 
G01 X5.7512 Y62.3936 
G01 X4.6064 Y61.2488 
G01 X4.6064 Y55.7512 
G01 X22.2512 Y38.1064 
G01 X49.2488 Y38.1064 
G01 X51.6134 Y40.4710 
G01 X51.7128 Y40.5374 
G01 X51.8231 Y40.5831 
G01 X51.9403 Y40.6064 
G01 X55.1463 Y40.6064 
G01 X55.1615 Y40.7024 
G01 X55.2160 Y40.8702 
G01 X55.2961 Y41.0274 
G01 X55.3998 Y41.1701 
G01 X55.5245 Y41.2949 
G01 X55.6672 Y41.3986 
G01 X55.8244 Y41.4786 
G01 X55.9922 Y41.5331 
G01 X56.1664 Y41.5607 
G01 X58.1336 Y41.5607 
G01 X58.3078 Y41.5331 
G01 X58.4756 Y41.4786 
G01 X58.6328 Y41.3986 
G01 X58.7755 Y41.2949 
G01 X58.9002 Y41.1701 
G01 X59.0039 Y41.0274 
G01 X59.0840 Y40.8702 
G01 X59.1385 Y40.7024 
G01 X59.1661 Y40.5282 
G01 X59.1661 Y40.3518 
G01 X59.1385 Y40.1776 
G01 X59.0840 Y40.0098 
G01 X59.0039 Y39.8526 
G01 X58.9002 Y39.7099 
G01 X58.7755 Y39.5851 
G01 X58.6328 Y39.4814 
G01 X58.4756 Y39.4014 
G01 X58.3078 Y39.3468 
G01 X58.1336 Y39.3192 
G01 X56.1664 Y39.3192 
G01 X55.9922 Y39.3468 
G01 X55.8483 Y39.3936 
G01 X52.2512 Y39.3936 
G01 X49.9710 Y37.1134 
G01 X49.8866 Y37.0290 
G01 X49.7872 Y36.9626 
G01 X49.6769 Y36.9169 
G01 X49.5597 Y36.8936 
G00 Z2.0000 
G00 X51.3030 Y44.3286 
G01 Z-0.0800 F20.00 
G01 X51.1950 Y44.4903 F80.00 
G01 X51.1205 Y44.6700 
G01 X51.0826 Y44.8607 
G01 X51.0826 Y46.0598 
G01 X50.6134 Y46.5290 
G01 X50.5290 Y46.6134 
G01 X50.4626 Y46.7128 
G01 X50.4169 Y46.8231 
G01 X50.3936 Y46.9403 
G01 X50.3936 Y47.2488 
G01 X48.7488 Y48.8936 
G01 X19.9403 Y48.8936 
G01 X19.8231 Y48.9169 
G01 X19.7128 Y48.9626 
G01 X19.6134 Y49.0290 
G01 X19.5290 Y49.1134 
G01 X13.8260 Y54.8164 
G01 X13.2754 Y54.8164 
G01 X12.6524 Y55.4394 
G01 X12.6524 Y56.3206 
G01 X12.8936 Y56.5618 
G01 X12.8936 Y60.2782 
G01 X12.6524 Y60.5194 
G01 X12.6524 Y61.4006 
G01 X13.2754 Y62.0236 
G01 X14.1566 Y62.0236 
G01 X14.7796 Y61.4006 
G01 X14.7796 Y60.5194 
G01 X14.1566 Y59.8964 
G01 X14.1064 Y59.8964 
G01 X14.1064 Y56.9436 
G01 X14.1566 Y56.9436 
G01 X14.7796 Y56.3206 
G01 X14.7796 Y55.5780 
G01 X20.2512 Y50.1064 
G01 X49.0597 Y50.1064 
G01 X49.1769 Y50.0831 
G01 X49.2872 Y50.0374 
G01 X49.3866 Y49.9710 
G01 X49.4710 Y49.8866 
G01 X51.4710 Y47.8866 
G01 X51.5374 Y47.7872 
G01 X51.5831 Y47.6769 
G01 X51.6064 Y47.5597 
G01 X51.6064 Y47.3587 
G01 X51.7820 Y47.4315 
G01 X51.9727 Y47.4694 
G01 X52.1673 Y47.4694 
G01 X52.3580 Y47.4315 
G01 X52.5377 Y47.3570 
G01 X52.6994 Y47.2490 
G01 X52.8370 Y47.1114 
G01 X52.9450 Y46.9497 
G01 X53.0195 Y46.7700 
G01 X53.0574 Y46.5793 
G01 X53.0574 Y44.8607 
G01 X53.0195 Y44.6700 
G01 X52.9450 Y44.4903 
G01 X52.8370 Y44.3286 
G01 X52.6994 Y44.1910 
G01 X52.5377 Y44.0830 
G01 X52.3580 Y44.0085 
G01 X52.1673 Y43.9706 
G01 X51.9727 Y43.9706 
G01 X51.7820 Y44.0085 
G01 X51.6023 Y44.0830 
G01 X51.4406 Y44.1910 
G01 X51.3030 Y44.3286 
G00 Z2.0000 
G00 X51.3030 Y49.4086 
G01 Z-0.0800 F20.00 
G01 X51.1950 Y49.5703 F80.00 
G01 X51.1205 Y49.7500 
G01 X51.0826 Y49.9407 
G01 X51.0826 Y50.3936 
G01 X23.4403 Y50.3936 
G01 X23.3231 Y50.4169 
G01 X23.2128 Y50.4626 
G01 X23.1134 Y50.5290 
G01 X18.8260 Y54.8164 
G01 X18.3554 Y54.8164 
G01 X17.7324 Y55.4394 
G01 X17.7324 Y56.3206 
G01 X18.3554 Y56.9436 
G01 X18.3936 Y56.9436 
G01 X18.3936 Y59.8964 
G01 X18.3554 Y59.8964 
G01 X17.7324 Y60.5194 
G01 X17.7324 Y61.4006 
G01 X18.3554 Y62.0236 
G01 X19.2366 Y62.0236 
G01 X19.8596 Y61.4006 
G01 X19.8596 Y60.5194 
G01 X19.6064 Y60.2662 
G01 X19.6064 Y56.5738 
G01 X19.8596 Y56.3206 
G01 X19.8596 Y55.4980 
G01 X23.7512 Y51.6064 
G01 X51.0826 Y51.6064 
G01 X51.0826 Y51.6593 
G01 X51.1205 Y51.8500 
G01 X51.1950 Y52.0297 
G01 X51.3030 Y52.1914 
G01 X51.4406 Y52.3290 
G01 X51.6023 Y52.4370 
G01 X51.7820 Y52.5115 
G01 X51.9727 Y52.5494 
G01 X52.1673 Y52.5494 
G01 X52.3580 Y52.5115 
G01 X52.5377 Y52.4370 
G01 X52.6994 Y52.3290 
G01 X52.8370 Y52.1914 
G01 X52.9450 Y52.0297 
G01 X53.0195 Y51.8500 
G01 X53.0574 Y51.6593 
G01 X53.0574 Y49.9407 
G01 X53.0195 Y49.7500 
G01 X52.9450 Y49.5703 
G01 X52.8370 Y49.4086 
G01 X52.6994 Y49.2710 
G01 X52.5377 Y49.1630 
G01 X52.3580 Y49.0885 
G01 X52.1673 Y49.0506 
G01 X51.9727 Y49.0506 
G01 X51.7820 Y49.0885 
G01 X51.6023 Y49.1630 
G01 X51.4406 Y49.2710 
G01 X51.3030 Y49.4086 
G00 Z2.0000 
G00 X51.3030 Y54.4886 
G01 Z-0.0800 F20.00 
G01 X51.1950 Y54.6503 F80.00 
G01 X51.1205 Y54.8300 
G01 X51.1079 Y54.8936 
G01 X48.2512 Y54.8936 
G01 X46.9710 Y53.6134 
G01 X46.8866 Y53.5290 
G01 X46.7872 Y53.4626 
G01 X46.6769 Y53.4169 
G01 X46.5597 Y53.3936 
G01 X22.9403 Y53.3936 
G01 X22.8231 Y53.4169 
G01 X22.7128 Y53.4626 
G01 X22.6134 Y53.5290 
G01 X21.3260 Y54.8164 
G01 X20.8954 Y54.8164 
G01 X20.2724 Y55.4394 
G01 X20.2724 Y56.3206 
G01 X20.8936 Y56.9418 
G01 X20.8936 Y59.8982 
G01 X20.2724 Y60.5194 
G01 X20.2724 Y61.4006 
G01 X20.8954 Y62.0236 
G01 X21.7766 Y62.0236 
G01 X22.3996 Y61.4006 
G01 X22.3996 Y60.5194 
G01 X22.1064 Y60.2262 
G01 X22.1064 Y56.6138 
G01 X22.3996 Y56.3206 
G01 X22.3996 Y55.4580 
G01 X23.2512 Y54.6064 
G01 X46.2488 Y54.6064 
G01 X47.6134 Y55.9710 
G01 X47.7128 Y56.0374 
G01 X47.8231 Y56.0831 
G01 X47.9403 Y56.1064 
G01 X51.0826 Y56.1064 
G01 X51.0826 Y56.7392 
G01 X51.1205 Y56.9300 
G01 X51.1950 Y57.1097 
G01 X51.3030 Y57.2714 
G01 X51.4406 Y57.4090 
G01 X51.6023 Y57.5170 
G01 X51.7820 Y57.5915 
G01 X51.9727 Y57.6294 
G01 X52.1673 Y57.6294 
G01 X52.3580 Y57.5915 
G01 X52.5377 Y57.5170 
G01 X52.6994 Y57.4090 
G01 X52.8370 Y57.2714 
G01 X52.9450 Y57.1097 
G01 X53.0195 Y56.9300 
G01 X53.0574 Y56.7392 
G01 X53.0574 Y55.0207 
G01 X53.0195 Y54.8300 
G01 X52.9450 Y54.6503 
G01 X52.8370 Y54.4886 
G01 X52.6994 Y54.3510 
G01 X52.5377 Y54.2430 
G01 X52.3580 Y54.1685 
G01 X52.1673 Y54.1306 
G01 X51.9727 Y54.1306 
G01 X51.7820 Y54.1685 
G01 X51.6023 Y54.2430 
G01 X51.4406 Y54.3510 
G01 X51.3030 Y54.4886 
G00 Z2.0000 
G00 X51.3030 Y59.5686 
G01 Z-0.0800 F20.00 
G01 X51.1950 Y59.7303 F80.00 
G01 X51.1273 Y59.8936 
G01 X48.2512 Y59.8936 
G01 X46.9710 Y58.6134 
G01 X46.8866 Y58.5290 
G01 X46.7872 Y58.4626 
G01 X46.6769 Y58.4169 
G01 X46.5597 Y58.3936 
G01 X44.9403 Y58.3936 
G01 X44.8231 Y58.4169 
G01 X44.7128 Y58.4626 
G01 X44.6134 Y58.5290 
G01 X44.1064 Y59.0360 
G01 X44.1064 Y56.4578 
G01 X44.2436 Y56.3206 
G01 X44.2436 Y55.4394 
G01 X43.6206 Y54.8164 
G01 X42.7394 Y54.8164 
G01 X42.1164 Y55.4394 
G01 X42.1164 Y56.3206 
G01 X42.7394 Y56.9436 
G01 X42.8936 Y56.9436 
G01 X42.8936 Y59.8964 
G01 X42.7394 Y59.8964 
G01 X42.1164 Y60.5194 
G01 X42.1164 Y61.4006 
G01 X42.7394 Y62.0236 
G01 X43.6206 Y62.0236 
G01 X44.2436 Y61.4006 
G01 X44.2436 Y60.6140 
G01 X45.2512 Y59.6064 
G01 X46.2488 Y59.6064 
G01 X47.6134 Y60.9710 
G01 X47.7128 Y61.0374 
G01 X47.8231 Y61.0831 
G01 X47.9403 Y61.1064 
G01 X51.0826 Y61.1064 
G01 X51.0826 Y61.8192 
G01 X51.1205 Y62.0100 
G01 X51.1950 Y62.1897 
G01 X51.3030 Y62.3514 
G01 X51.4406 Y62.4890 
G01 X51.6023 Y62.5970 
G01 X51.7820 Y62.6715 
G01 X51.9727 Y62.7094 
G01 X52.1673 Y62.7094 
G01 X52.3580 Y62.6715 
G01 X52.5377 Y62.5970 
G01 X52.6994 Y62.4890 
G01 X52.8370 Y62.3514 
G01 X52.9450 Y62.1897 
G01 X53.0195 Y62.0100 
G01 X53.0574 Y61.8192 
G01 X53.0574 Y60.1007 
G01 X53.0195 Y59.9100 
G01 X52.9450 Y59.7303 
G01 X52.8370 Y59.5686 
G01 X52.6994 Y59.4310 
G01 X52.5377 Y59.3230 
G01 X52.3580 Y59.2485 
G01 X52.1673 Y59.2106 
G01 X51.9727 Y59.2106 
G01 X51.7820 Y59.2485 
G01 X51.6023 Y59.3230 
G01 X51.4406 Y59.4310 
G01 X51.3030 Y59.5686 
G00 Z2.0000 
G00 X52.7488 Y59.1064 
G01 Z-0.0800 F20.00 
G01 X53.6426 Y60.0002 F80.00 
G01 X53.6226 Y60.1007 
G01 X53.6226 Y61.8192 
G01 X53.6559 Y61.9865 
G01 X52.7488 Y62.8936 
G01 X48.7512 Y62.8936 
G01 X46.7836 Y60.9260 
G01 X46.7836 Y60.5194 
G01 X46.1606 Y59.8964 
G01 X45.2794 Y59.8964 
G01 X44.6564 Y60.5194 
G01 X44.6564 Y61.4006 
G01 X45.2794 Y62.0236 
G01 X46.1606 Y62.0236 
G01 X48.1134 Y63.9710 
G01 X48.2128 Y64.0374 
G01 X48.3231 Y64.0831 
G01 X48.4403 Y64.1064 
G01 X53.0597 Y64.1064 
G01 X53.1769 Y64.0831 
G01 X53.2872 Y64.0374 
G01 X53.3866 Y63.9710 
G01 X54.6482 Y62.7094 
G01 X54.7073 Y62.7094 
G01 X54.8980 Y62.6715 
G01 X55.0777 Y62.5970 
G01 X55.2394 Y62.4890 
G01 X55.3770 Y62.3514 
G01 X55.4850 Y62.1897 
G01 X55.5595 Y62.0100 
G01 X55.5974 Y61.8192 
G01 X55.5974 Y60.1007 
G01 X55.5595 Y59.9100 
G01 X55.4850 Y59.7303 
G01 X55.3770 Y59.5686 
G01 X55.2394 Y59.4310 
G01 X55.0777 Y59.3230 
G01 X54.8980 Y59.2485 
G01 X54.7073 Y59.2106 
G01 X54.5682 Y59.2106 
G01 X53.4710 Y58.1134 
G01 X53.3866 Y58.0290 
G01 X53.2872 Y57.9626 
G01 X53.1769 Y57.9169 
G01 X53.0597 Y57.8936 
G01 X48.7512 Y57.8936 
G01 X46.7836 Y55.9260 
G01 X46.7836 Y55.4394 
G01 X46.1606 Y54.8164 
G01 X45.2794 Y54.8164 
G01 X44.6564 Y55.4394 
G01 X44.6564 Y56.3206 
G01 X45.2794 Y56.9436 
G01 X46.0860 Y56.9436 
G01 X48.1134 Y58.9710 
G01 X48.2128 Y59.0374 
G01 X48.3231 Y59.0831 
G01 X48.4403 Y59.1064 
G01 X52.7488 Y59.1064 
G00 Z2.0000 
G00 X41.1064 Y59.9222 
G01 Z-0.0800 F20.00 
G01 X41.1064 Y56.9178 F80.00 
G01 X41.7036 Y56.3206 
G01 X41.7036 Y55.4394 
G01 X41.0806 Y54.8164 
G01 X40.1994 Y54.8164 
G01 X39.5764 Y55.4394 
G01 X39.5764 Y56.3206 
G01 X39.8936 Y56.6378 
G01 X39.8936 Y60.2022 
G01 X39.5764 Y60.5194 
G01 X39.5764 Y61.4006 
G01 X40.1994 Y62.0236 
G01 X41.0806 Y62.0236 
G01 X41.7036 Y61.4006 
G01 X41.7036 Y60.5194 
G01 X41.1064 Y59.9222 
G00 Z2.0000 
G00 X39.1636 Y60.5194 
G01 Z-0.0800 F20.00 
G01 X38.6064 Y59.9622 F80.00 
G01 X38.6064 Y56.8778 
G01 X39.1636 Y56.3206 
G01 X39.1636 Y55.4394 
G01 X38.5406 Y54.8164 
G01 X37.6594 Y54.8164 
G01 X37.0364 Y55.4394 
G01 X37.0364 Y56.3206 
G01 X37.3936 Y56.6778 
G01 X37.3936 Y60.1622 
G01 X37.0364 Y60.5194 
G01 X37.0364 Y61.4006 
G01 X37.6594 Y62.0236 
G01 X38.5406 Y62.0236 
G01 X39.1636 Y61.4006 
G01 X39.1636 Y60.5194 
G00 Z2.0000 
G00 X36.6236 Y60.5194 
G01 Z-0.0800 F20.00 
G01 X36.1064 Y60.0022 F80.00 
G01 X36.1064 Y56.8378 
G01 X36.6236 Y56.3206 
G01 X36.6236 Y55.4394 
G01 X36.0006 Y54.8164 
G01 X35.1194 Y54.8164 
G01 X34.4964 Y55.4394 
G01 X34.4964 Y56.3206 
G01 X34.8936 Y56.7178 
G01 X34.8936 Y60.1222 
G01 X34.4964 Y60.5194 
G01 X34.4964 Y61.4006 
G01 X35.1194 Y62.0236 
G01 X36.0006 Y62.0236 
G01 X36.6236 Y61.4006 
G01 X36.6236 Y60.5194 
G00 Z2.0000 
G00 X34.0836 Y60.5194 
G01 Z-0.0800 F20.00 
G01 X33.6064 Y60.0422 F80.00 
G01 X33.6064 Y56.7978 
G01 X34.0836 Y56.3206 
G01 X34.0836 Y55.4394 
G01 X33.4606 Y54.8164 
G01 X32.5794 Y54.8164 
G01 X31.9564 Y55.4394 
G01 X31.9564 Y56.3206 
G01 X32.3936 Y56.7578 
G01 X32.3936 Y60.0822 
G01 X31.9564 Y60.5194 
G01 X31.9564 Y61.4006 
G01 X32.5794 Y62.0236 
G01 X33.4606 Y62.0236 
G01 X34.0836 Y61.4006 
G01 X34.0836 Y60.5194 
G00 Z2.0000 
G00 X31.5436 Y60.5194 
G01 Z-0.0800 F20.00 
G01 X31.1064 Y60.0822 F80.00 
G01 X31.1064 Y56.7578 
G01 X31.5436 Y56.3206 
G01 X31.5436 Y55.4394 
G01 X30.9206 Y54.8164 
G01 X30.0394 Y54.8164 
G01 X29.4164 Y55.4394 
G01 X29.4164 Y56.3206 
G01 X29.8936 Y56.7978 
G01 X29.8936 Y60.0422 
G01 X29.4164 Y60.5194 
G01 X29.4164 Y61.4006 
G01 X30.0394 Y62.0236 
G01 X30.9206 Y62.0236 
G01 X31.5436 Y61.4006 
G01 X31.5436 Y60.5194 
G00 Z2.0000 
G00 X29.0036 Y60.5194 
G01 Z-0.0800 F20.00 
G01 X28.6064 Y60.1222 F80.00 
G01 X28.6064 Y56.7178 
G01 X29.0036 Y56.3206 
G01 X29.0036 Y55.4394 
G01 X28.3806 Y54.8164 
G01 X27.4994 Y54.8164 
G01 X26.8764 Y55.4394 
G01 X26.8764 Y56.3206 
G01 X27.3936 Y56.8378 
G01 X27.3936 Y60.0022 
G01 X26.8764 Y60.5194 
G01 X26.8764 Y61.4006 
G01 X27.4994 Y62.0236 
G01 X28.3806 Y62.0236 
G01 X29.0036 Y61.4006 
G01 X29.0036 Y60.5194 
G00 Z2.0000 
G00 X24.9396 Y60.5194 
G01 Z-0.0800 F20.00 
G01 X24.6064 Y60.1862 F80.00 
G01 X24.6064 Y56.6538 
G01 X24.9396 Y56.3206 
G01 X24.9396 Y55.4394 
G01 X24.3166 Y54.8164 
G01 X23.4354 Y54.8164 
G01 X22.8124 Y55.4394 
G01 X22.8124 Y56.3206 
G01 X23.3936 Y56.9018 
G01 X23.3936 Y59.9382 
G01 X22.8124 Y60.5194 
G01 X22.8124 Y61.4006 
G01 X23.4354 Y62.0236 
G01 X24.3166 Y62.0236 
G01 X24.9396 Y61.4006 
G01 X24.9396 Y60.5194 
G00 Z2.0000 
G00 X12.2396 Y60.5194 
G01 Z-0.0800 F20.00 
G01 X12.1064 Y60.3862 F80.00 
G01 X12.1064 Y56.4538 
G01 X12.2396 Y56.3206 
G01 X12.2396 Y55.4394 
G01 X11.6166 Y54.8164 
G01 X10.7354 Y54.8164 
G01 X10.1124 Y55.4394 
G01 X10.1124 Y56.3206 
G01 X10.7354 Y56.9436 
G01 X10.8936 Y56.9436 
G01 X10.8936 Y59.8964 
G01 X10.7354 Y59.8964 
G01 X10.1124 Y60.5194 
G01 X10.1124 Y61.4006 
G01 X10.7354 Y62.0236 
G01 X11.6166 Y62.0236 
G01 X12.2396 Y61.4006 
G01 X12.2396 Y60.5194 
G00 Z2.0000 
G00 X9.6996 Y60.5194 
G01 Z-0.0800 F20.00 
G01 X9.1064 Y59.9262 F80.00 
G01 X9.1064 Y56.9138 
G01 X9.6996 Y56.3206 
G01 X9.6996 Y55.4394 
G01 X9.0766 Y54.8164 
G01 X8.1954 Y54.8164 
G01 X7.5724 Y55.4394 
G01 X7.5724 Y56.3206 
G01 X7.8936 Y56.6418 
G01 X7.8936 Y60.1982 
G01 X7.5724 Y60.5194 
G01 X7.5724 Y61.4006 
G01 X8.1954 Y62.0236 
G01 X9.0766 Y62.0236 
G01 X9.6996 Y61.4006 
G01 X9.6996 Y60.5194 
G00 Z2.0000 
G00 X7.1596 Y60.5194 
G01 Z-0.0800 F20.00 
G01 X6.6064 Y59.9662 F80.00 
G01 X6.6064 Y56.8738 
G01 X7.1596 Y56.3206 
G01 X7.1596 Y55.4394 
G01 X6.5366 Y54.8164 
G01 X5.6554 Y54.8164 
G01 X5.0324 Y55.4394 
G01 X5.0324 Y56.3206 
G01 X5.3936 Y56.6818 
G01 X5.3936 Y60.1582 
G01 X5.0324 Y60.5194 
G01 X5.0324 Y61.4006 
G01 X5.6554 Y62.0236 
G01 X6.5366 Y62.0236 
G01 X7.1596 Y61.4006 
G01 X7.1596 Y60.5194 
G00 Z2.0000 
G00 X12.6561 Y5.7792 
G01 Z-0.0800 F20.00 
G01 X12.5537 Y5.9201 F80.00 
G01 X12.4747 Y6.0753 
G01 X12.4208 Y6.2409 
G01 X12.3936 Y6.4129 
G01 X12.3936 Y13.5871 
G01 X12.4208 Y13.7591 
G01 X12.4747 Y13.9247 
G01 X12.5537 Y14.0799 
G01 X12.6561 Y14.2208 
G01 X12.7792 Y14.3439 
G01 X34.2792 Y35.8439 
G01 X34.4201 Y35.9463 
G01 X34.5753 Y36.0253 
G01 X34.7409 Y36.0792 
G01 X34.9129 Y36.1064 
G01 X54.7764 Y36.1064 
G01 X54.7979 Y36.1584 
G01 X54.9042 Y36.3424 
G01 X55.0335 Y36.5109 
G01 X55.1837 Y36.6612 
G01 X55.3523 Y36.7905 
G01 X55.5363 Y36.8967 
G01 X55.7326 Y36.9780 
G01 X55.9378 Y37.0330 
G01 X56.1484 Y37.0607 
G01 X58.1516 Y37.0607 
G01 X58.3622 Y37.0330 
G01 X58.5674 Y36.9780 
G01 X58.7637 Y36.8967 
G01 X58.8936 Y36.8217 
G01 X58.8936 Y39.0583 
G01 X58.7637 Y38.9833 
G01 X58.5674 Y38.9020 
G01 X58.3622 Y38.8470 
G01 X58.1516 Y38.8192 
G01 X56.1484 Y38.8192 
G01 X55.9378 Y38.8470 
G01 X55.7638 Y38.8936 
G01 X52.4583 Y38.8936 
G01 X50.3439 Y36.7792 
G01 X50.2208 Y36.6561 
G01 X50.0799 Y36.5537 
G01 X49.9247 Y36.4747 
G01 X49.7591 Y36.4208 
G01 X49.5871 Y36.3936 
G01 X21.9129 Y36.3936 
G01 X21.7409 Y36.4208 
G01 X21.5753 Y36.4747 
G01 X21.4201 Y36.5537 
G01 X21.2792 Y36.6561 
G01 X3.2792 Y54.6561 
G01 X3.1561 Y54.7792 
G01 X3.0537 Y54.9201 
G01 X2.9747 Y55.0753 
G01 X2.9208 Y55.2409 
G01 X2.8936 Y55.4129 
G01 X2.8936 Y61.5871 
G01 X2.9208 Y61.7591 
G01 X2.9747 Y61.9247 
G01 X3.0537 Y62.0799 
G01 X3.1561 Y62.2208 
G01 X4.6561 Y63.7208 
G01 X4.7792 Y63.8439 
G01 X4.9201 Y63.9463 
G01 X5.0753 Y64.0253 
G01 X5.2409 Y64.0792 
G01 X5.4129 Y64.1064 
G01 X14.5871 Y64.1064 
G01 X14.7591 Y64.0792 
G01 X14.9247 Y64.0253 
G01 X15.0799 Y63.9463 
G01 X15.2208 Y63.8439 
G01 X16.5411 Y62.5236 
G01 X16.9037 Y62.5236 
G01 X17.5260 Y61.9013 
G01 X18.1483 Y62.5236 
G01 X19.4437 Y62.5236 
G01 X20.0660 Y61.9013 
G01 X20.6883 Y62.5236 
G01 X21.9837 Y62.5236 
G01 X22.6060 Y61.9013 
G01 X23.2283 Y62.5236 
G01 X24.5237 Y62.5236 
G01 X25.4396 Y61.6077 
G01 X25.4396 Y60.3123 
G01 X25.1064 Y59.9791 
G01 X25.1064 Y56.8609 
G01 X25.4396 Y56.5277 
G01 X25.4396 Y55.2323 
G01 X25.3137 Y55.1064 
G01 X26.5023 Y55.1064 
G01 X26.3764 Y55.2323 
G01 X26.3764 Y56.5277 
G01 X26.8936 Y57.0449 
G01 X26.8936 Y59.7951 
G01 X26.3764 Y60.3123 
G01 X26.3764 Y61.6077 
G01 X27.2923 Y62.5236 
G01 X28.5877 Y62.5236 
G01 X29.2100 Y61.9013 
G01 X29.8323 Y62.5236 
G01 X31.1277 Y62.5236 
G01 X31.7500 Y61.9013 
G01 X32.3723 Y62.5236 
G01 X33.6677 Y62.5236 
G01 X34.2900 Y61.9013 
G01 X34.9123 Y62.5236 
G01 X36.2077 Y62.5236 
G01 X36.8300 Y61.9013 
G01 X37.4523 Y62.5236 
G01 X38.7477 Y62.5236 
G01 X39.3700 Y61.9013 
G01 X39.9923 Y62.5236 
G01 X41.2877 Y62.5236 
G01 X41.9100 Y61.9013 
G01 X42.5323 Y62.5236 
G01 X43.8277 Y62.5236 
G01 X44.4500 Y61.9013 
G01 X45.0723 Y62.5236 
G01 X45.9589 Y62.5236 
G01 X47.7792 Y64.3439 
G01 X47.9201 Y64.4463 
G01 X48.0753 Y64.5253 
G01 X48.2409 Y64.5792 
G01 X48.4129 Y64.6064 
G01 X53.0871 Y64.6064 
G01 X53.2591 Y64.5792 
G01 X53.4247 Y64.5253 
G01 X53.5799 Y64.4463 
G01 X53.7208 Y64.3439 
G01 X54.8794 Y63.1853 
G01 X54.9583 Y63.1728 
G01 X55.1810 Y63.1004 
G01 X55.3896 Y62.9941 
G01 X55.5790 Y62.8565 
G01 X55.7445 Y62.6910 
G01 X55.8800 Y62.5045 
G01 X56.0155 Y62.6910 
G01 X56.1810 Y62.8565 
G01 X56.3704 Y62.9941 
G01 X56.5790 Y63.1004 
G01 X56.8017 Y63.1728 
G01 X57.0329 Y63.2094 
G01 X57.1447 Y63.2094 
G01 X58.1561 Y64.2208 
G01 X58.2792 Y64.3439 
G01 X58.4201 Y64.4463 
G01 X58.5753 Y64.5253 
G01 X58.7409 Y64.5792 
G01 X58.9129 Y64.6064 
G01 X60.5871 Y64.6064 
G01 X60.7591 Y64.5792 
G01 X60.9247 Y64.5253 
G01 X61.0799 Y64.4463 
G01 X61.2208 Y64.3439 
G01 X62.2208 Y63.3439 
G01 X62.3439 Y63.2208 
G01 X62.4463 Y63.0799 
G01 X62.5253 Y62.9247 
G01 X62.5792 Y62.7591 
G01 X62.6064 Y62.5871 
G01 X62.6064 Y24.4129 
G01 X62.5792 Y24.2409 
G01 X62.5253 Y24.0753 
G01 X62.4463 Y23.9201 
G01 X62.3439 Y23.7792 
G01 X59.5668 Y21.0021 
G01 X59.5834 Y20.9621 
G01 X59.6384 Y20.7569 
G01 X59.6661 Y20.5462 
G01 X59.6661 Y20.3338 
G01 X59.6384 Y20.1231 
G01 X59.5834 Y19.9179 
G01 X59.5021 Y19.7216 
G01 X59.3958 Y19.5376 
G01 X59.2665 Y19.3691 
G01 X59.1163 Y19.2188 
G01 X58.9477 Y19.0895 
G01 X58.7637 Y18.9833 
G01 X58.5674 Y18.9020 
G01 X58.3622 Y18.8470 
G01 X58.1516 Y18.8193 
G01 X58.1064 Y18.8193 
G01 X58.1064 Y17.0607 
G01 X58.1516 Y17.0607 
G01 X58.3622 Y17.0330 
G01 X58.5674 Y16.9780 
G01 X58.7637 Y16.8967 
G01 X58.9477 Y16.7905 
G01 X59.1163 Y16.6612 
G01 X59.2665 Y16.5109 
G01 X59.3958 Y16.3424 
G01 X59.5021 Y16.1584 
G01 X59.5834 Y15.9621 
G01 X59.6384 Y15.7569 
G01 X59.6661 Y15.5462 
G01 X59.6661 Y15.3338 
G01 X59.6384 Y15.1231 
G01 X59.5834 Y14.9179 
G01 X59.5021 Y14.7216 
G01 X59.3958 Y14.5376 
G01 X59.2665 Y14.3691 
G01 X59.1163 Y14.2188 
G01 X58.9477 Y14.0895 
G01 X58.7637 Y13.9833 
G01 X58.5674 Y13.9020 
G01 X58.3622 Y13.8470 
G01 X58.1516 Y13.8193 
G01 X56.1484 Y13.8193 
G01 X55.9378 Y13.8470 
G01 X55.7638 Y13.8936 
G01 X46.7377 Y13.8936 
G01 X47.2836 Y13.3477 
G01 X47.2836 Y12.0523 
G01 X47.1064 Y11.8751 
G01 X47.1064 Y8.4449 
G01 X47.2836 Y8.2677 
G01 X47.2836 Y6.9723 
G01 X46.3677 Y6.0564 
G01 X46.1211 Y6.0564 
G01 X44.7208 Y4.6561 
G01 X44.5799 Y4.5537 
G01 X44.4247 Y4.4747 
G01 X44.2591 Y4.4208 
G01 X44.0871 Y4.3936 
G01 X14.4129 Y4.3936 
G01 X14.2409 Y4.4208 
G01 X14.0753 Y4.4747 
G01 X13.9201 Y4.5537 
G01 X13.7792 Y4.6561 
G01 X13.6561 Y4.7792 
G01 X12.6561 Y5.7792 
G00 Z2.0000 
G00 X16.4377 Y6.6064 
G01 Z-0.0800 F20.00 
G01 X16.5823 Y6.6064 F80.00 
G01 X16.5100 Y6.6787 
G01 X16.4377 Y6.6064 
G00 Z2.0000 
G00 X16.6064 Y8.6577 
G01 Z-0.0800 F20.00 
G01 X16.8936 Y8.9449 F80.00 
G01 X16.8936 Y11.3751 
G01 X16.6064 Y11.6623 
G01 X16.6064 Y8.6577 
G00 Z2.0000 
G00 X19.1064 Y8.6177 
G01 Z-0.0800 F20.00 
G01 X19.3936 Y8.9049 F80.00 
G01 X19.3936 Y11.4151 
G01 X19.1064 Y11.7023 
G01 X19.1064 Y8.6177 
G00 Z2.0000 
G00 X19.0500 Y6.6787 
G01 Z-0.0800 F20.00 
G01 X18.9777 Y6.6064 F80.00 
G01 X19.1223 Y6.6064 
G01 X19.0500 Y6.6787 
G00 Z2.0000 
G00 X21.5177 Y6.6064 
G01 Z-0.0800 F20.00 
G01 X21.6623 Y6.6064 F80.00 
G01 X21.5900 Y6.6787 
G01 X21.5177 Y6.6064 
G00 Z2.0000 
G00 X21.6064 Y8.5777 
G01 Z-0.0800 F20.00 
G01 X21.8936 Y8.8649 F80.00 
G01 X21.8936 Y11.4551 
G01 X21.6064 Y11.7423 
G01 X21.6064 Y8.5777 
G00 Z2.0000 
G00 X24.1064 Y8.5849 
G01 Z-0.0800 F20.00 
G01 X24.1300 Y8.5613 F80.00 
G01 X24.3936 Y8.8249 
G01 X24.3936 Y11.4951 
G01 X24.1300 Y11.7587 
G01 X24.1064 Y8.5849 
G00 Z2.0000 
G00 X24.1300 Y6.6787 
G01 Z-0.0800 F20.00 
G01 X24.0577 Y6.6064 F80.00 
G01 X24.2023 Y6.6064 
G01 X24.1300 Y6.6787 
G00 Z2.0000 
G00 X26.5977 Y6.6064 
G01 Z-0.0800 F20.00 
G01 X26.7423 Y6.6064 F80.00 
G01 X26.6700 Y6.6787 
G01 X26.5977 Y6.6064 
G00 Z2.0000 
G00 X26.6700 Y8.5613 
G01 Z-0.0800 F20.00 
G01 X26.8936 Y8.7849 F80.00 
G01 X26.8936 Y11.5351 
G01 X26.6700 Y11.7587 
G01 X26.6064 Y11.6951 
G01 X26.6064 Y8.6249 
G01 X26.6700 Y8.5613 
G00 Z2.0000 
G00 X29.1064 Y8.6649 
G01 Z-0.0800 F20.00 
G01 X29.5036 Y8.2677 F80.00 
G01 X29.5036 Y6.9723 
G01 X29.1377 Y6.6064 
G01 X31.8223 Y6.6064 
G01 X31.4564 Y6.9723 
G01 X31.4564 Y8.2677 
G01 X31.8936 Y8.7049 
G01 X31.8936 Y11.6151 
G01 X31.4564 Y12.0523 
G01 X31.4564 Y13.3477 
G01 X32.0023 Y13.8936 
G01 X28.9577 Y13.8936 
G01 X29.5036 Y13.3477 
G01 X29.5036 Y12.0523 
G01 X29.1064 Y11.6551 
G01 X29.1064 Y8.6649 
G00 Z2.0000 
G00 X34.1064 Y8.7449 
G01 Z-0.0800 F20.00 
G01 X34.2900 Y8.5613 F80.00 
G01 X34.3936 Y8.6649 
G01 X34.3936 Y11.6551 
G01 X34.2900 Y11.7587 
G01 X34.1064 Y11.5751 
G01 X34.1064 Y8.7449 
G00 Z2.0000 
G00 X34.2900 Y6.6787 
G01 Z-0.0800 F20.00 
G01 X34.2177 Y6.6064 F80.00 
G01 X34.3623 Y6.6064 
G01 X34.2900 Y6.6787 
G00 Z2.0000 
G00 X36.8300 Y6.6787 
G01 Z-0.0800 F20.00 
G01 X36.7577 Y6.6064 F80.00 
G01 X36.9023 Y6.6064 
G01 X36.8300 Y6.6787 
G00 Z2.0000 
G00 X36.8300 Y8.5613 
G01 Z-0.0800 F20.00 
G01 X36.8936 Y8.6249 F80.00 
G01 X36.8936 Y11.6951 
G01 X36.8300 Y11.7587 
G01 X36.6064 Y11.5351 
G01 X36.6064 Y8.7849 
G01 X36.8300 Y8.5613 
G00 Z2.0000 
G00 X39.3700 Y8.5613 
G01 Z-0.0800 F20.00 
G01 X39.3936 Y8.5849 F80.00 
G01 X39.3936 Y11.7351 
G01 X39.1064 Y11.4951 
G01 X39.1064 Y8.8249 
G01 X39.3700 Y8.5613 
G00 Z2.0000 
G00 X39.3700 Y6.6787 
G01 Z-0.0800 F20.00 
G01 X39.2977 Y6.6064 F80.00 
G01 X39.4423 Y6.6064 
G01 X39.3700 Y6.6787 
G00 Z2.0000 
G00 X41.9100 Y6.6787 
G01 Z-0.0800 F20.00 
G01 X41.8377 Y6.6064 F80.00 
G01 X41.9823 Y6.6064 
G01 X41.9100 Y6.6787 
G00 Z2.0000 
G00 X41.8936 Y8.5777 
G01 Z-0.0800 F20.00 
G01 X41.8936 Y11.7423 F80.00 
G01 X41.6064 Y11.4551 
G01 X41.6064 Y8.8649 
G01 X41.8936 Y8.5777 
G00 Z2.0000 
G00 X44.1064 Y8.9049 
G01 Z-0.0800 F20.00 
G01 X44.4500 Y8.5613 F80.00 
G01 X44.8936 Y9.0049 
G01 X44.8936 Y11.3151 
G01 X44.4500 Y11.7587 
G01 X44.1064 Y11.4151 
G01 X44.1064 Y8.9049 
G00 Z2.0000 
G00 X44.4500 Y13.6413 
G01 Z-0.0800 F20.00 
G01 X44.7023 Y13.8936 F80.00 
G01 X44.1977 Y13.8936 
G01 X44.4500 Y13.6413 
G00 Z2.0000 
G00 X42.1623 Y13.8936 
G01 Z-0.0800 F20.00 
G01 X41.6577 Y13.8936 F80.00 
G01 X41.9100 Y13.6413 
G01 X42.1623 Y13.8936 
G00 Z2.0000 
G00 X39.6223 Y13.8936 
G01 Z-0.0800 F20.00 
G01 X39.1177 Y13.8936 F80.00 
G01 X39.3700 Y13.6413 
G01 X39.6223 Y13.8936 
G00 Z2.0000 
G00 X37.0823 Y13.8936 
G01 Z-0.0800 F20.00 
G01 X36.5777 Y13.8936 F80.00 
G01 X36.8300 Y13.6413 
G01 X37.0823 Y13.8936 
G00 Z2.0000 
G00 X34.5423 Y13.8936 
G01 Z-0.0800 F20.00 
G01 X34.0377 Y13.8936 F80.00 
G01 X34.2900 Y13.6413 
G01 X34.5423 Y13.8936 
G00 Z2.0000 
G00 X27.4129 Y16.1064 
G01 Z-0.0800 F20.00 
G01 X54.7764 Y16.1064 F80.00 
G01 X54.7979 Y16.1584 
G01 X54.9042 Y16.3424 
G01 X55.0335 Y16.5109 
G01 X55.1837 Y16.6612 
G01 X55.3523 Y16.7905 
G01 X55.5363 Y16.8967 
G01 X55.7326 Y16.9780 
G01 X55.8936 Y17.0212 
G01 X55.8936 Y18.8588 
G01 X55.7326 Y18.9020 
G01 X55.5363 Y18.9833 
G01 X55.3523 Y19.0895 
G01 X55.1837 Y19.2188 
G01 X55.0335 Y19.3691 
G01 X54.9042 Y19.5376 
G01 X54.7979 Y19.7216 
G01 X54.7166 Y19.9179 
G01 X54.6616 Y20.1231 
G01 X54.6339 Y20.3338 
G01 X54.6339 Y20.5462 
G01 X54.6616 Y20.7569 
G01 X54.7166 Y20.9621 
G01 X54.7979 Y21.1584 
G01 X54.9042 Y21.3424 
G01 X55.0335 Y21.5109 
G01 X55.1837 Y21.6612 
G01 X55.3523 Y21.7905 
G01 X55.5363 Y21.8967 
G01 X55.7326 Y21.9780 
G01 X55.9378 Y22.0330 
G01 X56.1484 Y22.0607 
G01 X57.4961 Y22.0607 
G01 X60.3936 Y24.9583 
G01 X60.3936 Y31.8289 
G01 X59.5668 Y31.0021 
G01 X59.5834 Y30.9621 
G01 X59.6384 Y30.7569 
G01 X59.6661 Y30.5462 
G01 X59.6661 Y30.3338 
G01 X59.6384 Y30.1231 
G01 X59.5834 Y29.9179 
G01 X59.5021 Y29.7216 
G01 X59.3958 Y29.5376 
G01 X59.2665 Y29.3691 
G01 X59.1163 Y29.2188 
G01 X58.9477 Y29.0895 
G01 X58.7637 Y28.9833 
G01 X58.5674 Y28.9020 
G01 X58.3622 Y28.8470 
G01 X58.1516 Y28.8193 
G01 X58.1064 Y28.8193 
G01 X58.1064 Y27.0607 
G01 X58.1516 Y27.0607 
G01 X58.3622 Y27.0330 
G01 X58.5674 Y26.9780 
G01 X58.7637 Y26.8967 
G01 X58.9477 Y26.7905 
G01 X59.1163 Y26.6612 
G01 X59.2665 Y26.5109 
G01 X59.3958 Y26.3424 
G01 X59.5021 Y26.1584 
G01 X59.5834 Y25.9621 
G01 X59.6384 Y25.7569 
G01 X59.6661 Y25.5462 
G01 X59.6661 Y25.3338 
G01 X59.6384 Y25.1231 
G01 X59.5834 Y24.9179 
G01 X59.5021 Y24.7216 
G01 X59.3958 Y24.5376 
G01 X59.2665 Y24.3691 
G01 X59.1163 Y24.2188 
G01 X58.9477 Y24.0895 
G01 X58.7637 Y23.9833 
G01 X58.5674 Y23.9020 
G01 X58.3622 Y23.8470 
G01 X58.1516 Y23.8193 
G01 X56.1484 Y23.8193 
G01 X55.9378 Y23.8470 
G01 X55.7638 Y23.8936 
G01 X32.9583 Y23.8936 
G01 X23.3283 Y14.2636 
G01 X23.5077 Y14.2636 
G01 X24.1300 Y13.6413 
G01 X24.7523 Y14.2636 
G01 X25.1989 Y14.2636 
G01 X26.6561 Y15.7208 
G01 X26.7792 Y15.8439 
G01 X26.9201 Y15.9463 
G01 X27.0753 Y16.0253 
G01 X27.2409 Y16.0792 
G01 X27.4129 Y16.1064 
G00 Z2.0000 
G00 X20.1989 Y14.2636 
G01 Z-0.0800 F20.00 
G01 X31.6561 Y25.7208 F80.00 
G01 X31.7792 Y25.8439 
G01 X31.9201 Y25.9463 
G01 X32.0753 Y26.0253 
G01 X32.2409 Y26.0792 
G01 X32.4129 Y26.1064 
G01 X54.7764 Y26.1064 
G01 X54.7979 Y26.1584 
G01 X54.9042 Y26.3424 
G01 X55.0335 Y26.5109 
G01 X55.1837 Y26.6612 
G01 X55.3523 Y26.7905 
G01 X55.5363 Y26.8967 
G01 X55.7326 Y26.9780 
G01 X55.8936 Y27.0212 
G01 X55.8936 Y28.8588 
G01 X55.7326 Y28.9020 
G01 X55.5363 Y28.9833 
G01 X55.3523 Y29.0895 
G01 X55.1837 Y29.2188 
G01 X55.0335 Y29.3691 
G01 X54.9042 Y29.5376 
G01 X54.7979 Y29.7216 
G01 X54.7166 Y29.9179 
G01 X54.6616 Y30.1231 
G01 X54.6339 Y30.3338 
G01 X54.6339 Y30.5462 
G01 X54.6616 Y30.7569 
G01 X54.7166 Y30.9621 
G01 X54.7979 Y31.1584 
G01 X54.9042 Y31.3424 
G01 X55.0335 Y31.5109 
G01 X55.1837 Y31.6612 
G01 X55.3523 Y31.7905 
G01 X55.5363 Y31.8967 
G01 X55.7326 Y31.9780 
G01 X55.9378 Y32.0330 
G01 X56.1484 Y32.0607 
G01 X57.4961 Y32.0607 
G01 X58.8936 Y33.4583 
G01 X58.8936 Y34.0583 
G01 X58.7637 Y33.9833 
G01 X58.5674 Y33.9020 
G01 X58.3622 Y33.8470 
G01 X58.1516 Y33.8192 
G01 X56.1484 Y33.8192 
G01 X55.9378 Y33.8470 
G01 X55.7638 Y33.8936 
G01 X35.4583 Y33.8936 
G01 X15.8283 Y14.2636 
G01 X15.8877 Y14.2636 
G01 X16.5100 Y13.6413 
G01 X17.1323 Y14.2636 
G01 X18.4277 Y14.2636 
G01 X19.0500 Y13.6413 
G01 X19.6723 Y14.2636 
G01 X20.1989 Y14.2636 
G00 Z2.0000 
G00 X22.4583 Y38.6064 
G01 Z-0.0800 F20.00 
G01 X49.0417 Y38.6064 F80.00 
G01 X51.2792 Y40.8439 
G01 X51.4201 Y40.9463 
G01 X51.5753 Y41.0253 
G01 X51.7409 Y41.0792 
G01 X51.9129 Y41.1064 
G01 X54.7764 Y41.1064 
G01 X54.7979 Y41.1584 
G01 X54.9042 Y41.3424 
G01 X55.0335 Y41.5109 
G01 X55.1837 Y41.6612 
G01 X55.3523 Y41.7905 
G01 X55.5363 Y41.8967 
G01 X55.7326 Y41.9780 
G01 X55.9378 Y42.0330 
G01 X56.1484 Y42.0607 
G01 X57.8746 Y42.0607 
G01 X56.6561 Y43.2792 
G01 X56.5537 Y43.4201 
G01 X56.4747 Y43.5753 
G01 X56.4523 Y43.6442 
G01 X56.3704 Y43.6859 
G01 X56.1810 Y43.8235 
G01 X56.0155 Y43.9890 
G01 X55.8800 Y44.1755 
G01 X55.7445 Y43.9890 
G01 X55.5790 Y43.8235 
G01 X55.3896 Y43.6859 
G01 X55.1810 Y43.5796 
G01 X54.9583 Y43.5072 
G01 X54.7271 Y43.4706 
G01 X54.4929 Y43.4706 
G01 X54.2617 Y43.5072 
G01 X54.0390 Y43.5796 
G01 X53.8304 Y43.6859 
G01 X53.6410 Y43.8235 
G01 X53.4755 Y43.9890 
G01 X53.3400 Y44.1755 
G01 X53.2045 Y43.9890 
G01 X53.0390 Y43.8235 
G01 X52.8496 Y43.6859 
G01 X52.6410 Y43.5796 
G01 X52.4183 Y43.5072 
G01 X52.1871 Y43.4706 
G01 X51.9529 Y43.4706 
G01 X51.7217 Y43.5072 
G01 X51.4990 Y43.5796 
G01 X51.2904 Y43.6859 
G01 X51.1010 Y43.8235 
G01 X50.9355 Y43.9890 
G01 X50.7979 Y44.1784 
G01 X50.6916 Y44.3870 
G01 X50.6192 Y44.6097 
G01 X50.5826 Y44.8409 
G01 X50.5826 Y45.8527 
G01 X50.2792 Y46.1561 
G01 X50.1561 Y46.2792 
G01 X50.0537 Y46.4201 
G01 X49.9747 Y46.5753 
G01 X49.9208 Y46.7409 
G01 X49.8936 Y46.9129 
G01 X49.8936 Y47.0417 
G01 X48.5417 Y48.3936 
G01 X19.9129 Y48.3936 
G01 X19.7409 Y48.4208 
G01 X19.5753 Y48.4747 
G01 X19.4201 Y48.5537 
G01 X19.2792 Y48.6561 
G01 X19.1561 Y48.7792 
G01 X13.6189 Y54.3164 
G01 X13.0683 Y54.3164 
G01 X12.4460 Y54.9387 
G01 X11.8237 Y54.3164 
G01 X10.5283 Y54.3164 
G01 X9.9060 Y54.9387 
G01 X9.2837 Y54.3164 
G01 X7.9883 Y54.3164 
G01 X7.3660 Y54.9387 
G01 X6.7460 Y54.3187 
G01 X22.4583 Y38.6064 
G00 Z2.0000 
G00 X22.3289 Y50.6064 
G01 Z-0.0800 F20.00 
G01 X18.6189 Y54.3164 F80.00 
G01 X18.1483 Y54.3164 
G01 X17.5260 Y54.9387 
G01 X16.9037 Y54.3164 
G01 X16.7483 Y54.3164 
G01 X20.4583 Y50.6064 
G01 X22.3289 Y50.6064 
G00 Z2.0000 
G00 X23.1711 Y52.8936 
G01 Z-0.0800 F20.00 
G01 X23.9583 Y52.1064 F80.00 
G01 X50.6829 Y52.1064 
G01 X50.6916 Y52.1330 
G01 X50.7979 Y52.3416 
G01 X50.9355 Y52.5310 
G01 X51.1010 Y52.6965 
G01 X51.2904 Y52.8341 
G01 X51.4990 Y52.9404 
G01 X51.7217 Y53.0128 
G01 X51.9529 Y53.0494 
G01 X52.1871 Y53.0494 
G01 X52.4183 Y53.0128 
G01 X52.6410 Y52.9404 
G01 X52.8496 Y52.8341 
G01 X53.0390 Y52.6965 
G01 X53.2045 Y52.5310 
G01 X53.3400 Y52.3445 
G01 X53.3936 Y52.4183 
G01 X53.3936 Y54.2617 
G01 X53.3400 Y54.3355 
G01 X53.2045 Y54.1490 
G01 X53.0390 Y53.9835 
G01 X52.8496 Y53.8459 
G01 X52.6410 Y53.7396 
G01 X52.4183 Y53.6672 
G01 X52.1871 Y53.6306 
G01 X51.9529 Y53.6306 
G01 X51.7217 Y53.6672 
G01 X51.4990 Y53.7396 
G01 X51.2904 Y53.8459 
G01 X51.1010 Y53.9835 
G01 X50.9355 Y54.1490 
G01 X50.7979 Y54.3384 
G01 X50.7698 Y54.3936 
G01 X48.4583 Y54.3936 
G01 X47.3439 Y53.2792 
G01 X47.2208 Y53.1561 
G01 X47.0799 Y53.0537 
G01 X46.9247 Y52.9747 
G01 X46.7591 Y52.9208 
G01 X46.5871 Y52.8936 
G01 X23.1711 Y52.8936 
G00 Z2.0000 
G00 X22.6064 Y56.8217 
G01 Z-0.0800 F20.00 
G01 X22.8936 Y57.1089 F80.00 
G01 X22.8936 Y59.7311 
G01 X22.6064 Y60.0183 
G01 X22.6064 Y56.8217 
G00 Z2.0000 
G00 X20.1064 Y56.8617 
G01 Z-0.0800 F20.00 
G01 X20.3936 Y57.1489 F80.00 
G01 X20.3936 Y59.6911 
G01 X20.1064 Y59.9783 
G01 X20.1064 Y56.8617 
G00 Z2.0000 
G00 X17.6064 Y56.9017 
G01 Z-0.0800 F20.00 
G01 X17.8936 Y57.1889 F80.00 
G01 X17.8936 Y59.6511 
G01 X17.6064 Y59.9383 
G01 X17.6064 Y56.9017 
G00 Z2.0000 
G00 X15.3936 Y57.2289 
G01 Z-0.0800 F20.00 
G01 X15.3936 Y59.6111 F80.00 
G01 X14.9860 Y60.0187 
G01 X14.6064 Y59.6391 
G01 X14.6064 Y57.2009 
G01 X14.9860 Y56.8213 
G01 X15.3936 Y57.2289 
G00 Z2.0000 
G00 X10.3936 Y57.3089 
G01 Z-0.0800 F20.00 
G01 X10.3936 Y59.5311 F80.00 
G01 X9.9060 Y60.0187 
G01 X9.6064 Y59.7191 
G01 X9.6064 Y57.1209 
G01 X9.9060 Y56.8213 
G01 X10.3936 Y57.3089 
G00 Z2.0000 
G00 X7.3936 Y56.8489 
G01 Z-0.0800 F20.00 
G01 X7.3936 Y59.9911 F80.00 
G01 X7.3660 Y60.0187 
G01 X7.1064 Y59.7591 
G01 X7.1064 Y57.0809 
G01 X7.3660 Y56.8213 
G01 X7.3936 Y56.8489 
G00 Z2.0000 
G00 X29.1064 Y56.9249 
G01 Z-0.0800 F20.00 
G01 X29.2100 Y56.8213 F80.00 
G01 X29.3936 Y57.0049 
G01 X29.3936 Y59.8351 
G01 X29.2100 Y60.0187 
G01 X29.1064 Y59.9151 
G01 X29.1064 Y56.9249 
G00 Z2.0000 
G00 X31.6064 Y56.9649 
G01 Z-0.0800 F20.00 
G01 X31.7500 Y56.8213 F80.00 
G01 X31.8936 Y56.9649 
G01 X31.8936 Y59.8751 
G01 X31.7500 Y60.0187 
G01 X31.6064 Y59.8751 
G01 X31.6064 Y56.9649 
G00 Z2.0000 
G00 X34.1064 Y57.0049 
G01 Z-0.0800 F20.00 
G01 X34.2900 Y56.8213 F80.00 
G01 X34.3936 Y56.9249 
G01 X34.3936 Y59.9151 
G01 X34.2900 Y60.0187 
G01 X34.1064 Y59.8351 
G01 X34.1064 Y57.0049 
G00 Z2.0000 
G00 X36.6064 Y57.0449 
G01 Z-0.0800 F20.00 
G01 X36.8300 Y56.8213 F80.00 
G01 X36.8936 Y56.8849 
G01 X36.8936 Y59.9551 
G01 X36.8300 Y60.0187 
G01 X36.6064 Y59.7951 
G01 X36.6064 Y57.0449 
G00 Z2.0000 
G00 X39.1064 Y57.0849 
G01 Z-0.0800 F20.00 
G01 X39.3700 Y56.8213 F80.00 
G01 X39.3936 Y59.9951 
G01 X39.1064 Y59.7551 
G01 X39.1064 Y57.0849 
G00 Z2.0000 
G00 X41.6064 Y57.1249 
G01 Z-0.0800 F20.00 
G01 X41.9100 Y56.8213 F80.00 
G01 X42.3936 Y57.3049 
G01 X42.3936 Y59.5351 
G01 X41.9100 Y60.0187 
G01 X41.6064 Y59.7151 
G01 X41.6064 Y57.1249 
G00 Z2.0000 
G00 X44.6064 Y56.9777 
G01 Z-0.0800 F20.00 
G01 X45.0723 Y57.4436 F80.00 
G01 X45.8789 Y57.4436 
G01 X46.3289 Y57.8936 
G01 X44.9129 Y57.8936 
G01 X44.7409 Y57.9208 
G01 X44.6064 Y57.9646 
G01 X44.6064 Y56.9777 
G00 Z2.0000 
G00 X48.1711 Y56.6064 
G01 Z-0.0800 F20.00 
G01 X50.5826 Y56.6064 F80.00 
G01 X50.5826 Y56.7591 
G01 X50.6192 Y56.9903 
G01 X50.6916 Y57.2130 
G01 X50.7836 Y57.3936 
G01 X48.9583 Y57.3936 
G01 X48.1711 Y56.6064 
G00 Z2.0000 
G00 X48.1711 Y61.6064 
G01 Z-0.0800 F20.00 
G01 X50.5826 Y61.6064 F80.00 
G01 X50.5826 Y61.8391 
G01 X50.6192 Y62.0703 
G01 X50.6916 Y62.2930 
G01 X50.7429 Y62.3936 
G01 X48.9583 Y62.3936 
G01 X48.1711 Y61.6064 
G00 Z2.0000 
G00 X53.3267 Y57.4428 
G01 Z-0.0800 F20.00 
G01 X53.3400 Y57.4245 F80.00 
G01 X53.3615 Y57.4541 
G01 X53.3267 Y57.4428 
G00 Z2.0000 
G00 X54.1073 Y58.0426 
G01 Z-0.0800 F20.00 
G01 X54.2617 Y58.0928 F80.00 
G01 X54.4929 Y58.1294 
G01 X54.5647 Y58.1294 
G01 X55.3317 Y58.8964 
G01 X55.1810 Y58.8196 
G01 X54.9583 Y58.7472 
G01 X54.7844 Y58.7197 
G01 X54.1073 Y58.0426 
G00 Z2.0000 
G00 X57.6184 Y58.0537 
G01 Z-0.0800 F20.00 
G01 X57.7210 Y58.0204 F80.00 
G01 X57.8765 Y57.9412 
G01 X58.3936 Y58.4583 
G01 X58.3936 Y59.3792 
G01 X58.2845 Y59.2290 
G01 X58.1190 Y59.0635 
G01 X58.1064 Y58.9129 
G01 X58.0792 Y58.7409 
G01 X58.0253 Y58.5753 
G01 X57.9463 Y58.4201 
G01 X57.8439 Y58.2792 
G01 X57.6184 Y58.0537 
G00 Z2.0000 
G00 X60.3936 Y57.3476 
G01 Z-0.0800 F20.00 
G01 X60.3439 Y57.2792 F80.00 
G01 X58.6374 Y55.5727 
G01 X58.6374 Y55.0009 
G01 X58.6008 Y54.7697 
G01 X58.5284 Y54.5470 
G01 X58.4221 Y54.3384 
G01 X58.2845 Y54.1490 
G01 X58.1190 Y53.9835 
G01 X58.1064 Y52.7057 
G01 X58.2845 Y52.5310 
G01 X58.4221 Y52.3416 
G01 X58.5284 Y52.1330 
G01 X58.6008 Y51.9103 
G01 X58.6374 Y51.6791 
G01 X58.6374 Y49.9209 
G01 X58.6008 Y49.6897 
G01 X58.5284 Y49.4670 
G01 X58.4221 Y49.2584 
G01 X58.2845 Y49.0690 
G01 X58.1190 Y48.9035 
G01 X58.1064 Y47.6257 
G01 X58.2845 Y47.4510 
G01 X58.4221 Y47.2616 
G01 X58.5284 Y47.0530 
G01 X58.6008 Y46.8303 
G01 X58.6374 Y46.5991 
G01 X58.6374 Y44.8409 
G01 X58.6064 Y44.6452 
G01 X58.6064 Y44.4583 
G01 X60.3936 Y42.6711 
G01 X60.3936 Y57.3476 
G00 Z2.0000 
G00 X55.8800 Y54.3355 
G01 Z-0.0800 F20.00 
G01 X55.7445 Y54.1490 F80.00 
G01 X55.6064 Y54.0109 
G01 X55.6064 Y52.6691 
G01 X55.7445 Y52.5310 
G01 X55.8800 Y52.3445 
G01 X55.8936 Y54.3168 
G00 Z2.0000 
G00 X55.8800 Y49.2555 
G01 Z-0.0800 F20.00 
G01 X55.7445 Y49.0690 F80.00 
G01 X55.6064 Y48.9309 
G01 X55.6064 Y47.5891 
G01 X55.7445 Y47.4510 
G01 X55.8800 Y47.2645 
G01 X55.8936 Y49.2368 
G00 Z2.0000 
G00 X53.3400 Y49.2555 
G01 Z-0.0800 F20.00 
G01 X53.2045 Y49.0690 F80.00 
G01 X53.0390 Y48.9035 
G01 X52.8496 Y48.7659 
G01 X52.6410 Y48.6596 
G01 X52.4183 Y48.5872 
G01 X52.1871 Y48.5506 
G01 X51.9529 Y48.5506 
G01 X51.7217 Y48.5872 
G01 X51.4990 Y48.6596 
G01 X51.3075 Y48.7572 
G01 X51.8439 Y48.2208 
G01 X51.9463 Y48.0799 
G01 X52.0026 Y47.9694 
G01 X52.1871 Y47.9694 
G01 X52.4183 Y47.9328 
G01 X52.6410 Y47.8604 
G01 X52.8496 Y47.7541 
G01 X53.0390 Y47.6165 
G01 X53.2045 Y47.4510 
G01 X53.3400 Y47.2645 
G01 X53.3936 Y47.3383 
G01 X53.3936 Y49.1817 
G01 X53.3400 Y49.2555 
G00 Z2.0000 
G00 X50.7892 Y49.2755 
G01 Z-0.0800 F20.00 
G01 X50.6916 Y49.4670 F80.00 
G01 X50.6192 Y49.6897 
G01 X50.5869 Y49.8936 
G01 X50.1711 Y49.8936 
G01 X50.7892 Y49.2755 
G00 Z2.0000 
G00 X12.2747 Y5.4535 
G01 Z-0.0800 F20.00 
G01 X12.1261 Y5.6581 F80.00 
G01 X12.0113 Y5.8834 
G01 X11.9332 Y6.1238 
G01 X11.8936 Y6.3736 
G01 X11.8936 Y13.6264 
G01 X11.9332 Y13.8762 
G01 X12.0113 Y14.1166 
G01 X12.1261 Y14.3419 
G01 X12.2747 Y14.5465 
G01 X12.4535 Y14.7253 
G01 X33.6218 Y35.8936 
G01 X21.8736 Y35.8936 
G01 X21.6238 Y35.9332 
G01 X21.3834 Y36.0113 
G01 X21.1581 Y36.1261 
G01 X20.9535 Y36.2747 
G01 X2.9535 Y54.2747 
G01 X2.7747 Y54.4535 
G01 X2.6261 Y54.6581 
G01 X2.5113 Y54.8834 
G01 X2.4332 Y55.1238 
G01 X2.3936 Y55.3736 
G01 X2.3936 Y61.6264 
G01 X2.4332 Y61.8762 
G01 X2.5113 Y62.1166 
G01 X2.6261 Y62.3419 
G01 X2.7747 Y62.5465 
G01 X4.2747 Y64.0465 
G01 X4.4535 Y64.2253 
G01 X4.6581 Y64.3739 
G01 X4.8834 Y64.4887 
G01 X5.1238 Y64.5668 
G01 X5.3736 Y64.6064 
G01 X14.6264 Y64.6064 
G01 X14.8762 Y64.5668 
G01 X15.1166 Y64.4887 
G01 X15.3419 Y64.3739 
G01 X15.5465 Y64.2253 
G01 X16.7482 Y63.0236 
G01 X17.1108 Y63.0236 
G01 X17.5260 Y62.6084 
G01 X17.9412 Y63.0236 
G01 X19.6508 Y63.0236 
G01 X20.0660 Y62.6084 
G01 X20.4812 Y63.0236 
G01 X22.1908 Y63.0236 
G01 X22.6060 Y62.6084 
G01 X23.0212 Y63.0236 
G01 X24.7308 Y63.0236 
G01 X25.9080 Y61.8464 
G01 X27.0852 Y63.0236 
G01 X28.7948 Y63.0236 
G01 X29.2100 Y62.6084 
G01 X29.6252 Y63.0236 
G01 X31.3348 Y63.0236 
G01 X31.7500 Y62.6084 
G01 X32.1652 Y63.0236 
G01 X33.8748 Y63.0236 
G01 X34.2900 Y62.6084 
G01 X34.7052 Y63.0236 
G01 X36.4148 Y63.0236 
G01 X36.8300 Y62.6084 
G01 X37.2452 Y63.0236 
G01 X38.9548 Y63.0236 
G01 X39.3700 Y62.6084 
G01 X39.7852 Y63.0236 
G01 X41.4948 Y63.0236 
G01 X41.9100 Y62.6084 
G01 X42.3252 Y63.0236 
G01 X44.0348 Y63.0236 
G01 X44.4500 Y62.6084 
G01 X44.8652 Y63.0236 
G01 X45.7518 Y63.0236 
G01 X47.4535 Y64.7253 
G01 X47.6581 Y64.8739 
G01 X47.8834 Y64.9887 
G01 X48.1238 Y65.0668 
G01 X48.3736 Y65.1064 
G01 X53.1264 Y65.1064 
G01 X53.3762 Y65.0668 
G01 X53.6166 Y64.9887 
G01 X53.8419 Y64.8739 
G01 X54.0465 Y64.7253 
G01 X55.1322 Y63.6396 
G01 X55.2502 Y63.6080 
G01 X55.4909 Y63.5083 
G01 X55.7165 Y63.3780 
G01 X55.8800 Y63.2526 
G01 X56.0435 Y63.3780 
G01 X56.2691 Y63.5083 
G01 X56.5098 Y63.6080 
G01 X56.7614 Y63.6754 
G01 X56.9252 Y63.6969 
G01 X57.7747 Y64.5465 
G01 X57.9535 Y64.7253 
G01 X58.1581 Y64.8739 
G01 X58.3834 Y64.9887 
G01 X58.6238 Y65.0668 
G01 X58.8736 Y65.1064 
G01 X60.6264 Y65.1064 
G01 X60.8762 Y65.0668 
G01 X61.1166 Y64.9887 
G01 X61.3419 Y64.8739 
G01 X61.5465 Y64.7253 
G01 X62.5465 Y63.7253 
G01 X62.7253 Y63.5465 
G01 X62.8739 Y63.3419 
G01 X62.9887 Y63.1166 
G01 X63.0668 Y62.8762 
G01 X63.1064 Y62.6264 
G01 X63.1064 Y24.3736 
G01 X63.0668 Y24.1238 
G01 X62.9887 Y23.8834 
G01 X62.8739 Y23.6581 
G01 X62.7253 Y23.4535 
G01 X60.1291 Y20.8573 
G01 X60.1661 Y20.5790 
G01 X60.1661 Y20.3010 
G01 X60.1298 Y20.0254 
G01 X60.0579 Y19.7568 
G01 X59.9515 Y19.5000 
G01 X59.8125 Y19.2592 
G01 X59.6432 Y19.0387 
G01 X59.4467 Y18.8421 
G01 X59.2261 Y18.6729 
G01 X58.9853 Y18.5339 
G01 X58.7285 Y18.4275 
G01 X58.6064 Y18.3948 
G01 X58.6064 Y17.4852 
G01 X58.7285 Y17.4525 
G01 X58.9853 Y17.3461 
G01 X59.2261 Y17.2071 
G01 X59.4467 Y17.0379 
G01 X59.6432 Y16.8413 
G01 X59.8125 Y16.6208 
G01 X59.9515 Y16.3800 
G01 X60.0579 Y16.1232 
G01 X60.1298 Y15.8546 
G01 X60.1661 Y15.5790 
G01 X60.1661 Y15.3010 
G01 X60.1298 Y15.0254 
G01 X60.0579 Y14.7568 
G01 X59.9515 Y14.5000 
G01 X59.8125 Y14.2592 
G01 X59.6432 Y14.0387 
G01 X59.4467 Y13.8421 
G01 X59.2261 Y13.6729 
G01 X58.9853 Y13.5339 
G01 X58.7285 Y13.4275 
G01 X58.4600 Y13.3555 
G01 X58.1844 Y13.3193 
G01 X56.1156 Y13.3193 
G01 X55.8400 Y13.3555 
G01 X55.6980 Y13.3936 
G01 X47.7836 Y13.3936 
G01 X47.7836 Y11.8452 
G01 X47.6064 Y11.6680 
G01 X47.6064 Y8.6520 
G01 X47.7836 Y8.4748 
G01 X47.7836 Y6.7652 
G01 X46.5748 Y5.5564 
G01 X46.3282 Y5.5564 
G01 X45.0465 Y4.2747 
G01 X44.8419 Y4.1261 
G01 X44.6166 Y4.0113 
G01 X44.3762 Y3.9332 
G01 X44.1264 Y3.8936 
G01 X14.3736 Y3.8936 
G01 X14.1238 Y3.9332 
G01 X13.8834 Y4.0113 
G01 X13.6581 Y4.1261 
G01 X13.4535 Y4.2747 
G01 X13.2747 Y4.4535 
G01 X12.2747 Y5.4535 
G00 Z2.0000 
G00 X17.0354 Y14.7636 
G01 Z-0.0800 F20.00 
G01 X18.6348 Y14.7636 F80.00 
G01 X19.0500 Y14.3484 
G01 X19.4652 Y14.7636 
G01 X19.9918 Y14.7636 
G01 X31.2747 Y26.0465 
G01 X31.4535 Y26.2253 
G01 X31.6581 Y26.3739 
G01 X31.8834 Y26.4887 
G01 X32.1238 Y26.5668 
G01 X32.3736 Y26.6064 
G01 X54.4792 Y26.6064 
G01 X54.6568 Y26.8413 
G01 X54.8533 Y27.0379 
G01 X55.0739 Y27.2071 
G01 X55.3147 Y27.3461 
G01 X55.3936 Y27.3788 
G01 X55.3936 Y28.5012 
G01 X55.3147 Y28.5339 
G01 X55.0739 Y28.6729 
G01 X54.8533 Y28.8421 
G01 X54.6568 Y29.0387 
G01 X54.4875 Y29.2592 
G01 X54.3485 Y29.5000 
G01 X54.2421 Y29.7568 
G01 X54.1702 Y30.0254 
G01 X54.1339 Y30.3010 
G01 X54.1339 Y30.5790 
G01 X54.1702 Y30.8546 
G01 X54.2421 Y31.1232 
G01 X54.3485 Y31.3800 
G01 X54.4875 Y31.6208 
G01 X54.6568 Y31.8413 
G01 X54.8533 Y32.0379 
G01 X55.0739 Y32.2071 
G01 X55.3147 Y32.3461 
G01 X55.5715 Y32.4525 
G01 X55.8400 Y32.5245 
G01 X56.1156 Y32.5607 
G01 X57.2890 Y32.5607 
G01 X58.0475 Y33.3192 
G01 X56.1156 Y33.3192 
G01 X55.8400 Y33.3555 
G01 X55.6980 Y33.3936 
G01 X35.6654 Y33.3936 
G01 X17.0354 Y14.7636 
G00 Z2.0000 
G00 X24.1251 Y14.3533 
G01 Z-0.0800 F20.00 
G01 X24.1300 Y14.3484 F80.00 
G01 X24.5452 Y14.7636 
G01 X24.9918 Y14.7636 
G01 X26.2747 Y16.0465 
G01 X26.4535 Y16.2253 
G01 X26.6581 Y16.3739 
G01 X26.8834 Y16.4887 
G01 X27.1238 Y16.5668 
G01 X27.3736 Y16.6064 
G01 X54.4792 Y16.6064 
G01 X54.6568 Y16.8413 
G01 X54.8533 Y17.0379 
G01 X55.0739 Y17.2071 
G01 X55.3147 Y17.3461 
G01 X55.3936 Y17.3788 
G01 X55.3936 Y18.5012 
G01 X55.3147 Y18.5339 
G01 X55.0739 Y18.6729 
G01 X54.8533 Y18.8421 
G01 X54.6568 Y19.0387 
G01 X54.4875 Y19.2592 
G01 X54.3485 Y19.5000 
G01 X54.2421 Y19.7568 
G01 X54.1702 Y20.0254 
G01 X54.1339 Y20.3010 
G01 X54.1339 Y20.5790 
G01 X54.1702 Y20.8546 
G01 X54.2421 Y21.1232 
G01 X54.3485 Y21.3800 
G01 X54.4875 Y21.6208 
G01 X54.6568 Y21.8413 
G01 X54.8533 Y22.0379 
G01 X55.0739 Y22.2071 
G01 X55.3147 Y22.3461 
G01 X55.5715 Y22.4525 
G01 X55.8400 Y22.5245 
G01 X56.1156 Y22.5607 
G01 X57.2890 Y22.5607 
G01 X58.0475 Y23.3193 
G01 X56.1156 Y23.3193 
G01 X55.8400 Y23.3555 
G01 X55.6980 Y23.3936 
G01 X33.1654 Y23.3936 
G01 X24.1251 Y14.3533 
G00 Z2.0000 
G00 X30.0036 Y13.3936 
G01 Z-0.0800 F20.00 
G01 X30.0036 Y11.8452 F80.00 
G01 X29.6064 Y11.4480 
G01 X29.6064 Y8.8720 
G01 X30.0036 Y8.4748 
G01 X30.0036 Y7.1064 
G01 X30.9564 Y7.1064 
G01 X30.9564 Y8.4748 
G01 X31.3936 Y8.9120 
G01 X31.3936 Y11.4080 
G01 X30.9564 Y11.8452 
G01 X30.9564 Y13.3936 
G01 X30.0036 Y13.3936 
G00 Z2.0000 
G00 X22.6654 Y39.1064 
G01 Z-0.0800 F20.00 
G01 X48.8346 Y39.1064 F80.00 
G01 X50.9535 Y41.2253 
G01 X51.1581 Y41.3739 
G01 X51.3834 Y41.4887 
G01 X51.6238 Y41.5668 
G01 X51.8736 Y41.6064 
G01 X54.4792 Y41.6064 
G01 X54.6568 Y41.8413 
G01 X54.8533 Y42.0379 
G01 X55.0739 Y42.2071 
G01 X55.3147 Y42.3461 
G01 X55.5715 Y42.4525 
G01 X55.8400 Y42.5245 
G01 X56.1156 Y42.5607 
G01 X56.6675 Y42.5607 
G01 X56.2747 Y42.9535 
G01 X56.1261 Y43.1581 
G01 X56.0566 Y43.2944 
G01 X55.8800 Y43.4274 
G01 X55.7165 Y43.3020 
G01 X55.4909 Y43.1717 
G01 X55.2502 Y43.0720 
G01 X54.9986 Y43.0046 
G01 X54.7403 Y42.9706 
G01 X54.4797 Y42.9706 
G01 X54.2214 Y43.0046 
G01 X53.9698 Y43.0720 
G01 X53.7291 Y43.1717 
G01 X53.5035 Y43.3020 
G01 X53.3400 Y43.4274 
G01 X53.1765 Y43.3020 
G01 X52.9509 Y43.1717 
G01 X52.7102 Y43.0720 
G01 X52.4586 Y43.0046 
G01 X52.2003 Y42.9706 
G01 X51.9397 Y42.9706 
G01 X51.6814 Y43.0046 
G01 X51.4298 Y43.0720 
G01 X51.1891 Y43.1717 
G01 X50.9635 Y43.3020 
G01 X50.7568 Y43.4606 
G01 X50.5726 Y43.6448 
G01 X50.4140 Y43.8515 
G01 X50.2837 Y44.0771 
G01 X50.1840 Y44.3178 
G01 X50.1166 Y44.5694 
G01 X50.0826 Y44.8277 
G01 X50.0826 Y45.6456 
G01 X49.9535 Y45.7747 
G01 X49.7747 Y45.9535 
G01 X49.6261 Y46.1581 
G01 X49.5113 Y46.3834 
G01 X49.4332 Y46.6238 
G01 X49.4009 Y46.8273 
G01 X48.3346 Y47.8936 
G01 X19.8736 Y47.8936 
G01 X19.6238 Y47.9332 
G01 X19.3834 Y48.0113 
G01 X19.1581 Y48.1261 
G01 X18.9535 Y48.2747 
G01 X18.7747 Y48.4535 
G01 X13.4118 Y53.8164 
G01 X12.8612 Y53.8164 
G01 X12.4460 Y54.2316 
G01 X12.0308 Y53.8164 
G01 X10.3212 Y53.8164 
G01 X9.9060 Y54.2316 
G01 X9.4908 Y53.8164 
G01 X7.9554 Y53.8164 
G01 X22.6654 Y39.1064 
G00 Z2.0000 
G00 X21.1218 Y51.1064 
G01 Z-0.0800 F20.00 
G01 X18.4118 Y53.8164 F80.00 
G01 X17.9554 Y53.8164 
G01 X20.6654 Y51.1064 
G01 X21.1218 Y51.1064 
G00 Z2.0000 
G00 X25.9080 Y56.7664 
G01 Z-0.0800 F20.00 
G01 X26.3936 Y57.2520 F80.00 
G01 X26.3936 Y59.5880 
G01 X25.9080 Y60.0736 
G01 X25.6064 Y59.7720 
G01 X25.6064 Y57.0680 
G01 X25.9080 Y56.7664 
G00 Z2.0000 
G00 X47.3033 Y52.6064 
G01 Z-0.0800 F20.00 
G01 X50.3781 Y52.6064 F80.00 
G01 X50.4140 Y52.6685 
G01 X50.5726 Y52.8752 
G01 X50.7568 Y53.0594 
G01 X50.9635 Y53.2180 
G01 X51.1748 Y53.3400 
G01 X50.9635 Y53.4620 
G01 X50.7568 Y53.6206 
G01 X50.5726 Y53.8048 
G01 X50.5045 Y53.8936 
G01 X48.6654 Y53.8936 
G01 X47.7253 Y52.9535 
G01 X47.5465 Y52.7747 
G01 X47.3419 Y52.6261 
G01 X47.3033 Y52.6064 
G00 Z2.0000 
G00 X58.8060 Y52.6685 
G01 Z-0.0800 F20.00 
G01 X58.9363 Y52.4429 F80.00 
G01 X59.0360 Y52.2022 
G01 X59.1034 Y51.9506 
G01 X59.1374 Y51.6923 
G01 X59.1374 Y49.9077 
G01 X59.1034 Y49.6494 
G01 X59.0360 Y49.3978 
G01 X58.9363 Y49.1571 
G01 X58.8060 Y48.9315 
G01 X58.6474 Y48.7248 
G01 X58.6064 Y48.6838 
G01 X58.6064 Y47.8362 
G01 X58.6474 Y47.7952 
G01 X58.8060 Y47.5885 
G01 X58.9363 Y47.3629 
G01 X59.0360 Y47.1222 
G01 X59.1034 Y46.8706 
G01 X59.1374 Y46.6123 
G01 X59.1374 Y44.8277 
G01 X59.1149 Y44.6569 
G01 X59.8936 Y43.8782 
G01 X59.8936 Y56.1218 
G01 X59.1374 Y55.3656 
G01 X59.1374 Y54.9877 
G01 X59.1034 Y54.7294 
G01 X59.0360 Y54.4778 
G01 X58.9363 Y54.2371 
G01 X58.8060 Y54.0115 
G01 X58.6474 Y53.8048 
G01 X58.6064 Y53.7638 
G01 X58.6064 Y52.9162 
G01 X58.6474 Y52.8752 
G01 X58.8060 Y52.6685 
G00 Z2.0000 
G00 X58.3936 Y38.3468 
G01 Z-0.0800 F20.00 
G01 X58.1844 Y38.3192 F80.00 
G01 X56.1156 Y38.3192 
G01 X55.8400 Y38.3555 
G01 X55.6980 Y38.3936 
G01 X52.6654 Y38.3936 
G01 X50.8782 Y36.6064 
G01 X54.4792 Y36.6064 
G01 X54.6568 Y36.8413 
G01 X54.8533 Y37.0379 
G01 X55.0739 Y37.2071 
G01 X55.3147 Y37.3461 
G01 X55.5715 Y37.4525 
G01 X55.8400 Y37.5245 
G01 X56.1156 Y37.5607 
G01 X58.1844 Y37.5607 
G01 X58.3936 Y37.5332 
G01 X58.3936 Y38.3468 
G00 Z2.0000 
G00 X58.6064 Y28.3948 
G01 Z-0.0800 F20.00 
G01 X58.6064 Y27.4852 F80.00 
G01 X58.7285 Y27.4525 
G01 X58.9853 Y27.3461 
G01 X59.2261 Y27.2071 
G01 X59.4467 Y27.0379 
G01 X59.6432 Y26.8413 
G01 X59.8125 Y26.6208 
G01 X59.8936 Y26.4802 
G01 X59.8936 Y29.3998 
G01 X59.8125 Y29.2592 
G01 X59.6432 Y29.0387 
G01 X59.4467 Y28.8421 
G01 X59.2261 Y28.6729 
G01 X58.9853 Y28.5339 
G01 X58.7285 Y28.4275 
G01 X58.6064 Y28.3948 
G00 Z2.0000 
G00 Z2.000000
G00 X52.0700 Y45.7200 
G01 Z-0.0500 F20.00 
G01 Z2.000000
(R2.0000  P2.000000)
G00 X54.6100 Y45.7200 
G01 Z-0.0500 F20.00 
G00 Z2.0000 
G00 X57.1500 Y45.7200 
G01 Z-0.0500 F20.00 
G00 Z2.0000 
G00 X52.0700 Y50.8000 
G01 Z-0.0500 F20.00 
G00 Z2.0000 
G00 X54.6100 Y50.8000 
G01 Z-0.0500 F20.00 
G00 Z2.0000 
G00 X57.1500 Y50.8000 
G01 Z-0.0500 F20.00 
G00 Z2.0000 
G00 X52.0700 Y55.8800 
G01 Z-0.0500 F20.00 
G00 Z2.0000 
G00 X54.6100 Y55.8800 
G01 Z-0.0500 F20.00 
G00 Z2.0000 
G00 X57.1500 Y55.8800 
G01 Z-0.0500 F20.00 
G00 Z2.0000 
G00 X52.0700 Y60.9600 
G01 Z-0.0500 F20.00 
G00 Z2.0000 
G00 X54.6100 Y60.9600 
G01 Z-0.0500 F20.00 
G00 Z2.0000 
G00 X57.1500 Y60.9600 
G01 Z-0.0500 F20.00 
G00 Z2.0000 
G00 X59.6900 Y60.9600 
G01 Z-0.0500 F20.00 
G00 Z2.0000 
G00 X17.7800 Y12.7000 
G01 Z-0.0500 F20.00 
G00 Z2.0000 
G00 X20.3200 Y12.7000 
G01 Z-0.0500 F20.00 
G00 Z2.0000 
G00 X33.0200 Y12.7000 
G01 Z-0.0500 F20.00 
G00 Z2.0000 
G00 X35.5600 Y12.7000 
G01 Z-0.0500 F20.00 
G00 Z2.0000 
G00 X38.1000 Y12.7000 
G01 Z-0.0500 F20.00 
G00 Z2.0000 
G00 X40.6400 Y12.7000 
G01 Z-0.0500 F20.00 
G00 Z2.0000 
G00 X43.1800 Y12.7000 
G01 Z-0.0500 F20.00 
G00 Z2.0000 
G00 X45.7200 Y12.7000 
G01 Z-0.0500 F20.00 
G00 Z2.0000 
G00 X6.0960 Y60.9600 
G01 Z-0.0500 F20.00 
G00 Z2.0000 
G00 X45.7200 Y60.9600 
G01 Z-0.0500 F20.00 
G00 Z2.0000 
G00 X43.1800 Y60.9600 
G01 Z-0.0500 F20.00 
G00 Z2.0000 
G00 X40.6400 Y60.9600 
G01 Z-0.0500 F20.00 
G00 Z2.0000 
G00 X38.1000 Y60.9600 
G01 Z-0.0500 F20.00 
G00 Z2.0000 
G00 X35.5600 Y60.9600 
G01 Z-0.0500 F20.00 
G00 Z2.0000 
G00 X33.0200 Y60.9600 
G01 Z-0.0500 F20.00 
G00 Z2.0000 
G00 X30.4800 Y60.9600 
G01 Z-0.0500 F20.00 
G00 Z2.0000 
G00 X27.9400 Y60.9600 
G01 Z-0.0500 F20.00 
G00 Z2.0000 
G00 X23.8760 Y60.9600 
G01 Z-0.0500 F20.00 
G00 Z2.0000 
G00 X21.3360 Y60.9600 
G01 Z-0.0500 F20.00 
G00 Z2.0000 
G00 X18.7960 Y60.9600 
G01 Z-0.0500 F20.00 
G00 Z2.0000 
G00 X16.2560 Y60.9600 
G01 Z-0.0500 F20.00 
G00 Z2.0000 
G00 X13.7160 Y60.9600 
G01 Z-0.0500 F20.00 
G00 Z2.0000 
G00 X11.1760 Y60.9600 
G01 Z-0.0500 F20.00 
G00 Z2.0000 
G00 X8.6360 Y60.9600 
G01 Z-0.0500 F20.00 
G00 Z2.0000 
G00 X25.4000 Y12.7000 
G01 Z-0.0500 F20.00 
G00 Z2.0000 
G00 X22.8600 Y12.7000 
G01 Z-0.0500 F20.00 
G00 Z2.0000 
G00 X15.2400 Y12.7000 
G01 Z-0.0500 F20.00 
G00 Z2.0000 
G00 X27.9400 Y12.7000 
G01 Z-0.0500 F20.00 
G00 Z2.0000 
G00 X-2.5400 Y60.9600 
G01 Z-0.0500 F20.00 
G00 Z2.0000 
G00 X48.2600 Y45.7200 
G01 Z-0.0500 F20.00 
G00 Z2.0000 
G00 X-3.8100 Y12.7000 
G01 Z-0.0500 F20.00 
G00 Z2.0000 
G00 X17.7800 Y7.6200 
G01 Z-0.0500 F20.00 
G00 Z2.0000 
G00 X20.3200 Y7.6200 
G01 Z-0.0500 F20.00 
G00 Z2.0000 
G00 X33.0200 Y7.6200 
G01 Z-0.0500 F20.00 
G00 Z2.0000 
G00 X35.5600 Y7.6200 
G01 Z-0.0500 F20.00 
G00 Z2.0000 
G00 X38.1000 Y7.6200 
G01 Z-0.0500 F20.00 
G00 Z2.0000 
G00 X40.6400 Y7.6200 
G01 Z-0.0500 F20.00 
G00 Z2.0000 
G00 X43.1800 Y7.6200 
G01 Z-0.0500 F20.00 
G00 Z2.0000 
G00 X45.7200 Y7.6200 
G01 Z-0.0500 F20.00 
G00 Z2.0000 
G00 X6.0960 Y55.8800 
G01 Z-0.0500 F20.00 
G00 Z2.0000 
G00 X45.7200 Y55.8800 
G01 Z-0.0500 F20.00 
G00 Z2.0000 
G00 X43.1800 Y55.8800 
G01 Z-0.0500 F20.00 
G00 Z2.0000 
G00 X40.6400 Y55.8800 
G01 Z-0.0500 F20.00 
G00 Z2.0000 
G00 X38.1000 Y55.8800 
G01 Z-0.0500 F20.00 
G00 Z2.0000 
G00 X35.5600 Y55.8800 
G01 Z-0.0500 F20.00 
G00 Z2.0000 
G00 X33.0200 Y55.8800 
G01 Z-0.0500 F20.00 
G00 Z2.0000 
G00 X30.4800 Y55.8800 
G01 Z-0.0500 F20.00 
G00 Z2.0000 
G00 X27.9400 Y55.8800 
G01 Z-0.0500 F20.00 
G00 Z2.0000 
G00 X23.8760 Y55.8800 
G01 Z-0.0500 F20.00 
G00 Z2.0000 
G00 X21.3360 Y55.8800 
G01 Z-0.0500 F20.00 
G00 Z2.0000 
G00 X18.7960 Y55.8800 
G01 Z-0.0500 F20.00 
G00 Z2.0000 
G00 X16.2560 Y55.8800 
G01 Z-0.0500 F20.00 
G00 Z2.0000 
G00 X13.7160 Y55.8800 
G01 Z-0.0500 F20.00 
G00 Z2.0000 
G00 X11.1760 Y55.8800 
G01 Z-0.0500 F20.00 
G00 Z2.0000 
G00 X8.6360 Y55.8800 
G01 Z-0.0500 F20.00 
G00 Z2.0000 
G00 X25.4000 Y7.6200 
G01 Z-0.0500 F20.00 
G00 Z2.0000 
G00 X22.8600 Y7.6200 
G01 Z-0.0500 F20.00 
G00 Z2.0000 
G00 X15.2400 Y7.6200 
G01 Z-0.0500 F20.00 
G00 Z2.0000 
G00 X27.9400 Y7.6200 
G01 Z-0.0500 F20.00 
G00 Z2.0000 
G00 X-2.5400 Y55.8800 
G01 Z-0.0500 F20.00 
G00 Z2.0000 
G00 X48.2600 Y40.6400 
G01 Z-0.0500 F20.00 
G00 Z2.0000 
G00 X-3.8100 Y7.6200 
G01 Z-0.0500 F20.00 
G00 Z2.0000 
G00 X57.1500 Y40.4400 
G01 Z-0.0500 F20.00 
G00 Z2.0000 
G00 X57.1500 Y35.4400 
G01 Z-0.0500 F20.00 
G00 Z2.0000 
G00 X57.1500 Y30.4400 
G01 Z-0.0500 F20.00 
G00 Z2.0000 
G00 X57.1500 Y25.4400 
G01 Z-0.0500 F20.00 
G00 Z2.0000 
G00 X57.1500 Y20.4400 
G01 Z-0.0500 F20.00 
G00 Z2.0000 
G00 X57.1500 Y15.4400 
G01 Z-0.0500 F20.00 
G00 Z2.0000 
G00 Z3.0000 
M05
M02
