(.../Documents/EAGLE/ulps/pcb-gcode.ulp)
(Copyright 2005 - 2012 by John Johnson)
(See readme.txt for licensing terms.)
(This file generated from the board:)
(.../EAGLE/projects/shapeoko/1shape.brd)
(Current profile is .../EAGLE/ulps/profiles/generic.pp  )
(This file generated 25/11/19 15:07)
(Settings from pcb-machine.h)
(spindle on time = 0.0000)
(spindle speed = 30000.0000)
(milling depth = -1.6500)
(tool change at 0.0000 0.0000 30.0000 )
(feed rate xy = F60.00 )
(feed rate z  = F20.00 )
(Z Axis Settings)
(  High     Up        Down     Drill)
(3.0000 	2.0000 	-0.0800 	-1.6700 )
(Settings from pcb-defaults.h)
(isolate min = 0.0254)
(isolate max = 1.0000)
(isolate step = 0.5000)
(Generated top outlines, top drill, top stencil, )
(Unit of measure: mm)
(Metric Mode)
G21
(Absolute Coordinates)
G90
S30000
G00 Z3.0000 
G00 X0.0000 Y0.0000 
M03
S10000
G04 P0.000000
G00 Z2.0000 
G00 X10.1600 Y2.5400 
G01 Z-0.2750 F20.00 
G01 X50.8000 Y2.5400 F60.00 
G01 X64.7700 Y16.5100 
G01 X64.7700 Y66.0400 
G01 X0.0000 Y66.0400 
G01 X0.0000 Y59.6900 
G01 X1.2700 Y53.3400 
G01 X10.1600 Y44.4500 
G01 X10.1600 Y2.5400 
G00 Z2.0000 
G01 Z-0.5500 F20.00 
G01 X50.8000 Y2.5400 F60.00 
G01 X64.7700 Y16.5100 
G01 X64.7700 Y66.0400 
G01 X0.0000 Y66.0400 
G01 X0.0000 Y59.6900 
G01 X1.2700 Y53.3400 
G01 X10.1600 Y44.4500 
G01 X10.1600 Y2.5400 
G00 Z2.0000 
G01 Z-0.8250 F20.00 
G01 X50.8000 Y2.5400 F60.00 
G01 X64.7700 Y16.5100 
G01 X64.7700 Y66.0400 
G01 X0.0000 Y66.0400 
G01 X0.0000 Y59.6900 
G01 X1.2700 Y53.3400 
G01 X10.1600 Y44.4500 
G01 X10.1600 Y2.5400 
G00 Z2.0000 
G01 Z-1.1000 F20.00 
G01 X50.8000 Y2.5400 F60.00 
G01 X64.7700 Y16.5100 
G01 X64.7700 Y66.0400 
G01 X0.0000 Y66.0400 
G01 X0.0000 Y59.6900 
G01 X1.2700 Y53.3400 
G01 X10.1600 Y44.4500 
G01 X10.1600 Y2.5400 
G00 Z2.0000 
G01 Z-1.3750 F20.00 
G01 X50.8000 Y2.5400 F60.00 
G01 X64.7700 Y16.5100 
G01 X64.7700 Y66.0400 
G01 X0.0000 Y66.0400 
G01 X0.0000 Y59.6900 
G01 X1.2700 Y53.3400 
G01 X10.1600 Y44.4500 
G01 X10.1600 Y2.5400 
G00 Z2.0000 
G01 Z-1.6500 F20.00 
G01 X50.8000 Y2.5400 F60.00 
G01 X64.7700 Y16.5100 
G01 X64.7700 Y66.0400 
G01 X0.0000 Y66.0400 
G01 X0.0000 Y59.6900 
G01 X1.2700 Y53.3400 
G01 X10.1600 Y44.4500 
G01 X10.1600 Y2.5400 
G00 Z3.0000 
M05
M02
