(.../Documents/EAGLE/ulps/pcb-gcode.ulp)
(Copyright 2005 - 2012 by John Johnson)
(See readme.txt for licensing terms.)
(This file generated from the board:)
(.../EAGLE/projects/shapeoko/1shape.brd)
(Current profile is .../EAGLE/ulps/profiles/generic.pp  )
(This file generated 25/11/19 15:07)
(Settings from pcb-machine.h)
(spindle on time = 0.0000)
(spindle speed = 20000.0000)
(tool change at 0.0000 0.0000 30.0000 )
(feed rate xy = F0.00  )
(feed rate z  = F20.00 )
(Z Axis Settings)
(  High     Up        Down     Drill)
(3.0000 	2.0000 	-0.0800 	-1.6700 )
(Settings from pcb-defaults.h)
(isolate min = 0.0254)
(isolate max = 1.0000)
(isolate step = 0.5000)
(Generated top outlines, top drill, top stencil, )
(Unit of measure: mm)
( Tool|       Size       |  Min Sub |  Max Sub |   Count )
( T01  1.000mm 0.0394in 0.0000in 0.0000in )
( T02  1.016mm 0.0400in 0.0000in 0.0000in )
( T03  1.194mm 0.0470in 0.0000in 0.0000in )
( T04  3.200mm 0.1260in 0.0000in 0.0000in )
(Metric Mode)
G21
(Absolute Coordinates)
G90
S20000
G00 Z3.0000 
G00 X0.0000 Y0.0000 
M03
S10000
G04 P0.000000
M05
G00 Z30.0000 
M06 T01  ; 1.0000 
G00 Z2.0000 
M03
S10000
G04 P0.000000
G00 Z2.000000
G00 X6.0960 Y55.8800 
G01 Z-1.6700 F20.00 
G01 Z2.000000
(R2.0000  P2.000000)
G00 X8.6360 Y55.8800 
G01 Z-1.6700 F20.00 
G00 Z2.0000 
G00 X11.1760 Y55.8800 
G01 Z-1.6700 F20.00 
G00 Z2.0000 
G00 X13.7160 Y55.8800 
G01 Z-1.6700 F20.00 
G00 Z2.0000 
G00 X16.2560 Y55.8800 
G01 Z-1.6700 F20.00 
G00 Z2.0000 
G00 X18.7960 Y55.8800 
G01 Z-1.6700 F20.00 
G00 Z2.0000 
G00 X21.3360 Y55.8800 
G01 Z-1.6700 F20.00 
G00 Z2.0000 
G00 X23.8760 Y55.8800 
G01 Z-1.6700 F20.00 
G00 Z2.0000 
G00 X27.9400 Y55.8800 
G01 Z-1.6700 F20.00 
G00 Z2.0000 
G00 X30.4800 Y55.8800 
G01 Z-1.6700 F20.00 
G00 Z2.0000 
G00 X33.0200 Y55.8800 
G01 Z-1.6700 F20.00 
G00 Z2.0000 
G00 X35.5600 Y55.8800 
G01 Z-1.6700 F20.00 
G00 Z2.0000 
G00 X38.1000 Y55.8800 
G01 Z-1.6700 F20.00 
G00 Z2.0000 
G00 X40.6400 Y55.8800 
G01 Z-1.6700 F20.00 
G00 Z2.0000 
G00 X43.1800 Y55.8800 
G01 Z-1.6700 F20.00 
G00 Z2.0000 
G00 X45.7200 Y55.8800 
G01 Z-1.6700 F20.00 
G00 Z2.0000 
G00 X45.7200 Y60.9600 
G01 Z-1.6700 F20.00 
G00 Z2.0000 
G00 X43.1800 Y60.9600 
G01 Z-1.6700 F20.00 
G00 Z2.0000 
G00 X40.6400 Y60.9600 
G01 Z-1.6700 F20.00 
G00 Z2.0000 
G00 X38.1000 Y60.9600 
G01 Z-1.6700 F20.00 
G00 Z2.0000 
G00 X35.5600 Y60.9600 
G01 Z-1.6700 F20.00 
G00 Z2.0000 
G00 X33.0200 Y60.9600 
G01 Z-1.6700 F20.00 
G00 Z2.0000 
G00 X30.4800 Y60.9600 
G01 Z-1.6700 F20.00 
G00 Z2.0000 
G00 X27.9400 Y60.9600 
G01 Z-1.6700 F20.00 
G00 Z2.0000 
G00 X23.8760 Y60.9600 
G01 Z-1.6700 F20.00 
G00 Z2.0000 
G00 X21.3360 Y60.9600 
G01 Z-1.6700 F20.00 
G00 Z2.0000 
G00 X18.7960 Y60.9600 
G01 Z-1.6700 F20.00 
G00 Z2.0000 
G00 X16.2560 Y60.9600 
G01 Z-1.6700 F20.00 
G00 Z2.0000 
G00 X13.7160 Y60.9600 
G01 Z-1.6700 F20.00 
G00 Z2.0000 
G00 X11.1760 Y60.9600 
G01 Z-1.6700 F20.00 
G00 Z2.0000 
G00 X8.6360 Y60.9600 
G01 Z-1.6700 F20.00 
G00 Z2.0000 
G00 X6.0960 Y60.9600 
G01 Z-1.6700 F20.00 
G00 Z2.0000 
G00 X15.2400 Y12.7000 
G01 Z-1.6700 F20.00 
G00 Z2.0000 
G00 X17.7800 Y12.7000 
G01 Z-1.6700 F20.00 
G00 Z2.0000 
G00 X20.3200 Y12.7000 
G01 Z-1.6700 F20.00 
G00 Z2.0000 
G00 X22.8600 Y12.7000 
G01 Z-1.6700 F20.00 
G00 Z2.0000 
G00 X25.4000 Y12.7000 
G01 Z-1.6700 F20.00 
G00 Z2.0000 
G00 X27.9400 Y12.7000 
G01 Z-1.6700 F20.00 
G00 Z2.0000 
G00 X27.9400 Y7.6200 
G01 Z-1.6700 F20.00 
G00 Z2.0000 
G00 X25.4000 Y7.6200 
G01 Z-1.6700 F20.00 
G00 Z2.0000 
G00 X22.8600 Y7.6200 
G01 Z-1.6700 F20.00 
G00 Z2.0000 
G00 X20.3200 Y7.6200 
G01 Z-1.6700 F20.00 
G00 Z2.0000 
G00 X17.7800 Y7.6200 
G01 Z-1.6700 F20.00 
G00 Z2.0000 
G00 X15.2400 Y7.6200 
G01 Z-1.6700 F20.00 
G00 Z2.0000 
G00 X33.0200 Y7.6200 
G01 Z-1.6700 F20.00 
G00 Z2.0000 
G00 X35.5600 Y7.6200 
G01 Z-1.6700 F20.00 
G00 Z2.0000 
G00 X38.1000 Y7.6200 
G01 Z-1.6700 F20.00 
G00 Z2.0000 
G00 X40.6400 Y7.6200 
G01 Z-1.6700 F20.00 
G00 Z2.0000 
G00 X43.1800 Y7.6200 
G01 Z-1.6700 F20.00 
G00 Z2.0000 
G00 X45.7200 Y7.6200 
G01 Z-1.6700 F20.00 
G00 Z2.0000 
G00 X45.7200 Y12.7000 
G01 Z-1.6700 F20.00 
G00 Z2.0000 
G00 X43.1800 Y12.7000 
G01 Z-1.6700 F20.00 
G00 Z2.0000 
G00 X40.6400 Y12.7000 
G01 Z-1.6700 F20.00 
G00 Z2.0000 
G00 X38.1000 Y12.7000 
G01 Z-1.6700 F20.00 
G00 Z2.0000 
G00 X35.5600 Y12.7000 
G01 Z-1.6700 F20.00 
G00 Z2.0000 
G00 X33.0200 Y12.7000 
G01 Z-1.6700 F20.00 
G00 Z2.0000 
M05
G00 Z30.0000 
G00 X0.0000 Y0.0000 
M06 T02  ; 1.0160 
G00 Z2.0000 
M03
S10000
G04 P0.000000
G00 Z2.000000
G00 X52.0700 Y45.7200 
G01 Z-1.6700 F20.00 
G01 Z2.000000
(R2.0000  P2.000000)
G00 X54.6100 Y45.7200 
G01 Z-1.6700 F20.00 
G00 Z2.0000 
G00 X57.1500 Y45.7200 
G01 Z-1.6700 F20.00 
G00 Z2.0000 
G00 X57.1500 Y50.8000 
G01 Z-1.6700 F20.00 
G00 Z2.0000 
G00 X54.6100 Y50.8000 
G01 Z-1.6700 F20.00 
G00 Z2.0000 
G00 X52.0700 Y50.8000 
G01 Z-1.6700 F20.00 
G00 Z2.0000 
G00 X52.0700 Y55.8800 
G01 Z-1.6700 F20.00 
G00 Z2.0000 
G00 X54.6100 Y55.8800 
G01 Z-1.6700 F20.00 
G00 Z2.0000 
G00 X57.1500 Y55.8800 
G01 Z-1.6700 F20.00 
G00 Z2.0000 
G00 X57.1500 Y60.9600 
G01 Z-1.6700 F20.00 
G00 Z2.0000 
G00 X54.6100 Y60.9600 
G01 Z-1.6700 F20.00 
G00 Z2.0000 
G00 X52.0700 Y60.9600 
G01 Z-1.6700 F20.00 
G00 Z2.0000 
G00 X59.6900 Y60.9600 
G01 Z-1.6700 F20.00 
G00 Z2.0000 
M05
G00 Z30.0000 
G00 X0.0000 Y0.0000 
M06 T03  ; 1.1938 
G00 Z2.0000 
M03
S10000
G04 P0.000000
G00 Z2.000000
G00 X57.1500 Y15.4400 
G01 Z-1.6700 F20.00 
G01 Z2.000000
(R2.0000  P2.000000)
G00 X57.1500 Y20.4400 
G01 Z-1.6700 F20.00 
G00 Z2.0000 
G00 X57.1500 Y25.4400 
G01 Z-1.6700 F20.00 
G00 Z2.0000 
G00 X57.1500 Y30.4400 
G01 Z-1.6700 F20.00 
G00 Z2.0000 
G00 X57.1500 Y35.4400 
G01 Z-1.6700 F20.00 
G00 Z2.0000 
G00 X57.1500 Y40.4400 
G01 Z-1.6700 F20.00 
G00 Z2.0000 
M05
G00 Z30.0000 
G00 X0.0000 Y0.0000 
M06 T04  ; 3.2000 
G00 Z2.0000 
M03
S10000
G04 P0.000000
G00 Z2.000000
G00 X-2.5400 Y55.8800 
G01 Z-1.6700 F20.00 
G01 Z2.000000
(R2.0000  P2.000000)
G00 X-2.5400 Y60.9600 
G01 Z-1.6700 F20.00 
G00 Z2.0000 
G00 X-3.8100 Y12.7000 
G01 Z-1.6700 F20.00 
G00 Z2.0000 
G00 X-3.8100 Y7.6200 
G01 Z-1.6700 F20.00 
G00 Z2.0000 
G00 X48.2600 Y40.6400 
G01 Z-1.6700 F20.00 
G00 Z2.0000 
G00 X48.2600 Y45.7200 
G01 Z-1.6700 F20.00 
G00 Z2.0000 
T01 
G00 Z3.0000 
M05
M02
