G04 EAGLE Gerber RS-274X export*
G75*
%MOMM*%
%FSLAX34Y34*%
%LPD*%
%INTop Copper*%
%IPPOS*%
%AMOC8*
5,1,8,0,0,1.08239X$1,22.5*%
G01*
%ADD10C,0.198000*%
%ADD11R,4.000000X4.000000*%
%ADD12R,1.524000X1.524000*%
%ADD13R,1.600000X2.300000*%
%ADD14R,1.000000X1.400000*%
%ADD15R,1.500000X0.900000*%
%ADD16C,1.790700*%
%ADD17P,2.336880X8X86.000000*%
%ADD18R,0.965200X1.524000*%
%ADD19R,1.524000X0.965200*%
%ADD20C,1.524000*%
%ADD21R,1.508000X1.508000*%
%ADD22C,1.508000*%
%ADD23C,0.254000*%
%ADD24C,0.756400*%


D10*
X342760Y248010D02*
X342760Y232990D01*
X335740Y232990D01*
X335740Y248010D01*
X342760Y248010D01*
X342760Y234871D02*
X335740Y234871D01*
X335740Y236752D02*
X342760Y236752D01*
X342760Y238633D02*
X335740Y238633D01*
X335740Y240514D02*
X342760Y240514D01*
X342760Y242395D02*
X335740Y242395D01*
X335740Y244276D02*
X342760Y244276D01*
X342760Y246157D02*
X335740Y246157D01*
X330060Y248010D02*
X330060Y232990D01*
X323040Y232990D01*
X323040Y248010D01*
X330060Y248010D01*
X330060Y234871D02*
X323040Y234871D01*
X323040Y236752D02*
X330060Y236752D01*
X330060Y238633D02*
X323040Y238633D01*
X323040Y240514D02*
X330060Y240514D01*
X330060Y242395D02*
X323040Y242395D01*
X323040Y244276D02*
X330060Y244276D01*
X330060Y246157D02*
X323040Y246157D01*
X317360Y248010D02*
X317360Y232990D01*
X310340Y232990D01*
X310340Y248010D01*
X317360Y248010D01*
X317360Y234871D02*
X310340Y234871D01*
X310340Y236752D02*
X317360Y236752D01*
X317360Y238633D02*
X310340Y238633D01*
X310340Y240514D02*
X317360Y240514D01*
X317360Y242395D02*
X310340Y242395D01*
X310340Y244276D02*
X317360Y244276D01*
X317360Y246157D02*
X310340Y246157D01*
X304660Y248010D02*
X304660Y232990D01*
X297640Y232990D01*
X297640Y248010D01*
X304660Y248010D01*
X304660Y234871D02*
X297640Y234871D01*
X297640Y236752D02*
X304660Y236752D01*
X304660Y238633D02*
X297640Y238633D01*
X297640Y240514D02*
X304660Y240514D01*
X304660Y242395D02*
X297640Y242395D01*
X297640Y244276D02*
X304660Y244276D01*
X304660Y246157D02*
X297640Y246157D01*
X291960Y248010D02*
X291960Y232990D01*
X284940Y232990D01*
X284940Y248010D01*
X291960Y248010D01*
X291960Y234871D02*
X284940Y234871D01*
X284940Y236752D02*
X291960Y236752D01*
X291960Y238633D02*
X284940Y238633D01*
X284940Y240514D02*
X291960Y240514D01*
X291960Y242395D02*
X284940Y242395D01*
X284940Y244276D02*
X291960Y244276D01*
X291960Y246157D02*
X284940Y246157D01*
X279260Y248010D02*
X279260Y232990D01*
X272240Y232990D01*
X272240Y248010D01*
X279260Y248010D01*
X279260Y234871D02*
X272240Y234871D01*
X272240Y236752D02*
X279260Y236752D01*
X279260Y238633D02*
X272240Y238633D01*
X272240Y240514D02*
X279260Y240514D01*
X279260Y242395D02*
X272240Y242395D01*
X272240Y244276D02*
X279260Y244276D01*
X279260Y246157D02*
X272240Y246157D01*
X266560Y248010D02*
X266560Y232990D01*
X259540Y232990D01*
X259540Y248010D01*
X266560Y248010D01*
X266560Y234871D02*
X259540Y234871D01*
X259540Y236752D02*
X266560Y236752D01*
X266560Y238633D02*
X259540Y238633D01*
X259540Y240514D02*
X266560Y240514D01*
X266560Y242395D02*
X259540Y242395D01*
X259540Y244276D02*
X266560Y244276D01*
X266560Y246157D02*
X259540Y246157D01*
X253860Y248010D02*
X253860Y232990D01*
X246840Y232990D01*
X246840Y248010D01*
X253860Y248010D01*
X253860Y234871D02*
X246840Y234871D01*
X246840Y236752D02*
X253860Y236752D01*
X253860Y238633D02*
X246840Y238633D01*
X246840Y240514D02*
X253860Y240514D01*
X253860Y242395D02*
X246840Y242395D01*
X246840Y244276D02*
X253860Y244276D01*
X253860Y246157D02*
X246840Y246157D01*
X241160Y248010D02*
X241160Y232990D01*
X234140Y232990D01*
X234140Y248010D01*
X241160Y248010D01*
X241160Y234871D02*
X234140Y234871D01*
X234140Y236752D02*
X241160Y236752D01*
X241160Y238633D02*
X234140Y238633D01*
X234140Y240514D02*
X241160Y240514D01*
X241160Y242395D02*
X234140Y242395D01*
X234140Y244276D02*
X241160Y244276D01*
X241160Y246157D02*
X234140Y246157D01*
X228460Y248010D02*
X228460Y232990D01*
X221440Y232990D01*
X221440Y248010D01*
X228460Y248010D01*
X228460Y234871D02*
X221440Y234871D01*
X221440Y236752D02*
X228460Y236752D01*
X228460Y238633D02*
X221440Y238633D01*
X221440Y240514D02*
X228460Y240514D01*
X228460Y242395D02*
X221440Y242395D01*
X221440Y244276D02*
X228460Y244276D01*
X228460Y246157D02*
X221440Y246157D01*
X215760Y248010D02*
X215760Y232990D01*
X208740Y232990D01*
X208740Y248010D01*
X215760Y248010D01*
X215760Y234871D02*
X208740Y234871D01*
X208740Y236752D02*
X215760Y236752D01*
X215760Y238633D02*
X208740Y238633D01*
X208740Y240514D02*
X215760Y240514D01*
X215760Y242395D02*
X208740Y242395D01*
X208740Y244276D02*
X215760Y244276D01*
X215760Y246157D02*
X208740Y246157D01*
X203060Y248010D02*
X203060Y232990D01*
X196040Y232990D01*
X196040Y248010D01*
X203060Y248010D01*
X203060Y234871D02*
X196040Y234871D01*
X196040Y236752D02*
X203060Y236752D01*
X203060Y238633D02*
X196040Y238633D01*
X196040Y240514D02*
X203060Y240514D01*
X203060Y242395D02*
X196040Y242395D01*
X196040Y244276D02*
X203060Y244276D01*
X203060Y246157D02*
X196040Y246157D01*
X190360Y248010D02*
X190360Y232990D01*
X183340Y232990D01*
X183340Y248010D01*
X190360Y248010D01*
X190360Y234871D02*
X183340Y234871D01*
X183340Y236752D02*
X190360Y236752D01*
X190360Y238633D02*
X183340Y238633D01*
X183340Y240514D02*
X190360Y240514D01*
X190360Y242395D02*
X183340Y242395D01*
X183340Y244276D02*
X190360Y244276D01*
X190360Y246157D02*
X183340Y246157D01*
X177660Y248010D02*
X177660Y232990D01*
X170640Y232990D01*
X170640Y248010D01*
X177660Y248010D01*
X177660Y234871D02*
X170640Y234871D01*
X170640Y236752D02*
X177660Y236752D01*
X177660Y238633D02*
X170640Y238633D01*
X170640Y240514D02*
X177660Y240514D01*
X177660Y242395D02*
X170640Y242395D01*
X170640Y244276D02*
X177660Y244276D01*
X177660Y246157D02*
X170640Y246157D01*
X166660Y269840D02*
X151640Y269840D01*
X151640Y276860D01*
X166660Y276860D01*
X166660Y269840D01*
X166660Y271721D02*
X151640Y271721D01*
X151640Y273602D02*
X166660Y273602D01*
X166660Y275483D02*
X151640Y275483D01*
X151640Y282540D02*
X166660Y282540D01*
X151640Y282540D02*
X151640Y289560D01*
X166660Y289560D01*
X166660Y282540D01*
X166660Y284421D02*
X151640Y284421D01*
X151640Y286302D02*
X166660Y286302D01*
X166660Y288183D02*
X151640Y288183D01*
X151640Y295240D02*
X166660Y295240D01*
X151640Y295240D02*
X151640Y302260D01*
X166660Y302260D01*
X166660Y295240D01*
X166660Y297121D02*
X151640Y297121D01*
X151640Y299002D02*
X166660Y299002D01*
X166660Y300883D02*
X151640Y300883D01*
X151640Y307940D02*
X166660Y307940D01*
X151640Y307940D02*
X151640Y314960D01*
X166660Y314960D01*
X166660Y307940D01*
X166660Y309821D02*
X151640Y309821D01*
X151640Y311702D02*
X166660Y311702D01*
X166660Y313583D02*
X151640Y313583D01*
X151640Y320640D02*
X166660Y320640D01*
X151640Y320640D02*
X151640Y327660D01*
X166660Y327660D01*
X166660Y320640D01*
X166660Y322521D02*
X151640Y322521D01*
X151640Y324402D02*
X166660Y324402D01*
X166660Y326283D02*
X151640Y326283D01*
X151640Y333340D02*
X166660Y333340D01*
X151640Y333340D02*
X151640Y340360D01*
X166660Y340360D01*
X166660Y333340D01*
X166660Y335221D02*
X151640Y335221D01*
X151640Y337102D02*
X166660Y337102D01*
X166660Y338983D02*
X151640Y338983D01*
X151640Y346040D02*
X166660Y346040D01*
X151640Y346040D02*
X151640Y353060D01*
X166660Y353060D01*
X166660Y346040D01*
X166660Y347921D02*
X151640Y347921D01*
X151640Y349802D02*
X166660Y349802D01*
X166660Y351683D02*
X151640Y351683D01*
X151640Y358740D02*
X166660Y358740D01*
X151640Y358740D02*
X151640Y365760D01*
X166660Y365760D01*
X166660Y358740D01*
X166660Y360621D02*
X151640Y360621D01*
X151640Y362502D02*
X166660Y362502D01*
X166660Y364383D02*
X151640Y364383D01*
X151640Y371440D02*
X166660Y371440D01*
X151640Y371440D02*
X151640Y378460D01*
X166660Y378460D01*
X166660Y371440D01*
X166660Y373321D02*
X151640Y373321D01*
X151640Y375202D02*
X166660Y375202D01*
X166660Y377083D02*
X151640Y377083D01*
X151640Y384140D02*
X166660Y384140D01*
X151640Y384140D02*
X151640Y391160D01*
X166660Y391160D01*
X166660Y384140D01*
X166660Y386021D02*
X151640Y386021D01*
X151640Y387902D02*
X166660Y387902D01*
X166660Y389783D02*
X151640Y389783D01*
X170640Y412990D02*
X170640Y428010D01*
X177660Y428010D01*
X177660Y412990D01*
X170640Y412990D01*
X170640Y414871D02*
X177660Y414871D01*
X177660Y416752D02*
X170640Y416752D01*
X170640Y418633D02*
X177660Y418633D01*
X177660Y420514D02*
X170640Y420514D01*
X170640Y422395D02*
X177660Y422395D01*
X177660Y424276D02*
X170640Y424276D01*
X170640Y426157D02*
X177660Y426157D01*
X183340Y428010D02*
X183340Y412990D01*
X183340Y428010D02*
X190360Y428010D01*
X190360Y412990D01*
X183340Y412990D01*
X183340Y414871D02*
X190360Y414871D01*
X190360Y416752D02*
X183340Y416752D01*
X183340Y418633D02*
X190360Y418633D01*
X190360Y420514D02*
X183340Y420514D01*
X183340Y422395D02*
X190360Y422395D01*
X190360Y424276D02*
X183340Y424276D01*
X183340Y426157D02*
X190360Y426157D01*
X196040Y428010D02*
X196040Y412990D01*
X196040Y428010D02*
X203060Y428010D01*
X203060Y412990D01*
X196040Y412990D01*
X196040Y414871D02*
X203060Y414871D01*
X203060Y416752D02*
X196040Y416752D01*
X196040Y418633D02*
X203060Y418633D01*
X203060Y420514D02*
X196040Y420514D01*
X196040Y422395D02*
X203060Y422395D01*
X203060Y424276D02*
X196040Y424276D01*
X196040Y426157D02*
X203060Y426157D01*
X208740Y428010D02*
X208740Y412990D01*
X208740Y428010D02*
X215760Y428010D01*
X215760Y412990D01*
X208740Y412990D01*
X208740Y414871D02*
X215760Y414871D01*
X215760Y416752D02*
X208740Y416752D01*
X208740Y418633D02*
X215760Y418633D01*
X215760Y420514D02*
X208740Y420514D01*
X208740Y422395D02*
X215760Y422395D01*
X215760Y424276D02*
X208740Y424276D01*
X208740Y426157D02*
X215760Y426157D01*
X221440Y428010D02*
X221440Y412990D01*
X221440Y428010D02*
X228460Y428010D01*
X228460Y412990D01*
X221440Y412990D01*
X221440Y414871D02*
X228460Y414871D01*
X228460Y416752D02*
X221440Y416752D01*
X221440Y418633D02*
X228460Y418633D01*
X228460Y420514D02*
X221440Y420514D01*
X221440Y422395D02*
X228460Y422395D01*
X228460Y424276D02*
X221440Y424276D01*
X221440Y426157D02*
X228460Y426157D01*
X234140Y428010D02*
X234140Y412990D01*
X234140Y428010D02*
X241160Y428010D01*
X241160Y412990D01*
X234140Y412990D01*
X234140Y414871D02*
X241160Y414871D01*
X241160Y416752D02*
X234140Y416752D01*
X234140Y418633D02*
X241160Y418633D01*
X241160Y420514D02*
X234140Y420514D01*
X234140Y422395D02*
X241160Y422395D01*
X241160Y424276D02*
X234140Y424276D01*
X234140Y426157D02*
X241160Y426157D01*
X246840Y428010D02*
X246840Y412990D01*
X246840Y428010D02*
X253860Y428010D01*
X253860Y412990D01*
X246840Y412990D01*
X246840Y414871D02*
X253860Y414871D01*
X253860Y416752D02*
X246840Y416752D01*
X246840Y418633D02*
X253860Y418633D01*
X253860Y420514D02*
X246840Y420514D01*
X246840Y422395D02*
X253860Y422395D01*
X253860Y424276D02*
X246840Y424276D01*
X246840Y426157D02*
X253860Y426157D01*
X259540Y428010D02*
X259540Y412990D01*
X259540Y428010D02*
X266560Y428010D01*
X266560Y412990D01*
X259540Y412990D01*
X259540Y414871D02*
X266560Y414871D01*
X266560Y416752D02*
X259540Y416752D01*
X259540Y418633D02*
X266560Y418633D01*
X266560Y420514D02*
X259540Y420514D01*
X259540Y422395D02*
X266560Y422395D01*
X266560Y424276D02*
X259540Y424276D01*
X259540Y426157D02*
X266560Y426157D01*
X272240Y428010D02*
X272240Y412990D01*
X272240Y428010D02*
X279260Y428010D01*
X279260Y412990D01*
X272240Y412990D01*
X272240Y414871D02*
X279260Y414871D01*
X279260Y416752D02*
X272240Y416752D01*
X272240Y418633D02*
X279260Y418633D01*
X279260Y420514D02*
X272240Y420514D01*
X272240Y422395D02*
X279260Y422395D01*
X279260Y424276D02*
X272240Y424276D01*
X272240Y426157D02*
X279260Y426157D01*
X284940Y428010D02*
X284940Y412990D01*
X284940Y428010D02*
X291960Y428010D01*
X291960Y412990D01*
X284940Y412990D01*
X284940Y414871D02*
X291960Y414871D01*
X291960Y416752D02*
X284940Y416752D01*
X284940Y418633D02*
X291960Y418633D01*
X291960Y420514D02*
X284940Y420514D01*
X284940Y422395D02*
X291960Y422395D01*
X291960Y424276D02*
X284940Y424276D01*
X284940Y426157D02*
X291960Y426157D01*
X297640Y428010D02*
X297640Y412990D01*
X297640Y428010D02*
X304660Y428010D01*
X304660Y412990D01*
X297640Y412990D01*
X297640Y414871D02*
X304660Y414871D01*
X304660Y416752D02*
X297640Y416752D01*
X297640Y418633D02*
X304660Y418633D01*
X304660Y420514D02*
X297640Y420514D01*
X297640Y422395D02*
X304660Y422395D01*
X304660Y424276D02*
X297640Y424276D01*
X297640Y426157D02*
X304660Y426157D01*
X310340Y428010D02*
X310340Y412990D01*
X310340Y428010D02*
X317360Y428010D01*
X317360Y412990D01*
X310340Y412990D01*
X310340Y414871D02*
X317360Y414871D01*
X317360Y416752D02*
X310340Y416752D01*
X310340Y418633D02*
X317360Y418633D01*
X317360Y420514D02*
X310340Y420514D01*
X310340Y422395D02*
X317360Y422395D01*
X317360Y424276D02*
X310340Y424276D01*
X310340Y426157D02*
X317360Y426157D01*
X323040Y428010D02*
X323040Y412990D01*
X323040Y428010D02*
X330060Y428010D01*
X330060Y412990D01*
X323040Y412990D01*
X323040Y414871D02*
X330060Y414871D01*
X330060Y416752D02*
X323040Y416752D01*
X323040Y418633D02*
X330060Y418633D01*
X330060Y420514D02*
X323040Y420514D01*
X323040Y422395D02*
X330060Y422395D01*
X330060Y424276D02*
X323040Y424276D01*
X323040Y426157D02*
X330060Y426157D01*
X335740Y428010D02*
X335740Y412990D01*
X335740Y428010D02*
X342760Y428010D01*
X342760Y412990D01*
X335740Y412990D01*
X335740Y414871D02*
X342760Y414871D01*
X342760Y416752D02*
X335740Y416752D01*
X335740Y418633D02*
X342760Y418633D01*
X342760Y420514D02*
X335740Y420514D01*
X335740Y422395D02*
X342760Y422395D01*
X342760Y424276D02*
X335740Y424276D01*
X335740Y426157D02*
X342760Y426157D01*
D11*
X265150Y337500D03*
D12*
X207100Y470700D03*
X257100Y470700D03*
X155100Y176700D03*
X309100Y176700D03*
D13*
X147200Y29300D03*
X147200Y92300D03*
X191500Y29300D03*
X191500Y92300D03*
D14*
X63500Y176100D03*
X73000Y154100D03*
X54000Y154100D03*
D15*
X280000Y137800D03*
X280000Y104800D03*
X329000Y104800D03*
X329000Y137800D03*
D16*
X38500Y435547D02*
X38500Y453454D01*
X88500Y453454D02*
X88500Y435547D01*
D17*
X46500Y131003D03*
X80500Y199197D03*
D18*
X222986Y187800D03*
X243814Y187800D03*
D19*
X25400Y391414D03*
X25400Y370586D03*
D18*
X48514Y342900D03*
X27686Y342900D03*
D19*
X101600Y370586D03*
X101600Y391414D03*
X63500Y370586D03*
X63500Y391414D03*
D20*
X239200Y57620D02*
X239200Y42380D01*
X264600Y42380D02*
X264600Y57620D01*
X290000Y57620D02*
X290000Y42380D01*
X315400Y42380D02*
X315400Y57620D01*
X340800Y57620D02*
X340800Y42380D01*
D21*
X228100Y122200D03*
D22*
X202700Y122200D03*
X177300Y122200D03*
X151900Y122200D03*
D10*
X788860Y232990D02*
X788860Y248010D01*
X788860Y232990D02*
X781840Y232990D01*
X781840Y248010D01*
X788860Y248010D01*
X788860Y234871D02*
X781840Y234871D01*
X781840Y236752D02*
X788860Y236752D01*
X788860Y238633D02*
X781840Y238633D01*
X781840Y240514D02*
X788860Y240514D01*
X788860Y242395D02*
X781840Y242395D01*
X781840Y244276D02*
X788860Y244276D01*
X788860Y246157D02*
X781840Y246157D01*
X776160Y248010D02*
X776160Y232990D01*
X769140Y232990D01*
X769140Y248010D01*
X776160Y248010D01*
X776160Y234871D02*
X769140Y234871D01*
X769140Y236752D02*
X776160Y236752D01*
X776160Y238633D02*
X769140Y238633D01*
X769140Y240514D02*
X776160Y240514D01*
X776160Y242395D02*
X769140Y242395D01*
X769140Y244276D02*
X776160Y244276D01*
X776160Y246157D02*
X769140Y246157D01*
X763460Y248010D02*
X763460Y232990D01*
X756440Y232990D01*
X756440Y248010D01*
X763460Y248010D01*
X763460Y234871D02*
X756440Y234871D01*
X756440Y236752D02*
X763460Y236752D01*
X763460Y238633D02*
X756440Y238633D01*
X756440Y240514D02*
X763460Y240514D01*
X763460Y242395D02*
X756440Y242395D01*
X756440Y244276D02*
X763460Y244276D01*
X763460Y246157D02*
X756440Y246157D01*
X750760Y248010D02*
X750760Y232990D01*
X743740Y232990D01*
X743740Y248010D01*
X750760Y248010D01*
X750760Y234871D02*
X743740Y234871D01*
X743740Y236752D02*
X750760Y236752D01*
X750760Y238633D02*
X743740Y238633D01*
X743740Y240514D02*
X750760Y240514D01*
X750760Y242395D02*
X743740Y242395D01*
X743740Y244276D02*
X750760Y244276D01*
X750760Y246157D02*
X743740Y246157D01*
X738060Y248010D02*
X738060Y232990D01*
X731040Y232990D01*
X731040Y248010D01*
X738060Y248010D01*
X738060Y234871D02*
X731040Y234871D01*
X731040Y236752D02*
X738060Y236752D01*
X738060Y238633D02*
X731040Y238633D01*
X731040Y240514D02*
X738060Y240514D01*
X738060Y242395D02*
X731040Y242395D01*
X731040Y244276D02*
X738060Y244276D01*
X738060Y246157D02*
X731040Y246157D01*
X725360Y248010D02*
X725360Y232990D01*
X718340Y232990D01*
X718340Y248010D01*
X725360Y248010D01*
X725360Y234871D02*
X718340Y234871D01*
X718340Y236752D02*
X725360Y236752D01*
X725360Y238633D02*
X718340Y238633D01*
X718340Y240514D02*
X725360Y240514D01*
X725360Y242395D02*
X718340Y242395D01*
X718340Y244276D02*
X725360Y244276D01*
X725360Y246157D02*
X718340Y246157D01*
X712660Y248010D02*
X712660Y232990D01*
X705640Y232990D01*
X705640Y248010D01*
X712660Y248010D01*
X712660Y234871D02*
X705640Y234871D01*
X705640Y236752D02*
X712660Y236752D01*
X712660Y238633D02*
X705640Y238633D01*
X705640Y240514D02*
X712660Y240514D01*
X712660Y242395D02*
X705640Y242395D01*
X705640Y244276D02*
X712660Y244276D01*
X712660Y246157D02*
X705640Y246157D01*
X699960Y248010D02*
X699960Y232990D01*
X692940Y232990D01*
X692940Y248010D01*
X699960Y248010D01*
X699960Y234871D02*
X692940Y234871D01*
X692940Y236752D02*
X699960Y236752D01*
X699960Y238633D02*
X692940Y238633D01*
X692940Y240514D02*
X699960Y240514D01*
X699960Y242395D02*
X692940Y242395D01*
X692940Y244276D02*
X699960Y244276D01*
X699960Y246157D02*
X692940Y246157D01*
X687260Y248010D02*
X687260Y232990D01*
X680240Y232990D01*
X680240Y248010D01*
X687260Y248010D01*
X687260Y234871D02*
X680240Y234871D01*
X680240Y236752D02*
X687260Y236752D01*
X687260Y238633D02*
X680240Y238633D01*
X680240Y240514D02*
X687260Y240514D01*
X687260Y242395D02*
X680240Y242395D01*
X680240Y244276D02*
X687260Y244276D01*
X687260Y246157D02*
X680240Y246157D01*
X674560Y248010D02*
X674560Y232990D01*
X667540Y232990D01*
X667540Y248010D01*
X674560Y248010D01*
X674560Y234871D02*
X667540Y234871D01*
X667540Y236752D02*
X674560Y236752D01*
X674560Y238633D02*
X667540Y238633D01*
X667540Y240514D02*
X674560Y240514D01*
X674560Y242395D02*
X667540Y242395D01*
X667540Y244276D02*
X674560Y244276D01*
X674560Y246157D02*
X667540Y246157D01*
X661860Y248010D02*
X661860Y232990D01*
X654840Y232990D01*
X654840Y248010D01*
X661860Y248010D01*
X661860Y234871D02*
X654840Y234871D01*
X654840Y236752D02*
X661860Y236752D01*
X661860Y238633D02*
X654840Y238633D01*
X654840Y240514D02*
X661860Y240514D01*
X661860Y242395D02*
X654840Y242395D01*
X654840Y244276D02*
X661860Y244276D01*
X661860Y246157D02*
X654840Y246157D01*
X649160Y248010D02*
X649160Y232990D01*
X642140Y232990D01*
X642140Y248010D01*
X649160Y248010D01*
X649160Y234871D02*
X642140Y234871D01*
X642140Y236752D02*
X649160Y236752D01*
X649160Y238633D02*
X642140Y238633D01*
X642140Y240514D02*
X649160Y240514D01*
X649160Y242395D02*
X642140Y242395D01*
X642140Y244276D02*
X649160Y244276D01*
X649160Y246157D02*
X642140Y246157D01*
X636460Y248010D02*
X636460Y232990D01*
X629440Y232990D01*
X629440Y248010D01*
X636460Y248010D01*
X636460Y234871D02*
X629440Y234871D01*
X629440Y236752D02*
X636460Y236752D01*
X636460Y238633D02*
X629440Y238633D01*
X629440Y240514D02*
X636460Y240514D01*
X636460Y242395D02*
X629440Y242395D01*
X629440Y244276D02*
X636460Y244276D01*
X636460Y246157D02*
X629440Y246157D01*
X623760Y248010D02*
X623760Y232990D01*
X616740Y232990D01*
X616740Y248010D01*
X623760Y248010D01*
X623760Y234871D02*
X616740Y234871D01*
X616740Y236752D02*
X623760Y236752D01*
X623760Y238633D02*
X616740Y238633D01*
X616740Y240514D02*
X623760Y240514D01*
X623760Y242395D02*
X616740Y242395D01*
X616740Y244276D02*
X623760Y244276D01*
X623760Y246157D02*
X616740Y246157D01*
X612760Y269840D02*
X597740Y269840D01*
X597740Y276860D01*
X612760Y276860D01*
X612760Y269840D01*
X612760Y271721D02*
X597740Y271721D01*
X597740Y273602D02*
X612760Y273602D01*
X612760Y275483D02*
X597740Y275483D01*
X597740Y282540D02*
X612760Y282540D01*
X597740Y282540D02*
X597740Y289560D01*
X612760Y289560D01*
X612760Y282540D01*
X612760Y284421D02*
X597740Y284421D01*
X597740Y286302D02*
X612760Y286302D01*
X612760Y288183D02*
X597740Y288183D01*
X597740Y295240D02*
X612760Y295240D01*
X597740Y295240D02*
X597740Y302260D01*
X612760Y302260D01*
X612760Y295240D01*
X612760Y297121D02*
X597740Y297121D01*
X597740Y299002D02*
X612760Y299002D01*
X612760Y300883D02*
X597740Y300883D01*
X597740Y307940D02*
X612760Y307940D01*
X597740Y307940D02*
X597740Y314960D01*
X612760Y314960D01*
X612760Y307940D01*
X612760Y309821D02*
X597740Y309821D01*
X597740Y311702D02*
X612760Y311702D01*
X612760Y313583D02*
X597740Y313583D01*
X597740Y320640D02*
X612760Y320640D01*
X597740Y320640D02*
X597740Y327660D01*
X612760Y327660D01*
X612760Y320640D01*
X612760Y322521D02*
X597740Y322521D01*
X597740Y324402D02*
X612760Y324402D01*
X612760Y326283D02*
X597740Y326283D01*
X597740Y333340D02*
X612760Y333340D01*
X597740Y333340D02*
X597740Y340360D01*
X612760Y340360D01*
X612760Y333340D01*
X612760Y335221D02*
X597740Y335221D01*
X597740Y337102D02*
X612760Y337102D01*
X612760Y338983D02*
X597740Y338983D01*
X597740Y346040D02*
X612760Y346040D01*
X597740Y346040D02*
X597740Y353060D01*
X612760Y353060D01*
X612760Y346040D01*
X612760Y347921D02*
X597740Y347921D01*
X597740Y349802D02*
X612760Y349802D01*
X612760Y351683D02*
X597740Y351683D01*
X597740Y358740D02*
X612760Y358740D01*
X597740Y358740D02*
X597740Y365760D01*
X612760Y365760D01*
X612760Y358740D01*
X612760Y360621D02*
X597740Y360621D01*
X597740Y362502D02*
X612760Y362502D01*
X612760Y364383D02*
X597740Y364383D01*
X597740Y371440D02*
X612760Y371440D01*
X597740Y371440D02*
X597740Y378460D01*
X612760Y378460D01*
X612760Y371440D01*
X612760Y373321D02*
X597740Y373321D01*
X597740Y375202D02*
X612760Y375202D01*
X612760Y377083D02*
X597740Y377083D01*
X597740Y384140D02*
X612760Y384140D01*
X597740Y384140D02*
X597740Y391160D01*
X612760Y391160D01*
X612760Y384140D01*
X612760Y386021D02*
X597740Y386021D01*
X597740Y387902D02*
X612760Y387902D01*
X612760Y389783D02*
X597740Y389783D01*
X616740Y412990D02*
X616740Y428010D01*
X623760Y428010D01*
X623760Y412990D01*
X616740Y412990D01*
X616740Y414871D02*
X623760Y414871D01*
X623760Y416752D02*
X616740Y416752D01*
X616740Y418633D02*
X623760Y418633D01*
X623760Y420514D02*
X616740Y420514D01*
X616740Y422395D02*
X623760Y422395D01*
X623760Y424276D02*
X616740Y424276D01*
X616740Y426157D02*
X623760Y426157D01*
X629440Y428010D02*
X629440Y412990D01*
X629440Y428010D02*
X636460Y428010D01*
X636460Y412990D01*
X629440Y412990D01*
X629440Y414871D02*
X636460Y414871D01*
X636460Y416752D02*
X629440Y416752D01*
X629440Y418633D02*
X636460Y418633D01*
X636460Y420514D02*
X629440Y420514D01*
X629440Y422395D02*
X636460Y422395D01*
X636460Y424276D02*
X629440Y424276D01*
X629440Y426157D02*
X636460Y426157D01*
X642140Y428010D02*
X642140Y412990D01*
X642140Y428010D02*
X649160Y428010D01*
X649160Y412990D01*
X642140Y412990D01*
X642140Y414871D02*
X649160Y414871D01*
X649160Y416752D02*
X642140Y416752D01*
X642140Y418633D02*
X649160Y418633D01*
X649160Y420514D02*
X642140Y420514D01*
X642140Y422395D02*
X649160Y422395D01*
X649160Y424276D02*
X642140Y424276D01*
X642140Y426157D02*
X649160Y426157D01*
X654840Y428010D02*
X654840Y412990D01*
X654840Y428010D02*
X661860Y428010D01*
X661860Y412990D01*
X654840Y412990D01*
X654840Y414871D02*
X661860Y414871D01*
X661860Y416752D02*
X654840Y416752D01*
X654840Y418633D02*
X661860Y418633D01*
X661860Y420514D02*
X654840Y420514D01*
X654840Y422395D02*
X661860Y422395D01*
X661860Y424276D02*
X654840Y424276D01*
X654840Y426157D02*
X661860Y426157D01*
X667540Y428010D02*
X667540Y412990D01*
X667540Y428010D02*
X674560Y428010D01*
X674560Y412990D01*
X667540Y412990D01*
X667540Y414871D02*
X674560Y414871D01*
X674560Y416752D02*
X667540Y416752D01*
X667540Y418633D02*
X674560Y418633D01*
X674560Y420514D02*
X667540Y420514D01*
X667540Y422395D02*
X674560Y422395D01*
X674560Y424276D02*
X667540Y424276D01*
X667540Y426157D02*
X674560Y426157D01*
X680240Y428010D02*
X680240Y412990D01*
X680240Y428010D02*
X687260Y428010D01*
X687260Y412990D01*
X680240Y412990D01*
X680240Y414871D02*
X687260Y414871D01*
X687260Y416752D02*
X680240Y416752D01*
X680240Y418633D02*
X687260Y418633D01*
X687260Y420514D02*
X680240Y420514D01*
X680240Y422395D02*
X687260Y422395D01*
X687260Y424276D02*
X680240Y424276D01*
X680240Y426157D02*
X687260Y426157D01*
X692940Y428010D02*
X692940Y412990D01*
X692940Y428010D02*
X699960Y428010D01*
X699960Y412990D01*
X692940Y412990D01*
X692940Y414871D02*
X699960Y414871D01*
X699960Y416752D02*
X692940Y416752D01*
X692940Y418633D02*
X699960Y418633D01*
X699960Y420514D02*
X692940Y420514D01*
X692940Y422395D02*
X699960Y422395D01*
X699960Y424276D02*
X692940Y424276D01*
X692940Y426157D02*
X699960Y426157D01*
X705640Y428010D02*
X705640Y412990D01*
X705640Y428010D02*
X712660Y428010D01*
X712660Y412990D01*
X705640Y412990D01*
X705640Y414871D02*
X712660Y414871D01*
X712660Y416752D02*
X705640Y416752D01*
X705640Y418633D02*
X712660Y418633D01*
X712660Y420514D02*
X705640Y420514D01*
X705640Y422395D02*
X712660Y422395D01*
X712660Y424276D02*
X705640Y424276D01*
X705640Y426157D02*
X712660Y426157D01*
X718340Y428010D02*
X718340Y412990D01*
X718340Y428010D02*
X725360Y428010D01*
X725360Y412990D01*
X718340Y412990D01*
X718340Y414871D02*
X725360Y414871D01*
X725360Y416752D02*
X718340Y416752D01*
X718340Y418633D02*
X725360Y418633D01*
X725360Y420514D02*
X718340Y420514D01*
X718340Y422395D02*
X725360Y422395D01*
X725360Y424276D02*
X718340Y424276D01*
X718340Y426157D02*
X725360Y426157D01*
X731040Y428010D02*
X731040Y412990D01*
X731040Y428010D02*
X738060Y428010D01*
X738060Y412990D01*
X731040Y412990D01*
X731040Y414871D02*
X738060Y414871D01*
X738060Y416752D02*
X731040Y416752D01*
X731040Y418633D02*
X738060Y418633D01*
X738060Y420514D02*
X731040Y420514D01*
X731040Y422395D02*
X738060Y422395D01*
X738060Y424276D02*
X731040Y424276D01*
X731040Y426157D02*
X738060Y426157D01*
X743740Y428010D02*
X743740Y412990D01*
X743740Y428010D02*
X750760Y428010D01*
X750760Y412990D01*
X743740Y412990D01*
X743740Y414871D02*
X750760Y414871D01*
X750760Y416752D02*
X743740Y416752D01*
X743740Y418633D02*
X750760Y418633D01*
X750760Y420514D02*
X743740Y420514D01*
X743740Y422395D02*
X750760Y422395D01*
X750760Y424276D02*
X743740Y424276D01*
X743740Y426157D02*
X750760Y426157D01*
X756440Y428010D02*
X756440Y412990D01*
X756440Y428010D02*
X763460Y428010D01*
X763460Y412990D01*
X756440Y412990D01*
X756440Y414871D02*
X763460Y414871D01*
X763460Y416752D02*
X756440Y416752D01*
X756440Y418633D02*
X763460Y418633D01*
X763460Y420514D02*
X756440Y420514D01*
X756440Y422395D02*
X763460Y422395D01*
X763460Y424276D02*
X756440Y424276D01*
X756440Y426157D02*
X763460Y426157D01*
X769140Y428010D02*
X769140Y412990D01*
X769140Y428010D02*
X776160Y428010D01*
X776160Y412990D01*
X769140Y412990D01*
X769140Y414871D02*
X776160Y414871D01*
X776160Y416752D02*
X769140Y416752D01*
X769140Y418633D02*
X776160Y418633D01*
X776160Y420514D02*
X769140Y420514D01*
X769140Y422395D02*
X776160Y422395D01*
X776160Y424276D02*
X769140Y424276D01*
X769140Y426157D02*
X776160Y426157D01*
X781840Y428010D02*
X781840Y412990D01*
X781840Y428010D02*
X788860Y428010D01*
X788860Y412990D01*
X781840Y412990D01*
X781840Y414871D02*
X788860Y414871D01*
X788860Y416752D02*
X781840Y416752D01*
X781840Y418633D02*
X788860Y418633D01*
X788860Y420514D02*
X781840Y420514D01*
X781840Y422395D02*
X788860Y422395D01*
X788860Y424276D02*
X781840Y424276D01*
X781840Y426157D02*
X788860Y426157D01*
D11*
X711250Y337500D03*
D12*
X653200Y470700D03*
X703200Y470700D03*
X601200Y176700D03*
X755200Y176700D03*
D13*
X593300Y29300D03*
X593300Y92300D03*
X637600Y29300D03*
X637600Y92300D03*
D14*
X509600Y176100D03*
X519100Y154100D03*
X500100Y154100D03*
D15*
X726100Y137800D03*
X726100Y104800D03*
X775100Y104800D03*
X775100Y137800D03*
D16*
X484600Y435547D02*
X484600Y453454D01*
X534600Y453454D02*
X534600Y435547D01*
D17*
X492600Y131003D03*
X526600Y199197D03*
D18*
X669086Y187800D03*
X689914Y187800D03*
D19*
X471500Y391414D03*
X471500Y370586D03*
D18*
X494614Y342900D03*
X473786Y342900D03*
D19*
X547700Y370586D03*
X547700Y391414D03*
X509600Y370586D03*
X509600Y391414D03*
D20*
X685300Y57620D02*
X685300Y42380D01*
X710700Y42380D02*
X710700Y57620D01*
X736100Y57620D02*
X736100Y42380D01*
X761500Y42380D02*
X761500Y57620D01*
X786900Y57620D02*
X786900Y42380D01*
D21*
X674200Y122200D03*
D22*
X648800Y122200D03*
X623400Y122200D03*
X598000Y122200D03*
D23*
X87376Y152400D02*
X73152Y152400D01*
X87376Y152400D02*
X146304Y93472D01*
X73152Y152400D02*
X73000Y154100D01*
X146304Y93472D02*
X147200Y92300D01*
X329184Y105664D02*
X329184Y123952D01*
X329184Y105664D02*
X329000Y104800D01*
X199136Y93472D02*
X193040Y93472D01*
X209296Y103632D02*
X227584Y121920D01*
X209296Y103632D02*
X199136Y93472D01*
X193040Y93472D02*
X191500Y92300D01*
X227584Y121920D02*
X228100Y122200D01*
X211328Y103632D02*
X264160Y50800D01*
X211328Y103632D02*
X209296Y103632D01*
X264160Y50800D02*
X264600Y50000D01*
X148336Y58928D02*
X148336Y91440D01*
X148336Y58928D02*
X178816Y28448D01*
X178816Y18288D01*
X182880Y14224D01*
X229616Y14224D01*
X264160Y48768D01*
X148336Y91440D02*
X147200Y92300D01*
X264600Y50000D02*
X264160Y48768D01*
X79248Y369824D02*
X65024Y369824D01*
X79248Y369824D02*
X87376Y361696D01*
X128016Y361696D01*
X152400Y386080D01*
X158496Y386080D01*
X65024Y369824D02*
X63500Y370586D01*
X158496Y386080D02*
X159150Y387650D01*
X337312Y266192D02*
X337312Y241808D01*
X276352Y327152D02*
X266192Y337312D01*
X276352Y327152D02*
X337312Y266192D01*
X337312Y241808D02*
X339250Y240500D01*
X266192Y337312D02*
X265150Y337500D01*
X337312Y388112D02*
X337312Y418592D01*
X337312Y388112D02*
X276352Y327152D01*
X337312Y418592D02*
X339250Y420500D01*
X265150Y337500D02*
X276352Y327152D01*
X217424Y386080D02*
X170688Y386080D01*
X160528Y386080D01*
X217424Y386080D02*
X264160Y339344D01*
X160528Y386080D02*
X159150Y387650D01*
X264160Y339344D02*
X265150Y337500D01*
X156464Y254000D02*
X156464Y176784D01*
X156464Y254000D02*
X170688Y268224D01*
X170688Y386080D01*
X156464Y176784D02*
X155100Y176700D01*
D24*
X329184Y123952D03*
D23*
X205232Y469392D02*
X62992Y469392D01*
X38608Y445008D01*
X205232Y469392D02*
X207100Y470700D01*
X38608Y445008D02*
X38500Y444500D01*
X225552Y469392D02*
X256032Y469392D01*
X225552Y469392D02*
X201168Y445008D01*
X89408Y445008D01*
X256032Y469392D02*
X257100Y470700D01*
X89408Y445008D02*
X88500Y444500D01*
X217424Y138176D02*
X278384Y138176D01*
X217424Y138176D02*
X203200Y123952D01*
X278384Y138176D02*
X280000Y137800D01*
X203200Y123952D02*
X202700Y122200D01*
X146304Y392176D02*
X101600Y392176D01*
X146304Y392176D02*
X154432Y400304D01*
X292608Y400304D02*
X298704Y400304D01*
X292608Y400304D02*
X154432Y400304D01*
X298704Y400304D02*
X312928Y414528D01*
X312928Y418592D01*
X101600Y392176D02*
X101600Y391414D01*
X312928Y418592D02*
X313850Y420500D01*
X314960Y420624D02*
X325120Y420624D01*
X326550Y420500D01*
X314960Y420624D02*
X313850Y420500D01*
X233680Y186944D02*
X223520Y186944D01*
X222986Y187800D01*
X292608Y353568D02*
X292608Y400304D01*
D24*
X233680Y186944D03*
X292608Y353568D03*
D23*
X203200Y227584D02*
X241808Y188976D01*
X203200Y227584D02*
X182880Y227584D01*
X174752Y235712D01*
X174752Y239776D01*
X241808Y188976D02*
X243814Y187800D01*
X174752Y239776D02*
X174150Y240500D01*
X166624Y30480D02*
X148336Y30480D01*
X147200Y29300D01*
X182880Y168656D02*
X182880Y227584D01*
X182880Y168656D02*
X140208Y125984D01*
X140208Y117856D01*
X146304Y111760D01*
X207264Y111760D01*
X217424Y121920D01*
X217424Y132080D01*
X219456Y134112D01*
X235712Y134112D01*
X268224Y101600D01*
X268224Y69088D01*
X278384Y58928D01*
X278384Y38608D01*
X290576Y26416D01*
X321056Y26416D01*
X339344Y44704D01*
X339344Y48768D01*
X340800Y50000D01*
D24*
X166624Y30480D03*
D23*
X48768Y343408D02*
X48768Y375920D01*
X62992Y390144D01*
X48768Y343408D02*
X48514Y342900D01*
X62992Y390144D02*
X63500Y391414D01*
X34544Y390144D02*
X26416Y390144D01*
X34544Y390144D02*
X48768Y375920D01*
X26416Y390144D02*
X25400Y391414D01*
X83312Y371856D02*
X101600Y371856D01*
X83312Y371856D02*
X65024Y390144D01*
X101600Y371856D02*
X101600Y370586D01*
X65024Y390144D02*
X63500Y391414D01*
X62992Y341376D02*
X48768Y341376D01*
X48514Y342900D01*
D24*
X62992Y341376D03*
D23*
X26416Y357632D02*
X26416Y369824D01*
X25400Y370586D01*
X274320Y414528D02*
X274320Y418592D01*
X274320Y414528D02*
X264160Y404368D01*
X20320Y404368D01*
X14224Y398272D01*
X14224Y382016D01*
X24384Y371856D01*
X274320Y418592D02*
X275750Y420500D01*
X25400Y370586D02*
X24384Y371856D01*
D24*
X26416Y357632D03*
D23*
X26416Y341376D02*
X26416Y300736D01*
X12192Y286512D01*
X12192Y105664D01*
X20320Y97536D01*
X26416Y341376D02*
X27686Y342900D01*
X262128Y414528D02*
X262128Y418592D01*
X262128Y414528D02*
X256032Y408432D01*
X101600Y408432D01*
X97536Y412496D01*
X38608Y353568D02*
X28448Y343408D01*
X262128Y418592D02*
X263050Y420500D01*
X28448Y343408D02*
X27686Y342900D01*
D24*
X20320Y97536D03*
X97536Y412496D03*
X38608Y353568D03*
D23*
X54864Y276352D02*
X54864Y154432D01*
X54864Y276352D02*
X152400Y373888D01*
X158496Y373888D01*
X54864Y154432D02*
X54000Y154100D01*
X158496Y373888D02*
X159150Y374950D01*
X62992Y174752D02*
X62992Y146304D01*
X46736Y130048D01*
X62992Y174752D02*
X63500Y176100D01*
X46500Y131003D02*
X46736Y130048D01*
X327152Y138176D02*
X327152Y199136D01*
X221488Y434848D02*
X197104Y434848D01*
X186944Y424688D01*
X186944Y420624D01*
X327152Y138176D02*
X329000Y137800D01*
X186850Y420500D02*
X186944Y420624D01*
D24*
X327152Y199136D03*
X221488Y434848D03*
D23*
X158496Y284480D02*
X152400Y284480D01*
X136144Y268224D01*
X136144Y115824D01*
X144272Y107696D01*
X156464Y107696D01*
X178816Y85344D01*
X178816Y42672D01*
X191008Y30480D01*
X158496Y284480D02*
X159150Y286050D01*
X191008Y30480D02*
X191500Y29300D01*
X288544Y146304D02*
X288544Y239776D01*
X288544Y146304D02*
X314960Y119888D01*
X314960Y50800D01*
X288544Y239776D02*
X288450Y240500D01*
X314960Y50800D02*
X315400Y50000D01*
X302768Y233680D02*
X302768Y239776D01*
X302768Y233680D02*
X339344Y197104D01*
X339344Y71120D01*
X327152Y58928D01*
X327152Y38608D01*
X319024Y30480D01*
X308864Y30480D01*
X290576Y48768D01*
X302768Y239776D02*
X301150Y240500D01*
X290000Y50000D02*
X290576Y48768D01*
X274320Y201168D02*
X274320Y239776D01*
X274320Y201168D02*
X207264Y134112D01*
X162560Y134112D01*
X152400Y123952D01*
X274320Y239776D02*
X275750Y240500D01*
X152400Y123952D02*
X151900Y122200D01*
X312928Y241808D02*
X312928Y245872D01*
X306832Y251968D01*
X168656Y251968D01*
X166624Y249936D01*
X166624Y162560D01*
X152400Y148336D01*
X312928Y241808D02*
X313850Y240500D01*
D24*
X152400Y148336D03*
D23*
X519252Y152400D02*
X533476Y152400D01*
X592404Y93472D01*
X519252Y152400D02*
X519100Y154100D01*
X592404Y93472D02*
X593300Y92300D01*
X775284Y105664D02*
X775284Y123952D01*
X775284Y105664D02*
X775100Y104800D01*
X645236Y93472D02*
X639140Y93472D01*
X655396Y103632D02*
X673684Y121920D01*
X655396Y103632D02*
X645236Y93472D01*
X639140Y93472D02*
X637600Y92300D01*
X673684Y121920D02*
X674200Y122200D01*
X657428Y103632D02*
X710260Y50800D01*
X657428Y103632D02*
X655396Y103632D01*
X710260Y50800D02*
X710700Y50000D01*
X594436Y58928D02*
X594436Y91440D01*
X594436Y58928D02*
X624916Y28448D01*
X624916Y18288D01*
X628980Y14224D01*
X675716Y14224D01*
X710260Y48768D01*
X594436Y91440D02*
X593300Y92300D01*
X710700Y50000D02*
X710260Y48768D01*
X525348Y369824D02*
X511124Y369824D01*
X525348Y369824D02*
X533476Y361696D01*
X574116Y361696D01*
X598500Y386080D01*
X604596Y386080D01*
X511124Y369824D02*
X509600Y370586D01*
X604596Y386080D02*
X605250Y387650D01*
X783412Y266192D02*
X783412Y241808D01*
X722452Y327152D02*
X712292Y337312D01*
X722452Y327152D02*
X783412Y266192D01*
X783412Y241808D02*
X785350Y240500D01*
X712292Y337312D02*
X711250Y337500D01*
X783412Y388112D02*
X783412Y418592D01*
X783412Y388112D02*
X722452Y327152D01*
X783412Y418592D02*
X785350Y420500D01*
X711250Y337500D02*
X722452Y327152D01*
X663524Y386080D02*
X616788Y386080D01*
X606628Y386080D01*
X663524Y386080D02*
X710260Y339344D01*
X606628Y386080D02*
X605250Y387650D01*
X710260Y339344D02*
X711250Y337500D01*
X602564Y254000D02*
X602564Y176784D01*
X602564Y254000D02*
X616788Y268224D01*
X616788Y386080D01*
X602564Y176784D02*
X601200Y176700D01*
D24*
X775284Y123952D03*
D23*
X651332Y469392D02*
X509092Y469392D01*
X484708Y445008D01*
X651332Y469392D02*
X653200Y470700D01*
X484708Y445008D02*
X484600Y444500D01*
X671652Y469392D02*
X702132Y469392D01*
X671652Y469392D02*
X647268Y445008D01*
X535508Y445008D01*
X702132Y469392D02*
X703200Y470700D01*
X535508Y445008D02*
X534600Y444500D01*
X663524Y138176D02*
X724484Y138176D01*
X663524Y138176D02*
X649300Y123952D01*
X724484Y138176D02*
X726100Y137800D01*
X649300Y123952D02*
X648800Y122200D01*
X592404Y392176D02*
X547700Y392176D01*
X592404Y392176D02*
X600532Y400304D01*
X738708Y400304D02*
X744804Y400304D01*
X738708Y400304D02*
X600532Y400304D01*
X744804Y400304D02*
X759028Y414528D01*
X759028Y418592D01*
X547700Y392176D02*
X547700Y391414D01*
X759028Y418592D02*
X759950Y420500D01*
X761060Y420624D02*
X771220Y420624D01*
X772650Y420500D01*
X761060Y420624D02*
X759950Y420500D01*
X679780Y186944D02*
X669620Y186944D01*
X669086Y187800D01*
X738708Y353568D02*
X738708Y400304D01*
D24*
X679780Y186944D03*
X738708Y353568D03*
D23*
X649300Y227584D02*
X687908Y188976D01*
X649300Y227584D02*
X628980Y227584D01*
X620852Y235712D01*
X620852Y239776D01*
X687908Y188976D02*
X689914Y187800D01*
X620852Y239776D02*
X620250Y240500D01*
X612724Y30480D02*
X594436Y30480D01*
X593300Y29300D01*
X628980Y168656D02*
X628980Y227584D01*
X628980Y168656D02*
X586308Y125984D01*
X586308Y117856D01*
X592404Y111760D01*
X653364Y111760D01*
X663524Y121920D01*
X663524Y132080D01*
X665556Y134112D01*
X681812Y134112D01*
X714324Y101600D01*
X714324Y69088D01*
X724484Y58928D01*
X724484Y38608D01*
X736676Y26416D01*
X767156Y26416D01*
X785444Y44704D01*
X785444Y48768D01*
X786900Y50000D01*
D24*
X612724Y30480D03*
D23*
X494868Y343408D02*
X494868Y375920D01*
X509092Y390144D01*
X494868Y343408D02*
X494614Y342900D01*
X509092Y390144D02*
X509600Y391414D01*
X480644Y390144D02*
X472516Y390144D01*
X480644Y390144D02*
X494868Y375920D01*
X472516Y390144D02*
X471500Y391414D01*
X529412Y371856D02*
X547700Y371856D01*
X529412Y371856D02*
X511124Y390144D01*
X547700Y371856D02*
X547700Y370586D01*
X511124Y390144D02*
X509600Y391414D01*
X509092Y341376D02*
X494868Y341376D01*
X494614Y342900D01*
D24*
X509092Y341376D03*
D23*
X472516Y357632D02*
X472516Y369824D01*
X471500Y370586D01*
X720420Y414528D02*
X720420Y418592D01*
X720420Y414528D02*
X710260Y404368D01*
X466420Y404368D01*
X460324Y398272D01*
X460324Y382016D01*
X470484Y371856D01*
X720420Y418592D02*
X721850Y420500D01*
X471500Y370586D02*
X470484Y371856D01*
D24*
X472516Y357632D03*
D23*
X472516Y341376D02*
X472516Y300736D01*
X458292Y286512D01*
X458292Y105664D01*
X466420Y97536D01*
X472516Y341376D02*
X473786Y342900D01*
X708228Y414528D02*
X708228Y418592D01*
X708228Y414528D02*
X702132Y408432D01*
X547700Y408432D01*
X543636Y412496D01*
X484708Y353568D02*
X474548Y343408D01*
X708228Y418592D02*
X709150Y420500D01*
X474548Y343408D02*
X473786Y342900D01*
D24*
X466420Y97536D03*
X543636Y412496D03*
X484708Y353568D03*
D23*
X500964Y276352D02*
X500964Y154432D01*
X500964Y276352D02*
X598500Y373888D01*
X604596Y373888D01*
X500964Y154432D02*
X500100Y154100D01*
X604596Y373888D02*
X605250Y374950D01*
X509092Y174752D02*
X509092Y146304D01*
X492836Y130048D01*
X509092Y174752D02*
X509600Y176100D01*
X492600Y131003D02*
X492836Y130048D01*
X773252Y138176D02*
X773252Y199136D01*
X667588Y434848D02*
X643204Y434848D01*
X633044Y424688D01*
X633044Y420624D01*
X773252Y138176D02*
X775100Y137800D01*
X632950Y420500D02*
X633044Y420624D01*
D24*
X773252Y199136D03*
X667588Y434848D03*
D23*
X604596Y284480D02*
X598500Y284480D01*
X582244Y268224D01*
X582244Y115824D01*
X590372Y107696D01*
X602564Y107696D01*
X624916Y85344D01*
X624916Y42672D01*
X637108Y30480D01*
X604596Y284480D02*
X605250Y286050D01*
X637108Y30480D02*
X637600Y29300D01*
X734644Y146304D02*
X734644Y239776D01*
X734644Y146304D02*
X761060Y119888D01*
X761060Y50800D01*
X734644Y239776D02*
X734550Y240500D01*
X761060Y50800D02*
X761500Y50000D01*
X748868Y233680D02*
X748868Y239776D01*
X748868Y233680D02*
X785444Y197104D01*
X785444Y71120D01*
X773252Y58928D01*
X773252Y38608D01*
X765124Y30480D01*
X754964Y30480D01*
X736676Y48768D01*
X748868Y239776D02*
X747250Y240500D01*
X736100Y50000D02*
X736676Y48768D01*
X720420Y201168D02*
X720420Y239776D01*
X720420Y201168D02*
X653364Y134112D01*
X608660Y134112D01*
X598500Y123952D01*
X720420Y239776D02*
X721850Y240500D01*
X598500Y123952D02*
X598000Y122200D01*
X759028Y241808D02*
X759028Y245872D01*
X752932Y251968D01*
X614756Y251968D01*
X612724Y249936D01*
X612724Y162560D01*
X598500Y148336D01*
X759028Y241808D02*
X759950Y240500D01*
D24*
X598500Y148336D03*
M02*
