G04 EAGLE Gerber RS-274X export*
G75*
%MOMM*%
%FSLAX34Y34*%
%LPD*%
%INSilkscreen Bottom*%
%IPPOS*%
%AMOC8*
5,1,8,0,0,1.08239X$1,22.5*%
G01*
%ADD10R,0.228600X0.025400*%
%ADD11R,0.279400X0.025400*%
%ADD12R,0.330200X0.025400*%
%ADD13R,0.355600X0.025400*%
%ADD14R,0.381000X0.025400*%
%ADD15R,0.431800X0.025400*%
%ADD16R,0.457200X0.025400*%
%ADD17R,0.482600X0.025400*%
%ADD18R,0.533400X0.025400*%
%ADD19R,0.558800X0.025400*%
%ADD20R,0.584200X0.025400*%
%ADD21R,0.609600X0.025400*%
%ADD22R,0.635000X0.025400*%
%ADD23R,0.660400X0.025400*%
%ADD24R,0.685800X0.025400*%
%ADD25R,0.711200X0.025400*%
%ADD26R,0.736600X0.025400*%
%ADD27R,0.762000X0.025400*%
%ADD28R,0.787400X0.025400*%
%ADD29R,0.812800X0.025400*%
%ADD30R,0.838200X0.025400*%
%ADD31R,0.863600X0.025400*%
%ADD32R,0.889000X0.025400*%
%ADD33R,0.914400X0.025400*%
%ADD34R,0.939800X0.025400*%
%ADD35R,0.965200X0.025400*%
%ADD36R,0.990600X0.025400*%
%ADD37R,1.016000X0.025400*%
%ADD38R,1.041400X0.025400*%
%ADD39R,1.066800X0.025400*%
%ADD40R,1.092200X0.025400*%
%ADD41R,1.117600X0.025400*%
%ADD42R,1.143000X0.025400*%
%ADD43R,1.168400X0.025400*%
%ADD44R,1.193800X0.025400*%
%ADD45R,1.219200X0.025400*%
%ADD46R,1.244600X0.025400*%
%ADD47R,1.270000X0.025400*%
%ADD48R,1.295400X0.025400*%
%ADD49R,1.320800X0.025400*%
%ADD50R,1.346200X0.025400*%
%ADD51R,1.371600X0.025400*%
%ADD52R,1.397000X0.025400*%
%ADD53R,1.422400X0.025400*%
%ADD54R,1.447800X0.025400*%
%ADD55R,1.473200X0.025400*%
%ADD56R,1.498600X0.025400*%
%ADD57R,1.524000X0.025400*%
%ADD58R,1.549400X0.025400*%
%ADD59R,1.574800X0.025400*%
%ADD60R,1.600200X0.025400*%
%ADD61R,1.625600X0.025400*%
%ADD62R,1.651000X0.025400*%
%ADD63R,1.676400X0.025400*%
%ADD64R,1.701800X0.025400*%
%ADD65R,1.727200X0.025400*%
%ADD66R,1.752600X0.025400*%
%ADD67R,1.778000X0.025400*%
%ADD68R,1.803400X0.025400*%
%ADD69R,1.828800X0.025400*%
%ADD70R,1.854200X0.025400*%
%ADD71R,1.879600X0.025400*%
%ADD72R,1.905000X0.025400*%
%ADD73R,1.930400X0.025400*%
%ADD74R,1.955800X0.025400*%
%ADD75R,1.981200X0.025400*%
%ADD76R,2.006600X0.025400*%
%ADD77R,2.032000X0.025400*%
%ADD78R,2.057400X0.025400*%
%ADD79R,2.108200X0.025400*%
%ADD80R,2.082800X0.025400*%
%ADD81R,2.133600X0.025400*%
%ADD82R,2.159000X0.025400*%
%ADD83R,2.184400X0.025400*%
%ADD84R,2.209800X0.025400*%
%ADD85R,2.235200X0.025400*%
%ADD86R,2.260600X0.025400*%
%ADD87R,2.286000X0.025400*%
%ADD88R,2.336800X0.025400*%
%ADD89R,2.387600X0.025400*%
%ADD90R,3.683000X0.025400*%
%ADD91R,3.835400X0.025400*%
%ADD92R,3.886200X0.025400*%
%ADD93R,3.962400X0.025400*%
%ADD94R,4.013200X0.025400*%
%ADD95R,4.064000X0.025400*%
%ADD96R,4.089400X0.025400*%
%ADD97R,4.114800X0.025400*%
%ADD98R,4.140200X0.025400*%
%ADD99R,4.165600X0.025400*%
%ADD100R,4.191000X0.025400*%
%ADD101R,4.216400X0.025400*%
%ADD102R,4.241800X0.025400*%
%ADD103R,4.267200X0.025400*%
%ADD104R,4.292600X0.025400*%
%ADD105R,4.318000X0.025400*%
%ADD106R,4.343400X0.025400*%
%ADD107R,3.429000X0.025400*%
%ADD108R,3.378200X0.025400*%
%ADD109R,3.352800X0.025400*%
%ADD110R,3.327400X0.025400*%
%ADD111R,3.302000X0.025400*%
%ADD112R,3.276600X0.025400*%
%ADD113R,3.251200X0.025400*%
%ADD114R,3.225800X0.025400*%
%ADD115R,3.200400X0.025400*%
%ADD116R,3.175000X0.025400*%
%ADD117R,3.149600X0.025400*%
%ADD118R,3.124200X0.025400*%
%ADD119R,3.048000X0.025400*%
%ADD120R,3.022600X0.025400*%
%ADD121R,2.997200X0.025400*%
%ADD122R,2.946400X0.025400*%
%ADD123R,2.895600X0.025400*%
%ADD124R,2.819400X0.025400*%
%ADD125R,2.768600X0.025400*%
%ADD126R,2.667000X0.025400*%
%ADD127R,2.565400X0.025400*%
%ADD128C,0.000000*%
%ADD129C,0.127000*%
%ADD130C,0.101600*%
%ADD131C,0.200000*%


D10*
X7366Y0D03*
D11*
X7366Y254D03*
D12*
X46482Y19558D03*
D13*
X46355Y19812D03*
D14*
X46482Y20066D03*
D15*
X46482Y20320D03*
D16*
X46609Y20574D03*
X46609Y20828D03*
D17*
X46736Y21082D03*
D18*
X46736Y21336D03*
D19*
X46863Y21590D03*
X47117Y21844D03*
X47117Y22098D03*
D20*
X47244Y22352D03*
D21*
X47371Y22606D03*
D22*
X47498Y22860D03*
X47498Y23114D03*
X47752Y23368D03*
D23*
X47879Y23622D03*
D24*
X48006Y23876D03*
X48260Y24130D03*
X48260Y24384D03*
D25*
X48387Y24638D03*
X48641Y24892D03*
D26*
X48768Y25146D03*
X48768Y25400D03*
X49022Y25654D03*
D27*
X49149Y25908D03*
D28*
X49276Y26162D03*
D27*
X49403Y26416D03*
D28*
X49530Y26670D03*
D29*
X49657Y26924D03*
X49911Y27178D03*
D30*
X50038Y27432D03*
X50038Y27686D03*
X50292Y27940D03*
D31*
X50419Y28194D03*
D32*
X50546Y28448D03*
D31*
X50673Y28702D03*
D32*
X50800Y28956D03*
D33*
X50927Y29210D03*
X51181Y29464D03*
D34*
X51308Y29718D03*
X51308Y29972D03*
X51562Y30226D03*
D35*
X51689Y30480D03*
D36*
X51816Y30734D03*
D35*
X51943Y30988D03*
D36*
X52070Y31242D03*
D37*
X52197Y31496D03*
X52451Y31750D03*
D38*
X52578Y32004D03*
X52578Y32258D03*
X52832Y32512D03*
D39*
X52959Y32766D03*
D40*
X53086Y33020D03*
D39*
X53213Y33274D03*
D40*
X53340Y33528D03*
D41*
X53467Y33782D03*
X53721Y34036D03*
X53721Y34290D03*
D42*
X53848Y34544D03*
X54102Y34798D03*
D43*
X54229Y35052D03*
D44*
X54356Y35306D03*
D43*
X54483Y35560D03*
D44*
X54610Y35814D03*
D45*
X54737Y36068D03*
X54991Y36322D03*
X54991Y36576D03*
D46*
X55118Y36830D03*
X55372Y37084D03*
D47*
X55499Y37338D03*
D48*
X55626Y37592D03*
D47*
X55753Y37846D03*
D48*
X55880Y38100D03*
D49*
X56007Y38354D03*
X56261Y38608D03*
X56261Y38862D03*
D50*
X56388Y39116D03*
X56642Y39370D03*
D51*
X56769Y39624D03*
D52*
X56896Y39878D03*
D51*
X57023Y40132D03*
D52*
X57150Y40386D03*
D53*
X57277Y40640D03*
X57531Y40894D03*
X57531Y41148D03*
D54*
X57658Y41402D03*
X57912Y41656D03*
D55*
X58039Y41910D03*
X58039Y42164D03*
X58293Y42418D03*
D56*
X58420Y42672D03*
D57*
X58547Y42926D03*
X58801Y43180D03*
X58801Y43434D03*
D58*
X58928Y43688D03*
X59182Y43942D03*
D59*
X59309Y44196D03*
X59309Y44450D03*
X59563Y44704D03*
D60*
X59690Y44958D03*
D61*
X59817Y45212D03*
X60071Y45466D03*
X60071Y45720D03*
D62*
X60198Y45974D03*
X60452Y46228D03*
D63*
X60579Y46482D03*
X60579Y46736D03*
X60833Y46990D03*
D64*
X60960Y47244D03*
D65*
X61087Y47498D03*
X61341Y47752D03*
X61341Y48006D03*
D66*
X61468Y48260D03*
X61722Y48514D03*
D67*
X61849Y48768D03*
X61849Y49022D03*
X62103Y49276D03*
D68*
X62230Y49530D03*
D69*
X62357Y49784D03*
D68*
X62484Y50038D03*
D69*
X62611Y50292D03*
D70*
X62738Y50546D03*
X62992Y50800D03*
D71*
X63119Y51054D03*
X63119Y51308D03*
X63373Y51562D03*
D72*
X63500Y51816D03*
D73*
X63627Y52070D03*
D72*
X63754Y52324D03*
D73*
X63881Y52578D03*
D74*
X64008Y52832D03*
X64262Y53086D03*
D75*
X64389Y53340D03*
X64389Y53594D03*
X64643Y53848D03*
D76*
X64770Y54102D03*
D77*
X64897Y54356D03*
D76*
X65024Y54610D03*
D77*
X65151Y54864D03*
D78*
X65278Y55118D03*
X65532Y55372D03*
D79*
X65532Y55626D03*
D80*
X65659Y55880D03*
D79*
X65786Y56134D03*
D81*
X65913Y56388D03*
D82*
X66040Y56642D03*
X66040Y56896D03*
D83*
X66167Y57150D03*
D84*
X66294Y57404D03*
D85*
X66421Y57658D03*
X66421Y57912D03*
D86*
X66548Y58166D03*
D87*
X66675Y58420D03*
D88*
X66675Y58674D03*
D89*
X66675Y58928D03*
D90*
X60198Y59182D03*
D91*
X59690Y59436D03*
D92*
X59690Y59690D03*
D93*
X59563Y59944D03*
X59563Y60198D03*
D94*
X59563Y60452D03*
D95*
X59563Y60706D03*
D96*
X59690Y60960D03*
D97*
X59817Y61214D03*
X59817Y61468D03*
D98*
X59944Y61722D03*
D99*
X60071Y61976D03*
D100*
X60198Y62230D03*
X60198Y62484D03*
D101*
X60325Y62738D03*
D102*
X60452Y62992D03*
D103*
X60579Y63246D03*
X60833Y63500D03*
X60833Y63754D03*
D104*
X60960Y64008D03*
X61214Y64262D03*
D105*
X61341Y64516D03*
D104*
X61468Y64770D03*
D105*
X61595Y65024D03*
X61849Y65278D03*
D106*
X61976Y65532D03*
D105*
X62103Y65786D03*
X62357Y66040D03*
D106*
X62484Y66294D03*
X62738Y66548D03*
X62738Y66802D03*
X62992Y67056D03*
X62992Y67310D03*
D105*
X63119Y67564D03*
X63119Y67818D03*
D104*
X63246Y68072D03*
D103*
X63373Y68326D03*
X63373Y68580D03*
D101*
X63373Y68834D03*
X63373Y69088D03*
D99*
X63373Y69342D03*
D97*
X63119Y69596D03*
D93*
X62611Y69850D03*
D107*
X59944Y70104D03*
D108*
X59944Y70358D03*
D109*
X59817Y70612D03*
D110*
X59944Y70866D03*
D111*
X60071Y71120D03*
X60071Y71374D03*
X60325Y71628D03*
X60325Y71882D03*
X60579Y72136D03*
X60579Y72390D03*
X60833Y72644D03*
X60833Y72898D03*
X61087Y73152D03*
X61341Y73406D03*
X61341Y73660D03*
X61595Y73914D03*
X61595Y74168D03*
X61849Y74422D03*
X61849Y74676D03*
X62103Y74930D03*
X62103Y75184D03*
X62357Y75438D03*
X62357Y75692D03*
X62611Y75946D03*
D112*
X62738Y76200D03*
D111*
X62865Y76454D03*
D112*
X62992Y76708D03*
D111*
X63119Y76962D03*
D112*
X63246Y77216D03*
D111*
X63373Y77470D03*
D112*
X63500Y77724D03*
D111*
X63627Y77978D03*
D112*
X63754Y78232D03*
X64008Y78486D03*
D111*
X64135Y78740D03*
D112*
X64262Y78994D03*
D111*
X64389Y79248D03*
D112*
X64516Y79502D03*
D111*
X64643Y79756D03*
D112*
X64770Y80010D03*
D111*
X64897Y80264D03*
D112*
X65024Y80518D03*
D111*
X65151Y80772D03*
D112*
X65278Y81026D03*
X65532Y81280D03*
X65532Y81534D03*
X65786Y81788D03*
X65786Y82042D03*
X66040Y82296D03*
X66040Y82550D03*
X66294Y82804D03*
X66294Y83058D03*
X66548Y83312D03*
X66802Y83566D03*
X66802Y83820D03*
X67056Y84074D03*
X67056Y84328D03*
X67310Y84582D03*
X67310Y84836D03*
X67564Y85090D03*
X67564Y85344D03*
X67818Y85598D03*
D113*
X67945Y85852D03*
D112*
X68072Y86106D03*
D113*
X68199Y86360D03*
D114*
X68326Y86614D03*
X68580Y86868D03*
X68580Y87122D03*
D115*
X68707Y87376D03*
D116*
X68834Y87630D03*
D117*
X68961Y87884D03*
X69215Y88138D03*
D118*
X69342Y88392D03*
D119*
X69469Y88646D03*
D120*
X69596Y88900D03*
D121*
X69723Y89154D03*
D122*
X69977Y89408D03*
D123*
X69977Y89662D03*
D124*
X70104Y89916D03*
D125*
X70358Y90170D03*
D126*
X70358Y90424D03*
D127*
X70612Y90678D03*
D87*
X70739Y90932D03*
D128*
X226Y-706D02*
X0Y-1326D01*
X398Y-1129D02*
X398Y-762D01*
X399Y-1129D02*
X401Y-1151D01*
X406Y-1173D01*
X414Y-1193D01*
X426Y-1212D01*
X440Y-1229D01*
X457Y-1243D01*
X476Y-1255D01*
X496Y-1263D01*
X518Y-1268D01*
X540Y-1270D01*
X562Y-1268D01*
X584Y-1263D01*
X604Y-1255D01*
X623Y-1243D01*
X640Y-1229D01*
X654Y-1212D01*
X666Y-1193D01*
X674Y-1173D01*
X679Y-1151D01*
X681Y-1129D01*
X681Y-762D01*
X911Y-1072D02*
X1052Y-1129D01*
X911Y-1073D02*
X896Y-1065D01*
X883Y-1054D01*
X874Y-1040D01*
X868Y-1024D01*
X865Y-1007D01*
X866Y-991D01*
X872Y-975D01*
X880Y-960D01*
X892Y-948D01*
X906Y-939D01*
X922Y-934D01*
X939Y-932D01*
X972Y-934D01*
X1004Y-940D01*
X1036Y-948D01*
X1066Y-960D01*
X1052Y-1129D02*
X1067Y-1137D01*
X1080Y-1148D01*
X1089Y-1162D01*
X1095Y-1178D01*
X1098Y-1195D01*
X1097Y-1211D01*
X1091Y-1227D01*
X1083Y-1242D01*
X1071Y-1254D01*
X1057Y-1263D01*
X1041Y-1268D01*
X1024Y-1270D01*
X985Y-1268D01*
X945Y-1262D01*
X907Y-1254D01*
X869Y-1242D01*
X1350Y-1270D02*
X1491Y-1270D01*
X1350Y-1270D02*
X1333Y-1268D01*
X1317Y-1264D01*
X1303Y-1256D01*
X1290Y-1245D01*
X1279Y-1232D01*
X1271Y-1218D01*
X1267Y-1202D01*
X1265Y-1185D01*
X1265Y-1044D01*
X1267Y-1024D01*
X1272Y-1005D01*
X1280Y-987D01*
X1291Y-971D01*
X1305Y-957D01*
X1322Y-946D01*
X1339Y-938D01*
X1358Y-933D01*
X1378Y-931D01*
X1398Y-933D01*
X1417Y-938D01*
X1435Y-946D01*
X1451Y-957D01*
X1465Y-971D01*
X1476Y-988D01*
X1484Y-1005D01*
X1489Y-1024D01*
X1491Y-1044D01*
X1491Y-1101D01*
X1265Y-1101D01*
X1678Y-1270D02*
X1678Y-931D01*
X1847Y-931D01*
X1847Y-988D01*
X2023Y-1072D02*
X2165Y-1129D01*
X2024Y-1073D02*
X2009Y-1065D01*
X1996Y-1054D01*
X1987Y-1040D01*
X1981Y-1024D01*
X1978Y-1007D01*
X1979Y-991D01*
X1985Y-975D01*
X1993Y-960D01*
X2005Y-948D01*
X2019Y-939D01*
X2035Y-934D01*
X2052Y-932D01*
X2051Y-932D02*
X2084Y-934D01*
X2116Y-940D01*
X2148Y-948D01*
X2178Y-960D01*
X2164Y-1129D02*
X2179Y-1137D01*
X2192Y-1148D01*
X2201Y-1162D01*
X2207Y-1178D01*
X2210Y-1195D01*
X2209Y-1211D01*
X2203Y-1227D01*
X2195Y-1242D01*
X2183Y-1254D01*
X2169Y-1263D01*
X2153Y-1268D01*
X2136Y-1270D01*
X2097Y-1268D01*
X2057Y-1262D01*
X2019Y-1254D01*
X1981Y-1242D01*
X2362Y-1326D02*
X2588Y-706D01*
X2841Y-1072D02*
X2968Y-1072D01*
X2841Y-1072D02*
X2823Y-1074D01*
X2805Y-1079D01*
X2789Y-1087D01*
X2774Y-1098D01*
X2762Y-1111D01*
X2752Y-1127D01*
X2746Y-1144D01*
X2742Y-1162D01*
X2742Y-1180D01*
X2746Y-1198D01*
X2752Y-1215D01*
X2762Y-1231D01*
X2774Y-1244D01*
X2789Y-1255D01*
X2805Y-1263D01*
X2823Y-1268D01*
X2841Y-1270D01*
X2968Y-1270D01*
X2968Y-1016D01*
X2966Y-999D01*
X2962Y-983D01*
X2954Y-969D01*
X2943Y-956D01*
X2930Y-945D01*
X2916Y-937D01*
X2900Y-933D01*
X2883Y-931D01*
X2770Y-931D01*
X3170Y-931D02*
X3170Y-1270D01*
X3170Y-931D02*
X3311Y-931D01*
X3328Y-933D01*
X3344Y-937D01*
X3358Y-945D01*
X3371Y-956D01*
X3382Y-969D01*
X3390Y-983D01*
X3394Y-999D01*
X3396Y-1016D01*
X3396Y-1270D01*
X3806Y-1270D02*
X3806Y-762D01*
X3806Y-1270D02*
X3665Y-1270D01*
X3648Y-1268D01*
X3632Y-1264D01*
X3618Y-1256D01*
X3605Y-1245D01*
X3594Y-1232D01*
X3586Y-1218D01*
X3582Y-1202D01*
X3580Y-1185D01*
X3580Y-1016D01*
X3582Y-999D01*
X3586Y-983D01*
X3594Y-969D01*
X3605Y-956D01*
X3618Y-945D01*
X3632Y-937D01*
X3648Y-933D01*
X3665Y-931D01*
X3806Y-931D01*
X4009Y-931D02*
X4009Y-1270D01*
X4009Y-931D02*
X4179Y-931D01*
X4179Y-988D01*
X4397Y-1270D02*
X4538Y-1270D01*
X4397Y-1270D02*
X4380Y-1268D01*
X4364Y-1264D01*
X4350Y-1256D01*
X4337Y-1245D01*
X4326Y-1232D01*
X4318Y-1218D01*
X4314Y-1202D01*
X4312Y-1185D01*
X4313Y-1185D02*
X4313Y-1044D01*
X4315Y-1024D01*
X4320Y-1005D01*
X4328Y-987D01*
X4339Y-971D01*
X4353Y-957D01*
X4370Y-946D01*
X4387Y-938D01*
X4406Y-933D01*
X4426Y-931D01*
X4446Y-933D01*
X4465Y-938D01*
X4483Y-946D01*
X4499Y-957D01*
X4513Y-971D01*
X4524Y-988D01*
X4532Y-1005D01*
X4537Y-1024D01*
X4539Y-1044D01*
X4538Y-1044D02*
X4538Y-1101D01*
X4313Y-1101D01*
X4751Y-1072D02*
X4892Y-1129D01*
X4751Y-1073D02*
X4736Y-1065D01*
X4723Y-1054D01*
X4714Y-1040D01*
X4708Y-1024D01*
X4705Y-1007D01*
X4706Y-991D01*
X4712Y-975D01*
X4720Y-960D01*
X4732Y-948D01*
X4746Y-939D01*
X4762Y-934D01*
X4779Y-932D01*
X4812Y-934D01*
X4844Y-940D01*
X4876Y-948D01*
X4906Y-960D01*
X4892Y-1129D02*
X4907Y-1137D01*
X4920Y-1148D01*
X4929Y-1162D01*
X4935Y-1178D01*
X4938Y-1195D01*
X4937Y-1211D01*
X4931Y-1227D01*
X4923Y-1242D01*
X4911Y-1254D01*
X4897Y-1263D01*
X4881Y-1268D01*
X4864Y-1270D01*
X4825Y-1268D01*
X4785Y-1262D01*
X4747Y-1254D01*
X4709Y-1242D01*
X5097Y-1242D02*
X5097Y-1270D01*
X5097Y-1242D02*
X5125Y-1242D01*
X5125Y-1270D01*
X5097Y-1270D01*
X5330Y-1072D02*
X5471Y-1129D01*
X5330Y-1073D02*
X5315Y-1065D01*
X5302Y-1054D01*
X5293Y-1040D01*
X5287Y-1024D01*
X5284Y-1007D01*
X5285Y-991D01*
X5291Y-975D01*
X5299Y-960D01*
X5311Y-948D01*
X5325Y-939D01*
X5341Y-934D01*
X5358Y-932D01*
X5391Y-934D01*
X5423Y-940D01*
X5455Y-948D01*
X5485Y-960D01*
X5471Y-1129D02*
X5486Y-1137D01*
X5499Y-1148D01*
X5508Y-1162D01*
X5514Y-1178D01*
X5517Y-1195D01*
X5516Y-1211D01*
X5510Y-1227D01*
X5502Y-1242D01*
X5490Y-1254D01*
X5476Y-1263D01*
X5460Y-1268D01*
X5443Y-1270D01*
X5404Y-1268D01*
X5364Y-1262D01*
X5326Y-1254D01*
X5288Y-1242D01*
X5782Y-1072D02*
X5909Y-1072D01*
X5782Y-1072D02*
X5764Y-1074D01*
X5746Y-1079D01*
X5730Y-1087D01*
X5715Y-1098D01*
X5703Y-1111D01*
X5693Y-1127D01*
X5687Y-1144D01*
X5683Y-1162D01*
X5683Y-1180D01*
X5687Y-1198D01*
X5693Y-1215D01*
X5703Y-1231D01*
X5715Y-1244D01*
X5730Y-1255D01*
X5746Y-1263D01*
X5764Y-1268D01*
X5782Y-1270D01*
X5909Y-1270D01*
X5909Y-1016D01*
X5907Y-999D01*
X5903Y-983D01*
X5895Y-969D01*
X5884Y-956D01*
X5871Y-945D01*
X5857Y-937D01*
X5841Y-933D01*
X5824Y-931D01*
X5711Y-931D01*
X6111Y-931D02*
X6111Y-1270D01*
X6111Y-931D02*
X6252Y-931D01*
X6269Y-933D01*
X6285Y-937D01*
X6299Y-945D01*
X6312Y-956D01*
X6323Y-969D01*
X6331Y-983D01*
X6335Y-999D01*
X6337Y-1016D01*
X6337Y-1270D01*
X6488Y-931D02*
X6657Y-931D01*
X6544Y-762D02*
X6544Y-1185D01*
X6546Y-1202D01*
X6550Y-1218D01*
X6558Y-1232D01*
X6569Y-1245D01*
X6582Y-1256D01*
X6596Y-1264D01*
X6612Y-1268D01*
X6629Y-1270D01*
X6657Y-1270D01*
X6812Y-1157D02*
X6812Y-1044D01*
X6814Y-1024D01*
X6819Y-1005D01*
X6827Y-987D01*
X6838Y-971D01*
X6852Y-957D01*
X6869Y-946D01*
X6886Y-938D01*
X6905Y-933D01*
X6925Y-931D01*
X6945Y-933D01*
X6964Y-938D01*
X6982Y-946D01*
X6998Y-957D01*
X7012Y-971D01*
X7023Y-988D01*
X7031Y-1005D01*
X7036Y-1024D01*
X7038Y-1044D01*
X7038Y-1157D01*
X7036Y-1177D01*
X7031Y-1196D01*
X7023Y-1214D01*
X7012Y-1230D01*
X6998Y-1244D01*
X6982Y-1255D01*
X6964Y-1263D01*
X6945Y-1268D01*
X6925Y-1270D01*
X6905Y-1268D01*
X6886Y-1263D01*
X6869Y-1255D01*
X6852Y-1244D01*
X6838Y-1230D01*
X6827Y-1214D01*
X6819Y-1196D01*
X6814Y-1177D01*
X6812Y-1157D01*
X7250Y-1072D02*
X7392Y-1129D01*
X7251Y-1073D02*
X7236Y-1065D01*
X7223Y-1054D01*
X7214Y-1040D01*
X7208Y-1024D01*
X7205Y-1007D01*
X7206Y-991D01*
X7212Y-975D01*
X7220Y-960D01*
X7232Y-948D01*
X7246Y-939D01*
X7262Y-934D01*
X7279Y-932D01*
X7278Y-932D02*
X7311Y-934D01*
X7343Y-940D01*
X7375Y-948D01*
X7405Y-960D01*
X7391Y-1129D02*
X7406Y-1137D01*
X7419Y-1148D01*
X7428Y-1162D01*
X7434Y-1178D01*
X7437Y-1195D01*
X7436Y-1211D01*
X7430Y-1227D01*
X7422Y-1242D01*
X7410Y-1254D01*
X7396Y-1263D01*
X7380Y-1268D01*
X7363Y-1270D01*
X7324Y-1268D01*
X7284Y-1262D01*
X7246Y-1254D01*
X7208Y-1242D01*
X7589Y-1326D02*
X7815Y-706D01*
X7988Y-762D02*
X7988Y-1270D01*
X7988Y-762D02*
X8129Y-762D01*
X8151Y-764D01*
X8173Y-769D01*
X8193Y-777D01*
X8212Y-789D01*
X8229Y-803D01*
X8243Y-820D01*
X8255Y-839D01*
X8263Y-859D01*
X8268Y-881D01*
X8270Y-903D01*
X8270Y-1129D01*
X8268Y-1151D01*
X8263Y-1173D01*
X8255Y-1193D01*
X8243Y-1212D01*
X8229Y-1229D01*
X8212Y-1243D01*
X8193Y-1255D01*
X8173Y-1263D01*
X8151Y-1268D01*
X8129Y-1270D01*
X7988Y-1270D01*
X8458Y-1157D02*
X8458Y-1044D01*
X8460Y-1024D01*
X8465Y-1005D01*
X8473Y-987D01*
X8484Y-971D01*
X8498Y-957D01*
X8515Y-946D01*
X8532Y-938D01*
X8551Y-933D01*
X8571Y-931D01*
X8591Y-933D01*
X8610Y-938D01*
X8628Y-946D01*
X8644Y-957D01*
X8658Y-971D01*
X8669Y-988D01*
X8677Y-1005D01*
X8682Y-1024D01*
X8684Y-1044D01*
X8683Y-1044D02*
X8683Y-1157D01*
X8684Y-1157D02*
X8682Y-1177D01*
X8677Y-1196D01*
X8669Y-1214D01*
X8658Y-1230D01*
X8644Y-1244D01*
X8628Y-1255D01*
X8610Y-1263D01*
X8591Y-1268D01*
X8571Y-1270D01*
X8551Y-1268D01*
X8532Y-1263D01*
X8515Y-1255D01*
X8498Y-1244D01*
X8484Y-1230D01*
X8473Y-1214D01*
X8465Y-1196D01*
X8460Y-1177D01*
X8458Y-1157D01*
X8843Y-931D02*
X8928Y-1270D01*
X9013Y-1044D01*
X9097Y-1270D01*
X9182Y-931D01*
X9357Y-931D02*
X9357Y-1270D01*
X9357Y-931D02*
X9498Y-931D01*
X9515Y-933D01*
X9531Y-937D01*
X9545Y-945D01*
X9558Y-956D01*
X9569Y-969D01*
X9577Y-983D01*
X9581Y-999D01*
X9583Y-1016D01*
X9583Y-1270D01*
X9779Y-1185D02*
X9779Y-762D01*
X9779Y-1185D02*
X9781Y-1202D01*
X9785Y-1218D01*
X9793Y-1232D01*
X9804Y-1245D01*
X9817Y-1256D01*
X9831Y-1264D01*
X9847Y-1268D01*
X9864Y-1270D01*
X10012Y-1157D02*
X10012Y-1044D01*
X10014Y-1024D01*
X10019Y-1005D01*
X10027Y-987D01*
X10038Y-971D01*
X10052Y-957D01*
X10069Y-946D01*
X10086Y-938D01*
X10105Y-933D01*
X10125Y-931D01*
X10145Y-933D01*
X10164Y-938D01*
X10182Y-946D01*
X10198Y-957D01*
X10212Y-971D01*
X10223Y-988D01*
X10231Y-1005D01*
X10236Y-1024D01*
X10238Y-1044D01*
X10238Y-1157D01*
X10236Y-1177D01*
X10231Y-1196D01*
X10223Y-1214D01*
X10212Y-1230D01*
X10198Y-1244D01*
X10182Y-1255D01*
X10164Y-1263D01*
X10145Y-1268D01*
X10125Y-1270D01*
X10105Y-1268D01*
X10086Y-1263D01*
X10069Y-1255D01*
X10052Y-1244D01*
X10038Y-1230D01*
X10027Y-1214D01*
X10019Y-1196D01*
X10014Y-1177D01*
X10012Y-1157D01*
X10506Y-1072D02*
X10633Y-1072D01*
X10506Y-1072D02*
X10488Y-1074D01*
X10470Y-1079D01*
X10454Y-1087D01*
X10439Y-1098D01*
X10427Y-1111D01*
X10417Y-1127D01*
X10411Y-1144D01*
X10407Y-1162D01*
X10407Y-1180D01*
X10411Y-1198D01*
X10417Y-1215D01*
X10427Y-1231D01*
X10439Y-1244D01*
X10454Y-1255D01*
X10470Y-1263D01*
X10488Y-1268D01*
X10506Y-1270D01*
X10633Y-1270D01*
X10633Y-1016D01*
X10631Y-999D01*
X10627Y-983D01*
X10619Y-969D01*
X10608Y-956D01*
X10595Y-945D01*
X10581Y-937D01*
X10565Y-933D01*
X10548Y-931D01*
X10435Y-931D01*
X11044Y-762D02*
X11044Y-1270D01*
X10903Y-1270D01*
X10886Y-1268D01*
X10870Y-1264D01*
X10856Y-1256D01*
X10843Y-1245D01*
X10832Y-1232D01*
X10824Y-1218D01*
X10820Y-1202D01*
X10818Y-1185D01*
X10819Y-1185D02*
X10819Y-1016D01*
X10818Y-1016D02*
X10820Y-999D01*
X10824Y-983D01*
X10832Y-969D01*
X10843Y-956D01*
X10856Y-945D01*
X10870Y-937D01*
X10886Y-933D01*
X10903Y-931D01*
X11044Y-931D01*
X11274Y-1072D02*
X11415Y-1129D01*
X11274Y-1073D02*
X11259Y-1065D01*
X11246Y-1054D01*
X11237Y-1040D01*
X11231Y-1024D01*
X11228Y-1007D01*
X11229Y-991D01*
X11235Y-975D01*
X11243Y-960D01*
X11255Y-948D01*
X11269Y-939D01*
X11285Y-934D01*
X11302Y-932D01*
X11301Y-932D02*
X11334Y-934D01*
X11366Y-940D01*
X11398Y-948D01*
X11428Y-960D01*
X11415Y-1129D02*
X11430Y-1137D01*
X11443Y-1148D01*
X11452Y-1162D01*
X11458Y-1178D01*
X11461Y-1195D01*
X11460Y-1211D01*
X11454Y-1227D01*
X11446Y-1242D01*
X11434Y-1254D01*
X11420Y-1263D01*
X11404Y-1268D01*
X11387Y-1270D01*
X11386Y-1270D02*
X11347Y-1268D01*
X11307Y-1262D01*
X11269Y-1254D01*
X11231Y-1242D01*
X11612Y-1326D02*
X11838Y-706D01*
X11999Y-931D02*
X11999Y-1270D01*
X11985Y-790D02*
X11985Y-762D01*
X12014Y-762D01*
X12014Y-790D01*
X11985Y-790D01*
X12196Y-931D02*
X12196Y-1270D01*
X12196Y-931D02*
X12450Y-931D01*
X12467Y-933D01*
X12483Y-937D01*
X12497Y-945D01*
X12510Y-956D01*
X12521Y-969D01*
X12529Y-983D01*
X12533Y-999D01*
X12535Y-1016D01*
X12534Y-1016D02*
X12534Y-1270D01*
X12365Y-1270D02*
X12365Y-931D01*
X12822Y-1072D02*
X12949Y-1072D01*
X12822Y-1072D02*
X12804Y-1074D01*
X12786Y-1079D01*
X12770Y-1087D01*
X12755Y-1098D01*
X12743Y-1111D01*
X12733Y-1127D01*
X12727Y-1144D01*
X12723Y-1162D01*
X12723Y-1180D01*
X12727Y-1198D01*
X12733Y-1215D01*
X12743Y-1231D01*
X12755Y-1244D01*
X12770Y-1255D01*
X12786Y-1263D01*
X12804Y-1268D01*
X12822Y-1270D01*
X12949Y-1270D01*
X12949Y-1016D01*
X12950Y-1016D02*
X12948Y-999D01*
X12944Y-983D01*
X12936Y-969D01*
X12925Y-956D01*
X12912Y-945D01*
X12898Y-937D01*
X12882Y-933D01*
X12865Y-931D01*
X12752Y-931D01*
X13220Y-1270D02*
X13361Y-1270D01*
X13220Y-1270D02*
X13203Y-1268D01*
X13187Y-1264D01*
X13173Y-1256D01*
X13160Y-1245D01*
X13149Y-1232D01*
X13141Y-1218D01*
X13137Y-1202D01*
X13135Y-1185D01*
X13135Y-1016D01*
X13137Y-999D01*
X13141Y-983D01*
X13149Y-969D01*
X13160Y-956D01*
X13173Y-945D01*
X13187Y-937D01*
X13203Y-933D01*
X13220Y-931D01*
X13361Y-931D01*
X13361Y-1355D01*
X13359Y-1372D01*
X13355Y-1388D01*
X13347Y-1402D01*
X13336Y-1415D01*
X13323Y-1426D01*
X13309Y-1434D01*
X13293Y-1438D01*
X13276Y-1440D01*
X13276Y-1439D02*
X13163Y-1439D01*
X13632Y-1270D02*
X13773Y-1270D01*
X13632Y-1270D02*
X13615Y-1268D01*
X13599Y-1264D01*
X13585Y-1256D01*
X13572Y-1245D01*
X13561Y-1232D01*
X13553Y-1218D01*
X13549Y-1202D01*
X13547Y-1185D01*
X13548Y-1185D02*
X13548Y-1044D01*
X13550Y-1024D01*
X13555Y-1005D01*
X13563Y-987D01*
X13574Y-971D01*
X13588Y-957D01*
X13605Y-946D01*
X13622Y-938D01*
X13641Y-933D01*
X13661Y-931D01*
X13681Y-933D01*
X13700Y-938D01*
X13718Y-946D01*
X13734Y-957D01*
X13748Y-971D01*
X13759Y-988D01*
X13767Y-1005D01*
X13772Y-1024D01*
X13774Y-1044D01*
X13773Y-1044D02*
X13773Y-1101D01*
X13548Y-1101D01*
X13929Y-1326D02*
X14154Y-1326D01*
X14321Y-1016D02*
X14323Y-974D01*
X14328Y-932D01*
X14337Y-891D01*
X14350Y-851D01*
X14366Y-812D01*
X14386Y-775D01*
X14408Y-739D01*
X14434Y-706D01*
X14321Y-1016D02*
X14323Y-1058D01*
X14328Y-1100D01*
X14337Y-1141D01*
X14350Y-1181D01*
X14366Y-1220D01*
X14386Y-1257D01*
X14408Y-1293D01*
X14434Y-1326D01*
X14601Y-875D02*
X14743Y-762D01*
X14743Y-1270D01*
X14884Y-1270D02*
X14601Y-1270D01*
X15059Y-1129D02*
X15061Y-1107D01*
X15066Y-1085D01*
X15074Y-1065D01*
X15086Y-1046D01*
X15100Y-1029D01*
X15117Y-1015D01*
X15136Y-1003D01*
X15156Y-995D01*
X15178Y-990D01*
X15200Y-988D01*
X15222Y-990D01*
X15244Y-995D01*
X15264Y-1003D01*
X15283Y-1015D01*
X15300Y-1029D01*
X15314Y-1046D01*
X15326Y-1065D01*
X15334Y-1085D01*
X15339Y-1107D01*
X15341Y-1129D01*
X15339Y-1151D01*
X15334Y-1173D01*
X15326Y-1193D01*
X15314Y-1212D01*
X15300Y-1229D01*
X15283Y-1243D01*
X15264Y-1255D01*
X15244Y-1263D01*
X15222Y-1268D01*
X15200Y-1270D01*
X15178Y-1268D01*
X15156Y-1263D01*
X15136Y-1255D01*
X15117Y-1243D01*
X15100Y-1229D01*
X15086Y-1212D01*
X15074Y-1193D01*
X15066Y-1173D01*
X15061Y-1151D01*
X15059Y-1129D01*
X15087Y-875D02*
X15089Y-855D01*
X15094Y-836D01*
X15102Y-818D01*
X15113Y-802D01*
X15127Y-788D01*
X15144Y-777D01*
X15161Y-769D01*
X15180Y-764D01*
X15200Y-762D01*
X15220Y-764D01*
X15239Y-769D01*
X15257Y-777D01*
X15273Y-788D01*
X15287Y-802D01*
X15298Y-819D01*
X15306Y-836D01*
X15311Y-855D01*
X15313Y-875D01*
X15311Y-895D01*
X15306Y-914D01*
X15298Y-932D01*
X15287Y-948D01*
X15273Y-962D01*
X15257Y-973D01*
X15239Y-981D01*
X15220Y-986D01*
X15200Y-988D01*
X15180Y-986D01*
X15161Y-981D01*
X15144Y-973D01*
X15127Y-962D01*
X15113Y-948D01*
X15102Y-931D01*
X15094Y-914D01*
X15089Y-895D01*
X15087Y-875D01*
X15621Y-1016D02*
X15619Y-1058D01*
X15614Y-1100D01*
X15605Y-1141D01*
X15592Y-1181D01*
X15576Y-1220D01*
X15556Y-1257D01*
X15534Y-1293D01*
X15508Y-1326D01*
X15621Y-1016D02*
X15619Y-974D01*
X15614Y-932D01*
X15605Y-891D01*
X15592Y-851D01*
X15576Y-812D01*
X15556Y-775D01*
X15534Y-739D01*
X15508Y-706D01*
X15795Y-1242D02*
X15795Y-1270D01*
X15795Y-1242D02*
X15823Y-1242D01*
X15823Y-1270D01*
X15795Y-1270D01*
X16002Y-1270D02*
X16002Y-762D01*
X16002Y-1270D02*
X16143Y-1270D01*
X16160Y-1268D01*
X16176Y-1264D01*
X16190Y-1256D01*
X16203Y-1245D01*
X16214Y-1232D01*
X16222Y-1218D01*
X16226Y-1202D01*
X16228Y-1185D01*
X16228Y-1016D01*
X16226Y-999D01*
X16222Y-983D01*
X16214Y-969D01*
X16203Y-956D01*
X16190Y-945D01*
X16176Y-937D01*
X16160Y-933D01*
X16143Y-931D01*
X16002Y-931D01*
X16417Y-931D02*
X16417Y-1270D01*
X16417Y-931D02*
X16671Y-931D01*
X16688Y-933D01*
X16704Y-937D01*
X16718Y-945D01*
X16731Y-956D01*
X16742Y-969D01*
X16750Y-983D01*
X16754Y-999D01*
X16756Y-1016D01*
X16756Y-1270D01*
X16586Y-1270D02*
X16586Y-931D01*
X16962Y-931D02*
X16962Y-1439D01*
X16962Y-931D02*
X17104Y-931D01*
X17121Y-933D01*
X17137Y-937D01*
X17151Y-945D01*
X17164Y-956D01*
X17175Y-969D01*
X17183Y-983D01*
X17187Y-999D01*
X17189Y-1016D01*
X17188Y-1016D02*
X17188Y-1185D01*
X17189Y-1185D02*
X17187Y-1202D01*
X17183Y-1218D01*
X17175Y-1232D01*
X17164Y-1245D01*
X17151Y-1256D01*
X17137Y-1264D01*
X17121Y-1268D01*
X17104Y-1270D01*
X16962Y-1270D01*
D12*
X48768Y248412D03*
D13*
X48641Y248666D03*
D14*
X48768Y248920D03*
D15*
X48768Y249174D03*
D16*
X48895Y249428D03*
X48895Y249682D03*
D17*
X49022Y249936D03*
D18*
X49022Y250190D03*
D19*
X49149Y250444D03*
X49403Y250698D03*
X49403Y250952D03*
D20*
X49530Y251206D03*
D21*
X49657Y251460D03*
D22*
X49784Y251714D03*
X49784Y251968D03*
X50038Y252222D03*
D23*
X50165Y252476D03*
D24*
X50292Y252730D03*
X50546Y252984D03*
X50546Y253238D03*
D25*
X50673Y253492D03*
X50927Y253746D03*
D26*
X51054Y254000D03*
X51054Y254254D03*
X51308Y254508D03*
D27*
X51435Y254762D03*
D28*
X51562Y255016D03*
D27*
X51689Y255270D03*
D28*
X51816Y255524D03*
D29*
X51943Y255778D03*
X52197Y256032D03*
D30*
X52324Y256286D03*
X52324Y256540D03*
X52578Y256794D03*
D31*
X52705Y257048D03*
D32*
X52832Y257302D03*
D31*
X52959Y257556D03*
D32*
X53086Y257810D03*
D33*
X53213Y258064D03*
X53467Y258318D03*
D34*
X53594Y258572D03*
X53594Y258826D03*
X53848Y259080D03*
D35*
X53975Y259334D03*
D36*
X54102Y259588D03*
D35*
X54229Y259842D03*
D36*
X54356Y260096D03*
D37*
X54483Y260350D03*
X54737Y260604D03*
D38*
X54864Y260858D03*
X54864Y261112D03*
X55118Y261366D03*
D39*
X55245Y261620D03*
D40*
X55372Y261874D03*
D39*
X55499Y262128D03*
D40*
X55626Y262382D03*
D41*
X55753Y262636D03*
X56007Y262890D03*
X56007Y263144D03*
D42*
X56134Y263398D03*
X56388Y263652D03*
D43*
X56515Y263906D03*
D44*
X56642Y264160D03*
D43*
X56769Y264414D03*
D44*
X56896Y264668D03*
D45*
X57023Y264922D03*
X57277Y265176D03*
X57277Y265430D03*
D46*
X57404Y265684D03*
X57658Y265938D03*
D47*
X57785Y266192D03*
D48*
X57912Y266446D03*
D47*
X58039Y266700D03*
D48*
X58166Y266954D03*
D49*
X58293Y267208D03*
X58547Y267462D03*
X58547Y267716D03*
D50*
X58674Y267970D03*
X58928Y268224D03*
D51*
X59055Y268478D03*
D52*
X59182Y268732D03*
D51*
X59309Y268986D03*
D52*
X59436Y269240D03*
D53*
X59563Y269494D03*
X59817Y269748D03*
X59817Y270002D03*
D54*
X59944Y270256D03*
X60198Y270510D03*
D55*
X60325Y270764D03*
X60325Y271018D03*
X60579Y271272D03*
D56*
X60706Y271526D03*
D57*
X60833Y271780D03*
X61087Y272034D03*
X61087Y272288D03*
D58*
X61214Y272542D03*
X61468Y272796D03*
D59*
X61595Y273050D03*
X61595Y273304D03*
X61849Y273558D03*
D60*
X61976Y273812D03*
D61*
X62103Y274066D03*
X62357Y274320D03*
X62357Y274574D03*
D62*
X62484Y274828D03*
X62738Y275082D03*
D63*
X62865Y275336D03*
X62865Y275590D03*
X63119Y275844D03*
D64*
X63246Y276098D03*
D65*
X63373Y276352D03*
X63627Y276606D03*
X63627Y276860D03*
D66*
X63754Y277114D03*
X64008Y277368D03*
D67*
X64135Y277622D03*
X64135Y277876D03*
X64389Y278130D03*
D68*
X64516Y278384D03*
D69*
X64643Y278638D03*
D68*
X64770Y278892D03*
D69*
X64897Y279146D03*
D70*
X65024Y279400D03*
X65278Y279654D03*
D71*
X65405Y279908D03*
X65405Y280162D03*
X65659Y280416D03*
D72*
X65786Y280670D03*
D73*
X65913Y280924D03*
D72*
X66040Y281178D03*
D73*
X66167Y281432D03*
D74*
X66294Y281686D03*
X66548Y281940D03*
D75*
X66675Y282194D03*
X66675Y282448D03*
X66929Y282702D03*
D76*
X67056Y282956D03*
D77*
X67183Y283210D03*
D76*
X67310Y283464D03*
D77*
X67437Y283718D03*
D78*
X67564Y283972D03*
X67818Y284226D03*
D79*
X67818Y284480D03*
D80*
X67945Y284734D03*
D79*
X68072Y284988D03*
D81*
X68199Y285242D03*
D82*
X68326Y285496D03*
X68326Y285750D03*
D83*
X68453Y286004D03*
D84*
X68580Y286258D03*
D85*
X68707Y286512D03*
X68707Y286766D03*
D86*
X68834Y287020D03*
D87*
X68961Y287274D03*
D88*
X68961Y287528D03*
D89*
X68961Y287782D03*
D90*
X62484Y288036D03*
D91*
X61976Y288290D03*
D92*
X61976Y288544D03*
D93*
X61849Y288798D03*
X61849Y289052D03*
D94*
X61849Y289306D03*
D95*
X61849Y289560D03*
D96*
X61976Y289814D03*
D97*
X62103Y290068D03*
X62103Y290322D03*
D98*
X62230Y290576D03*
D99*
X62357Y290830D03*
D100*
X62484Y291084D03*
X62484Y291338D03*
D101*
X62611Y291592D03*
D102*
X62738Y291846D03*
D103*
X62865Y292100D03*
X63119Y292354D03*
X63119Y292608D03*
D104*
X63246Y292862D03*
X63500Y293116D03*
D105*
X63627Y293370D03*
D104*
X63754Y293624D03*
D105*
X63881Y293878D03*
X64135Y294132D03*
D106*
X64262Y294386D03*
D105*
X64389Y294640D03*
X64643Y294894D03*
D106*
X64770Y295148D03*
X65024Y295402D03*
X65024Y295656D03*
X65278Y295910D03*
X65278Y296164D03*
D105*
X65405Y296418D03*
X65405Y296672D03*
D104*
X65532Y296926D03*
D103*
X65659Y297180D03*
X65659Y297434D03*
D101*
X65659Y297688D03*
X65659Y297942D03*
D99*
X65659Y298196D03*
D97*
X65405Y298450D03*
D93*
X64897Y298704D03*
D107*
X62230Y298958D03*
D108*
X62230Y299212D03*
D109*
X62103Y299466D03*
D110*
X62230Y299720D03*
D111*
X62357Y299974D03*
X62357Y300228D03*
X62611Y300482D03*
X62611Y300736D03*
X62865Y300990D03*
X62865Y301244D03*
X63119Y301498D03*
X63119Y301752D03*
X63373Y302006D03*
X63627Y302260D03*
X63627Y302514D03*
X63881Y302768D03*
X63881Y303022D03*
X64135Y303276D03*
X64135Y303530D03*
X64389Y303784D03*
X64389Y304038D03*
X64643Y304292D03*
X64643Y304546D03*
X64897Y304800D03*
D112*
X65024Y305054D03*
D111*
X65151Y305308D03*
D112*
X65278Y305562D03*
D111*
X65405Y305816D03*
D112*
X65532Y306070D03*
D111*
X65659Y306324D03*
D112*
X65786Y306578D03*
D111*
X65913Y306832D03*
D112*
X66040Y307086D03*
X66294Y307340D03*
D111*
X66421Y307594D03*
D112*
X66548Y307848D03*
D111*
X66675Y308102D03*
D112*
X66802Y308356D03*
D111*
X66929Y308610D03*
D112*
X67056Y308864D03*
D111*
X67183Y309118D03*
D112*
X67310Y309372D03*
D111*
X67437Y309626D03*
D112*
X67564Y309880D03*
X67818Y310134D03*
X67818Y310388D03*
X68072Y310642D03*
X68072Y310896D03*
X68326Y311150D03*
X68326Y311404D03*
X68580Y311658D03*
X68580Y311912D03*
X68834Y312166D03*
X69088Y312420D03*
X69088Y312674D03*
X69342Y312928D03*
X69342Y313182D03*
X69596Y313436D03*
X69596Y313690D03*
X69850Y313944D03*
X69850Y314198D03*
X70104Y314452D03*
D113*
X70231Y314706D03*
D112*
X70358Y314960D03*
D113*
X70485Y315214D03*
D114*
X70612Y315468D03*
X70866Y315722D03*
X70866Y315976D03*
D115*
X70993Y316230D03*
D116*
X71120Y316484D03*
D117*
X71247Y316738D03*
X71501Y316992D03*
D118*
X71628Y317246D03*
D119*
X71755Y317500D03*
D120*
X71882Y317754D03*
D121*
X72009Y318008D03*
D122*
X72263Y318262D03*
D123*
X72263Y318516D03*
D124*
X72390Y318770D03*
D125*
X72644Y319024D03*
D126*
X72644Y319278D03*
D127*
X72898Y319532D03*
D87*
X73025Y319786D03*
D12*
X310388Y426212D03*
D13*
X310261Y426466D03*
D14*
X310388Y426720D03*
D15*
X310388Y426974D03*
D16*
X310515Y427228D03*
X310515Y427482D03*
D17*
X310642Y427736D03*
D18*
X310642Y427990D03*
D19*
X310769Y428244D03*
X311023Y428498D03*
X311023Y428752D03*
D20*
X311150Y429006D03*
D21*
X311277Y429260D03*
D22*
X311404Y429514D03*
X311404Y429768D03*
X311658Y430022D03*
D23*
X311785Y430276D03*
D24*
X311912Y430530D03*
X312166Y430784D03*
X312166Y431038D03*
D25*
X312293Y431292D03*
X312547Y431546D03*
D26*
X312674Y431800D03*
X312674Y432054D03*
X312928Y432308D03*
D27*
X313055Y432562D03*
D28*
X313182Y432816D03*
D27*
X313309Y433070D03*
D28*
X313436Y433324D03*
D29*
X313563Y433578D03*
X313817Y433832D03*
D30*
X313944Y434086D03*
X313944Y434340D03*
X314198Y434594D03*
D31*
X314325Y434848D03*
D32*
X314452Y435102D03*
D31*
X314579Y435356D03*
D32*
X314706Y435610D03*
D33*
X314833Y435864D03*
X315087Y436118D03*
D34*
X315214Y436372D03*
X315214Y436626D03*
X315468Y436880D03*
D35*
X315595Y437134D03*
D36*
X315722Y437388D03*
D35*
X315849Y437642D03*
D36*
X315976Y437896D03*
D37*
X316103Y438150D03*
X316357Y438404D03*
D38*
X316484Y438658D03*
X316484Y438912D03*
X316738Y439166D03*
D39*
X316865Y439420D03*
D40*
X316992Y439674D03*
D39*
X317119Y439928D03*
D40*
X317246Y440182D03*
D41*
X317373Y440436D03*
X317627Y440690D03*
X317627Y440944D03*
D42*
X317754Y441198D03*
X318008Y441452D03*
D43*
X318135Y441706D03*
D44*
X318262Y441960D03*
D43*
X318389Y442214D03*
D44*
X318516Y442468D03*
D45*
X318643Y442722D03*
X318897Y442976D03*
X318897Y443230D03*
D46*
X319024Y443484D03*
X319278Y443738D03*
D47*
X319405Y443992D03*
D48*
X319532Y444246D03*
D47*
X319659Y444500D03*
D48*
X319786Y444754D03*
D49*
X319913Y445008D03*
X320167Y445262D03*
X320167Y445516D03*
D50*
X320294Y445770D03*
X320548Y446024D03*
D51*
X320675Y446278D03*
D52*
X320802Y446532D03*
D51*
X320929Y446786D03*
D52*
X321056Y447040D03*
D53*
X321183Y447294D03*
X321437Y447548D03*
X321437Y447802D03*
D54*
X321564Y448056D03*
X321818Y448310D03*
D55*
X321945Y448564D03*
X321945Y448818D03*
X322199Y449072D03*
D56*
X322326Y449326D03*
D57*
X322453Y449580D03*
X322707Y449834D03*
X322707Y450088D03*
D58*
X322834Y450342D03*
X323088Y450596D03*
D59*
X323215Y450850D03*
X323215Y451104D03*
X323469Y451358D03*
D60*
X323596Y451612D03*
D61*
X323723Y451866D03*
X323977Y452120D03*
X323977Y452374D03*
D62*
X324104Y452628D03*
X324358Y452882D03*
D63*
X324485Y453136D03*
X324485Y453390D03*
X324739Y453644D03*
D64*
X324866Y453898D03*
D65*
X324993Y454152D03*
X325247Y454406D03*
X325247Y454660D03*
D66*
X325374Y454914D03*
X325628Y455168D03*
D67*
X325755Y455422D03*
X325755Y455676D03*
X326009Y455930D03*
D68*
X326136Y456184D03*
D69*
X326263Y456438D03*
D68*
X326390Y456692D03*
D69*
X326517Y456946D03*
D70*
X326644Y457200D03*
X326898Y457454D03*
D71*
X327025Y457708D03*
X327025Y457962D03*
X327279Y458216D03*
D72*
X327406Y458470D03*
D73*
X327533Y458724D03*
D72*
X327660Y458978D03*
D73*
X327787Y459232D03*
D74*
X327914Y459486D03*
X328168Y459740D03*
D75*
X328295Y459994D03*
X328295Y460248D03*
X328549Y460502D03*
D76*
X328676Y460756D03*
D77*
X328803Y461010D03*
D76*
X328930Y461264D03*
D77*
X329057Y461518D03*
D78*
X329184Y461772D03*
X329438Y462026D03*
D79*
X329438Y462280D03*
D80*
X329565Y462534D03*
D79*
X329692Y462788D03*
D81*
X329819Y463042D03*
D82*
X329946Y463296D03*
X329946Y463550D03*
D83*
X330073Y463804D03*
D84*
X330200Y464058D03*
D85*
X330327Y464312D03*
X330327Y464566D03*
D86*
X330454Y464820D03*
D87*
X330581Y465074D03*
D88*
X330581Y465328D03*
D89*
X330581Y465582D03*
D90*
X324104Y465836D03*
D91*
X323596Y466090D03*
D92*
X323596Y466344D03*
D93*
X323469Y466598D03*
X323469Y466852D03*
D94*
X323469Y467106D03*
D95*
X323469Y467360D03*
D96*
X323596Y467614D03*
D97*
X323723Y467868D03*
X323723Y468122D03*
D98*
X323850Y468376D03*
D99*
X323977Y468630D03*
D100*
X324104Y468884D03*
X324104Y469138D03*
D101*
X324231Y469392D03*
D102*
X324358Y469646D03*
D103*
X324485Y469900D03*
X324739Y470154D03*
X324739Y470408D03*
D104*
X324866Y470662D03*
X325120Y470916D03*
D105*
X325247Y471170D03*
D104*
X325374Y471424D03*
D105*
X325501Y471678D03*
X325755Y471932D03*
D106*
X325882Y472186D03*
D105*
X326009Y472440D03*
X326263Y472694D03*
D106*
X326390Y472948D03*
X326644Y473202D03*
X326644Y473456D03*
X326898Y473710D03*
X326898Y473964D03*
D105*
X327025Y474218D03*
X327025Y474472D03*
D104*
X327152Y474726D03*
D103*
X327279Y474980D03*
X327279Y475234D03*
D101*
X327279Y475488D03*
X327279Y475742D03*
D99*
X327279Y475996D03*
D97*
X327025Y476250D03*
D93*
X326517Y476504D03*
D107*
X323850Y476758D03*
D108*
X323850Y477012D03*
D109*
X323723Y477266D03*
D110*
X323850Y477520D03*
D111*
X323977Y477774D03*
X323977Y478028D03*
X324231Y478282D03*
X324231Y478536D03*
X324485Y478790D03*
X324485Y479044D03*
X324739Y479298D03*
X324739Y479552D03*
X324993Y479806D03*
X325247Y480060D03*
X325247Y480314D03*
X325501Y480568D03*
X325501Y480822D03*
X325755Y481076D03*
X325755Y481330D03*
X326009Y481584D03*
X326009Y481838D03*
X326263Y482092D03*
X326263Y482346D03*
X326517Y482600D03*
D112*
X326644Y482854D03*
D111*
X326771Y483108D03*
D112*
X326898Y483362D03*
D111*
X327025Y483616D03*
D112*
X327152Y483870D03*
D111*
X327279Y484124D03*
D112*
X327406Y484378D03*
D111*
X327533Y484632D03*
D112*
X327660Y484886D03*
X327914Y485140D03*
D111*
X328041Y485394D03*
D112*
X328168Y485648D03*
D111*
X328295Y485902D03*
D112*
X328422Y486156D03*
D111*
X328549Y486410D03*
D112*
X328676Y486664D03*
D111*
X328803Y486918D03*
D112*
X328930Y487172D03*
D111*
X329057Y487426D03*
D112*
X329184Y487680D03*
X329438Y487934D03*
X329438Y488188D03*
X329692Y488442D03*
X329692Y488696D03*
X329946Y488950D03*
X329946Y489204D03*
X330200Y489458D03*
X330200Y489712D03*
X330454Y489966D03*
X330708Y490220D03*
X330708Y490474D03*
X330962Y490728D03*
X330962Y490982D03*
X331216Y491236D03*
X331216Y491490D03*
X331470Y491744D03*
X331470Y491998D03*
X331724Y492252D03*
D113*
X331851Y492506D03*
D112*
X331978Y492760D03*
D113*
X332105Y493014D03*
D114*
X332232Y493268D03*
X332486Y493522D03*
X332486Y493776D03*
D115*
X332613Y494030D03*
D116*
X332740Y494284D03*
D117*
X332867Y494538D03*
X333121Y494792D03*
D118*
X333248Y495046D03*
D119*
X333375Y495300D03*
D120*
X333502Y495554D03*
D121*
X333629Y495808D03*
D122*
X333883Y496062D03*
D123*
X333883Y496316D03*
D124*
X334010Y496570D03*
D125*
X334264Y496824D03*
D126*
X334264Y497078D03*
D127*
X334518Y497332D03*
D87*
X334645Y497586D03*
D10*
X453466Y0D03*
D11*
X453466Y254D03*
D12*
X492582Y19558D03*
D13*
X492455Y19812D03*
D14*
X492582Y20066D03*
D15*
X492582Y20320D03*
D16*
X492709Y20574D03*
X492709Y20828D03*
D17*
X492836Y21082D03*
D18*
X492836Y21336D03*
D19*
X492963Y21590D03*
X493217Y21844D03*
X493217Y22098D03*
D20*
X493344Y22352D03*
D21*
X493471Y22606D03*
D22*
X493598Y22860D03*
X493598Y23114D03*
X493852Y23368D03*
D23*
X493979Y23622D03*
D24*
X494106Y23876D03*
X494360Y24130D03*
X494360Y24384D03*
D25*
X494487Y24638D03*
X494741Y24892D03*
D26*
X494868Y25146D03*
X494868Y25400D03*
X495122Y25654D03*
D27*
X495249Y25908D03*
D28*
X495376Y26162D03*
D27*
X495503Y26416D03*
D28*
X495630Y26670D03*
D29*
X495757Y26924D03*
X496011Y27178D03*
D30*
X496138Y27432D03*
X496138Y27686D03*
X496392Y27940D03*
D31*
X496519Y28194D03*
D32*
X496646Y28448D03*
D31*
X496773Y28702D03*
D32*
X496900Y28956D03*
D33*
X497027Y29210D03*
X497281Y29464D03*
D34*
X497408Y29718D03*
X497408Y29972D03*
X497662Y30226D03*
D35*
X497789Y30480D03*
D36*
X497916Y30734D03*
D35*
X498043Y30988D03*
D36*
X498170Y31242D03*
D37*
X498297Y31496D03*
X498551Y31750D03*
D38*
X498678Y32004D03*
X498678Y32258D03*
X498932Y32512D03*
D39*
X499059Y32766D03*
D40*
X499186Y33020D03*
D39*
X499313Y33274D03*
D40*
X499440Y33528D03*
D41*
X499567Y33782D03*
X499821Y34036D03*
X499821Y34290D03*
D42*
X499948Y34544D03*
X500202Y34798D03*
D43*
X500329Y35052D03*
D44*
X500456Y35306D03*
D43*
X500583Y35560D03*
D44*
X500710Y35814D03*
D45*
X500837Y36068D03*
X501091Y36322D03*
X501091Y36576D03*
D46*
X501218Y36830D03*
X501472Y37084D03*
D47*
X501599Y37338D03*
D48*
X501726Y37592D03*
D47*
X501853Y37846D03*
D48*
X501980Y38100D03*
D49*
X502107Y38354D03*
X502361Y38608D03*
X502361Y38862D03*
D50*
X502488Y39116D03*
X502742Y39370D03*
D51*
X502869Y39624D03*
D52*
X502996Y39878D03*
D51*
X503123Y40132D03*
D52*
X503250Y40386D03*
D53*
X503377Y40640D03*
X503631Y40894D03*
X503631Y41148D03*
D54*
X503758Y41402D03*
X504012Y41656D03*
D55*
X504139Y41910D03*
X504139Y42164D03*
X504393Y42418D03*
D56*
X504520Y42672D03*
D57*
X504647Y42926D03*
X504901Y43180D03*
X504901Y43434D03*
D58*
X505028Y43688D03*
X505282Y43942D03*
D59*
X505409Y44196D03*
X505409Y44450D03*
X505663Y44704D03*
D60*
X505790Y44958D03*
D61*
X505917Y45212D03*
X506171Y45466D03*
X506171Y45720D03*
D62*
X506298Y45974D03*
X506552Y46228D03*
D63*
X506679Y46482D03*
X506679Y46736D03*
X506933Y46990D03*
D64*
X507060Y47244D03*
D65*
X507187Y47498D03*
X507441Y47752D03*
X507441Y48006D03*
D66*
X507568Y48260D03*
X507822Y48514D03*
D67*
X507949Y48768D03*
X507949Y49022D03*
X508203Y49276D03*
D68*
X508330Y49530D03*
D69*
X508457Y49784D03*
D68*
X508584Y50038D03*
D69*
X508711Y50292D03*
D70*
X508838Y50546D03*
X509092Y50800D03*
D71*
X509219Y51054D03*
X509219Y51308D03*
X509473Y51562D03*
D72*
X509600Y51816D03*
D73*
X509727Y52070D03*
D72*
X509854Y52324D03*
D73*
X509981Y52578D03*
D74*
X510108Y52832D03*
X510362Y53086D03*
D75*
X510489Y53340D03*
X510489Y53594D03*
X510743Y53848D03*
D76*
X510870Y54102D03*
D77*
X510997Y54356D03*
D76*
X511124Y54610D03*
D77*
X511251Y54864D03*
D78*
X511378Y55118D03*
X511632Y55372D03*
D79*
X511632Y55626D03*
D80*
X511759Y55880D03*
D79*
X511886Y56134D03*
D81*
X512013Y56388D03*
D82*
X512140Y56642D03*
X512140Y56896D03*
D83*
X512267Y57150D03*
D84*
X512394Y57404D03*
D85*
X512521Y57658D03*
X512521Y57912D03*
D86*
X512648Y58166D03*
D87*
X512775Y58420D03*
D88*
X512775Y58674D03*
D89*
X512775Y58928D03*
D90*
X506298Y59182D03*
D91*
X505790Y59436D03*
D92*
X505790Y59690D03*
D93*
X505663Y59944D03*
X505663Y60198D03*
D94*
X505663Y60452D03*
D95*
X505663Y60706D03*
D96*
X505790Y60960D03*
D97*
X505917Y61214D03*
X505917Y61468D03*
D98*
X506044Y61722D03*
D99*
X506171Y61976D03*
D100*
X506298Y62230D03*
X506298Y62484D03*
D101*
X506425Y62738D03*
D102*
X506552Y62992D03*
D103*
X506679Y63246D03*
X506933Y63500D03*
X506933Y63754D03*
D104*
X507060Y64008D03*
X507314Y64262D03*
D105*
X507441Y64516D03*
D104*
X507568Y64770D03*
D105*
X507695Y65024D03*
X507949Y65278D03*
D106*
X508076Y65532D03*
D105*
X508203Y65786D03*
X508457Y66040D03*
D106*
X508584Y66294D03*
X508838Y66548D03*
X508838Y66802D03*
X509092Y67056D03*
X509092Y67310D03*
D105*
X509219Y67564D03*
X509219Y67818D03*
D104*
X509346Y68072D03*
D103*
X509473Y68326D03*
X509473Y68580D03*
D101*
X509473Y68834D03*
X509473Y69088D03*
D99*
X509473Y69342D03*
D97*
X509219Y69596D03*
D93*
X508711Y69850D03*
D107*
X506044Y70104D03*
D108*
X506044Y70358D03*
D109*
X505917Y70612D03*
D110*
X506044Y70866D03*
D111*
X506171Y71120D03*
X506171Y71374D03*
X506425Y71628D03*
X506425Y71882D03*
X506679Y72136D03*
X506679Y72390D03*
X506933Y72644D03*
X506933Y72898D03*
X507187Y73152D03*
X507441Y73406D03*
X507441Y73660D03*
X507695Y73914D03*
X507695Y74168D03*
X507949Y74422D03*
X507949Y74676D03*
X508203Y74930D03*
X508203Y75184D03*
X508457Y75438D03*
X508457Y75692D03*
X508711Y75946D03*
D112*
X508838Y76200D03*
D111*
X508965Y76454D03*
D112*
X509092Y76708D03*
D111*
X509219Y76962D03*
D112*
X509346Y77216D03*
D111*
X509473Y77470D03*
D112*
X509600Y77724D03*
D111*
X509727Y77978D03*
D112*
X509854Y78232D03*
X510108Y78486D03*
D111*
X510235Y78740D03*
D112*
X510362Y78994D03*
D111*
X510489Y79248D03*
D112*
X510616Y79502D03*
D111*
X510743Y79756D03*
D112*
X510870Y80010D03*
D111*
X510997Y80264D03*
D112*
X511124Y80518D03*
D111*
X511251Y80772D03*
D112*
X511378Y81026D03*
X511632Y81280D03*
X511632Y81534D03*
X511886Y81788D03*
X511886Y82042D03*
X512140Y82296D03*
X512140Y82550D03*
X512394Y82804D03*
X512394Y83058D03*
X512648Y83312D03*
X512902Y83566D03*
X512902Y83820D03*
X513156Y84074D03*
X513156Y84328D03*
X513410Y84582D03*
X513410Y84836D03*
X513664Y85090D03*
X513664Y85344D03*
X513918Y85598D03*
D113*
X514045Y85852D03*
D112*
X514172Y86106D03*
D113*
X514299Y86360D03*
D114*
X514426Y86614D03*
X514680Y86868D03*
X514680Y87122D03*
D115*
X514807Y87376D03*
D116*
X514934Y87630D03*
D117*
X515061Y87884D03*
X515315Y88138D03*
D118*
X515442Y88392D03*
D119*
X515569Y88646D03*
D120*
X515696Y88900D03*
D121*
X515823Y89154D03*
D122*
X516077Y89408D03*
D123*
X516077Y89662D03*
D124*
X516204Y89916D03*
D125*
X516458Y90170D03*
D126*
X516458Y90424D03*
D127*
X516712Y90678D03*
D87*
X516839Y90932D03*
D128*
X446326Y-706D02*
X446100Y-1326D01*
X446499Y-1129D02*
X446499Y-762D01*
X446499Y-1129D02*
X446501Y-1151D01*
X446506Y-1173D01*
X446514Y-1193D01*
X446526Y-1212D01*
X446540Y-1229D01*
X446557Y-1243D01*
X446576Y-1255D01*
X446596Y-1263D01*
X446618Y-1268D01*
X446640Y-1270D01*
X446662Y-1268D01*
X446684Y-1263D01*
X446704Y-1255D01*
X446723Y-1243D01*
X446740Y-1229D01*
X446754Y-1212D01*
X446766Y-1193D01*
X446774Y-1173D01*
X446779Y-1151D01*
X446781Y-1129D01*
X446781Y-762D01*
X447011Y-1072D02*
X447152Y-1129D01*
X447011Y-1073D02*
X446996Y-1065D01*
X446983Y-1054D01*
X446974Y-1040D01*
X446968Y-1024D01*
X446965Y-1007D01*
X446966Y-991D01*
X446972Y-975D01*
X446980Y-960D01*
X446992Y-948D01*
X447006Y-939D01*
X447022Y-934D01*
X447039Y-932D01*
X447072Y-934D01*
X447104Y-940D01*
X447136Y-948D01*
X447166Y-960D01*
X447152Y-1129D02*
X447167Y-1137D01*
X447180Y-1148D01*
X447189Y-1162D01*
X447195Y-1178D01*
X447198Y-1195D01*
X447197Y-1211D01*
X447191Y-1227D01*
X447183Y-1242D01*
X447171Y-1254D01*
X447157Y-1263D01*
X447141Y-1268D01*
X447124Y-1270D01*
X447085Y-1268D01*
X447045Y-1262D01*
X447007Y-1254D01*
X446969Y-1242D01*
X447450Y-1270D02*
X447591Y-1270D01*
X447450Y-1270D02*
X447433Y-1268D01*
X447417Y-1264D01*
X447403Y-1256D01*
X447390Y-1245D01*
X447379Y-1232D01*
X447371Y-1218D01*
X447367Y-1202D01*
X447365Y-1185D01*
X447365Y-1044D01*
X447367Y-1024D01*
X447372Y-1005D01*
X447380Y-987D01*
X447391Y-971D01*
X447405Y-957D01*
X447422Y-946D01*
X447439Y-938D01*
X447458Y-933D01*
X447478Y-931D01*
X447498Y-933D01*
X447517Y-938D01*
X447535Y-946D01*
X447551Y-957D01*
X447565Y-971D01*
X447576Y-988D01*
X447584Y-1005D01*
X447589Y-1024D01*
X447591Y-1044D01*
X447591Y-1101D01*
X447365Y-1101D01*
X447778Y-1270D02*
X447778Y-931D01*
X447947Y-931D01*
X447947Y-988D01*
X448124Y-1072D02*
X448265Y-1129D01*
X448124Y-1073D02*
X448109Y-1065D01*
X448096Y-1054D01*
X448087Y-1040D01*
X448081Y-1024D01*
X448078Y-1007D01*
X448079Y-991D01*
X448085Y-975D01*
X448093Y-960D01*
X448105Y-948D01*
X448119Y-939D01*
X448135Y-934D01*
X448152Y-932D01*
X448151Y-932D02*
X448184Y-934D01*
X448216Y-940D01*
X448248Y-948D01*
X448278Y-960D01*
X448265Y-1129D02*
X448280Y-1137D01*
X448293Y-1148D01*
X448302Y-1162D01*
X448308Y-1178D01*
X448311Y-1195D01*
X448310Y-1211D01*
X448304Y-1227D01*
X448296Y-1242D01*
X448284Y-1254D01*
X448270Y-1263D01*
X448254Y-1268D01*
X448237Y-1270D01*
X448236Y-1270D02*
X448197Y-1268D01*
X448157Y-1262D01*
X448119Y-1254D01*
X448081Y-1242D01*
X448462Y-1326D02*
X448688Y-706D01*
X448941Y-1072D02*
X449068Y-1072D01*
X448941Y-1072D02*
X448923Y-1074D01*
X448905Y-1079D01*
X448889Y-1087D01*
X448874Y-1098D01*
X448862Y-1111D01*
X448852Y-1127D01*
X448846Y-1144D01*
X448842Y-1162D01*
X448842Y-1180D01*
X448846Y-1198D01*
X448852Y-1215D01*
X448862Y-1231D01*
X448874Y-1244D01*
X448889Y-1255D01*
X448905Y-1263D01*
X448923Y-1268D01*
X448941Y-1270D01*
X449068Y-1270D01*
X449068Y-1016D01*
X449066Y-999D01*
X449062Y-983D01*
X449054Y-969D01*
X449043Y-956D01*
X449030Y-945D01*
X449016Y-937D01*
X449000Y-933D01*
X448983Y-931D01*
X448870Y-931D01*
X449270Y-931D02*
X449270Y-1270D01*
X449270Y-931D02*
X449411Y-931D01*
X449428Y-933D01*
X449444Y-937D01*
X449458Y-945D01*
X449471Y-956D01*
X449482Y-969D01*
X449490Y-983D01*
X449494Y-999D01*
X449496Y-1016D01*
X449496Y-1270D01*
X449906Y-1270D02*
X449906Y-762D01*
X449906Y-1270D02*
X449765Y-1270D01*
X449748Y-1268D01*
X449732Y-1264D01*
X449718Y-1256D01*
X449705Y-1245D01*
X449694Y-1232D01*
X449686Y-1218D01*
X449682Y-1202D01*
X449680Y-1185D01*
X449680Y-1016D01*
X449682Y-999D01*
X449686Y-983D01*
X449694Y-969D01*
X449705Y-956D01*
X449718Y-945D01*
X449732Y-937D01*
X449748Y-933D01*
X449765Y-931D01*
X449906Y-931D01*
X450109Y-931D02*
X450109Y-1270D01*
X450109Y-931D02*
X450279Y-931D01*
X450279Y-988D01*
X450498Y-1270D02*
X450639Y-1270D01*
X450498Y-1270D02*
X450481Y-1268D01*
X450465Y-1264D01*
X450451Y-1256D01*
X450438Y-1245D01*
X450427Y-1232D01*
X450419Y-1218D01*
X450415Y-1202D01*
X450413Y-1185D01*
X450413Y-1044D01*
X450415Y-1024D01*
X450420Y-1005D01*
X450428Y-987D01*
X450439Y-971D01*
X450453Y-957D01*
X450470Y-946D01*
X450487Y-938D01*
X450506Y-933D01*
X450526Y-931D01*
X450546Y-933D01*
X450565Y-938D01*
X450583Y-946D01*
X450599Y-957D01*
X450613Y-971D01*
X450624Y-988D01*
X450632Y-1005D01*
X450637Y-1024D01*
X450639Y-1044D01*
X450639Y-1101D01*
X450413Y-1101D01*
X450851Y-1072D02*
X450993Y-1129D01*
X450852Y-1073D02*
X450837Y-1065D01*
X450824Y-1054D01*
X450815Y-1040D01*
X450809Y-1024D01*
X450806Y-1007D01*
X450807Y-991D01*
X450813Y-975D01*
X450821Y-960D01*
X450833Y-948D01*
X450847Y-939D01*
X450863Y-934D01*
X450880Y-932D01*
X450879Y-932D02*
X450912Y-934D01*
X450944Y-940D01*
X450976Y-948D01*
X451006Y-960D01*
X450992Y-1129D02*
X451007Y-1137D01*
X451020Y-1148D01*
X451029Y-1162D01*
X451035Y-1178D01*
X451038Y-1195D01*
X451037Y-1211D01*
X451031Y-1227D01*
X451023Y-1242D01*
X451011Y-1254D01*
X450997Y-1263D01*
X450981Y-1268D01*
X450964Y-1270D01*
X450925Y-1268D01*
X450885Y-1262D01*
X450847Y-1254D01*
X450809Y-1242D01*
X451197Y-1242D02*
X451197Y-1270D01*
X451197Y-1242D02*
X451226Y-1242D01*
X451226Y-1270D01*
X451197Y-1270D01*
X451430Y-1072D02*
X451572Y-1129D01*
X451431Y-1073D02*
X451416Y-1065D01*
X451403Y-1054D01*
X451394Y-1040D01*
X451388Y-1024D01*
X451385Y-1007D01*
X451386Y-991D01*
X451392Y-975D01*
X451400Y-960D01*
X451412Y-948D01*
X451426Y-939D01*
X451442Y-934D01*
X451459Y-932D01*
X451458Y-932D02*
X451491Y-934D01*
X451523Y-940D01*
X451555Y-948D01*
X451585Y-960D01*
X451571Y-1129D02*
X451586Y-1137D01*
X451599Y-1148D01*
X451608Y-1162D01*
X451614Y-1178D01*
X451617Y-1195D01*
X451616Y-1211D01*
X451610Y-1227D01*
X451602Y-1242D01*
X451590Y-1254D01*
X451576Y-1263D01*
X451560Y-1268D01*
X451543Y-1270D01*
X451504Y-1268D01*
X451464Y-1262D01*
X451426Y-1254D01*
X451388Y-1242D01*
X451882Y-1072D02*
X452009Y-1072D01*
X451882Y-1072D02*
X451864Y-1074D01*
X451846Y-1079D01*
X451830Y-1087D01*
X451815Y-1098D01*
X451803Y-1111D01*
X451793Y-1127D01*
X451787Y-1144D01*
X451783Y-1162D01*
X451783Y-1180D01*
X451787Y-1198D01*
X451793Y-1215D01*
X451803Y-1231D01*
X451815Y-1244D01*
X451830Y-1255D01*
X451846Y-1263D01*
X451864Y-1268D01*
X451882Y-1270D01*
X452009Y-1270D01*
X452009Y-1016D01*
X452007Y-999D01*
X452003Y-983D01*
X451995Y-969D01*
X451984Y-956D01*
X451971Y-945D01*
X451957Y-937D01*
X451941Y-933D01*
X451924Y-931D01*
X451811Y-931D01*
X452211Y-931D02*
X452211Y-1270D01*
X452211Y-931D02*
X452352Y-931D01*
X452369Y-933D01*
X452385Y-937D01*
X452399Y-945D01*
X452412Y-956D01*
X452423Y-969D01*
X452431Y-983D01*
X452435Y-999D01*
X452437Y-1016D01*
X452437Y-1270D01*
X452588Y-931D02*
X452757Y-931D01*
X452644Y-762D02*
X452644Y-1185D01*
X452646Y-1202D01*
X452650Y-1218D01*
X452658Y-1232D01*
X452669Y-1245D01*
X452682Y-1256D01*
X452696Y-1264D01*
X452712Y-1268D01*
X452729Y-1270D01*
X452757Y-1270D01*
X452912Y-1157D02*
X452912Y-1044D01*
X452914Y-1024D01*
X452919Y-1005D01*
X452927Y-987D01*
X452938Y-971D01*
X452952Y-957D01*
X452969Y-946D01*
X452986Y-938D01*
X453005Y-933D01*
X453025Y-931D01*
X453045Y-933D01*
X453064Y-938D01*
X453082Y-946D01*
X453098Y-957D01*
X453112Y-971D01*
X453123Y-988D01*
X453131Y-1005D01*
X453136Y-1024D01*
X453138Y-1044D01*
X453138Y-1157D01*
X453136Y-1177D01*
X453131Y-1196D01*
X453123Y-1214D01*
X453112Y-1230D01*
X453098Y-1244D01*
X453082Y-1255D01*
X453064Y-1263D01*
X453045Y-1268D01*
X453025Y-1270D01*
X453005Y-1268D01*
X452986Y-1263D01*
X452969Y-1255D01*
X452952Y-1244D01*
X452938Y-1230D01*
X452927Y-1214D01*
X452919Y-1196D01*
X452914Y-1177D01*
X452912Y-1157D01*
X453351Y-1072D02*
X453492Y-1129D01*
X453351Y-1073D02*
X453336Y-1065D01*
X453323Y-1054D01*
X453314Y-1040D01*
X453308Y-1024D01*
X453305Y-1007D01*
X453306Y-991D01*
X453312Y-975D01*
X453320Y-960D01*
X453332Y-948D01*
X453346Y-939D01*
X453362Y-934D01*
X453379Y-932D01*
X453378Y-932D02*
X453411Y-934D01*
X453443Y-940D01*
X453475Y-948D01*
X453505Y-960D01*
X453492Y-1129D02*
X453507Y-1137D01*
X453520Y-1148D01*
X453529Y-1162D01*
X453535Y-1178D01*
X453538Y-1195D01*
X453537Y-1211D01*
X453531Y-1227D01*
X453523Y-1242D01*
X453511Y-1254D01*
X453497Y-1263D01*
X453481Y-1268D01*
X453464Y-1270D01*
X453463Y-1270D02*
X453424Y-1268D01*
X453384Y-1262D01*
X453346Y-1254D01*
X453308Y-1242D01*
X453689Y-1326D02*
X453915Y-706D01*
X454088Y-762D02*
X454088Y-1270D01*
X454088Y-762D02*
X454229Y-762D01*
X454251Y-764D01*
X454273Y-769D01*
X454293Y-777D01*
X454312Y-789D01*
X454329Y-803D01*
X454343Y-820D01*
X454355Y-839D01*
X454363Y-859D01*
X454368Y-881D01*
X454370Y-903D01*
X454370Y-1129D01*
X454368Y-1151D01*
X454363Y-1173D01*
X454355Y-1193D01*
X454343Y-1212D01*
X454329Y-1229D01*
X454312Y-1243D01*
X454293Y-1255D01*
X454273Y-1263D01*
X454251Y-1268D01*
X454229Y-1270D01*
X454088Y-1270D01*
X454558Y-1157D02*
X454558Y-1044D01*
X454560Y-1024D01*
X454565Y-1005D01*
X454573Y-987D01*
X454584Y-971D01*
X454598Y-957D01*
X454615Y-946D01*
X454632Y-938D01*
X454651Y-933D01*
X454671Y-931D01*
X454691Y-933D01*
X454710Y-938D01*
X454728Y-946D01*
X454744Y-957D01*
X454758Y-971D01*
X454769Y-988D01*
X454777Y-1005D01*
X454782Y-1024D01*
X454784Y-1044D01*
X454784Y-1157D01*
X454782Y-1177D01*
X454777Y-1196D01*
X454769Y-1214D01*
X454758Y-1230D01*
X454744Y-1244D01*
X454728Y-1255D01*
X454710Y-1263D01*
X454691Y-1268D01*
X454671Y-1270D01*
X454651Y-1268D01*
X454632Y-1263D01*
X454615Y-1255D01*
X454598Y-1244D01*
X454584Y-1230D01*
X454573Y-1214D01*
X454565Y-1196D01*
X454560Y-1177D01*
X454558Y-1157D01*
X454943Y-931D02*
X455028Y-1270D01*
X455113Y-1044D01*
X455197Y-1270D01*
X455282Y-931D01*
X455457Y-931D02*
X455457Y-1270D01*
X455457Y-931D02*
X455598Y-931D01*
X455615Y-933D01*
X455631Y-937D01*
X455645Y-945D01*
X455658Y-956D01*
X455669Y-969D01*
X455677Y-983D01*
X455681Y-999D01*
X455683Y-1016D01*
X455683Y-1270D01*
X455879Y-1185D02*
X455879Y-762D01*
X455879Y-1185D02*
X455881Y-1202D01*
X455885Y-1218D01*
X455893Y-1232D01*
X455904Y-1245D01*
X455917Y-1256D01*
X455931Y-1264D01*
X455947Y-1268D01*
X455964Y-1270D01*
X456112Y-1157D02*
X456112Y-1044D01*
X456114Y-1024D01*
X456119Y-1005D01*
X456127Y-987D01*
X456138Y-971D01*
X456152Y-957D01*
X456169Y-946D01*
X456186Y-938D01*
X456205Y-933D01*
X456225Y-931D01*
X456245Y-933D01*
X456264Y-938D01*
X456282Y-946D01*
X456298Y-957D01*
X456312Y-971D01*
X456323Y-988D01*
X456331Y-1005D01*
X456336Y-1024D01*
X456338Y-1044D01*
X456338Y-1157D01*
X456336Y-1177D01*
X456331Y-1196D01*
X456323Y-1214D01*
X456312Y-1230D01*
X456298Y-1244D01*
X456282Y-1255D01*
X456264Y-1263D01*
X456245Y-1268D01*
X456225Y-1270D01*
X456205Y-1268D01*
X456186Y-1263D01*
X456169Y-1255D01*
X456152Y-1244D01*
X456138Y-1230D01*
X456127Y-1214D01*
X456119Y-1196D01*
X456114Y-1177D01*
X456112Y-1157D01*
X456606Y-1072D02*
X456733Y-1072D01*
X456606Y-1072D02*
X456588Y-1074D01*
X456570Y-1079D01*
X456554Y-1087D01*
X456539Y-1098D01*
X456527Y-1111D01*
X456517Y-1127D01*
X456511Y-1144D01*
X456507Y-1162D01*
X456507Y-1180D01*
X456511Y-1198D01*
X456517Y-1215D01*
X456527Y-1231D01*
X456539Y-1244D01*
X456554Y-1255D01*
X456570Y-1263D01*
X456588Y-1268D01*
X456606Y-1270D01*
X456733Y-1270D01*
X456733Y-1016D01*
X456731Y-999D01*
X456727Y-983D01*
X456719Y-969D01*
X456708Y-956D01*
X456695Y-945D01*
X456681Y-937D01*
X456665Y-933D01*
X456648Y-931D01*
X456536Y-931D01*
X457145Y-762D02*
X457145Y-1270D01*
X457004Y-1270D01*
X456987Y-1268D01*
X456971Y-1264D01*
X456957Y-1256D01*
X456944Y-1245D01*
X456933Y-1232D01*
X456925Y-1218D01*
X456921Y-1202D01*
X456919Y-1185D01*
X456919Y-1016D01*
X456921Y-999D01*
X456925Y-983D01*
X456933Y-969D01*
X456944Y-956D01*
X456957Y-945D01*
X456971Y-937D01*
X456987Y-933D01*
X457004Y-931D01*
X457145Y-931D01*
X457374Y-1072D02*
X457515Y-1129D01*
X457374Y-1073D02*
X457359Y-1065D01*
X457346Y-1054D01*
X457337Y-1040D01*
X457331Y-1024D01*
X457328Y-1007D01*
X457329Y-991D01*
X457335Y-975D01*
X457343Y-960D01*
X457355Y-948D01*
X457369Y-939D01*
X457385Y-934D01*
X457402Y-932D01*
X457435Y-934D01*
X457467Y-940D01*
X457499Y-948D01*
X457529Y-960D01*
X457515Y-1129D02*
X457530Y-1137D01*
X457543Y-1148D01*
X457552Y-1162D01*
X457558Y-1178D01*
X457561Y-1195D01*
X457560Y-1211D01*
X457554Y-1227D01*
X457546Y-1242D01*
X457534Y-1254D01*
X457520Y-1263D01*
X457504Y-1268D01*
X457487Y-1270D01*
X457448Y-1268D01*
X457408Y-1262D01*
X457370Y-1254D01*
X457332Y-1242D01*
X457712Y-1326D02*
X457938Y-706D01*
X458100Y-931D02*
X458100Y-1270D01*
X458086Y-790D02*
X458086Y-762D01*
X458114Y-762D01*
X458114Y-790D01*
X458086Y-790D01*
X458296Y-931D02*
X458296Y-1270D01*
X458296Y-931D02*
X458550Y-931D01*
X458567Y-933D01*
X458583Y-937D01*
X458597Y-945D01*
X458610Y-956D01*
X458621Y-969D01*
X458629Y-983D01*
X458633Y-999D01*
X458635Y-1016D01*
X458635Y-1270D01*
X458465Y-1270D02*
X458465Y-931D01*
X458922Y-1072D02*
X459049Y-1072D01*
X458922Y-1072D02*
X458904Y-1074D01*
X458886Y-1079D01*
X458870Y-1087D01*
X458855Y-1098D01*
X458843Y-1111D01*
X458833Y-1127D01*
X458827Y-1144D01*
X458823Y-1162D01*
X458823Y-1180D01*
X458827Y-1198D01*
X458833Y-1215D01*
X458843Y-1231D01*
X458855Y-1244D01*
X458870Y-1255D01*
X458886Y-1263D01*
X458904Y-1268D01*
X458922Y-1270D01*
X459049Y-1270D01*
X459049Y-1016D01*
X459050Y-1016D02*
X459048Y-999D01*
X459044Y-983D01*
X459036Y-969D01*
X459025Y-956D01*
X459012Y-945D01*
X458998Y-937D01*
X458982Y-933D01*
X458965Y-931D01*
X458852Y-931D01*
X459320Y-1270D02*
X459461Y-1270D01*
X459320Y-1270D02*
X459303Y-1268D01*
X459287Y-1264D01*
X459273Y-1256D01*
X459260Y-1245D01*
X459249Y-1232D01*
X459241Y-1218D01*
X459237Y-1202D01*
X459235Y-1185D01*
X459235Y-1016D01*
X459237Y-999D01*
X459241Y-983D01*
X459249Y-969D01*
X459260Y-956D01*
X459273Y-945D01*
X459287Y-937D01*
X459303Y-933D01*
X459320Y-931D01*
X459461Y-931D01*
X459461Y-1355D01*
X459459Y-1372D01*
X459455Y-1388D01*
X459447Y-1402D01*
X459436Y-1415D01*
X459423Y-1426D01*
X459409Y-1434D01*
X459393Y-1438D01*
X459376Y-1440D01*
X459376Y-1439D02*
X459263Y-1439D01*
X459732Y-1270D02*
X459874Y-1270D01*
X459732Y-1270D02*
X459715Y-1268D01*
X459699Y-1264D01*
X459685Y-1256D01*
X459672Y-1245D01*
X459661Y-1232D01*
X459653Y-1218D01*
X459649Y-1202D01*
X459647Y-1185D01*
X459648Y-1185D02*
X459648Y-1044D01*
X459650Y-1024D01*
X459655Y-1005D01*
X459663Y-987D01*
X459674Y-971D01*
X459688Y-957D01*
X459705Y-946D01*
X459722Y-938D01*
X459741Y-933D01*
X459761Y-931D01*
X459781Y-933D01*
X459800Y-938D01*
X459818Y-946D01*
X459834Y-957D01*
X459848Y-971D01*
X459859Y-988D01*
X459867Y-1005D01*
X459872Y-1024D01*
X459874Y-1044D01*
X459874Y-1101D01*
X459648Y-1101D01*
X460029Y-1326D02*
X460255Y-1326D01*
X460421Y-1016D02*
X460423Y-974D01*
X460428Y-932D01*
X460437Y-891D01*
X460450Y-851D01*
X460466Y-812D01*
X460486Y-775D01*
X460508Y-739D01*
X460534Y-706D01*
X460421Y-1016D02*
X460423Y-1058D01*
X460428Y-1100D01*
X460437Y-1141D01*
X460450Y-1181D01*
X460466Y-1220D01*
X460486Y-1257D01*
X460508Y-1293D01*
X460534Y-1326D01*
X460702Y-875D02*
X460843Y-762D01*
X460843Y-1270D01*
X460702Y-1270D02*
X460984Y-1270D01*
X461159Y-1129D02*
X461161Y-1107D01*
X461166Y-1085D01*
X461174Y-1065D01*
X461186Y-1046D01*
X461200Y-1029D01*
X461217Y-1015D01*
X461236Y-1003D01*
X461256Y-995D01*
X461278Y-990D01*
X461300Y-988D01*
X461322Y-990D01*
X461344Y-995D01*
X461364Y-1003D01*
X461383Y-1015D01*
X461400Y-1029D01*
X461414Y-1046D01*
X461426Y-1065D01*
X461434Y-1085D01*
X461439Y-1107D01*
X461441Y-1129D01*
X461439Y-1151D01*
X461434Y-1173D01*
X461426Y-1193D01*
X461414Y-1212D01*
X461400Y-1229D01*
X461383Y-1243D01*
X461364Y-1255D01*
X461344Y-1263D01*
X461322Y-1268D01*
X461300Y-1270D01*
X461278Y-1268D01*
X461256Y-1263D01*
X461236Y-1255D01*
X461217Y-1243D01*
X461200Y-1229D01*
X461186Y-1212D01*
X461174Y-1193D01*
X461166Y-1173D01*
X461161Y-1151D01*
X461159Y-1129D01*
X461187Y-875D02*
X461189Y-855D01*
X461194Y-836D01*
X461202Y-818D01*
X461213Y-802D01*
X461227Y-788D01*
X461244Y-777D01*
X461261Y-769D01*
X461280Y-764D01*
X461300Y-762D01*
X461320Y-764D01*
X461339Y-769D01*
X461357Y-777D01*
X461373Y-788D01*
X461387Y-802D01*
X461398Y-819D01*
X461406Y-836D01*
X461411Y-855D01*
X461413Y-875D01*
X461411Y-895D01*
X461406Y-914D01*
X461398Y-932D01*
X461387Y-948D01*
X461373Y-962D01*
X461357Y-973D01*
X461339Y-981D01*
X461320Y-986D01*
X461300Y-988D01*
X461280Y-986D01*
X461261Y-981D01*
X461244Y-973D01*
X461227Y-962D01*
X461213Y-948D01*
X461202Y-931D01*
X461194Y-914D01*
X461189Y-895D01*
X461187Y-875D01*
X461721Y-1016D02*
X461719Y-1058D01*
X461714Y-1100D01*
X461705Y-1141D01*
X461692Y-1181D01*
X461676Y-1220D01*
X461656Y-1257D01*
X461634Y-1293D01*
X461608Y-1326D01*
X461721Y-1016D02*
X461719Y-974D01*
X461714Y-932D01*
X461705Y-891D01*
X461692Y-851D01*
X461676Y-812D01*
X461656Y-775D01*
X461634Y-739D01*
X461608Y-706D01*
X461895Y-1242D02*
X461895Y-1270D01*
X461895Y-1242D02*
X461924Y-1242D01*
X461924Y-1270D01*
X461895Y-1270D01*
X462103Y-1270D02*
X462103Y-762D01*
X462103Y-1270D02*
X462244Y-1270D01*
X462261Y-1268D01*
X462277Y-1264D01*
X462291Y-1256D01*
X462304Y-1245D01*
X462315Y-1232D01*
X462323Y-1218D01*
X462327Y-1202D01*
X462329Y-1185D01*
X462328Y-1185D02*
X462328Y-1016D01*
X462329Y-1016D02*
X462327Y-999D01*
X462323Y-983D01*
X462315Y-969D01*
X462304Y-956D01*
X462291Y-945D01*
X462277Y-937D01*
X462261Y-933D01*
X462244Y-931D01*
X462103Y-931D01*
X462517Y-931D02*
X462517Y-1270D01*
X462517Y-931D02*
X462771Y-931D01*
X462788Y-933D01*
X462804Y-937D01*
X462818Y-945D01*
X462831Y-956D01*
X462842Y-969D01*
X462850Y-983D01*
X462854Y-999D01*
X462856Y-1016D01*
X462856Y-1270D01*
X462687Y-1270D02*
X462687Y-931D01*
X463063Y-931D02*
X463063Y-1439D01*
X463063Y-931D02*
X463204Y-931D01*
X463221Y-933D01*
X463237Y-937D01*
X463251Y-945D01*
X463264Y-956D01*
X463275Y-969D01*
X463283Y-983D01*
X463287Y-999D01*
X463289Y-1016D01*
X463288Y-1016D02*
X463288Y-1185D01*
X463289Y-1185D02*
X463287Y-1202D01*
X463283Y-1218D01*
X463275Y-1232D01*
X463264Y-1245D01*
X463251Y-1256D01*
X463237Y-1264D01*
X463221Y-1268D01*
X463204Y-1270D01*
X463063Y-1270D01*
D12*
X494868Y248412D03*
D13*
X494741Y248666D03*
D14*
X494868Y248920D03*
D15*
X494868Y249174D03*
D16*
X494995Y249428D03*
X494995Y249682D03*
D17*
X495122Y249936D03*
D18*
X495122Y250190D03*
D19*
X495249Y250444D03*
X495503Y250698D03*
X495503Y250952D03*
D20*
X495630Y251206D03*
D21*
X495757Y251460D03*
D22*
X495884Y251714D03*
X495884Y251968D03*
X496138Y252222D03*
D23*
X496265Y252476D03*
D24*
X496392Y252730D03*
X496646Y252984D03*
X496646Y253238D03*
D25*
X496773Y253492D03*
X497027Y253746D03*
D26*
X497154Y254000D03*
X497154Y254254D03*
X497408Y254508D03*
D27*
X497535Y254762D03*
D28*
X497662Y255016D03*
D27*
X497789Y255270D03*
D28*
X497916Y255524D03*
D29*
X498043Y255778D03*
X498297Y256032D03*
D30*
X498424Y256286D03*
X498424Y256540D03*
X498678Y256794D03*
D31*
X498805Y257048D03*
D32*
X498932Y257302D03*
D31*
X499059Y257556D03*
D32*
X499186Y257810D03*
D33*
X499313Y258064D03*
X499567Y258318D03*
D34*
X499694Y258572D03*
X499694Y258826D03*
X499948Y259080D03*
D35*
X500075Y259334D03*
D36*
X500202Y259588D03*
D35*
X500329Y259842D03*
D36*
X500456Y260096D03*
D37*
X500583Y260350D03*
X500837Y260604D03*
D38*
X500964Y260858D03*
X500964Y261112D03*
X501218Y261366D03*
D39*
X501345Y261620D03*
D40*
X501472Y261874D03*
D39*
X501599Y262128D03*
D40*
X501726Y262382D03*
D41*
X501853Y262636D03*
X502107Y262890D03*
X502107Y263144D03*
D42*
X502234Y263398D03*
X502488Y263652D03*
D43*
X502615Y263906D03*
D44*
X502742Y264160D03*
D43*
X502869Y264414D03*
D44*
X502996Y264668D03*
D45*
X503123Y264922D03*
X503377Y265176D03*
X503377Y265430D03*
D46*
X503504Y265684D03*
X503758Y265938D03*
D47*
X503885Y266192D03*
D48*
X504012Y266446D03*
D47*
X504139Y266700D03*
D48*
X504266Y266954D03*
D49*
X504393Y267208D03*
X504647Y267462D03*
X504647Y267716D03*
D50*
X504774Y267970D03*
X505028Y268224D03*
D51*
X505155Y268478D03*
D52*
X505282Y268732D03*
D51*
X505409Y268986D03*
D52*
X505536Y269240D03*
D53*
X505663Y269494D03*
X505917Y269748D03*
X505917Y270002D03*
D54*
X506044Y270256D03*
X506298Y270510D03*
D55*
X506425Y270764D03*
X506425Y271018D03*
X506679Y271272D03*
D56*
X506806Y271526D03*
D57*
X506933Y271780D03*
X507187Y272034D03*
X507187Y272288D03*
D58*
X507314Y272542D03*
X507568Y272796D03*
D59*
X507695Y273050D03*
X507695Y273304D03*
X507949Y273558D03*
D60*
X508076Y273812D03*
D61*
X508203Y274066D03*
X508457Y274320D03*
X508457Y274574D03*
D62*
X508584Y274828D03*
X508838Y275082D03*
D63*
X508965Y275336D03*
X508965Y275590D03*
X509219Y275844D03*
D64*
X509346Y276098D03*
D65*
X509473Y276352D03*
X509727Y276606D03*
X509727Y276860D03*
D66*
X509854Y277114D03*
X510108Y277368D03*
D67*
X510235Y277622D03*
X510235Y277876D03*
X510489Y278130D03*
D68*
X510616Y278384D03*
D69*
X510743Y278638D03*
D68*
X510870Y278892D03*
D69*
X510997Y279146D03*
D70*
X511124Y279400D03*
X511378Y279654D03*
D71*
X511505Y279908D03*
X511505Y280162D03*
X511759Y280416D03*
D72*
X511886Y280670D03*
D73*
X512013Y280924D03*
D72*
X512140Y281178D03*
D73*
X512267Y281432D03*
D74*
X512394Y281686D03*
X512648Y281940D03*
D75*
X512775Y282194D03*
X512775Y282448D03*
X513029Y282702D03*
D76*
X513156Y282956D03*
D77*
X513283Y283210D03*
D76*
X513410Y283464D03*
D77*
X513537Y283718D03*
D78*
X513664Y283972D03*
X513918Y284226D03*
D79*
X513918Y284480D03*
D80*
X514045Y284734D03*
D79*
X514172Y284988D03*
D81*
X514299Y285242D03*
D82*
X514426Y285496D03*
X514426Y285750D03*
D83*
X514553Y286004D03*
D84*
X514680Y286258D03*
D85*
X514807Y286512D03*
X514807Y286766D03*
D86*
X514934Y287020D03*
D87*
X515061Y287274D03*
D88*
X515061Y287528D03*
D89*
X515061Y287782D03*
D90*
X508584Y288036D03*
D91*
X508076Y288290D03*
D92*
X508076Y288544D03*
D93*
X507949Y288798D03*
X507949Y289052D03*
D94*
X507949Y289306D03*
D95*
X507949Y289560D03*
D96*
X508076Y289814D03*
D97*
X508203Y290068D03*
X508203Y290322D03*
D98*
X508330Y290576D03*
D99*
X508457Y290830D03*
D100*
X508584Y291084D03*
X508584Y291338D03*
D101*
X508711Y291592D03*
D102*
X508838Y291846D03*
D103*
X508965Y292100D03*
X509219Y292354D03*
X509219Y292608D03*
D104*
X509346Y292862D03*
X509600Y293116D03*
D105*
X509727Y293370D03*
D104*
X509854Y293624D03*
D105*
X509981Y293878D03*
X510235Y294132D03*
D106*
X510362Y294386D03*
D105*
X510489Y294640D03*
X510743Y294894D03*
D106*
X510870Y295148D03*
X511124Y295402D03*
X511124Y295656D03*
X511378Y295910D03*
X511378Y296164D03*
D105*
X511505Y296418D03*
X511505Y296672D03*
D104*
X511632Y296926D03*
D103*
X511759Y297180D03*
X511759Y297434D03*
D101*
X511759Y297688D03*
X511759Y297942D03*
D99*
X511759Y298196D03*
D97*
X511505Y298450D03*
D93*
X510997Y298704D03*
D107*
X508330Y298958D03*
D108*
X508330Y299212D03*
D109*
X508203Y299466D03*
D110*
X508330Y299720D03*
D111*
X508457Y299974D03*
X508457Y300228D03*
X508711Y300482D03*
X508711Y300736D03*
X508965Y300990D03*
X508965Y301244D03*
X509219Y301498D03*
X509219Y301752D03*
X509473Y302006D03*
X509727Y302260D03*
X509727Y302514D03*
X509981Y302768D03*
X509981Y303022D03*
X510235Y303276D03*
X510235Y303530D03*
X510489Y303784D03*
X510489Y304038D03*
X510743Y304292D03*
X510743Y304546D03*
X510997Y304800D03*
D112*
X511124Y305054D03*
D111*
X511251Y305308D03*
D112*
X511378Y305562D03*
D111*
X511505Y305816D03*
D112*
X511632Y306070D03*
D111*
X511759Y306324D03*
D112*
X511886Y306578D03*
D111*
X512013Y306832D03*
D112*
X512140Y307086D03*
X512394Y307340D03*
D111*
X512521Y307594D03*
D112*
X512648Y307848D03*
D111*
X512775Y308102D03*
D112*
X512902Y308356D03*
D111*
X513029Y308610D03*
D112*
X513156Y308864D03*
D111*
X513283Y309118D03*
D112*
X513410Y309372D03*
D111*
X513537Y309626D03*
D112*
X513664Y309880D03*
X513918Y310134D03*
X513918Y310388D03*
X514172Y310642D03*
X514172Y310896D03*
X514426Y311150D03*
X514426Y311404D03*
X514680Y311658D03*
X514680Y311912D03*
X514934Y312166D03*
X515188Y312420D03*
X515188Y312674D03*
X515442Y312928D03*
X515442Y313182D03*
X515696Y313436D03*
X515696Y313690D03*
X515950Y313944D03*
X515950Y314198D03*
X516204Y314452D03*
D113*
X516331Y314706D03*
D112*
X516458Y314960D03*
D113*
X516585Y315214D03*
D114*
X516712Y315468D03*
X516966Y315722D03*
X516966Y315976D03*
D115*
X517093Y316230D03*
D116*
X517220Y316484D03*
D117*
X517347Y316738D03*
X517601Y316992D03*
D118*
X517728Y317246D03*
D119*
X517855Y317500D03*
D120*
X517982Y317754D03*
D121*
X518109Y318008D03*
D122*
X518363Y318262D03*
D123*
X518363Y318516D03*
D124*
X518490Y318770D03*
D125*
X518744Y319024D03*
D126*
X518744Y319278D03*
D127*
X518998Y319532D03*
D87*
X519125Y319786D03*
D12*
X756488Y426212D03*
D13*
X756361Y426466D03*
D14*
X756488Y426720D03*
D15*
X756488Y426974D03*
D16*
X756615Y427228D03*
X756615Y427482D03*
D17*
X756742Y427736D03*
D18*
X756742Y427990D03*
D19*
X756869Y428244D03*
X757123Y428498D03*
X757123Y428752D03*
D20*
X757250Y429006D03*
D21*
X757377Y429260D03*
D22*
X757504Y429514D03*
X757504Y429768D03*
X757758Y430022D03*
D23*
X757885Y430276D03*
D24*
X758012Y430530D03*
X758266Y430784D03*
X758266Y431038D03*
D25*
X758393Y431292D03*
X758647Y431546D03*
D26*
X758774Y431800D03*
X758774Y432054D03*
X759028Y432308D03*
D27*
X759155Y432562D03*
D28*
X759282Y432816D03*
D27*
X759409Y433070D03*
D28*
X759536Y433324D03*
D29*
X759663Y433578D03*
X759917Y433832D03*
D30*
X760044Y434086D03*
X760044Y434340D03*
X760298Y434594D03*
D31*
X760425Y434848D03*
D32*
X760552Y435102D03*
D31*
X760679Y435356D03*
D32*
X760806Y435610D03*
D33*
X760933Y435864D03*
X761187Y436118D03*
D34*
X761314Y436372D03*
X761314Y436626D03*
X761568Y436880D03*
D35*
X761695Y437134D03*
D36*
X761822Y437388D03*
D35*
X761949Y437642D03*
D36*
X762076Y437896D03*
D37*
X762203Y438150D03*
X762457Y438404D03*
D38*
X762584Y438658D03*
X762584Y438912D03*
X762838Y439166D03*
D39*
X762965Y439420D03*
D40*
X763092Y439674D03*
D39*
X763219Y439928D03*
D40*
X763346Y440182D03*
D41*
X763473Y440436D03*
X763727Y440690D03*
X763727Y440944D03*
D42*
X763854Y441198D03*
X764108Y441452D03*
D43*
X764235Y441706D03*
D44*
X764362Y441960D03*
D43*
X764489Y442214D03*
D44*
X764616Y442468D03*
D45*
X764743Y442722D03*
X764997Y442976D03*
X764997Y443230D03*
D46*
X765124Y443484D03*
X765378Y443738D03*
D47*
X765505Y443992D03*
D48*
X765632Y444246D03*
D47*
X765759Y444500D03*
D48*
X765886Y444754D03*
D49*
X766013Y445008D03*
X766267Y445262D03*
X766267Y445516D03*
D50*
X766394Y445770D03*
X766648Y446024D03*
D51*
X766775Y446278D03*
D52*
X766902Y446532D03*
D51*
X767029Y446786D03*
D52*
X767156Y447040D03*
D53*
X767283Y447294D03*
X767537Y447548D03*
X767537Y447802D03*
D54*
X767664Y448056D03*
X767918Y448310D03*
D55*
X768045Y448564D03*
X768045Y448818D03*
X768299Y449072D03*
D56*
X768426Y449326D03*
D57*
X768553Y449580D03*
X768807Y449834D03*
X768807Y450088D03*
D58*
X768934Y450342D03*
X769188Y450596D03*
D59*
X769315Y450850D03*
X769315Y451104D03*
X769569Y451358D03*
D60*
X769696Y451612D03*
D61*
X769823Y451866D03*
X770077Y452120D03*
X770077Y452374D03*
D62*
X770204Y452628D03*
X770458Y452882D03*
D63*
X770585Y453136D03*
X770585Y453390D03*
X770839Y453644D03*
D64*
X770966Y453898D03*
D65*
X771093Y454152D03*
X771347Y454406D03*
X771347Y454660D03*
D66*
X771474Y454914D03*
X771728Y455168D03*
D67*
X771855Y455422D03*
X771855Y455676D03*
X772109Y455930D03*
D68*
X772236Y456184D03*
D69*
X772363Y456438D03*
D68*
X772490Y456692D03*
D69*
X772617Y456946D03*
D70*
X772744Y457200D03*
X772998Y457454D03*
D71*
X773125Y457708D03*
X773125Y457962D03*
X773379Y458216D03*
D72*
X773506Y458470D03*
D73*
X773633Y458724D03*
D72*
X773760Y458978D03*
D73*
X773887Y459232D03*
D74*
X774014Y459486D03*
X774268Y459740D03*
D75*
X774395Y459994D03*
X774395Y460248D03*
X774649Y460502D03*
D76*
X774776Y460756D03*
D77*
X774903Y461010D03*
D76*
X775030Y461264D03*
D77*
X775157Y461518D03*
D78*
X775284Y461772D03*
X775538Y462026D03*
D79*
X775538Y462280D03*
D80*
X775665Y462534D03*
D79*
X775792Y462788D03*
D81*
X775919Y463042D03*
D82*
X776046Y463296D03*
X776046Y463550D03*
D83*
X776173Y463804D03*
D84*
X776300Y464058D03*
D85*
X776427Y464312D03*
X776427Y464566D03*
D86*
X776554Y464820D03*
D87*
X776681Y465074D03*
D88*
X776681Y465328D03*
D89*
X776681Y465582D03*
D90*
X770204Y465836D03*
D91*
X769696Y466090D03*
D92*
X769696Y466344D03*
D93*
X769569Y466598D03*
X769569Y466852D03*
D94*
X769569Y467106D03*
D95*
X769569Y467360D03*
D96*
X769696Y467614D03*
D97*
X769823Y467868D03*
X769823Y468122D03*
D98*
X769950Y468376D03*
D99*
X770077Y468630D03*
D100*
X770204Y468884D03*
X770204Y469138D03*
D101*
X770331Y469392D03*
D102*
X770458Y469646D03*
D103*
X770585Y469900D03*
X770839Y470154D03*
X770839Y470408D03*
D104*
X770966Y470662D03*
X771220Y470916D03*
D105*
X771347Y471170D03*
D104*
X771474Y471424D03*
D105*
X771601Y471678D03*
X771855Y471932D03*
D106*
X771982Y472186D03*
D105*
X772109Y472440D03*
X772363Y472694D03*
D106*
X772490Y472948D03*
X772744Y473202D03*
X772744Y473456D03*
X772998Y473710D03*
X772998Y473964D03*
D105*
X773125Y474218D03*
X773125Y474472D03*
D104*
X773252Y474726D03*
D103*
X773379Y474980D03*
X773379Y475234D03*
D101*
X773379Y475488D03*
X773379Y475742D03*
D99*
X773379Y475996D03*
D97*
X773125Y476250D03*
D93*
X772617Y476504D03*
D107*
X769950Y476758D03*
D108*
X769950Y477012D03*
D109*
X769823Y477266D03*
D110*
X769950Y477520D03*
D111*
X770077Y477774D03*
X770077Y478028D03*
X770331Y478282D03*
X770331Y478536D03*
X770585Y478790D03*
X770585Y479044D03*
X770839Y479298D03*
X770839Y479552D03*
X771093Y479806D03*
X771347Y480060D03*
X771347Y480314D03*
X771601Y480568D03*
X771601Y480822D03*
X771855Y481076D03*
X771855Y481330D03*
X772109Y481584D03*
X772109Y481838D03*
X772363Y482092D03*
X772363Y482346D03*
X772617Y482600D03*
D112*
X772744Y482854D03*
D111*
X772871Y483108D03*
D112*
X772998Y483362D03*
D111*
X773125Y483616D03*
D112*
X773252Y483870D03*
D111*
X773379Y484124D03*
D112*
X773506Y484378D03*
D111*
X773633Y484632D03*
D112*
X773760Y484886D03*
X774014Y485140D03*
D111*
X774141Y485394D03*
D112*
X774268Y485648D03*
D111*
X774395Y485902D03*
D112*
X774522Y486156D03*
D111*
X774649Y486410D03*
D112*
X774776Y486664D03*
D111*
X774903Y486918D03*
D112*
X775030Y487172D03*
D111*
X775157Y487426D03*
D112*
X775284Y487680D03*
X775538Y487934D03*
X775538Y488188D03*
X775792Y488442D03*
X775792Y488696D03*
X776046Y488950D03*
X776046Y489204D03*
X776300Y489458D03*
X776300Y489712D03*
X776554Y489966D03*
X776808Y490220D03*
X776808Y490474D03*
X777062Y490728D03*
X777062Y490982D03*
X777316Y491236D03*
X777316Y491490D03*
X777570Y491744D03*
X777570Y491998D03*
X777824Y492252D03*
D113*
X777951Y492506D03*
D112*
X778078Y492760D03*
D113*
X778205Y493014D03*
D114*
X778332Y493268D03*
X778586Y493522D03*
X778586Y493776D03*
D115*
X778713Y494030D03*
D116*
X778840Y494284D03*
D117*
X778967Y494538D03*
X779221Y494792D03*
D118*
X779348Y495046D03*
D119*
X779475Y495300D03*
D120*
X779602Y495554D03*
D121*
X779729Y495808D03*
D122*
X779983Y496062D03*
D123*
X779983Y496316D03*
D124*
X780110Y496570D03*
D125*
X780364Y496824D03*
D126*
X780364Y497078D03*
D127*
X780618Y497332D03*
D87*
X780745Y497586D03*
D129*
X7400Y309400D02*
X7400Y249400D01*
X122400Y249400D02*
X122400Y309400D01*
X16650Y249400D02*
X7400Y249400D01*
X34150Y249400D02*
X49150Y249400D01*
X66650Y249400D02*
X84150Y249400D01*
X101650Y249400D02*
X122400Y249400D01*
X122400Y309400D02*
X101650Y309400D01*
X84150Y309400D02*
X66650Y309400D01*
X49150Y309400D02*
X34150Y309400D01*
X16650Y309400D02*
X7400Y309400D01*
D130*
X151973Y266192D02*
X151973Y257104D01*
X151975Y257005D01*
X151981Y256905D01*
X151990Y256806D01*
X152003Y256708D01*
X152020Y256610D01*
X152041Y256512D01*
X152066Y256416D01*
X152094Y256321D01*
X152126Y256227D01*
X152161Y256134D01*
X152200Y256042D01*
X152243Y255952D01*
X152288Y255864D01*
X152338Y255777D01*
X152390Y255693D01*
X152446Y255610D01*
X152504Y255530D01*
X152566Y255452D01*
X152631Y255377D01*
X152699Y255304D01*
X152769Y255234D01*
X152842Y255166D01*
X152917Y255101D01*
X152995Y255039D01*
X153075Y254981D01*
X153158Y254925D01*
X153242Y254873D01*
X153329Y254823D01*
X153417Y254778D01*
X153507Y254735D01*
X153599Y254696D01*
X153692Y254661D01*
X153786Y254629D01*
X153881Y254601D01*
X153977Y254576D01*
X154075Y254555D01*
X154173Y254538D01*
X154271Y254525D01*
X154370Y254516D01*
X154470Y254510D01*
X154569Y254508D01*
X155867Y254508D01*
X146699Y263596D02*
X143454Y266192D01*
X143454Y254508D01*
X146699Y254508D02*
X140208Y254508D01*
D129*
X7400Y80800D02*
X7400Y20800D01*
X122400Y20800D02*
X122400Y80800D01*
X16650Y20800D02*
X7400Y20800D01*
X34150Y20800D02*
X49150Y20800D01*
X66650Y20800D02*
X84150Y20800D01*
X101650Y20800D02*
X122400Y20800D01*
X122400Y80800D02*
X101650Y80800D01*
X84150Y80800D02*
X66650Y80800D01*
X49150Y80800D02*
X34150Y80800D01*
X16650Y80800D02*
X7400Y80800D01*
D130*
X151973Y37592D02*
X151973Y28504D01*
X151975Y28405D01*
X151981Y28305D01*
X151990Y28206D01*
X152003Y28108D01*
X152020Y28010D01*
X152041Y27912D01*
X152066Y27816D01*
X152094Y27721D01*
X152126Y27627D01*
X152161Y27534D01*
X152200Y27442D01*
X152243Y27352D01*
X152288Y27264D01*
X152338Y27177D01*
X152390Y27093D01*
X152446Y27010D01*
X152504Y26930D01*
X152566Y26852D01*
X152631Y26777D01*
X152699Y26704D01*
X152769Y26634D01*
X152842Y26566D01*
X152917Y26501D01*
X152995Y26439D01*
X153075Y26381D01*
X153158Y26325D01*
X153242Y26273D01*
X153329Y26223D01*
X153417Y26178D01*
X153507Y26135D01*
X153599Y26096D01*
X153692Y26061D01*
X153786Y26029D01*
X153881Y26001D01*
X153977Y25976D01*
X154075Y25955D01*
X154173Y25938D01*
X154271Y25925D01*
X154370Y25916D01*
X154470Y25910D01*
X154569Y25908D01*
X155867Y25908D01*
X143129Y37592D02*
X143022Y37590D01*
X142916Y37584D01*
X142810Y37574D01*
X142704Y37561D01*
X142598Y37543D01*
X142494Y37522D01*
X142390Y37497D01*
X142287Y37468D01*
X142186Y37436D01*
X142086Y37399D01*
X141987Y37359D01*
X141889Y37316D01*
X141793Y37269D01*
X141699Y37218D01*
X141607Y37164D01*
X141517Y37107D01*
X141429Y37047D01*
X141344Y36983D01*
X141261Y36916D01*
X141180Y36846D01*
X141102Y36774D01*
X141026Y36698D01*
X140954Y36620D01*
X140884Y36539D01*
X140817Y36456D01*
X140753Y36371D01*
X140693Y36283D01*
X140636Y36193D01*
X140582Y36101D01*
X140531Y36007D01*
X140484Y35911D01*
X140441Y35813D01*
X140401Y35714D01*
X140364Y35614D01*
X140332Y35513D01*
X140303Y35410D01*
X140278Y35306D01*
X140257Y35202D01*
X140239Y35096D01*
X140226Y34990D01*
X140216Y34884D01*
X140210Y34778D01*
X140208Y34671D01*
X143129Y37592D02*
X143250Y37590D01*
X143371Y37584D01*
X143491Y37574D01*
X143612Y37561D01*
X143731Y37543D01*
X143851Y37522D01*
X143969Y37497D01*
X144086Y37468D01*
X144203Y37435D01*
X144318Y37399D01*
X144432Y37358D01*
X144545Y37315D01*
X144657Y37267D01*
X144766Y37216D01*
X144874Y37161D01*
X144981Y37103D01*
X145085Y37042D01*
X145187Y36977D01*
X145287Y36909D01*
X145385Y36838D01*
X145481Y36764D01*
X145574Y36687D01*
X145664Y36606D01*
X145752Y36523D01*
X145837Y36437D01*
X145920Y36348D01*
X145999Y36257D01*
X146076Y36163D01*
X146149Y36067D01*
X146219Y35969D01*
X146286Y35868D01*
X146350Y35765D01*
X146411Y35660D01*
X146468Y35553D01*
X146521Y35445D01*
X146571Y35335D01*
X146617Y35223D01*
X146660Y35110D01*
X146699Y34995D01*
X141182Y32399D02*
X141103Y32477D01*
X141027Y32557D01*
X140954Y32640D01*
X140884Y32726D01*
X140817Y32813D01*
X140753Y32904D01*
X140693Y32996D01*
X140635Y33090D01*
X140581Y33187D01*
X140531Y33285D01*
X140484Y33385D01*
X140440Y33486D01*
X140400Y33589D01*
X140364Y33694D01*
X140332Y33799D01*
X140303Y33906D01*
X140278Y34013D01*
X140256Y34122D01*
X140239Y34231D01*
X140225Y34340D01*
X140216Y34450D01*
X140210Y34561D01*
X140208Y34671D01*
X141182Y32399D02*
X146699Y25908D01*
X140208Y25908D01*
X143708Y435954D02*
X155392Y435954D01*
X150199Y435954D02*
X150199Y442445D01*
X155392Y442445D02*
X143708Y442445D01*
X143708Y448169D02*
X155392Y448169D01*
X143708Y448169D02*
X143708Y453361D01*
X143708Y458221D02*
X155392Y458221D01*
X155392Y464712D02*
X148252Y458221D01*
X150848Y460818D02*
X143708Y464712D01*
X152796Y469101D02*
X155392Y472346D01*
X143708Y472346D01*
X143708Y469101D02*
X143708Y475592D01*
D131*
X281280Y143820D02*
X316320Y143820D01*
X281280Y143820D02*
X281280Y78780D01*
X316320Y78780D01*
X316320Y143820D01*
X325800Y142450D02*
X338800Y142450D01*
D130*
X309108Y129842D02*
X309108Y118158D01*
X310406Y118158D02*
X307810Y118158D01*
X307810Y129842D02*
X310406Y129842D01*
X300646Y118158D02*
X298050Y118158D01*
X300646Y118158D02*
X300745Y118160D01*
X300845Y118166D01*
X300944Y118175D01*
X301042Y118188D01*
X301140Y118205D01*
X301238Y118226D01*
X301334Y118251D01*
X301429Y118279D01*
X301523Y118311D01*
X301616Y118346D01*
X301708Y118385D01*
X301798Y118428D01*
X301886Y118473D01*
X301973Y118523D01*
X302057Y118575D01*
X302140Y118631D01*
X302220Y118689D01*
X302298Y118751D01*
X302373Y118816D01*
X302446Y118884D01*
X302516Y118954D01*
X302584Y119027D01*
X302649Y119102D01*
X302711Y119180D01*
X302769Y119260D01*
X302825Y119343D01*
X302877Y119427D01*
X302927Y119514D01*
X302972Y119602D01*
X303015Y119692D01*
X303054Y119784D01*
X303089Y119877D01*
X303121Y119971D01*
X303149Y120066D01*
X303174Y120162D01*
X303195Y120260D01*
X303212Y120358D01*
X303225Y120456D01*
X303234Y120555D01*
X303240Y120655D01*
X303242Y120754D01*
X303243Y120754D02*
X303243Y127246D01*
X303242Y127246D02*
X303240Y127345D01*
X303234Y127445D01*
X303225Y127544D01*
X303212Y127642D01*
X303195Y127740D01*
X303174Y127838D01*
X303149Y127934D01*
X303121Y128029D01*
X303089Y128123D01*
X303054Y128216D01*
X303015Y128308D01*
X302972Y128398D01*
X302927Y128486D01*
X302877Y128573D01*
X302825Y128657D01*
X302769Y128740D01*
X302711Y128820D01*
X302649Y128898D01*
X302584Y128973D01*
X302516Y129046D01*
X302446Y129116D01*
X302373Y129184D01*
X302298Y129249D01*
X302220Y129311D01*
X302140Y129369D01*
X302057Y129425D01*
X301973Y129477D01*
X301886Y129527D01*
X301798Y129572D01*
X301708Y129615D01*
X301616Y129654D01*
X301523Y129689D01*
X301429Y129721D01*
X301334Y129749D01*
X301238Y129774D01*
X301140Y129795D01*
X301042Y129812D01*
X300944Y129825D01*
X300845Y129834D01*
X300745Y129840D01*
X300646Y129842D01*
X298050Y129842D01*
X293685Y127246D02*
X290439Y129842D01*
X290439Y118158D01*
X287194Y118158D02*
X293685Y118158D01*
D129*
X453500Y249400D02*
X453500Y309400D01*
X568500Y309400D02*
X568500Y249400D01*
X462750Y249400D02*
X453500Y249400D01*
X480250Y249400D02*
X495250Y249400D01*
X512750Y249400D02*
X530250Y249400D01*
X547750Y249400D02*
X568500Y249400D01*
X568500Y309400D02*
X547750Y309400D01*
X530250Y309400D02*
X512750Y309400D01*
X495250Y309400D02*
X480250Y309400D01*
X462750Y309400D02*
X453500Y309400D01*
D130*
X598073Y266192D02*
X598073Y257104D01*
X598075Y257005D01*
X598081Y256905D01*
X598090Y256806D01*
X598103Y256708D01*
X598120Y256610D01*
X598141Y256512D01*
X598166Y256416D01*
X598194Y256321D01*
X598226Y256227D01*
X598261Y256134D01*
X598300Y256042D01*
X598343Y255952D01*
X598388Y255864D01*
X598438Y255777D01*
X598490Y255693D01*
X598546Y255610D01*
X598604Y255530D01*
X598666Y255452D01*
X598731Y255377D01*
X598799Y255304D01*
X598869Y255234D01*
X598942Y255166D01*
X599017Y255101D01*
X599095Y255039D01*
X599175Y254981D01*
X599258Y254925D01*
X599342Y254873D01*
X599429Y254823D01*
X599517Y254778D01*
X599607Y254735D01*
X599699Y254696D01*
X599792Y254661D01*
X599886Y254629D01*
X599981Y254601D01*
X600077Y254576D01*
X600175Y254555D01*
X600273Y254538D01*
X600371Y254525D01*
X600470Y254516D01*
X600570Y254510D01*
X600669Y254508D01*
X601967Y254508D01*
X592799Y254508D02*
X589554Y254508D01*
X589441Y254510D01*
X589328Y254516D01*
X589215Y254526D01*
X589102Y254540D01*
X588990Y254557D01*
X588879Y254579D01*
X588769Y254604D01*
X588659Y254634D01*
X588551Y254667D01*
X588444Y254704D01*
X588338Y254744D01*
X588234Y254789D01*
X588131Y254837D01*
X588030Y254888D01*
X587931Y254943D01*
X587834Y255001D01*
X587739Y255063D01*
X587646Y255128D01*
X587556Y255196D01*
X587468Y255267D01*
X587382Y255342D01*
X587299Y255419D01*
X587219Y255499D01*
X587142Y255582D01*
X587067Y255668D01*
X586996Y255756D01*
X586928Y255846D01*
X586863Y255939D01*
X586801Y256034D01*
X586743Y256131D01*
X586688Y256230D01*
X586637Y256331D01*
X586589Y256434D01*
X586544Y256538D01*
X586504Y256644D01*
X586467Y256751D01*
X586434Y256859D01*
X586404Y256969D01*
X586379Y257079D01*
X586357Y257190D01*
X586340Y257302D01*
X586326Y257415D01*
X586316Y257528D01*
X586310Y257641D01*
X586308Y257754D01*
X586310Y257867D01*
X586316Y257980D01*
X586326Y258093D01*
X586340Y258206D01*
X586357Y258318D01*
X586379Y258429D01*
X586404Y258539D01*
X586434Y258649D01*
X586467Y258757D01*
X586504Y258864D01*
X586544Y258970D01*
X586589Y259074D01*
X586637Y259177D01*
X586688Y259278D01*
X586743Y259377D01*
X586801Y259474D01*
X586863Y259569D01*
X586928Y259662D01*
X586996Y259752D01*
X587067Y259840D01*
X587142Y259926D01*
X587219Y260009D01*
X587299Y260089D01*
X587382Y260166D01*
X587468Y260241D01*
X587556Y260312D01*
X587646Y260380D01*
X587739Y260445D01*
X587834Y260507D01*
X587931Y260565D01*
X588030Y260620D01*
X588131Y260671D01*
X588234Y260719D01*
X588338Y260764D01*
X588444Y260804D01*
X588551Y260841D01*
X588659Y260874D01*
X588769Y260904D01*
X588879Y260929D01*
X588990Y260951D01*
X589102Y260968D01*
X589215Y260982D01*
X589328Y260992D01*
X589441Y260998D01*
X589554Y261000D01*
X588905Y266192D02*
X592799Y266192D01*
X588905Y266192D02*
X588804Y266190D01*
X588704Y266184D01*
X588604Y266174D01*
X588504Y266161D01*
X588405Y266143D01*
X588306Y266122D01*
X588209Y266097D01*
X588112Y266068D01*
X588017Y266035D01*
X587923Y265999D01*
X587831Y265959D01*
X587740Y265916D01*
X587651Y265869D01*
X587564Y265819D01*
X587478Y265765D01*
X587395Y265708D01*
X587315Y265648D01*
X587236Y265585D01*
X587160Y265518D01*
X587087Y265449D01*
X587017Y265377D01*
X586949Y265303D01*
X586884Y265226D01*
X586823Y265146D01*
X586764Y265064D01*
X586709Y264980D01*
X586657Y264894D01*
X586608Y264806D01*
X586563Y264716D01*
X586521Y264624D01*
X586483Y264531D01*
X586449Y264436D01*
X586418Y264341D01*
X586391Y264244D01*
X586368Y264146D01*
X586348Y264047D01*
X586333Y263947D01*
X586321Y263847D01*
X586313Y263747D01*
X586309Y263646D01*
X586309Y263546D01*
X586313Y263445D01*
X586321Y263345D01*
X586333Y263245D01*
X586348Y263145D01*
X586368Y263046D01*
X586391Y262948D01*
X586418Y262851D01*
X586449Y262756D01*
X586483Y262661D01*
X586521Y262568D01*
X586563Y262476D01*
X586608Y262386D01*
X586657Y262298D01*
X586709Y262212D01*
X586764Y262128D01*
X586823Y262046D01*
X586884Y261966D01*
X586949Y261889D01*
X587017Y261815D01*
X587087Y261743D01*
X587160Y261674D01*
X587236Y261607D01*
X587315Y261544D01*
X587395Y261484D01*
X587478Y261427D01*
X587564Y261373D01*
X587651Y261323D01*
X587740Y261276D01*
X587831Y261233D01*
X587923Y261193D01*
X588017Y261157D01*
X588112Y261124D01*
X588209Y261095D01*
X588306Y261070D01*
X588405Y261049D01*
X588504Y261031D01*
X588604Y261018D01*
X588704Y261008D01*
X588804Y261002D01*
X588905Y261000D01*
X588905Y260999D02*
X591501Y260999D01*
D129*
X453500Y80800D02*
X453500Y20800D01*
X568500Y20800D02*
X568500Y80800D01*
X462750Y20800D02*
X453500Y20800D01*
X480250Y20800D02*
X495250Y20800D01*
X512750Y20800D02*
X530250Y20800D01*
X547750Y20800D02*
X568500Y20800D01*
X568500Y80800D02*
X547750Y80800D01*
X530250Y80800D02*
X512750Y80800D01*
X495250Y80800D02*
X480250Y80800D01*
X462750Y80800D02*
X453500Y80800D01*
D130*
X598073Y37592D02*
X598073Y28504D01*
X598075Y28405D01*
X598081Y28305D01*
X598090Y28206D01*
X598103Y28108D01*
X598120Y28010D01*
X598141Y27912D01*
X598166Y27816D01*
X598194Y27721D01*
X598226Y27627D01*
X598261Y27534D01*
X598300Y27442D01*
X598343Y27352D01*
X598388Y27264D01*
X598438Y27177D01*
X598490Y27093D01*
X598546Y27010D01*
X598604Y26930D01*
X598666Y26852D01*
X598731Y26777D01*
X598799Y26704D01*
X598869Y26634D01*
X598942Y26566D01*
X599017Y26501D01*
X599095Y26439D01*
X599175Y26381D01*
X599258Y26325D01*
X599342Y26273D01*
X599429Y26223D01*
X599517Y26178D01*
X599607Y26135D01*
X599699Y26096D01*
X599792Y26061D01*
X599886Y26029D01*
X599981Y26001D01*
X600077Y25976D01*
X600175Y25955D01*
X600273Y25938D01*
X600371Y25925D01*
X600470Y25916D01*
X600570Y25910D01*
X600669Y25908D01*
X601967Y25908D01*
X592799Y28504D02*
X590203Y37592D01*
X592799Y28504D02*
X586308Y28504D01*
X588256Y25908D02*
X588256Y31101D01*
X589808Y435954D02*
X601492Y435954D01*
X596299Y435954D02*
X596299Y442445D01*
X601492Y442445D02*
X589808Y442445D01*
X589808Y448169D02*
X601492Y448169D01*
X589808Y448169D02*
X589808Y453361D01*
X589808Y458221D02*
X601492Y458221D01*
X601492Y464712D02*
X594352Y458221D01*
X596948Y460818D02*
X589808Y464712D01*
X598571Y475592D02*
X598678Y475590D01*
X598784Y475584D01*
X598890Y475574D01*
X598996Y475561D01*
X599102Y475543D01*
X599206Y475522D01*
X599310Y475497D01*
X599413Y475468D01*
X599514Y475436D01*
X599614Y475399D01*
X599713Y475359D01*
X599811Y475316D01*
X599907Y475269D01*
X600001Y475218D01*
X600093Y475164D01*
X600183Y475107D01*
X600271Y475047D01*
X600356Y474983D01*
X600439Y474916D01*
X600520Y474846D01*
X600598Y474774D01*
X600674Y474698D01*
X600746Y474620D01*
X600816Y474539D01*
X600883Y474456D01*
X600947Y474371D01*
X601007Y474283D01*
X601064Y474193D01*
X601118Y474101D01*
X601169Y474007D01*
X601216Y473911D01*
X601259Y473813D01*
X601299Y473714D01*
X601336Y473614D01*
X601368Y473513D01*
X601397Y473410D01*
X601422Y473306D01*
X601443Y473202D01*
X601461Y473096D01*
X601474Y472990D01*
X601484Y472884D01*
X601490Y472778D01*
X601492Y472671D01*
X601493Y472671D02*
X601491Y472550D01*
X601485Y472429D01*
X601475Y472309D01*
X601462Y472188D01*
X601444Y472069D01*
X601423Y471949D01*
X601398Y471831D01*
X601369Y471714D01*
X601336Y471597D01*
X601300Y471482D01*
X601259Y471368D01*
X601216Y471255D01*
X601168Y471143D01*
X601117Y471034D01*
X601062Y470926D01*
X601004Y470819D01*
X600943Y470715D01*
X600878Y470613D01*
X600810Y470513D01*
X600739Y470415D01*
X600665Y470319D01*
X600588Y470226D01*
X600507Y470136D01*
X600424Y470048D01*
X600338Y469963D01*
X600249Y469880D01*
X600158Y469801D01*
X600064Y469724D01*
X599968Y469651D01*
X599870Y469581D01*
X599769Y469514D01*
X599666Y469450D01*
X599561Y469390D01*
X599454Y469333D01*
X599346Y469279D01*
X599236Y469229D01*
X599124Y469183D01*
X599011Y469140D01*
X598896Y469101D01*
X596299Y474619D02*
X596376Y474698D01*
X596457Y474774D01*
X596540Y474847D01*
X596625Y474917D01*
X596713Y474984D01*
X596803Y475048D01*
X596895Y475108D01*
X596990Y475165D01*
X597086Y475219D01*
X597184Y475270D01*
X597284Y475317D01*
X597386Y475361D01*
X597489Y475401D01*
X597593Y475437D01*
X597699Y475469D01*
X597805Y475498D01*
X597913Y475523D01*
X598021Y475545D01*
X598131Y475562D01*
X598240Y475576D01*
X598350Y475585D01*
X598461Y475591D01*
X598571Y475593D01*
X596299Y474618D02*
X589808Y469101D01*
X589808Y475592D01*
D131*
X727380Y143820D02*
X762420Y143820D01*
X727380Y143820D02*
X727380Y78780D01*
X762420Y78780D01*
X762420Y143820D01*
X771900Y142450D02*
X784900Y142450D01*
D130*
X755208Y129842D02*
X755208Y118158D01*
X753910Y118158D02*
X756507Y118158D01*
X756507Y129842D02*
X753910Y129842D01*
X746747Y118158D02*
X744150Y118158D01*
X746747Y118158D02*
X746846Y118160D01*
X746946Y118166D01*
X747045Y118175D01*
X747143Y118188D01*
X747241Y118205D01*
X747339Y118226D01*
X747435Y118251D01*
X747530Y118279D01*
X747624Y118311D01*
X747717Y118346D01*
X747809Y118385D01*
X747899Y118428D01*
X747987Y118473D01*
X748074Y118523D01*
X748158Y118575D01*
X748241Y118631D01*
X748321Y118689D01*
X748399Y118751D01*
X748474Y118816D01*
X748547Y118884D01*
X748617Y118954D01*
X748685Y119027D01*
X748750Y119102D01*
X748812Y119180D01*
X748870Y119260D01*
X748926Y119343D01*
X748978Y119427D01*
X749028Y119514D01*
X749073Y119602D01*
X749116Y119692D01*
X749155Y119784D01*
X749190Y119877D01*
X749222Y119971D01*
X749250Y120066D01*
X749275Y120162D01*
X749296Y120260D01*
X749313Y120358D01*
X749326Y120456D01*
X749335Y120555D01*
X749341Y120655D01*
X749343Y120754D01*
X749343Y127246D01*
X749341Y127345D01*
X749335Y127445D01*
X749326Y127544D01*
X749313Y127642D01*
X749296Y127740D01*
X749275Y127838D01*
X749250Y127934D01*
X749222Y128029D01*
X749190Y128123D01*
X749155Y128216D01*
X749116Y128308D01*
X749073Y128398D01*
X749028Y128486D01*
X748978Y128573D01*
X748926Y128657D01*
X748870Y128740D01*
X748812Y128820D01*
X748750Y128898D01*
X748685Y128973D01*
X748617Y129046D01*
X748547Y129116D01*
X748474Y129184D01*
X748399Y129249D01*
X748321Y129311D01*
X748241Y129369D01*
X748158Y129425D01*
X748074Y129477D01*
X747987Y129527D01*
X747899Y129572D01*
X747809Y129615D01*
X747717Y129654D01*
X747624Y129689D01*
X747530Y129721D01*
X747435Y129749D01*
X747339Y129774D01*
X747241Y129795D01*
X747143Y129812D01*
X747045Y129825D01*
X746946Y129834D01*
X746846Y129840D01*
X746747Y129842D01*
X744150Y129842D01*
X736215Y129842D02*
X736108Y129840D01*
X736002Y129834D01*
X735896Y129824D01*
X735790Y129811D01*
X735684Y129793D01*
X735580Y129772D01*
X735476Y129747D01*
X735373Y129718D01*
X735272Y129686D01*
X735172Y129649D01*
X735073Y129609D01*
X734975Y129566D01*
X734879Y129519D01*
X734785Y129468D01*
X734693Y129414D01*
X734603Y129357D01*
X734515Y129297D01*
X734430Y129233D01*
X734347Y129166D01*
X734266Y129096D01*
X734188Y129024D01*
X734112Y128948D01*
X734040Y128870D01*
X733970Y128789D01*
X733903Y128706D01*
X733839Y128621D01*
X733779Y128533D01*
X733722Y128443D01*
X733668Y128351D01*
X733617Y128257D01*
X733570Y128161D01*
X733527Y128063D01*
X733487Y127964D01*
X733450Y127864D01*
X733418Y127763D01*
X733389Y127660D01*
X733364Y127556D01*
X733343Y127452D01*
X733325Y127346D01*
X733312Y127240D01*
X733302Y127134D01*
X733296Y127028D01*
X733294Y126921D01*
X736215Y129842D02*
X736336Y129840D01*
X736457Y129834D01*
X736577Y129824D01*
X736698Y129811D01*
X736817Y129793D01*
X736937Y129772D01*
X737055Y129747D01*
X737172Y129718D01*
X737289Y129685D01*
X737404Y129649D01*
X737518Y129608D01*
X737631Y129565D01*
X737743Y129517D01*
X737852Y129466D01*
X737960Y129411D01*
X738067Y129353D01*
X738171Y129292D01*
X738273Y129227D01*
X738373Y129159D01*
X738471Y129088D01*
X738567Y129014D01*
X738660Y128937D01*
X738750Y128856D01*
X738838Y128773D01*
X738923Y128687D01*
X739006Y128598D01*
X739085Y128507D01*
X739162Y128413D01*
X739235Y128317D01*
X739305Y128219D01*
X739372Y128118D01*
X739436Y128015D01*
X739497Y127910D01*
X739554Y127803D01*
X739607Y127695D01*
X739657Y127585D01*
X739703Y127473D01*
X739746Y127360D01*
X739785Y127245D01*
X734268Y124649D02*
X734189Y124727D01*
X734113Y124807D01*
X734040Y124890D01*
X733970Y124976D01*
X733903Y125063D01*
X733839Y125154D01*
X733779Y125246D01*
X733721Y125340D01*
X733667Y125437D01*
X733617Y125535D01*
X733570Y125635D01*
X733526Y125736D01*
X733486Y125839D01*
X733450Y125944D01*
X733418Y126049D01*
X733389Y126156D01*
X733364Y126263D01*
X733342Y126372D01*
X733325Y126481D01*
X733311Y126590D01*
X733302Y126700D01*
X733296Y126811D01*
X733294Y126921D01*
X734267Y124649D02*
X739785Y118158D01*
X733294Y118158D01*
M02*
