G04 EAGLE Gerber RS-274X export*
G75*
%MOMM*%
%FSLAX34Y34*%
%LPD*%
%INSoldermask Top*%
%IPPOS*%
%AMOC8*
5,1,8,0,0,1.08239X$1,22.5*%
G01*
%ADD10C,0.397150*%
%ADD11R,4.203200X4.203200*%
%ADD12C,1.703200*%
%ADD13R,1.727200X1.727200*%
%ADD14R,1.803200X2.503200*%
%ADD15R,1.203200X1.603200*%
%ADD16R,1.703200X1.103200*%
%ADD17C,1.993900*%
%ADD18P,2.556822X8X86.000000*%
%ADD19R,1.168400X1.727200*%
%ADD20R,1.727200X1.168400*%
%ADD21C,1.727200*%
%ADD22R,1.711200X1.711200*%
%ADD23C,1.711200*%
%ADD24C,0.959600*%


D10*
X342780Y248030D02*
X342780Y232970D01*
X335720Y232970D01*
X335720Y248030D01*
X342780Y248030D01*
X342780Y236743D02*
X335720Y236743D01*
X335720Y240516D02*
X342780Y240516D01*
X342780Y244289D02*
X335720Y244289D01*
X330080Y248030D02*
X330080Y232970D01*
X323020Y232970D01*
X323020Y248030D01*
X330080Y248030D01*
X330080Y236743D02*
X323020Y236743D01*
X323020Y240516D02*
X330080Y240516D01*
X330080Y244289D02*
X323020Y244289D01*
X317380Y248030D02*
X317380Y232970D01*
X310320Y232970D01*
X310320Y248030D01*
X317380Y248030D01*
X317380Y236743D02*
X310320Y236743D01*
X310320Y240516D02*
X317380Y240516D01*
X317380Y244289D02*
X310320Y244289D01*
X304680Y248030D02*
X304680Y232970D01*
X297620Y232970D01*
X297620Y248030D01*
X304680Y248030D01*
X304680Y236743D02*
X297620Y236743D01*
X297620Y240516D02*
X304680Y240516D01*
X304680Y244289D02*
X297620Y244289D01*
X291980Y248030D02*
X291980Y232970D01*
X284920Y232970D01*
X284920Y248030D01*
X291980Y248030D01*
X291980Y236743D02*
X284920Y236743D01*
X284920Y240516D02*
X291980Y240516D01*
X291980Y244289D02*
X284920Y244289D01*
X279280Y248030D02*
X279280Y232970D01*
X272220Y232970D01*
X272220Y248030D01*
X279280Y248030D01*
X279280Y236743D02*
X272220Y236743D01*
X272220Y240516D02*
X279280Y240516D01*
X279280Y244289D02*
X272220Y244289D01*
X266580Y248030D02*
X266580Y232970D01*
X259520Y232970D01*
X259520Y248030D01*
X266580Y248030D01*
X266580Y236743D02*
X259520Y236743D01*
X259520Y240516D02*
X266580Y240516D01*
X266580Y244289D02*
X259520Y244289D01*
X253880Y248030D02*
X253880Y232970D01*
X246820Y232970D01*
X246820Y248030D01*
X253880Y248030D01*
X253880Y236743D02*
X246820Y236743D01*
X246820Y240516D02*
X253880Y240516D01*
X253880Y244289D02*
X246820Y244289D01*
X241180Y248030D02*
X241180Y232970D01*
X234120Y232970D01*
X234120Y248030D01*
X241180Y248030D01*
X241180Y236743D02*
X234120Y236743D01*
X234120Y240516D02*
X241180Y240516D01*
X241180Y244289D02*
X234120Y244289D01*
X228480Y248030D02*
X228480Y232970D01*
X221420Y232970D01*
X221420Y248030D01*
X228480Y248030D01*
X228480Y236743D02*
X221420Y236743D01*
X221420Y240516D02*
X228480Y240516D01*
X228480Y244289D02*
X221420Y244289D01*
X215780Y248030D02*
X215780Y232970D01*
X208720Y232970D01*
X208720Y248030D01*
X215780Y248030D01*
X215780Y236743D02*
X208720Y236743D01*
X208720Y240516D02*
X215780Y240516D01*
X215780Y244289D02*
X208720Y244289D01*
X203080Y248030D02*
X203080Y232970D01*
X196020Y232970D01*
X196020Y248030D01*
X203080Y248030D01*
X203080Y236743D02*
X196020Y236743D01*
X196020Y240516D02*
X203080Y240516D01*
X203080Y244289D02*
X196020Y244289D01*
X190380Y248030D02*
X190380Y232970D01*
X183320Y232970D01*
X183320Y248030D01*
X190380Y248030D01*
X190380Y236743D02*
X183320Y236743D01*
X183320Y240516D02*
X190380Y240516D01*
X190380Y244289D02*
X183320Y244289D01*
X177680Y248030D02*
X177680Y232970D01*
X170620Y232970D01*
X170620Y248030D01*
X177680Y248030D01*
X177680Y236743D02*
X170620Y236743D01*
X170620Y240516D02*
X177680Y240516D01*
X177680Y244289D02*
X170620Y244289D01*
X166680Y269820D02*
X151620Y269820D01*
X151620Y276880D01*
X166680Y276880D01*
X166680Y269820D01*
X166680Y273593D02*
X151620Y273593D01*
X151620Y282520D02*
X166680Y282520D01*
X151620Y282520D02*
X151620Y289580D01*
X166680Y289580D01*
X166680Y282520D01*
X166680Y286293D02*
X151620Y286293D01*
X151620Y295220D02*
X166680Y295220D01*
X151620Y295220D02*
X151620Y302280D01*
X166680Y302280D01*
X166680Y295220D01*
X166680Y298993D02*
X151620Y298993D01*
X151620Y307920D02*
X166680Y307920D01*
X151620Y307920D02*
X151620Y314980D01*
X166680Y314980D01*
X166680Y307920D01*
X166680Y311693D02*
X151620Y311693D01*
X151620Y320620D02*
X166680Y320620D01*
X151620Y320620D02*
X151620Y327680D01*
X166680Y327680D01*
X166680Y320620D01*
X166680Y324393D02*
X151620Y324393D01*
X151620Y333320D02*
X166680Y333320D01*
X151620Y333320D02*
X151620Y340380D01*
X166680Y340380D01*
X166680Y333320D01*
X166680Y337093D02*
X151620Y337093D01*
X151620Y346020D02*
X166680Y346020D01*
X151620Y346020D02*
X151620Y353080D01*
X166680Y353080D01*
X166680Y346020D01*
X166680Y349793D02*
X151620Y349793D01*
X151620Y358720D02*
X166680Y358720D01*
X151620Y358720D02*
X151620Y365780D01*
X166680Y365780D01*
X166680Y358720D01*
X166680Y362493D02*
X151620Y362493D01*
X151620Y371420D02*
X166680Y371420D01*
X151620Y371420D02*
X151620Y378480D01*
X166680Y378480D01*
X166680Y371420D01*
X166680Y375193D02*
X151620Y375193D01*
X151620Y384120D02*
X166680Y384120D01*
X151620Y384120D02*
X151620Y391180D01*
X166680Y391180D01*
X166680Y384120D01*
X166680Y387893D02*
X151620Y387893D01*
X170620Y412970D02*
X170620Y428030D01*
X177680Y428030D01*
X177680Y412970D01*
X170620Y412970D01*
X170620Y416743D02*
X177680Y416743D01*
X177680Y420516D02*
X170620Y420516D01*
X170620Y424289D02*
X177680Y424289D01*
X183320Y428030D02*
X183320Y412970D01*
X183320Y428030D02*
X190380Y428030D01*
X190380Y412970D01*
X183320Y412970D01*
X183320Y416743D02*
X190380Y416743D01*
X190380Y420516D02*
X183320Y420516D01*
X183320Y424289D02*
X190380Y424289D01*
X196020Y428030D02*
X196020Y412970D01*
X196020Y428030D02*
X203080Y428030D01*
X203080Y412970D01*
X196020Y412970D01*
X196020Y416743D02*
X203080Y416743D01*
X203080Y420516D02*
X196020Y420516D01*
X196020Y424289D02*
X203080Y424289D01*
X208720Y428030D02*
X208720Y412970D01*
X208720Y428030D02*
X215780Y428030D01*
X215780Y412970D01*
X208720Y412970D01*
X208720Y416743D02*
X215780Y416743D01*
X215780Y420516D02*
X208720Y420516D01*
X208720Y424289D02*
X215780Y424289D01*
X221420Y428030D02*
X221420Y412970D01*
X221420Y428030D02*
X228480Y428030D01*
X228480Y412970D01*
X221420Y412970D01*
X221420Y416743D02*
X228480Y416743D01*
X228480Y420516D02*
X221420Y420516D01*
X221420Y424289D02*
X228480Y424289D01*
X234120Y428030D02*
X234120Y412970D01*
X234120Y428030D02*
X241180Y428030D01*
X241180Y412970D01*
X234120Y412970D01*
X234120Y416743D02*
X241180Y416743D01*
X241180Y420516D02*
X234120Y420516D01*
X234120Y424289D02*
X241180Y424289D01*
X246820Y428030D02*
X246820Y412970D01*
X246820Y428030D02*
X253880Y428030D01*
X253880Y412970D01*
X246820Y412970D01*
X246820Y416743D02*
X253880Y416743D01*
X253880Y420516D02*
X246820Y420516D01*
X246820Y424289D02*
X253880Y424289D01*
X259520Y428030D02*
X259520Y412970D01*
X259520Y428030D02*
X266580Y428030D01*
X266580Y412970D01*
X259520Y412970D01*
X259520Y416743D02*
X266580Y416743D01*
X266580Y420516D02*
X259520Y420516D01*
X259520Y424289D02*
X266580Y424289D01*
X272220Y428030D02*
X272220Y412970D01*
X272220Y428030D02*
X279280Y428030D01*
X279280Y412970D01*
X272220Y412970D01*
X272220Y416743D02*
X279280Y416743D01*
X279280Y420516D02*
X272220Y420516D01*
X272220Y424289D02*
X279280Y424289D01*
X284920Y428030D02*
X284920Y412970D01*
X284920Y428030D02*
X291980Y428030D01*
X291980Y412970D01*
X284920Y412970D01*
X284920Y416743D02*
X291980Y416743D01*
X291980Y420516D02*
X284920Y420516D01*
X284920Y424289D02*
X291980Y424289D01*
X297620Y428030D02*
X297620Y412970D01*
X297620Y428030D02*
X304680Y428030D01*
X304680Y412970D01*
X297620Y412970D01*
X297620Y416743D02*
X304680Y416743D01*
X304680Y420516D02*
X297620Y420516D01*
X297620Y424289D02*
X304680Y424289D01*
X310320Y428030D02*
X310320Y412970D01*
X310320Y428030D02*
X317380Y428030D01*
X317380Y412970D01*
X310320Y412970D01*
X310320Y416743D02*
X317380Y416743D01*
X317380Y420516D02*
X310320Y420516D01*
X310320Y424289D02*
X317380Y424289D01*
X323020Y428030D02*
X323020Y412970D01*
X323020Y428030D02*
X330080Y428030D01*
X330080Y412970D01*
X323020Y412970D01*
X323020Y416743D02*
X330080Y416743D01*
X330080Y420516D02*
X323020Y420516D01*
X323020Y424289D02*
X330080Y424289D01*
X335720Y428030D02*
X335720Y412970D01*
X335720Y428030D02*
X342780Y428030D01*
X342780Y412970D01*
X335720Y412970D01*
X335720Y416743D02*
X342780Y416743D01*
X342780Y420516D02*
X335720Y420516D01*
X335720Y424289D02*
X342780Y424289D01*
D11*
X265150Y337500D03*
D12*
X32400Y279400D03*
X92400Y279400D03*
X32400Y50800D03*
X92400Y50800D03*
D13*
X207100Y470700D03*
X257100Y470700D03*
X155100Y176700D03*
X309100Y176700D03*
D14*
X147200Y29300D03*
X147200Y92300D03*
X191500Y29300D03*
X191500Y92300D03*
D15*
X63500Y176100D03*
X73000Y154100D03*
X54000Y154100D03*
D16*
X280000Y137800D03*
X280000Y104800D03*
X329000Y104800D03*
X329000Y137800D03*
D17*
X38500Y435547D02*
X38500Y453454D01*
X88500Y453454D02*
X88500Y435547D01*
D18*
X46500Y131003D03*
X80500Y199197D03*
D19*
X222986Y187800D03*
X243814Y187800D03*
D20*
X25400Y391414D03*
X25400Y370586D03*
D19*
X48514Y342900D03*
X27686Y342900D03*
D20*
X101600Y370586D03*
X101600Y391414D03*
X63500Y370586D03*
X63500Y391414D03*
D21*
X239200Y57620D02*
X239200Y42380D01*
X264600Y42380D02*
X264600Y57620D01*
X290000Y57620D02*
X290000Y42380D01*
X315400Y42380D02*
X315400Y57620D01*
X340800Y57620D02*
X340800Y42380D01*
D22*
X228100Y122200D03*
D23*
X202700Y122200D03*
X177300Y122200D03*
X151900Y122200D03*
D10*
X788880Y232970D02*
X788880Y248030D01*
X788880Y232970D02*
X781820Y232970D01*
X781820Y248030D01*
X788880Y248030D01*
X788880Y236743D02*
X781820Y236743D01*
X781820Y240516D02*
X788880Y240516D01*
X788880Y244289D02*
X781820Y244289D01*
X776180Y248030D02*
X776180Y232970D01*
X769120Y232970D01*
X769120Y248030D01*
X776180Y248030D01*
X776180Y236743D02*
X769120Y236743D01*
X769120Y240516D02*
X776180Y240516D01*
X776180Y244289D02*
X769120Y244289D01*
X763480Y248030D02*
X763480Y232970D01*
X756420Y232970D01*
X756420Y248030D01*
X763480Y248030D01*
X763480Y236743D02*
X756420Y236743D01*
X756420Y240516D02*
X763480Y240516D01*
X763480Y244289D02*
X756420Y244289D01*
X750780Y248030D02*
X750780Y232970D01*
X743720Y232970D01*
X743720Y248030D01*
X750780Y248030D01*
X750780Y236743D02*
X743720Y236743D01*
X743720Y240516D02*
X750780Y240516D01*
X750780Y244289D02*
X743720Y244289D01*
X738080Y248030D02*
X738080Y232970D01*
X731020Y232970D01*
X731020Y248030D01*
X738080Y248030D01*
X738080Y236743D02*
X731020Y236743D01*
X731020Y240516D02*
X738080Y240516D01*
X738080Y244289D02*
X731020Y244289D01*
X725380Y248030D02*
X725380Y232970D01*
X718320Y232970D01*
X718320Y248030D01*
X725380Y248030D01*
X725380Y236743D02*
X718320Y236743D01*
X718320Y240516D02*
X725380Y240516D01*
X725380Y244289D02*
X718320Y244289D01*
X712680Y248030D02*
X712680Y232970D01*
X705620Y232970D01*
X705620Y248030D01*
X712680Y248030D01*
X712680Y236743D02*
X705620Y236743D01*
X705620Y240516D02*
X712680Y240516D01*
X712680Y244289D02*
X705620Y244289D01*
X699980Y248030D02*
X699980Y232970D01*
X692920Y232970D01*
X692920Y248030D01*
X699980Y248030D01*
X699980Y236743D02*
X692920Y236743D01*
X692920Y240516D02*
X699980Y240516D01*
X699980Y244289D02*
X692920Y244289D01*
X687280Y248030D02*
X687280Y232970D01*
X680220Y232970D01*
X680220Y248030D01*
X687280Y248030D01*
X687280Y236743D02*
X680220Y236743D01*
X680220Y240516D02*
X687280Y240516D01*
X687280Y244289D02*
X680220Y244289D01*
X674580Y248030D02*
X674580Y232970D01*
X667520Y232970D01*
X667520Y248030D01*
X674580Y248030D01*
X674580Y236743D02*
X667520Y236743D01*
X667520Y240516D02*
X674580Y240516D01*
X674580Y244289D02*
X667520Y244289D01*
X661880Y248030D02*
X661880Y232970D01*
X654820Y232970D01*
X654820Y248030D01*
X661880Y248030D01*
X661880Y236743D02*
X654820Y236743D01*
X654820Y240516D02*
X661880Y240516D01*
X661880Y244289D02*
X654820Y244289D01*
X649180Y248030D02*
X649180Y232970D01*
X642120Y232970D01*
X642120Y248030D01*
X649180Y248030D01*
X649180Y236743D02*
X642120Y236743D01*
X642120Y240516D02*
X649180Y240516D01*
X649180Y244289D02*
X642120Y244289D01*
X636480Y248030D02*
X636480Y232970D01*
X629420Y232970D01*
X629420Y248030D01*
X636480Y248030D01*
X636480Y236743D02*
X629420Y236743D01*
X629420Y240516D02*
X636480Y240516D01*
X636480Y244289D02*
X629420Y244289D01*
X623780Y248030D02*
X623780Y232970D01*
X616720Y232970D01*
X616720Y248030D01*
X623780Y248030D01*
X623780Y236743D02*
X616720Y236743D01*
X616720Y240516D02*
X623780Y240516D01*
X623780Y244289D02*
X616720Y244289D01*
X612780Y269820D02*
X597720Y269820D01*
X597720Y276880D01*
X612780Y276880D01*
X612780Y269820D01*
X612780Y273593D02*
X597720Y273593D01*
X597720Y282520D02*
X612780Y282520D01*
X597720Y282520D02*
X597720Y289580D01*
X612780Y289580D01*
X612780Y282520D01*
X612780Y286293D02*
X597720Y286293D01*
X597720Y295220D02*
X612780Y295220D01*
X597720Y295220D02*
X597720Y302280D01*
X612780Y302280D01*
X612780Y295220D01*
X612780Y298993D02*
X597720Y298993D01*
X597720Y307920D02*
X612780Y307920D01*
X597720Y307920D02*
X597720Y314980D01*
X612780Y314980D01*
X612780Y307920D01*
X612780Y311693D02*
X597720Y311693D01*
X597720Y320620D02*
X612780Y320620D01*
X597720Y320620D02*
X597720Y327680D01*
X612780Y327680D01*
X612780Y320620D01*
X612780Y324393D02*
X597720Y324393D01*
X597720Y333320D02*
X612780Y333320D01*
X597720Y333320D02*
X597720Y340380D01*
X612780Y340380D01*
X612780Y333320D01*
X612780Y337093D02*
X597720Y337093D01*
X597720Y346020D02*
X612780Y346020D01*
X597720Y346020D02*
X597720Y353080D01*
X612780Y353080D01*
X612780Y346020D01*
X612780Y349793D02*
X597720Y349793D01*
X597720Y358720D02*
X612780Y358720D01*
X597720Y358720D02*
X597720Y365780D01*
X612780Y365780D01*
X612780Y358720D01*
X612780Y362493D02*
X597720Y362493D01*
X597720Y371420D02*
X612780Y371420D01*
X597720Y371420D02*
X597720Y378480D01*
X612780Y378480D01*
X612780Y371420D01*
X612780Y375193D02*
X597720Y375193D01*
X597720Y384120D02*
X612780Y384120D01*
X597720Y384120D02*
X597720Y391180D01*
X612780Y391180D01*
X612780Y384120D01*
X612780Y387893D02*
X597720Y387893D01*
X616720Y412970D02*
X616720Y428030D01*
X623780Y428030D01*
X623780Y412970D01*
X616720Y412970D01*
X616720Y416743D02*
X623780Y416743D01*
X623780Y420516D02*
X616720Y420516D01*
X616720Y424289D02*
X623780Y424289D01*
X629420Y428030D02*
X629420Y412970D01*
X629420Y428030D02*
X636480Y428030D01*
X636480Y412970D01*
X629420Y412970D01*
X629420Y416743D02*
X636480Y416743D01*
X636480Y420516D02*
X629420Y420516D01*
X629420Y424289D02*
X636480Y424289D01*
X642120Y428030D02*
X642120Y412970D01*
X642120Y428030D02*
X649180Y428030D01*
X649180Y412970D01*
X642120Y412970D01*
X642120Y416743D02*
X649180Y416743D01*
X649180Y420516D02*
X642120Y420516D01*
X642120Y424289D02*
X649180Y424289D01*
X654820Y428030D02*
X654820Y412970D01*
X654820Y428030D02*
X661880Y428030D01*
X661880Y412970D01*
X654820Y412970D01*
X654820Y416743D02*
X661880Y416743D01*
X661880Y420516D02*
X654820Y420516D01*
X654820Y424289D02*
X661880Y424289D01*
X667520Y428030D02*
X667520Y412970D01*
X667520Y428030D02*
X674580Y428030D01*
X674580Y412970D01*
X667520Y412970D01*
X667520Y416743D02*
X674580Y416743D01*
X674580Y420516D02*
X667520Y420516D01*
X667520Y424289D02*
X674580Y424289D01*
X680220Y428030D02*
X680220Y412970D01*
X680220Y428030D02*
X687280Y428030D01*
X687280Y412970D01*
X680220Y412970D01*
X680220Y416743D02*
X687280Y416743D01*
X687280Y420516D02*
X680220Y420516D01*
X680220Y424289D02*
X687280Y424289D01*
X692920Y428030D02*
X692920Y412970D01*
X692920Y428030D02*
X699980Y428030D01*
X699980Y412970D01*
X692920Y412970D01*
X692920Y416743D02*
X699980Y416743D01*
X699980Y420516D02*
X692920Y420516D01*
X692920Y424289D02*
X699980Y424289D01*
X705620Y428030D02*
X705620Y412970D01*
X705620Y428030D02*
X712680Y428030D01*
X712680Y412970D01*
X705620Y412970D01*
X705620Y416743D02*
X712680Y416743D01*
X712680Y420516D02*
X705620Y420516D01*
X705620Y424289D02*
X712680Y424289D01*
X718320Y428030D02*
X718320Y412970D01*
X718320Y428030D02*
X725380Y428030D01*
X725380Y412970D01*
X718320Y412970D01*
X718320Y416743D02*
X725380Y416743D01*
X725380Y420516D02*
X718320Y420516D01*
X718320Y424289D02*
X725380Y424289D01*
X731020Y428030D02*
X731020Y412970D01*
X731020Y428030D02*
X738080Y428030D01*
X738080Y412970D01*
X731020Y412970D01*
X731020Y416743D02*
X738080Y416743D01*
X738080Y420516D02*
X731020Y420516D01*
X731020Y424289D02*
X738080Y424289D01*
X743720Y428030D02*
X743720Y412970D01*
X743720Y428030D02*
X750780Y428030D01*
X750780Y412970D01*
X743720Y412970D01*
X743720Y416743D02*
X750780Y416743D01*
X750780Y420516D02*
X743720Y420516D01*
X743720Y424289D02*
X750780Y424289D01*
X756420Y428030D02*
X756420Y412970D01*
X756420Y428030D02*
X763480Y428030D01*
X763480Y412970D01*
X756420Y412970D01*
X756420Y416743D02*
X763480Y416743D01*
X763480Y420516D02*
X756420Y420516D01*
X756420Y424289D02*
X763480Y424289D01*
X769120Y428030D02*
X769120Y412970D01*
X769120Y428030D02*
X776180Y428030D01*
X776180Y412970D01*
X769120Y412970D01*
X769120Y416743D02*
X776180Y416743D01*
X776180Y420516D02*
X769120Y420516D01*
X769120Y424289D02*
X776180Y424289D01*
X781820Y428030D02*
X781820Y412970D01*
X781820Y428030D02*
X788880Y428030D01*
X788880Y412970D01*
X781820Y412970D01*
X781820Y416743D02*
X788880Y416743D01*
X788880Y420516D02*
X781820Y420516D01*
X781820Y424289D02*
X788880Y424289D01*
D11*
X711250Y337500D03*
D12*
X478500Y279400D03*
X538500Y279400D03*
X478500Y50800D03*
X538500Y50800D03*
D13*
X653200Y470700D03*
X703200Y470700D03*
X601200Y176700D03*
X755200Y176700D03*
D14*
X593300Y29300D03*
X593300Y92300D03*
X637600Y29300D03*
X637600Y92300D03*
D15*
X509600Y176100D03*
X519100Y154100D03*
X500100Y154100D03*
D16*
X726100Y137800D03*
X726100Y104800D03*
X775100Y104800D03*
X775100Y137800D03*
D17*
X484600Y435547D02*
X484600Y453454D01*
X534600Y453454D02*
X534600Y435547D01*
D18*
X492600Y131003D03*
X526600Y199197D03*
D19*
X669086Y187800D03*
X689914Y187800D03*
D20*
X471500Y391414D03*
X471500Y370586D03*
D19*
X494614Y342900D03*
X473786Y342900D03*
D20*
X547700Y370586D03*
X547700Y391414D03*
X509600Y370586D03*
X509600Y391414D03*
D21*
X685300Y57620D02*
X685300Y42380D01*
X710700Y42380D02*
X710700Y57620D01*
X736100Y57620D02*
X736100Y42380D01*
X761500Y42380D02*
X761500Y57620D01*
X786900Y57620D02*
X786900Y42380D01*
D22*
X674200Y122200D03*
D23*
X648800Y122200D03*
X623400Y122200D03*
X598000Y122200D03*
D24*
X329184Y123952D03*
X233680Y186944D03*
X292608Y353568D03*
X166624Y30480D03*
X62992Y341376D03*
X26416Y357632D03*
X20320Y97536D03*
X97536Y412496D03*
X38608Y353568D03*
X327152Y199136D03*
X221488Y434848D03*
X152400Y148336D03*
X775284Y123952D03*
X679780Y186944D03*
X738708Y353568D03*
X612724Y30480D03*
X509092Y341376D03*
X472516Y357632D03*
X466420Y97536D03*
X543636Y412496D03*
X484708Y353568D03*
X773252Y199136D03*
X667588Y434848D03*
X598500Y148336D03*
M02*
