G04 EAGLE Gerber RS-274X export*
G75*
%MOMM*%
%FSLAX34Y34*%
%LPD*%
%INSilkscreen Bottom*%
%IPPOS*%
%AMOC8*
5,1,8,0,0,1.08239X$1,22.5*%
G01*
%ADD10C,0.152400*%
%ADD11C,0.127000*%


D10*
X162450Y80200D02*
X149750Y80200D01*
X143400Y73850D01*
X137050Y80200D01*
X124350Y80200D01*
X118000Y73850D01*
X162450Y80200D02*
X168800Y73850D01*
X118000Y73850D02*
X111650Y80200D01*
X98950Y80200D01*
X92600Y73850D01*
X86250Y80200D02*
X73550Y80200D01*
X67200Y73850D01*
X60850Y80200D01*
X48150Y80200D01*
X86250Y80200D02*
X92600Y73850D01*
X143400Y35750D02*
X149750Y29400D01*
X124350Y29400D02*
X118000Y35750D01*
X124350Y29400D02*
X137050Y29400D01*
X143400Y35750D01*
X168800Y35750D02*
X168800Y73850D01*
X168800Y35750D02*
X162450Y29400D01*
X149750Y29400D01*
X98950Y29400D02*
X92600Y35750D01*
X98950Y29400D02*
X111650Y29400D01*
X118000Y35750D01*
X73550Y29400D02*
X67200Y35750D01*
X60850Y29400D02*
X48150Y29400D01*
X60850Y29400D02*
X67200Y35750D01*
X86250Y29400D02*
X92600Y35750D01*
X86250Y29400D02*
X73550Y29400D01*
X41800Y35750D02*
X41800Y73850D01*
X48150Y80200D01*
X41800Y35750D02*
X48150Y29400D01*
D11*
X157370Y24955D02*
X160545Y22415D01*
X157370Y24955D02*
X157370Y13525D01*
X160545Y13525D02*
X154195Y13525D01*
X58945Y93535D02*
X55770Y96075D01*
X55770Y84645D01*
X58945Y84645D02*
X52595Y84645D01*
X47515Y90360D02*
X47512Y90585D01*
X47504Y90810D01*
X47491Y91034D01*
X47472Y91258D01*
X47448Y91482D01*
X47419Y91705D01*
X47384Y91927D01*
X47344Y92148D01*
X47298Y92368D01*
X47248Y92587D01*
X47192Y92805D01*
X47131Y93022D01*
X47065Y93237D01*
X46994Y93450D01*
X46917Y93661D01*
X46836Y93871D01*
X46750Y94079D01*
X46659Y94284D01*
X46563Y94487D01*
X46563Y94488D02*
X46531Y94576D01*
X46495Y94663D01*
X46456Y94749D01*
X46413Y94833D01*
X46367Y94915D01*
X46318Y94995D01*
X46266Y95073D01*
X46210Y95149D01*
X46152Y95223D01*
X46090Y95294D01*
X46026Y95363D01*
X45959Y95429D01*
X45890Y95492D01*
X45818Y95553D01*
X45744Y95611D01*
X45667Y95665D01*
X45589Y95717D01*
X45508Y95765D01*
X45426Y95810D01*
X45341Y95852D01*
X45255Y95890D01*
X45168Y95925D01*
X45080Y95957D01*
X44990Y95984D01*
X44899Y96009D01*
X44807Y96029D01*
X44715Y96046D01*
X44621Y96059D01*
X44528Y96068D01*
X44434Y96074D01*
X44340Y96076D01*
X44246Y96074D01*
X44152Y96068D01*
X44059Y96059D01*
X43965Y96046D01*
X43873Y96029D01*
X43781Y96009D01*
X43690Y95984D01*
X43600Y95957D01*
X43512Y95925D01*
X43425Y95890D01*
X43339Y95852D01*
X43254Y95810D01*
X43172Y95765D01*
X43091Y95717D01*
X43013Y95665D01*
X42936Y95611D01*
X42862Y95553D01*
X42790Y95492D01*
X42721Y95429D01*
X42654Y95363D01*
X42590Y95294D01*
X42528Y95223D01*
X42470Y95149D01*
X42414Y95073D01*
X42362Y94995D01*
X42313Y94915D01*
X42267Y94833D01*
X42224Y94749D01*
X42185Y94663D01*
X42149Y94576D01*
X42117Y94488D01*
X42117Y94487D02*
X42021Y94284D01*
X41930Y94079D01*
X41844Y93871D01*
X41763Y93661D01*
X41686Y93450D01*
X41615Y93237D01*
X41549Y93022D01*
X41488Y92805D01*
X41432Y92587D01*
X41382Y92368D01*
X41336Y92148D01*
X41296Y91927D01*
X41261Y91705D01*
X41232Y91482D01*
X41208Y91258D01*
X41189Y91034D01*
X41176Y90810D01*
X41168Y90585D01*
X41165Y90360D01*
X47515Y90360D02*
X47512Y90135D01*
X47504Y89910D01*
X47491Y89686D01*
X47472Y89462D01*
X47448Y89238D01*
X47419Y89015D01*
X47384Y88793D01*
X47344Y88572D01*
X47298Y88352D01*
X47248Y88133D01*
X47192Y87915D01*
X47131Y87698D01*
X47065Y87483D01*
X46994Y87270D01*
X46917Y87059D01*
X46836Y86849D01*
X46750Y86641D01*
X46659Y86436D01*
X46563Y86233D01*
X46531Y86145D01*
X46495Y86058D01*
X46456Y85972D01*
X46413Y85888D01*
X46367Y85806D01*
X46318Y85726D01*
X46266Y85648D01*
X46210Y85572D01*
X46152Y85498D01*
X46090Y85427D01*
X46026Y85358D01*
X45959Y85292D01*
X45890Y85229D01*
X45818Y85168D01*
X45744Y85110D01*
X45667Y85056D01*
X45589Y85004D01*
X45508Y84956D01*
X45426Y84911D01*
X45341Y84869D01*
X45255Y84831D01*
X45168Y84796D01*
X45080Y84764D01*
X44990Y84737D01*
X44899Y84712D01*
X44807Y84692D01*
X44715Y84675D01*
X44621Y84662D01*
X44528Y84653D01*
X44434Y84647D01*
X44340Y84645D01*
X42117Y86233D02*
X42021Y86436D01*
X41930Y86641D01*
X41844Y86849D01*
X41763Y87059D01*
X41686Y87270D01*
X41615Y87483D01*
X41549Y87698D01*
X41488Y87915D01*
X41432Y88133D01*
X41382Y88352D01*
X41336Y88572D01*
X41296Y88793D01*
X41261Y89015D01*
X41232Y89238D01*
X41208Y89462D01*
X41189Y89686D01*
X41176Y89910D01*
X41168Y90135D01*
X41165Y90360D01*
X42117Y86233D02*
X42149Y86145D01*
X42185Y86058D01*
X42224Y85972D01*
X42267Y85888D01*
X42313Y85806D01*
X42362Y85726D01*
X42414Y85648D01*
X42470Y85572D01*
X42528Y85498D01*
X42590Y85427D01*
X42654Y85358D01*
X42721Y85292D01*
X42790Y85229D01*
X42862Y85168D01*
X42936Y85110D01*
X43013Y85056D01*
X43091Y85004D01*
X43172Y84956D01*
X43254Y84911D01*
X43339Y84869D01*
X43425Y84831D01*
X43512Y84796D01*
X43600Y84764D01*
X43690Y84737D01*
X43781Y84712D01*
X43873Y84692D01*
X43965Y84675D01*
X44059Y84662D01*
X44152Y84653D01*
X44246Y84647D01*
X44340Y84645D01*
X46880Y87185D02*
X41800Y93535D01*
X161815Y87185D02*
X161817Y87085D01*
X161823Y86986D01*
X161833Y86886D01*
X161846Y86788D01*
X161864Y86689D01*
X161885Y86592D01*
X161910Y86496D01*
X161939Y86400D01*
X161972Y86306D01*
X162008Y86213D01*
X162048Y86122D01*
X162092Y86032D01*
X162139Y85944D01*
X162189Y85858D01*
X162243Y85774D01*
X162300Y85692D01*
X162360Y85613D01*
X162424Y85535D01*
X162490Y85461D01*
X162559Y85389D01*
X162631Y85320D01*
X162705Y85254D01*
X162783Y85190D01*
X162862Y85130D01*
X162944Y85073D01*
X163028Y85019D01*
X163114Y84969D01*
X163202Y84922D01*
X163292Y84878D01*
X163383Y84838D01*
X163476Y84802D01*
X163570Y84769D01*
X163666Y84740D01*
X163762Y84715D01*
X163859Y84694D01*
X163958Y84676D01*
X164056Y84663D01*
X164156Y84653D01*
X164255Y84647D01*
X164355Y84645D01*
X164496Y84647D01*
X164637Y84652D01*
X164778Y84662D01*
X164919Y84675D01*
X165059Y84691D01*
X165199Y84712D01*
X165338Y84736D01*
X165477Y84764D01*
X165614Y84795D01*
X165751Y84830D01*
X165887Y84868D01*
X166022Y84910D01*
X166155Y84956D01*
X166288Y85005D01*
X166419Y85058D01*
X166548Y85114D01*
X166677Y85173D01*
X166803Y85236D01*
X166928Y85302D01*
X167051Y85371D01*
X167172Y85444D01*
X167291Y85520D01*
X167409Y85599D01*
X167524Y85680D01*
X167636Y85765D01*
X167747Y85853D01*
X167855Y85944D01*
X167961Y86037D01*
X168064Y86134D01*
X168165Y86233D01*
X167848Y93535D02*
X167846Y93635D01*
X167840Y93734D01*
X167830Y93834D01*
X167817Y93932D01*
X167799Y94031D01*
X167778Y94128D01*
X167753Y94224D01*
X167724Y94320D01*
X167691Y94414D01*
X167655Y94507D01*
X167615Y94598D01*
X167571Y94688D01*
X167524Y94776D01*
X167474Y94862D01*
X167420Y94946D01*
X167363Y95028D01*
X167303Y95107D01*
X167239Y95185D01*
X167173Y95259D01*
X167104Y95331D01*
X167032Y95400D01*
X166958Y95466D01*
X166880Y95530D01*
X166801Y95590D01*
X166719Y95647D01*
X166635Y95701D01*
X166549Y95751D01*
X166461Y95798D01*
X166371Y95842D01*
X166280Y95882D01*
X166187Y95918D01*
X166093Y95951D01*
X165997Y95980D01*
X165901Y96005D01*
X165804Y96026D01*
X165705Y96044D01*
X165607Y96057D01*
X165507Y96067D01*
X165408Y96073D01*
X165308Y96075D01*
X165308Y96076D02*
X165175Y96074D01*
X165042Y96069D01*
X164909Y96059D01*
X164776Y96046D01*
X164644Y96029D01*
X164512Y96009D01*
X164381Y95985D01*
X164251Y95957D01*
X164121Y95926D01*
X163993Y95891D01*
X163865Y95852D01*
X163739Y95810D01*
X163614Y95764D01*
X163490Y95715D01*
X163367Y95663D01*
X163246Y95607D01*
X163127Y95547D01*
X163009Y95485D01*
X162894Y95419D01*
X162780Y95350D01*
X162668Y95277D01*
X162558Y95202D01*
X162450Y95123D01*
X166578Y91312D02*
X166662Y91364D01*
X166745Y91419D01*
X166825Y91478D01*
X166903Y91539D01*
X166978Y91603D01*
X167051Y91671D01*
X167122Y91741D01*
X167189Y91813D01*
X167254Y91888D01*
X167316Y91966D01*
X167375Y92046D01*
X167431Y92128D01*
X167483Y92212D01*
X167532Y92298D01*
X167578Y92386D01*
X167621Y92476D01*
X167660Y92567D01*
X167695Y92660D01*
X167727Y92754D01*
X167755Y92849D01*
X167780Y92945D01*
X167800Y93042D01*
X167818Y93140D01*
X167831Y93238D01*
X167840Y93337D01*
X167846Y93436D01*
X167848Y93535D01*
X163085Y89408D02*
X163001Y89356D01*
X162918Y89301D01*
X162838Y89242D01*
X162760Y89181D01*
X162685Y89117D01*
X162612Y89049D01*
X162541Y88979D01*
X162474Y88907D01*
X162409Y88832D01*
X162347Y88754D01*
X162288Y88674D01*
X162232Y88592D01*
X162180Y88508D01*
X162131Y88422D01*
X162085Y88334D01*
X162042Y88244D01*
X162003Y88153D01*
X161968Y88060D01*
X161936Y87966D01*
X161908Y87871D01*
X161883Y87775D01*
X161863Y87678D01*
X161845Y87580D01*
X161832Y87482D01*
X161823Y87383D01*
X161817Y87284D01*
X161815Y87185D01*
X163085Y89408D02*
X166578Y91313D01*
X157751Y96075D02*
X153941Y84645D01*
X150131Y96075D01*
X145686Y84645D02*
X142511Y84645D01*
X142400Y84647D01*
X142290Y84653D01*
X142179Y84662D01*
X142069Y84676D01*
X141960Y84693D01*
X141851Y84714D01*
X141743Y84739D01*
X141636Y84768D01*
X141530Y84800D01*
X141425Y84836D01*
X141322Y84876D01*
X141220Y84919D01*
X141119Y84966D01*
X141020Y85017D01*
X140924Y85070D01*
X140829Y85127D01*
X140736Y85188D01*
X140645Y85251D01*
X140556Y85318D01*
X140470Y85388D01*
X140387Y85461D01*
X140305Y85536D01*
X140227Y85614D01*
X140152Y85696D01*
X140079Y85779D01*
X140009Y85865D01*
X139942Y85954D01*
X139879Y86045D01*
X139818Y86138D01*
X139761Y86232D01*
X139708Y86329D01*
X139657Y86428D01*
X139610Y86529D01*
X139567Y86631D01*
X139527Y86734D01*
X139491Y86839D01*
X139459Y86945D01*
X139430Y87052D01*
X139405Y87160D01*
X139384Y87269D01*
X139367Y87378D01*
X139353Y87488D01*
X139344Y87599D01*
X139338Y87709D01*
X139336Y87820D01*
X139338Y87931D01*
X139344Y88041D01*
X139353Y88152D01*
X139367Y88262D01*
X139384Y88371D01*
X139405Y88480D01*
X139430Y88588D01*
X139459Y88695D01*
X139491Y88801D01*
X139527Y88906D01*
X139567Y89009D01*
X139610Y89111D01*
X139657Y89212D01*
X139708Y89311D01*
X139761Y89408D01*
X139818Y89502D01*
X139879Y89595D01*
X139942Y89686D01*
X140009Y89775D01*
X140079Y89861D01*
X140152Y89944D01*
X140227Y90026D01*
X140305Y90104D01*
X140387Y90179D01*
X140470Y90252D01*
X140556Y90322D01*
X140645Y90389D01*
X140736Y90452D01*
X140829Y90513D01*
X140924Y90570D01*
X141020Y90623D01*
X141119Y90674D01*
X141220Y90721D01*
X141322Y90764D01*
X141425Y90804D01*
X141530Y90840D01*
X141636Y90872D01*
X141743Y90901D01*
X141851Y90926D01*
X141960Y90947D01*
X142069Y90964D01*
X142179Y90978D01*
X142290Y90987D01*
X142400Y90993D01*
X142511Y90995D01*
X141876Y96075D02*
X145686Y96075D01*
X141876Y96075D02*
X141776Y96073D01*
X141677Y96067D01*
X141577Y96057D01*
X141479Y96044D01*
X141380Y96026D01*
X141283Y96005D01*
X141187Y95980D01*
X141091Y95951D01*
X140997Y95918D01*
X140904Y95882D01*
X140813Y95842D01*
X140723Y95798D01*
X140635Y95751D01*
X140549Y95701D01*
X140465Y95647D01*
X140383Y95590D01*
X140304Y95530D01*
X140226Y95466D01*
X140152Y95400D01*
X140080Y95331D01*
X140011Y95259D01*
X139945Y95185D01*
X139881Y95107D01*
X139821Y95028D01*
X139764Y94946D01*
X139710Y94862D01*
X139660Y94776D01*
X139613Y94688D01*
X139569Y94598D01*
X139529Y94507D01*
X139493Y94414D01*
X139460Y94320D01*
X139431Y94224D01*
X139406Y94128D01*
X139385Y94031D01*
X139367Y93932D01*
X139354Y93834D01*
X139344Y93734D01*
X139338Y93635D01*
X139336Y93535D01*
X139338Y93435D01*
X139344Y93336D01*
X139354Y93236D01*
X139367Y93138D01*
X139385Y93039D01*
X139406Y92942D01*
X139431Y92846D01*
X139460Y92750D01*
X139493Y92656D01*
X139529Y92563D01*
X139569Y92472D01*
X139613Y92382D01*
X139660Y92294D01*
X139710Y92208D01*
X139764Y92124D01*
X139821Y92042D01*
X139881Y91963D01*
X139945Y91885D01*
X140011Y91811D01*
X140080Y91739D01*
X140152Y91670D01*
X140226Y91604D01*
X140304Y91540D01*
X140383Y91480D01*
X140465Y91423D01*
X140549Y91369D01*
X140635Y91319D01*
X140723Y91272D01*
X140813Y91228D01*
X140904Y91188D01*
X140997Y91152D01*
X141091Y91119D01*
X141187Y91090D01*
X141283Y91065D01*
X141380Y91044D01*
X141479Y91026D01*
X141577Y91013D01*
X141677Y91003D01*
X141776Y90997D01*
X141876Y90995D01*
X144416Y90995D01*
M02*
