G04 EAGLE Gerber RS-274X export*
G75*
%MOMM*%
%FSLAX34Y34*%
%LPD*%
%INSilkscreen Top*%
%IPPOS*%
%AMOC8*
5,1,8,0,0,1.08239X$1,22.5*%
G01*
%ADD10C,0.152400*%
%ADD11C,0.101600*%
%ADD12C,0.127000*%
%ADD13C,0.200000*%


D10*
X267084Y27793D02*
X269793Y27793D01*
X269793Y18762D01*
X264374Y18762D01*
X264256Y18764D01*
X264138Y18770D01*
X264020Y18779D01*
X263903Y18793D01*
X263786Y18810D01*
X263669Y18831D01*
X263554Y18856D01*
X263439Y18885D01*
X263325Y18918D01*
X263213Y18954D01*
X263102Y18994D01*
X262992Y19037D01*
X262883Y19084D01*
X262776Y19134D01*
X262671Y19189D01*
X262568Y19246D01*
X262467Y19307D01*
X262367Y19371D01*
X262270Y19438D01*
X262175Y19508D01*
X262083Y19582D01*
X261992Y19658D01*
X261905Y19738D01*
X261820Y19820D01*
X261738Y19905D01*
X261658Y19992D01*
X261582Y20083D01*
X261508Y20175D01*
X261438Y20270D01*
X261371Y20367D01*
X261307Y20467D01*
X261246Y20568D01*
X261189Y20671D01*
X261134Y20776D01*
X261084Y20883D01*
X261037Y20992D01*
X260994Y21102D01*
X260954Y21213D01*
X260918Y21325D01*
X260885Y21439D01*
X260856Y21554D01*
X260831Y21669D01*
X260810Y21786D01*
X260793Y21903D01*
X260779Y22020D01*
X260770Y22138D01*
X260764Y22256D01*
X260762Y22374D01*
X260762Y31406D01*
X260764Y31524D01*
X260770Y31642D01*
X260779Y31760D01*
X260793Y31877D01*
X260810Y31994D01*
X260831Y32111D01*
X260856Y32226D01*
X260885Y32341D01*
X260918Y32455D01*
X260954Y32567D01*
X260994Y32678D01*
X261037Y32788D01*
X261084Y32897D01*
X261134Y33004D01*
X261188Y33109D01*
X261246Y33212D01*
X261307Y33313D01*
X261371Y33413D01*
X261438Y33510D01*
X261508Y33605D01*
X261582Y33697D01*
X261658Y33788D01*
X261738Y33875D01*
X261820Y33960D01*
X261905Y34042D01*
X261992Y34122D01*
X262083Y34198D01*
X262175Y34272D01*
X262270Y34342D01*
X262367Y34409D01*
X262467Y34473D01*
X262568Y34534D01*
X262671Y34591D01*
X262776Y34645D01*
X262883Y34696D01*
X262992Y34743D01*
X263102Y34786D01*
X263213Y34826D01*
X263325Y34862D01*
X263439Y34895D01*
X263554Y34924D01*
X263669Y34949D01*
X263786Y34970D01*
X263903Y34987D01*
X264020Y35001D01*
X264138Y35010D01*
X264256Y35016D01*
X264374Y35018D01*
X269793Y35018D01*
X278269Y32760D02*
X278132Y32471D01*
X278002Y32179D01*
X277879Y31883D01*
X277764Y31585D01*
X277655Y31284D01*
X277554Y30981D01*
X277460Y30675D01*
X277373Y30368D01*
X277294Y30058D01*
X277222Y29746D01*
X277158Y29433D01*
X277101Y29118D01*
X277051Y28802D01*
X277009Y28485D01*
X276975Y28167D01*
X276948Y27849D01*
X276929Y27529D01*
X276918Y27210D01*
X276914Y26890D01*
X278269Y32761D02*
X278308Y32869D01*
X278351Y32976D01*
X278397Y33081D01*
X278448Y33185D01*
X278501Y33287D01*
X278558Y33387D01*
X278619Y33485D01*
X278683Y33580D01*
X278750Y33674D01*
X278821Y33765D01*
X278894Y33854D01*
X278971Y33940D01*
X279050Y34023D01*
X279132Y34104D01*
X279217Y34182D01*
X279305Y34256D01*
X279395Y34328D01*
X279487Y34396D01*
X279582Y34462D01*
X279679Y34524D01*
X279778Y34582D01*
X279880Y34638D01*
X279982Y34689D01*
X280087Y34737D01*
X280193Y34782D01*
X280301Y34823D01*
X280410Y34860D01*
X280520Y34893D01*
X280632Y34922D01*
X280744Y34948D01*
X280857Y34970D01*
X280971Y34987D01*
X281085Y35001D01*
X281200Y35011D01*
X281315Y35017D01*
X281430Y35019D01*
X281430Y35018D02*
X281545Y35016D01*
X281660Y35010D01*
X281775Y35000D01*
X281889Y34986D01*
X282003Y34969D01*
X282116Y34947D01*
X282228Y34921D01*
X282340Y34892D01*
X282450Y34859D01*
X282559Y34822D01*
X282667Y34781D01*
X282773Y34736D01*
X282878Y34688D01*
X282980Y34637D01*
X283081Y34581D01*
X283181Y34523D01*
X283278Y34461D01*
X283372Y34396D01*
X283465Y34327D01*
X283555Y34255D01*
X283643Y34181D01*
X283728Y34103D01*
X283810Y34022D01*
X283889Y33939D01*
X283966Y33853D01*
X284039Y33764D01*
X284110Y33673D01*
X284177Y33579D01*
X284241Y33484D01*
X284302Y33386D01*
X284359Y33286D01*
X284412Y33184D01*
X284463Y33080D01*
X284509Y32975D01*
X284552Y32868D01*
X284591Y32760D01*
X284590Y32760D02*
X284727Y32471D01*
X284857Y32179D01*
X284980Y31883D01*
X285095Y31585D01*
X285204Y31284D01*
X285305Y30981D01*
X285399Y30675D01*
X285486Y30368D01*
X285565Y30058D01*
X285637Y29746D01*
X285701Y29433D01*
X285758Y29118D01*
X285808Y28802D01*
X285850Y28485D01*
X285884Y28167D01*
X285911Y27849D01*
X285930Y27529D01*
X285941Y27210D01*
X285945Y26890D01*
X276915Y26890D02*
X276919Y26570D01*
X276930Y26251D01*
X276949Y25931D01*
X276976Y25613D01*
X277010Y25295D01*
X277052Y24978D01*
X277102Y24662D01*
X277159Y24347D01*
X277223Y24034D01*
X277295Y23722D01*
X277374Y23412D01*
X277461Y23105D01*
X277555Y22799D01*
X277656Y22496D01*
X277765Y22195D01*
X277880Y21897D01*
X278003Y21601D01*
X278133Y21309D01*
X278270Y21020D01*
X278269Y21020D02*
X278308Y20912D01*
X278351Y20805D01*
X278397Y20700D01*
X278448Y20596D01*
X278501Y20494D01*
X278558Y20394D01*
X278619Y20296D01*
X278683Y20201D01*
X278750Y20107D01*
X278821Y20016D01*
X278894Y19927D01*
X278971Y19841D01*
X279050Y19758D01*
X279132Y19677D01*
X279217Y19599D01*
X279305Y19525D01*
X279395Y19453D01*
X279488Y19384D01*
X279582Y19319D01*
X279679Y19257D01*
X279779Y19199D01*
X279880Y19143D01*
X279982Y19092D01*
X280087Y19044D01*
X280193Y18999D01*
X280301Y18958D01*
X280410Y18921D01*
X280520Y18888D01*
X280632Y18859D01*
X280744Y18833D01*
X280857Y18811D01*
X280971Y18794D01*
X281085Y18780D01*
X281200Y18770D01*
X281315Y18764D01*
X281430Y18762D01*
X284590Y21020D02*
X284727Y21309D01*
X284857Y21601D01*
X284980Y21897D01*
X285095Y22195D01*
X285204Y22496D01*
X285305Y22799D01*
X285399Y23105D01*
X285486Y23412D01*
X285565Y23722D01*
X285637Y24034D01*
X285701Y24347D01*
X285758Y24662D01*
X285808Y24978D01*
X285850Y25295D01*
X285884Y25613D01*
X285911Y25931D01*
X285930Y26251D01*
X285941Y26570D01*
X285945Y26890D01*
X284591Y21020D02*
X284552Y20912D01*
X284509Y20805D01*
X284463Y20700D01*
X284412Y20596D01*
X284359Y20494D01*
X284302Y20394D01*
X284241Y20296D01*
X284177Y20201D01*
X284110Y20107D01*
X284039Y20016D01*
X283966Y19927D01*
X283889Y19841D01*
X283810Y19758D01*
X283728Y19677D01*
X283643Y19599D01*
X283555Y19525D01*
X283465Y19453D01*
X283372Y19384D01*
X283278Y19319D01*
X283181Y19257D01*
X283081Y19199D01*
X282980Y19143D01*
X282877Y19092D01*
X282773Y19044D01*
X282667Y18999D01*
X282559Y18958D01*
X282450Y18921D01*
X282340Y18888D01*
X282228Y18859D01*
X282116Y18833D01*
X282003Y18811D01*
X281889Y18794D01*
X281775Y18780D01*
X281660Y18770D01*
X281545Y18764D01*
X281430Y18762D01*
X277817Y22374D02*
X285042Y31406D01*
D11*
X176196Y157458D02*
X171004Y157458D01*
X170891Y157460D01*
X170778Y157466D01*
X170665Y157476D01*
X170552Y157490D01*
X170440Y157507D01*
X170329Y157529D01*
X170219Y157554D01*
X170109Y157584D01*
X170001Y157617D01*
X169894Y157654D01*
X169788Y157694D01*
X169684Y157739D01*
X169581Y157787D01*
X169480Y157838D01*
X169381Y157893D01*
X169284Y157951D01*
X169189Y158013D01*
X169096Y158078D01*
X169006Y158146D01*
X168918Y158217D01*
X168832Y158292D01*
X168749Y158369D01*
X168669Y158449D01*
X168592Y158532D01*
X168517Y158618D01*
X168446Y158706D01*
X168378Y158796D01*
X168313Y158889D01*
X168251Y158984D01*
X168193Y159081D01*
X168138Y159180D01*
X168087Y159281D01*
X168039Y159384D01*
X167994Y159488D01*
X167954Y159594D01*
X167917Y159701D01*
X167884Y159809D01*
X167854Y159919D01*
X167829Y160029D01*
X167807Y160140D01*
X167790Y160252D01*
X167776Y160365D01*
X167766Y160478D01*
X167760Y160591D01*
X167758Y160704D01*
X167760Y160817D01*
X167766Y160930D01*
X167776Y161043D01*
X167790Y161156D01*
X167807Y161268D01*
X167829Y161379D01*
X167854Y161489D01*
X167884Y161599D01*
X167917Y161707D01*
X167954Y161814D01*
X167994Y161920D01*
X168039Y162024D01*
X168087Y162127D01*
X168138Y162228D01*
X168193Y162327D01*
X168251Y162424D01*
X168313Y162519D01*
X168378Y162612D01*
X168446Y162702D01*
X168517Y162790D01*
X168592Y162876D01*
X168669Y162959D01*
X168749Y163039D01*
X168832Y163116D01*
X168918Y163191D01*
X169006Y163262D01*
X169096Y163330D01*
X169189Y163395D01*
X169284Y163457D01*
X169381Y163515D01*
X169480Y163570D01*
X169581Y163621D01*
X169684Y163669D01*
X169788Y163714D01*
X169894Y163754D01*
X170001Y163791D01*
X170109Y163824D01*
X170219Y163854D01*
X170329Y163879D01*
X170440Y163901D01*
X170552Y163918D01*
X170665Y163932D01*
X170778Y163942D01*
X170891Y163948D01*
X171004Y163950D01*
X171004Y163949D02*
X176196Y163949D01*
X176196Y163950D02*
X176309Y163948D01*
X176422Y163942D01*
X176535Y163932D01*
X176648Y163918D01*
X176760Y163901D01*
X176871Y163879D01*
X176981Y163854D01*
X177091Y163824D01*
X177199Y163791D01*
X177306Y163754D01*
X177412Y163714D01*
X177516Y163669D01*
X177619Y163621D01*
X177720Y163570D01*
X177819Y163515D01*
X177916Y163457D01*
X178011Y163395D01*
X178104Y163330D01*
X178194Y163262D01*
X178282Y163191D01*
X178368Y163116D01*
X178451Y163039D01*
X178531Y162959D01*
X178608Y162876D01*
X178683Y162790D01*
X178754Y162702D01*
X178822Y162612D01*
X178887Y162519D01*
X178949Y162424D01*
X179007Y162327D01*
X179062Y162228D01*
X179113Y162127D01*
X179161Y162024D01*
X179206Y161920D01*
X179246Y161814D01*
X179283Y161707D01*
X179316Y161599D01*
X179346Y161489D01*
X179371Y161379D01*
X179393Y161268D01*
X179410Y161156D01*
X179424Y161043D01*
X179434Y160930D01*
X179440Y160817D01*
X179442Y160704D01*
X179440Y160591D01*
X179434Y160478D01*
X179424Y160365D01*
X179410Y160252D01*
X179393Y160140D01*
X179371Y160029D01*
X179346Y159919D01*
X179316Y159809D01*
X179283Y159701D01*
X179246Y159594D01*
X179206Y159488D01*
X179161Y159384D01*
X179113Y159281D01*
X179062Y159180D01*
X179007Y159081D01*
X178949Y158984D01*
X178887Y158889D01*
X178822Y158796D01*
X178754Y158706D01*
X178683Y158618D01*
X178608Y158532D01*
X178531Y158449D01*
X178451Y158369D01*
X178368Y158292D01*
X178282Y158217D01*
X178194Y158146D01*
X178104Y158078D01*
X178011Y158013D01*
X177916Y157951D01*
X177819Y157893D01*
X177720Y157838D01*
X177619Y157787D01*
X177516Y157739D01*
X177412Y157694D01*
X177306Y157654D01*
X177199Y157617D01*
X177091Y157584D01*
X176981Y157554D01*
X176871Y157529D01*
X176760Y157507D01*
X176648Y157490D01*
X176535Y157476D01*
X176422Y157466D01*
X176309Y157460D01*
X176196Y157458D01*
X176846Y162651D02*
X179442Y165247D01*
X170354Y168602D02*
X167758Y171847D01*
X179442Y171847D01*
X179442Y168602D02*
X179442Y175093D01*
D10*
X263300Y59550D02*
X263300Y46850D01*
X263300Y59550D02*
X269650Y65900D01*
X282350Y65900D02*
X288700Y59550D01*
X269650Y65900D02*
X263300Y72250D01*
X263300Y84950D01*
X269650Y91300D01*
X282350Y91300D02*
X288700Y84950D01*
X288700Y72250D01*
X282350Y65900D01*
X282350Y40500D02*
X269650Y40500D01*
X263300Y46850D01*
X282350Y40500D02*
X288700Y46850D01*
X288700Y59550D01*
X269650Y91300D02*
X263300Y97650D01*
X263300Y110350D01*
X269650Y116700D01*
X282350Y116700D02*
X288700Y110350D01*
X288700Y97650D01*
X282350Y91300D01*
X263300Y123050D02*
X263300Y135750D01*
X269650Y142100D01*
X282350Y142100D02*
X288700Y135750D01*
X269650Y142100D02*
X263300Y148450D01*
X263300Y161150D01*
X269650Y167500D01*
X282350Y167500D01*
X288700Y161150D01*
X288700Y148450D01*
X282350Y142100D01*
X263300Y123050D02*
X269650Y116700D01*
X282350Y116700D02*
X288700Y123050D01*
X288700Y135750D01*
D12*
X293145Y50660D02*
X295685Y47485D01*
X293145Y50660D02*
X304575Y50660D01*
X304575Y47485D02*
X304575Y53835D01*
X258855Y149085D02*
X258855Y152895D01*
X258853Y152995D01*
X258847Y153094D01*
X258837Y153194D01*
X258824Y153292D01*
X258806Y153391D01*
X258785Y153488D01*
X258760Y153584D01*
X258731Y153680D01*
X258698Y153774D01*
X258662Y153867D01*
X258622Y153958D01*
X258578Y154048D01*
X258531Y154136D01*
X258481Y154222D01*
X258427Y154306D01*
X258370Y154388D01*
X258310Y154467D01*
X258246Y154545D01*
X258180Y154619D01*
X258111Y154691D01*
X258039Y154760D01*
X257965Y154826D01*
X257887Y154890D01*
X257808Y154950D01*
X257726Y155007D01*
X257642Y155061D01*
X257556Y155111D01*
X257468Y155158D01*
X257378Y155202D01*
X257287Y155242D01*
X257194Y155278D01*
X257100Y155311D01*
X257004Y155340D01*
X256908Y155365D01*
X256811Y155386D01*
X256712Y155404D01*
X256614Y155417D01*
X256514Y155427D01*
X256415Y155433D01*
X256315Y155435D01*
X255045Y155435D01*
X254945Y155433D01*
X254846Y155427D01*
X254746Y155417D01*
X254648Y155404D01*
X254549Y155386D01*
X254452Y155365D01*
X254356Y155340D01*
X254260Y155311D01*
X254166Y155278D01*
X254073Y155242D01*
X253982Y155202D01*
X253892Y155158D01*
X253804Y155111D01*
X253718Y155061D01*
X253634Y155007D01*
X253552Y154950D01*
X253473Y154890D01*
X253395Y154826D01*
X253321Y154760D01*
X253249Y154691D01*
X253180Y154619D01*
X253114Y154545D01*
X253050Y154467D01*
X252990Y154388D01*
X252933Y154306D01*
X252879Y154222D01*
X252829Y154136D01*
X252782Y154048D01*
X252738Y153958D01*
X252698Y153867D01*
X252662Y153774D01*
X252629Y153680D01*
X252600Y153584D01*
X252575Y153488D01*
X252554Y153391D01*
X252536Y153292D01*
X252523Y153194D01*
X252513Y153094D01*
X252507Y152995D01*
X252505Y152895D01*
X252505Y149085D01*
X247425Y149085D01*
X247425Y155435D01*
X256315Y47485D02*
X256415Y47483D01*
X256514Y47477D01*
X256614Y47467D01*
X256712Y47454D01*
X256811Y47436D01*
X256908Y47415D01*
X257004Y47390D01*
X257100Y47361D01*
X257194Y47328D01*
X257287Y47292D01*
X257378Y47252D01*
X257468Y47208D01*
X257556Y47161D01*
X257642Y47111D01*
X257726Y47057D01*
X257808Y47000D01*
X257887Y46940D01*
X257965Y46876D01*
X258039Y46810D01*
X258111Y46741D01*
X258180Y46669D01*
X258246Y46595D01*
X258310Y46517D01*
X258370Y46438D01*
X258427Y46356D01*
X258481Y46272D01*
X258531Y46186D01*
X258578Y46098D01*
X258622Y46008D01*
X258662Y45917D01*
X258698Y45824D01*
X258731Y45730D01*
X258760Y45634D01*
X258785Y45538D01*
X258806Y45441D01*
X258824Y45342D01*
X258837Y45244D01*
X258847Y45144D01*
X258853Y45045D01*
X258855Y44945D01*
X258853Y44804D01*
X258848Y44663D01*
X258838Y44522D01*
X258825Y44381D01*
X258809Y44241D01*
X258788Y44101D01*
X258764Y43962D01*
X258736Y43823D01*
X258705Y43686D01*
X258670Y43549D01*
X258632Y43413D01*
X258590Y43278D01*
X258544Y43145D01*
X258495Y43012D01*
X258442Y42881D01*
X258386Y42752D01*
X258327Y42623D01*
X258264Y42497D01*
X258198Y42372D01*
X258129Y42249D01*
X258056Y42128D01*
X257980Y42009D01*
X257901Y41891D01*
X257820Y41776D01*
X257735Y41664D01*
X257647Y41553D01*
X257556Y41445D01*
X257463Y41339D01*
X257366Y41236D01*
X257267Y41135D01*
X249965Y41453D02*
X249865Y41455D01*
X249766Y41461D01*
X249666Y41471D01*
X249568Y41484D01*
X249469Y41502D01*
X249372Y41523D01*
X249276Y41548D01*
X249180Y41577D01*
X249086Y41610D01*
X248993Y41646D01*
X248902Y41686D01*
X248812Y41730D01*
X248724Y41777D01*
X248638Y41827D01*
X248554Y41881D01*
X248472Y41938D01*
X248393Y41998D01*
X248315Y42062D01*
X248241Y42128D01*
X248169Y42197D01*
X248100Y42269D01*
X248034Y42343D01*
X247970Y42421D01*
X247910Y42500D01*
X247853Y42582D01*
X247799Y42666D01*
X247749Y42752D01*
X247702Y42840D01*
X247658Y42930D01*
X247618Y43021D01*
X247582Y43114D01*
X247549Y43208D01*
X247520Y43304D01*
X247495Y43400D01*
X247474Y43497D01*
X247456Y43596D01*
X247443Y43694D01*
X247433Y43794D01*
X247427Y43893D01*
X247425Y43993D01*
X247427Y44126D01*
X247432Y44259D01*
X247442Y44392D01*
X247455Y44525D01*
X247472Y44657D01*
X247492Y44789D01*
X247516Y44920D01*
X247544Y45050D01*
X247575Y45180D01*
X247610Y45308D01*
X247649Y45436D01*
X247691Y45562D01*
X247737Y45687D01*
X247786Y45811D01*
X247838Y45934D01*
X247894Y46055D01*
X247954Y46174D01*
X248016Y46292D01*
X248082Y46407D01*
X248151Y46521D01*
X248224Y46633D01*
X248299Y46743D01*
X248378Y46851D01*
X252188Y42722D02*
X252136Y42638D01*
X252081Y42555D01*
X252022Y42475D01*
X251961Y42397D01*
X251897Y42322D01*
X251829Y42249D01*
X251759Y42178D01*
X251687Y42111D01*
X251612Y42046D01*
X251534Y41984D01*
X251454Y41925D01*
X251372Y41869D01*
X251288Y41817D01*
X251202Y41768D01*
X251114Y41722D01*
X251024Y41679D01*
X250933Y41640D01*
X250840Y41605D01*
X250746Y41573D01*
X250651Y41545D01*
X250555Y41520D01*
X250458Y41500D01*
X250360Y41482D01*
X250262Y41469D01*
X250163Y41460D01*
X250064Y41454D01*
X249965Y41452D01*
X254092Y46215D02*
X254144Y46299D01*
X254199Y46382D01*
X254258Y46462D01*
X254319Y46540D01*
X254383Y46615D01*
X254451Y46688D01*
X254521Y46759D01*
X254593Y46826D01*
X254668Y46891D01*
X254746Y46953D01*
X254826Y47012D01*
X254908Y47068D01*
X254992Y47120D01*
X255078Y47169D01*
X255166Y47215D01*
X255256Y47258D01*
X255347Y47297D01*
X255440Y47332D01*
X255534Y47364D01*
X255629Y47392D01*
X255725Y47417D01*
X255822Y47437D01*
X255920Y47455D01*
X256018Y47468D01*
X256117Y47477D01*
X256216Y47483D01*
X256315Y47485D01*
X254093Y46215D02*
X252188Y42723D01*
X247425Y51549D02*
X258855Y55359D01*
X247425Y59169D01*
X249965Y63614D02*
X247425Y66789D01*
X258855Y66789D01*
X258855Y63614D02*
X258855Y69964D01*
D13*
X101520Y194520D02*
X66480Y194520D01*
X101520Y194520D02*
X101520Y129480D01*
X66480Y129480D01*
X66480Y194520D01*
X57000Y193150D02*
X44000Y193150D01*
D11*
X75692Y155842D02*
X75692Y144158D01*
X74394Y144158D02*
X76990Y144158D01*
X76990Y155842D02*
X74394Y155842D01*
X84154Y144158D02*
X86750Y144158D01*
X84154Y144158D02*
X84055Y144160D01*
X83955Y144166D01*
X83856Y144175D01*
X83758Y144188D01*
X83660Y144205D01*
X83562Y144226D01*
X83466Y144251D01*
X83371Y144279D01*
X83277Y144311D01*
X83184Y144346D01*
X83092Y144385D01*
X83002Y144428D01*
X82914Y144473D01*
X82827Y144523D01*
X82743Y144575D01*
X82660Y144631D01*
X82580Y144689D01*
X82502Y144751D01*
X82427Y144816D01*
X82354Y144884D01*
X82284Y144954D01*
X82216Y145027D01*
X82151Y145102D01*
X82089Y145180D01*
X82031Y145260D01*
X81975Y145343D01*
X81923Y145427D01*
X81873Y145514D01*
X81828Y145602D01*
X81785Y145692D01*
X81746Y145784D01*
X81711Y145877D01*
X81679Y145971D01*
X81651Y146066D01*
X81626Y146162D01*
X81605Y146260D01*
X81588Y146358D01*
X81575Y146456D01*
X81566Y146555D01*
X81560Y146655D01*
X81558Y146754D01*
X81557Y146754D02*
X81557Y153246D01*
X81558Y153246D02*
X81560Y153345D01*
X81566Y153445D01*
X81575Y153544D01*
X81588Y153642D01*
X81605Y153740D01*
X81626Y153838D01*
X81651Y153934D01*
X81679Y154029D01*
X81711Y154123D01*
X81746Y154216D01*
X81785Y154308D01*
X81828Y154398D01*
X81873Y154486D01*
X81923Y154573D01*
X81975Y154657D01*
X82031Y154740D01*
X82089Y154820D01*
X82151Y154898D01*
X82216Y154973D01*
X82284Y155046D01*
X82354Y155116D01*
X82427Y155184D01*
X82502Y155249D01*
X82580Y155311D01*
X82660Y155369D01*
X82743Y155425D01*
X82827Y155477D01*
X82914Y155527D01*
X83002Y155572D01*
X83092Y155615D01*
X83184Y155654D01*
X83276Y155689D01*
X83371Y155721D01*
X83466Y155749D01*
X83562Y155774D01*
X83660Y155795D01*
X83758Y155812D01*
X83856Y155825D01*
X83955Y155834D01*
X84055Y155840D01*
X84154Y155842D01*
X86750Y155842D01*
X91115Y153246D02*
X94361Y155842D01*
X94361Y144158D01*
X97606Y144158D02*
X91115Y144158D01*
M02*
