1KΩ	30.00	27.00	130.60		M1406
50Ω	36.91	20.87	0.00		M1406
BR1	37.44	61.90	0.00	SDB157-TP	SOP510P990X330-4N
C2	47.57	70.05	0.00		153CLV-0605
C9	33.00	10.00	0.00	10uF	1206
GPIO0	6.00	27.00	115.00	GPIO0	TACTILE_SWITCH_SMD_6.0X3.5MM
GPIO14	37.16	25.31	0.00		SOT23
IC1	37.00	15.00	0.00	AMS1117-3.3V	SOT229P700X180-4N
LED1	70.91	21.10	329.30		CHIPLED_1206
ON/OFF	71.95	53.98	294.80		SWITCH_SPST_SMD_A
Q4	50.98	14.37	180.00	TPC817S1A_RAG	SOP259P1005X368-4N
Q5	50.98	8.61	180.00	TPC817S1A_RAG	SOP259P1005X368-4N
R1-1KΩ	27.48	61.91	90.00	1000	M1406
R2	16.20	38.22	0.00	100k	0805
R3	16.20	35.84	0.00	220k	0805
R4	16.20	33.42	0.00	10k	0805
R5	68.53	25.96	0.00	10k	0805
SJR1	18.52	19.14	132.80		ESP8266-ESP12E
U$2	74.53	38.34	90.00	IRM-H638	IRM-H638
W1	50.85	25.78	180.00	TPC817S1A_RAG	SOP259P1005X368-4N
W2	50.87	20.04	180.00	TPC817S1A_RAG	SOP259P1005X368-4N
Y1	14.88	51.00	90.00	TPC817S1A_RAG	SOP259P1005X368-4N
Y2	20.90	50.77	90.00	TPC817S1A_RAG	SOP259P1005X368-4N
