<?xml version="1.0" encoding="utf-8"?>
<!DOCTYPE eagle SYSTEM "eagle.dtd">
<eagle version="9.3.2">
<drawing>
<settings>
<setting alwaysvectorfont="no"/>
<setting verticaltext="up"/>
</settings>
<grid distance="0.1" unitdist="inch" unit="inch" style="lines" multiple="1" display="no" altdistance="0.01" altunitdist="inch" altunit="inch"/>
<layers>
<layer number="1" name="Top" color="4" fill="1" visible="no" active="no"/>
<layer number="16" name="Bottom" color="1" fill="1" visible="no" active="no"/>
<layer number="17" name="Pads" color="2" fill="1" visible="no" active="no"/>
<layer number="18" name="Vias" color="2" fill="1" visible="no" active="no"/>
<layer number="19" name="Unrouted" color="6" fill="1" visible="no" active="no"/>
<layer number="20" name="Dimension" color="15" fill="1" visible="no" active="no"/>
<layer number="21" name="tPlace" color="7" fill="1" visible="no" active="no"/>
<layer number="22" name="bPlace" color="7" fill="1" visible="no" active="no"/>
<layer number="23" name="tOrigins" color="15" fill="1" visible="no" active="no"/>
<layer number="24" name="bOrigins" color="15" fill="1" visible="no" active="no"/>
<layer number="25" name="tNames" color="7" fill="1" visible="no" active="no"/>
<layer number="26" name="bNames" color="7" fill="1" visible="no" active="no"/>
<layer number="27" name="tValues" color="7" fill="1" visible="no" active="no"/>
<layer number="28" name="bValues" color="7" fill="1" visible="no" active="no"/>
<layer number="29" name="tStop" color="7" fill="3" visible="no" active="no"/>
<layer number="30" name="bStop" color="7" fill="6" visible="no" active="no"/>
<layer number="31" name="tCream" color="7" fill="4" visible="no" active="no"/>
<layer number="32" name="bCream" color="7" fill="5" visible="no" active="no"/>
<layer number="33" name="tFinish" color="6" fill="3" visible="no" active="no"/>
<layer number="34" name="bFinish" color="6" fill="6" visible="no" active="no"/>
<layer number="35" name="tGlue" color="7" fill="4" visible="no" active="no"/>
<layer number="36" name="bGlue" color="7" fill="5" visible="no" active="no"/>
<layer number="37" name="tTest" color="7" fill="1" visible="no" active="no"/>
<layer number="38" name="bTest" color="7" fill="1" visible="no" active="no"/>
<layer number="39" name="tKeepout" color="4" fill="11" visible="no" active="no"/>
<layer number="40" name="bKeepout" color="1" fill="11" visible="no" active="no"/>
<layer number="41" name="tRestrict" color="4" fill="10" visible="no" active="no"/>
<layer number="42" name="bRestrict" color="1" fill="10" visible="no" active="no"/>
<layer number="43" name="vRestrict" color="2" fill="10" visible="no" active="no"/>
<layer number="44" name="Drills" color="7" fill="1" visible="no" active="no"/>
<layer number="45" name="Holes" color="7" fill="1" visible="no" active="no"/>
<layer number="46" name="Milling" color="3" fill="1" visible="no" active="no"/>
<layer number="47" name="Measures" color="7" fill="1" visible="no" active="no"/>
<layer number="48" name="Document" color="7" fill="1" visible="no" active="no"/>
<layer number="49" name="Reference" color="7" fill="1" visible="no" active="no"/>
<layer number="50" name="dxf" color="7" fill="1" visible="no" active="no"/>
<layer number="51" name="tDocu" color="7" fill="1" visible="no" active="no"/>
<layer number="52" name="bDocu" color="7" fill="1" visible="no" active="no"/>
<layer number="53" name="tGND_GNDA" color="7" fill="9" visible="no" active="no"/>
<layer number="54" name="bGND_GNDA" color="1" fill="9" visible="no" active="no"/>
<layer number="56" name="wert" color="7" fill="1" visible="no" active="no"/>
<layer number="88" name="SimResults" color="9" fill="1" visible="yes" active="yes"/>
<layer number="89" name="SimProbes" color="9" fill="1" visible="yes" active="yes"/>
<layer number="90" name="Modules" color="5" fill="1" visible="yes" active="yes"/>
<layer number="91" name="Nets" color="2" fill="1" visible="yes" active="yes"/>
<layer number="92" name="Busses" color="1" fill="1" visible="yes" active="yes"/>
<layer number="93" name="Pins" color="2" fill="1" visible="no" active="yes"/>
<layer number="94" name="Symbols" color="4" fill="1" visible="yes" active="yes"/>
<layer number="95" name="Names" color="7" fill="1" visible="yes" active="yes"/>
<layer number="96" name="Values" color="7" fill="1" visible="yes" active="yes"/>
<layer number="97" name="Info" color="7" fill="1" visible="yes" active="yes"/>
<layer number="98" name="Guide" color="6" fill="1" visible="yes" active="yes"/>
<layer number="100" name="Muster" color="7" fill="1" visible="no" active="no"/>
<layer number="101" name="Patch_Top" color="12" fill="4" visible="yes" active="yes"/>
<layer number="102" name="Vscore" color="7" fill="1" visible="yes" active="yes"/>
<layer number="103" name="tMap" color="7" fill="1" visible="yes" active="yes"/>
<layer number="104" name="Name" color="7" fill="1" visible="yes" active="yes"/>
<layer number="105" name="tPlate" color="7" fill="1" visible="yes" active="yes"/>
<layer number="106" name="bPlate" color="7" fill="1" visible="yes" active="yes"/>
<layer number="107" name="Crop" color="7" fill="1" visible="yes" active="yes"/>
<layer number="116" name="Patch_BOT" color="9" fill="4" visible="yes" active="yes"/>
<layer number="121" name="_tsilk" color="7" fill="1" visible="yes" active="yes"/>
<layer number="122" name="_bsilk" color="7" fill="1" visible="yes" active="yes"/>
<layer number="151" name="HeatSink" color="7" fill="1" visible="yes" active="yes"/>
<layer number="200" name="200bmp" color="1" fill="10" visible="yes" active="yes"/>
<layer number="201" name="201bmp" color="2" fill="10" visible="yes" active="yes"/>
<layer number="202" name="202bmp" color="3" fill="10" visible="yes" active="yes"/>
<layer number="203" name="203bmp" color="4" fill="10" visible="yes" active="yes"/>
<layer number="204" name="204bmp" color="5" fill="10" visible="yes" active="yes"/>
<layer number="205" name="205bmp" color="6" fill="10" visible="yes" active="yes"/>
<layer number="206" name="206bmp" color="7" fill="10" visible="yes" active="yes"/>
<layer number="207" name="207bmp" color="8" fill="10" visible="yes" active="yes"/>
<layer number="208" name="208bmp" color="9" fill="10" visible="yes" active="yes"/>
<layer number="250" name="Descript" color="3" fill="1" visible="no" active="no"/>
<layer number="251" name="SMDround" color="12" fill="11" visible="no" active="no"/>
<layer number="254" name="cooling" color="7" fill="1" visible="yes" active="yes"/>
</layers>
<schematic xreflabel="%F%N/%S.%C%R" xrefpart="/%S.%C%R">
<libraries>
<library name="RepRapjr">
<packages>
<package name="A4988BREAKOUT">
<wire x1="-2.413" y1="-6.35" x2="-2.413" y2="-12.319" width="0.1524" layer="21"/>
<wire x1="-2.413" y1="-3.81" x2="-2.413" y2="-6.35" width="0.1524" layer="21" curve="-180"/>
<wire x1="17.653" y1="-12.319" x2="17.653" y2="2.159" width="0.1524" layer="21"/>
<wire x1="-2.413" y1="2.159" x2="-2.413" y2="-3.81" width="0.1524" layer="21"/>
<wire x1="-2.413" y1="2.159" x2="17.653" y2="2.159" width="0.1524" layer="21"/>
<wire x1="-2.413" y1="-12.319" x2="17.653" y2="-12.319" width="0.1524" layer="21"/>
<pad name="EN" x="-1.27" y="-11.43" drill="0.9" rot="R90"/>
<pad name="MS1" x="1.27" y="-11.43" drill="0.9" rot="R90"/>
<pad name="MS2" x="3.81" y="-11.43" drill="0.9" rot="R90"/>
<pad name="MS3" x="6.35" y="-11.43" drill="0.9" rot="R90"/>
<pad name="RST" x="8.89" y="-11.43" drill="0.9" rot="R90"/>
<pad name="SLP" x="11.43" y="-11.43" drill="0.9" rot="R90"/>
<pad name="STEP" x="13.97" y="-11.43" drill="0.9" rot="R90"/>
<pad name="DIR" x="16.51" y="-11.43" drill="0.9" rot="R90"/>
<pad name="GND" x="16.51" y="1.27" drill="0.9" rot="R90"/>
<pad name="VDD" x="13.97" y="1.27" drill="0.9" rot="R90"/>
<pad name="1B" x="11.43" y="1.27" drill="0.9" rot="R90"/>
<pad name="1A" x="8.89" y="1.27" drill="0.9" rot="R90"/>
<pad name="2A" x="6.35" y="1.27" drill="0.9" rot="R90"/>
<pad name="2B" x="3.81" y="1.27" drill="0.9" rot="R90"/>
<pad name="GND@0" x="1.27" y="1.27" drill="0.9" rot="R90"/>
<pad name="VMOT" x="-1.27" y="1.27" drill="0.9" rot="R90"/>
<text x="-0.635" y="-10.16" size="0.6096" layer="21" rot="R90">EN</text>
<text x="1.905" y="-10.16" size="0.6096" layer="21" rot="R90">MS1</text>
<text x="4.445" y="-10.16" size="0.6096" layer="21" rot="R90">MS2</text>
<text x="6.985" y="-10.16" size="0.6096" layer="21" rot="R90">MS3</text>
<text x="9.525" y="-10.16" size="0.6096" layer="21" rot="R90">RST</text>
<text x="14.605" y="-10.16" size="0.6096" layer="21" rot="R90">STEP</text>
<text x="17.145" y="-10.16" size="0.6096" layer="21" rot="R90">DIR</text>
<text x="-1.905" y="0" size="0.6096" layer="21" rot="R270">Vmot</text>
<text x="0.635" y="0" size="0.6096" layer="21" rot="R270">GND</text>
<text x="3.175" y="0" size="0.6096" layer="21" rot="R270">2B</text>
<text x="5.715" y="0" size="0.6096" layer="21" rot="R270">2A</text>
<text x="8.255" y="0" size="0.6096" layer="21" rot="R270">1A</text>
<text x="10.795" y="0" size="0.6096" layer="21" rot="R270">1B</text>
<text x="13.335" y="0" size="0.6096" layer="21" rot="R270">VDD</text>
<text x="15.875" y="0" size="0.6096" layer="21" rot="R270">GND</text>
<text x="12.065" y="-10.16" size="0.6096" layer="21" rot="R90">SLP</text>
</package>
</packages>
<symbols>
<symbol name="A4988BREAKOUT">
<wire x1="-20.32" y1="7.62" x2="-20.32" y2="-17.78" width="0.254" layer="94"/>
<wire x1="-20.32" y1="-17.78" x2="10.16" y2="-17.78" width="0.254" layer="94"/>
<wire x1="10.16" y1="-17.78" x2="10.16" y2="7.62" width="0.254" layer="94"/>
<wire x1="10.16" y1="7.62" x2="-20.32" y2="7.62" width="0.254" layer="94"/>
<text x="5.08" y="-15.24" size="0.8128" layer="94">GND</text>
<text x="-17.78" y="2.54" size="0.8128" layer="94">Enable (inverted)</text>
<text x="-17.78" y="0" size="0.8128" layer="94">MS1</text>
<text x="-17.78" y="-2.54" size="0.8128" layer="94">MS2</text>
<text x="-17.78" y="-5.08" size="0.8128" layer="94">MS3</text>
<text x="-17.78" y="-7.62" size="0.8128" layer="94">Reset (inverted)</text>
<text x="-17.78" y="-10.16" size="0.8128" layer="94">Sleep (inverted)</text>
<text x="-17.78" y="-12.7" size="0.8128" layer="94">Step</text>
<text x="-17.78" y="-15.24" size="0.8128" layer="94">Dir</text>
<text x="5.08" y="-12.7" size="0.8128" layer="94">VDD</text>
<text x="5.08" y="2.54" size="0.8128" layer="94">Vmot</text>
<text x="5.08" y="0" size="0.8128" layer="94">GND</text>
<text x="5.08" y="-2.54" size="0.8128" layer="94">2B</text>
<text x="5.08" y="-5.08" size="0.8128" layer="94">2A</text>
<text x="5.08" y="-7.62" size="0.8128" layer="94">1A</text>
<text x="5.08" y="-10.16" size="0.8128" layer="94">1B</text>
<text x="-15.24" y="5.08" size="1.778" layer="97">A4988 Carrier</text>
<pin name="EN" x="-25.4" y="2.54" visible="off" length="middle" direction="in"/>
<pin name="MS1" x="-25.4" y="0" visible="off" length="middle" direction="in"/>
<pin name="MS2" x="-25.4" y="-2.54" visible="off" length="middle" direction="in"/>
<pin name="MS3" x="-25.4" y="-5.08" visible="off" length="middle" direction="in"/>
<pin name="RST" x="-25.4" y="-7.62" visible="off" length="middle" direction="in"/>
<pin name="SLEEP" x="-25.4" y="-10.16" visible="off" length="middle" direction="in"/>
<pin name="STEP" x="-25.4" y="-12.7" visible="off" length="middle" direction="in"/>
<pin name="DIR" x="-25.4" y="-15.24" visible="off" length="middle" direction="in"/>
<pin name="GND@1" x="15.24" y="-15.24" visible="off" length="middle" direction="pwr" rot="R180"/>
<pin name="VDD" x="15.24" y="-12.7" visible="off" length="middle" direction="pwr" rot="R180"/>
<pin name="1B" x="15.24" y="-10.16" visible="off" length="middle" direction="out" rot="R180"/>
<pin name="1A" x="15.24" y="-7.62" visible="off" length="middle" direction="out" rot="R180"/>
<pin name="2A" x="15.24" y="-5.08" visible="off" length="middle" direction="out" rot="R180"/>
<pin name="2B" x="15.24" y="-2.54" visible="off" length="middle" direction="out" rot="R180"/>
<pin name="GND@0" x="15.24" y="0" visible="off" length="middle" direction="pwr" rot="R180"/>
<pin name="VMOT" x="15.24" y="2.54" visible="off" length="middle" direction="pwr" rot="R180"/>
</symbol>
</symbols>
<devicesets>
<deviceset name="A4988BREAKOUT">
<gates>
<gate name="G$1" symbol="A4988BREAKOUT" x="5.08" y="7.62"/>
</gates>
<devices>
<device name="" package="A4988BREAKOUT">
<connects>
<connect gate="G$1" pin="1A" pad="1A"/>
<connect gate="G$1" pin="1B" pad="1B"/>
<connect gate="G$1" pin="2A" pad="2A"/>
<connect gate="G$1" pin="2B" pad="2B"/>
<connect gate="G$1" pin="DIR" pad="DIR"/>
<connect gate="G$1" pin="EN" pad="EN"/>
<connect gate="G$1" pin="GND@0" pad="GND"/>
<connect gate="G$1" pin="GND@1" pad="GND@0"/>
<connect gate="G$1" pin="MS1" pad="MS1"/>
<connect gate="G$1" pin="MS2" pad="MS2"/>
<connect gate="G$1" pin="MS3" pad="MS3"/>
<connect gate="G$1" pin="RST" pad="RST"/>
<connect gate="G$1" pin="SLEEP" pad="SLP"/>
<connect gate="G$1" pin="STEP" pad="STEP"/>
<connect gate="G$1" pin="VDD" pad="VDD"/>
<connect gate="G$1" pin="VMOT" pad="VMOT"/>
</connects>
<technologies>
<technology name=""/>
</technologies>
</device>
</devices>
</deviceset>
</devicesets>
</library>
<library name="con-lstb" urn="urn:adsk.eagle:library:162">
<description>&lt;b&gt;Pin Headers&lt;/b&gt;&lt;p&gt;
Naming:&lt;p&gt;
MA = male&lt;p&gt;
# contacts - # rows&lt;p&gt;
W = angled&lt;p&gt;
&lt;author&gt;Created by librarian@cadsoft.de&lt;/author&gt;</description>
<packages>
<package name="MA04-1" urn="urn:adsk.eagle:footprint:8285/1" library_version="1">
<description>&lt;b&gt;PIN HEADER&lt;/b&gt;</description>
<wire x1="-4.445" y1="1.27" x2="-3.175" y2="1.27" width="0.1524" layer="21"/>
<wire x1="-3.175" y1="1.27" x2="-2.54" y2="0.635" width="0.1524" layer="21"/>
<wire x1="-2.54" y1="-0.635" x2="-3.175" y2="-1.27" width="0.1524" layer="21"/>
<wire x1="-2.54" y1="0.635" x2="-1.905" y2="1.27" width="0.1524" layer="21"/>
<wire x1="-1.905" y1="1.27" x2="-0.635" y2="1.27" width="0.1524" layer="21"/>
<wire x1="-0.635" y1="1.27" x2="0" y2="0.635" width="0.1524" layer="21"/>
<wire x1="0" y1="-0.635" x2="-0.635" y2="-1.27" width="0.1524" layer="21"/>
<wire x1="-0.635" y1="-1.27" x2="-1.905" y2="-1.27" width="0.1524" layer="21"/>
<wire x1="-1.905" y1="-1.27" x2="-2.54" y2="-0.635" width="0.1524" layer="21"/>
<wire x1="-5.08" y1="0.635" x2="-5.08" y2="-0.635" width="0.1524" layer="21"/>
<wire x1="-4.445" y1="1.27" x2="-5.08" y2="0.635" width="0.1524" layer="21"/>
<wire x1="-5.08" y1="-0.635" x2="-4.445" y2="-1.27" width="0.1524" layer="21"/>
<wire x1="-3.175" y1="-1.27" x2="-4.445" y2="-1.27" width="0.1524" layer="21"/>
<wire x1="0" y1="0.635" x2="0.635" y2="1.27" width="0.1524" layer="21"/>
<wire x1="0.635" y1="1.27" x2="1.905" y2="1.27" width="0.1524" layer="21"/>
<wire x1="1.905" y1="1.27" x2="2.54" y2="0.635" width="0.1524" layer="21"/>
<wire x1="2.54" y1="-0.635" x2="1.905" y2="-1.27" width="0.1524" layer="21"/>
<wire x1="1.905" y1="-1.27" x2="0.635" y2="-1.27" width="0.1524" layer="21"/>
<wire x1="0.635" y1="-1.27" x2="0" y2="-0.635" width="0.1524" layer="21"/>
<wire x1="3.175" y1="1.27" x2="4.445" y2="1.27" width="0.1524" layer="21"/>
<wire x1="4.445" y1="1.27" x2="5.08" y2="0.635" width="0.1524" layer="21"/>
<wire x1="5.08" y1="0.635" x2="5.08" y2="-0.635" width="0.1524" layer="21"/>
<wire x1="5.08" y1="-0.635" x2="4.445" y2="-1.27" width="0.1524" layer="21"/>
<wire x1="3.175" y1="1.27" x2="2.54" y2="0.635" width="0.1524" layer="21"/>
<wire x1="2.54" y1="-0.635" x2="3.175" y2="-1.27" width="0.1524" layer="21"/>
<wire x1="4.445" y1="-1.27" x2="3.175" y2="-1.27" width="0.1524" layer="21"/>
<pad name="1" x="-3.81" y="0" drill="1.016" shape="long" rot="R90"/>
<pad name="2" x="-1.27" y="0" drill="1.016" shape="long" rot="R90"/>
<pad name="3" x="1.27" y="0" drill="1.016" shape="long" rot="R90"/>
<pad name="4" x="3.81" y="0" drill="1.016" shape="long" rot="R90"/>
<text x="-5.08" y="1.651" size="1.27" layer="25" ratio="10">&gt;NAME</text>
<text x="-6.223" y="-0.635" size="1.27" layer="21" ratio="10">1</text>
<text x="0.635" y="1.651" size="1.27" layer="27" ratio="10">&gt;VALUE</text>
<text x="5.334" y="-0.635" size="1.27" layer="21" ratio="10">4</text>
<rectangle x1="-1.524" y1="-0.254" x2="-1.016" y2="0.254" layer="51"/>
<rectangle x1="-4.064" y1="-0.254" x2="-3.556" y2="0.254" layer="51"/>
<rectangle x1="1.016" y1="-0.254" x2="1.524" y2="0.254" layer="51"/>
<rectangle x1="3.556" y1="-0.254" x2="4.064" y2="0.254" layer="51"/>
</package>
</packages>
<packages3d>
<package3d name="MA04-1" urn="urn:adsk.eagle:package:8337/1" type="box" library_version="1">
<description>PIN HEADER</description>
<packageinstances>
<packageinstance name="MA04-1"/>
</packageinstances>
</package3d>
</packages3d>
<symbols>
<symbol name="MA04-1" urn="urn:adsk.eagle:symbol:8284/1" library_version="1">
<wire x1="3.81" y1="-7.62" x2="-1.27" y2="-7.62" width="0.4064" layer="94"/>
<wire x1="1.27" y1="0" x2="2.54" y2="0" width="0.6096" layer="94"/>
<wire x1="1.27" y1="-2.54" x2="2.54" y2="-2.54" width="0.6096" layer="94"/>
<wire x1="1.27" y1="-5.08" x2="2.54" y2="-5.08" width="0.6096" layer="94"/>
<wire x1="-1.27" y1="5.08" x2="-1.27" y2="-7.62" width="0.4064" layer="94"/>
<wire x1="3.81" y1="-7.62" x2="3.81" y2="5.08" width="0.4064" layer="94"/>
<wire x1="-1.27" y1="5.08" x2="3.81" y2="5.08" width="0.4064" layer="94"/>
<wire x1="1.27" y1="2.54" x2="2.54" y2="2.54" width="0.6096" layer="94"/>
<text x="-1.27" y="-10.16" size="1.778" layer="96">&gt;VALUE</text>
<text x="-1.27" y="5.842" size="1.778" layer="95">&gt;NAME</text>
<pin name="1" x="7.62" y="-5.08" visible="pad" length="middle" direction="pas" swaplevel="1" rot="R180"/>
<pin name="2" x="7.62" y="-2.54" visible="pad" length="middle" direction="pas" swaplevel="1" rot="R180"/>
<pin name="3" x="7.62" y="0" visible="pad" length="middle" direction="pas" swaplevel="1" rot="R180"/>
<pin name="4" x="7.62" y="2.54" visible="pad" length="middle" direction="pas" swaplevel="1" rot="R180"/>
</symbol>
</symbols>
<devicesets>
<deviceset name="MA04-1" urn="urn:adsk.eagle:component:8375/1" prefix="SV" uservalue="yes" library_version="1">
<description>&lt;b&gt;PIN HEADER&lt;/b&gt;</description>
<gates>
<gate name="1" symbol="MA04-1" x="0" y="0"/>
</gates>
<devices>
<device name="" package="MA04-1">
<connects>
<connect gate="1" pin="1" pad="1"/>
<connect gate="1" pin="2" pad="2"/>
<connect gate="1" pin="3" pad="3"/>
<connect gate="1" pin="4" pad="4"/>
</connects>
<package3dinstances>
<package3dinstance package3d_urn="urn:adsk.eagle:package:8337/1"/>
</package3dinstances>
<technologies>
<technology name="">
<attribute name="MF" value="" constant="no"/>
<attribute name="MPN" value="" constant="no"/>
<attribute name="OC_FARNELL" value="unknown" constant="no"/>
<attribute name="OC_NEWARK" value="unknown" constant="no"/>
</technology>
</technologies>
</device>
</devices>
</deviceset>
</devicesets>
</library>
</libraries>
<attributes>
</attributes>
<variantdefs>
</variantdefs>
<classes>
<class number="0" name="default" width="0" drill="0">
</class>
</classes>
<parts>
<part name="U$1" library="RepRapjr" deviceset="A4988BREAKOUT" device=""/>
<part name="U$3" library="RepRapjr" deviceset="A4988BREAKOUT" device=""/>
<part name="SV1" library="con-lstb" library_urn="urn:adsk.eagle:library:162" deviceset="MA04-1" device="" package3d_urn="urn:adsk.eagle:package:8337/1"/>
<part name="SV3" library="con-lstb" library_urn="urn:adsk.eagle:library:162" deviceset="MA04-1" device="" package3d_urn="urn:adsk.eagle:package:8337/1"/>
</parts>
<sheets>
<sheet>
<plain>
</plain>
<instances>
<instance part="U$1" gate="G$1" x="43.18" y="68.58" smashed="yes"/>
<instance part="U$3" gate="G$1" x="271.78" y="66.04" smashed="yes"/>
<instance part="SV1" gate="1" x="68.58" y="63.5" smashed="yes">
<attribute name="VALUE" x="67.31" y="53.34" size="1.778" layer="96"/>
<attribute name="NAME" x="67.31" y="69.342" size="1.778" layer="95"/>
</instance>
<instance part="SV3" gate="1" x="299.72" y="60.96" smashed="yes">
<attribute name="VALUE" x="298.45" y="50.8" size="1.778" layer="96"/>
<attribute name="NAME" x="298.45" y="66.802" size="1.778" layer="95"/>
</instance>
</instances>
<busses>
</busses>
<nets>
<net name="N$1" class="0">
<segment>
<pinref part="U$1" gate="G$1" pin="GND@1"/>
<wire x1="58.42" y1="53.34" x2="58.42" y2="45.72" width="0.1524" layer="91"/>
<wire x1="58.42" y1="45.72" x2="165.1" y2="45.72" width="0.1524" layer="91"/>
<wire x1="165.1" y1="45.72" x2="165.1" y2="50.8" width="0.1524" layer="91"/>
<wire x1="165.1" y1="50.8" x2="162.56" y2="50.8" width="0.1524" layer="91"/>
<pinref part="U$3" gate="G$1" pin="GND@1"/>
<wire x1="165.1" y1="45.72" x2="287.02" y2="45.72" width="0.1524" layer="91"/>
<wire x1="287.02" y1="45.72" x2="287.02" y2="50.8" width="0.1524" layer="91"/>
<junction x="165.1" y="45.72"/>
</segment>
</net>
<net name="N$2" class="0">
<segment>
<pinref part="U$1" gate="G$1" pin="DIR"/>
<wire x1="17.78" y1="53.34" x2="17.78" y2="48.26" width="0.1524" layer="91"/>
<wire x1="17.78" y1="48.26" x2="121.92" y2="48.26" width="0.1524" layer="91"/>
<wire x1="121.92" y1="48.26" x2="121.92" y2="50.8" width="0.1524" layer="91"/>
<pinref part="U$3" gate="G$1" pin="DIR"/>
<wire x1="121.92" y1="48.26" x2="246.38" y2="48.26" width="0.1524" layer="91"/>
<wire x1="246.38" y1="48.26" x2="246.38" y2="50.8" width="0.1524" layer="91"/>
<junction x="121.92" y="48.26"/>
</segment>
</net>
<net name="N$3" class="0">
<segment>
<pinref part="U$1" gate="G$1" pin="STEP"/>
<wire x1="17.78" y1="55.88" x2="15.24" y2="55.88" width="0.1524" layer="91"/>
<wire x1="15.24" y1="55.88" x2="15.24" y2="43.18" width="0.1524" layer="91"/>
<wire x1="15.24" y1="43.18" x2="119.38" y2="43.18" width="0.1524" layer="91"/>
<wire x1="119.38" y1="43.18" x2="119.38" y2="53.34" width="0.1524" layer="91"/>
<wire x1="119.38" y1="53.34" x2="121.92" y2="53.34" width="0.1524" layer="91"/>
<pinref part="U$3" gate="G$1" pin="STEP"/>
<wire x1="246.38" y1="53.34" x2="243.84" y2="53.34" width="0.1524" layer="91"/>
<wire x1="243.84" y1="53.34" x2="243.84" y2="43.18" width="0.1524" layer="91"/>
<wire x1="243.84" y1="43.18" x2="119.38" y2="43.18" width="0.1524" layer="91"/>
<junction x="119.38" y="43.18"/>
</segment>
</net>
<net name="N$5" class="0">
<segment>
<pinref part="U$1" gate="G$1" pin="VDD"/>
<wire x1="58.42" y1="55.88" x2="60.96" y2="55.88" width="0.1524" layer="91"/>
<wire x1="162.56" y1="53.34" x2="167.64" y2="53.34" width="0.1524" layer="91"/>
<wire x1="167.64" y1="53.34" x2="167.64" y2="33.02" width="0.1524" layer="91"/>
<wire x1="167.64" y1="33.02" x2="60.96" y2="33.02" width="0.1524" layer="91"/>
<wire x1="60.96" y1="33.02" x2="60.96" y2="55.88" width="0.1524" layer="91"/>
<wire x1="167.64" y1="33.02" x2="289.56" y2="33.02" width="0.1524" layer="91"/>
<wire x1="289.56" y1="33.02" x2="289.56" y2="53.34" width="0.1524" layer="91"/>
<junction x="167.64" y="33.02"/>
<pinref part="U$3" gate="G$1" pin="VDD"/>
<wire x1="289.56" y1="53.34" x2="287.02" y2="53.34" width="0.1524" layer="91"/>
</segment>
</net>
<net name="N$4" class="0">
<segment>
<wire x1="121.92" y1="55.88" x2="116.84" y2="55.88" width="0.1524" layer="91"/>
<wire x1="116.84" y1="55.88" x2="116.84" y2="40.64" width="0.1524" layer="91"/>
<wire x1="116.84" y1="40.64" x2="12.7" y2="40.64" width="0.1524" layer="91"/>
<pinref part="U$1" gate="G$1" pin="SLEEP"/>
<wire x1="12.7" y1="40.64" x2="12.7" y2="58.42" width="0.1524" layer="91"/>
<wire x1="12.7" y1="58.42" x2="17.78" y2="58.42" width="0.1524" layer="91"/>
<wire x1="116.84" y1="40.64" x2="241.3" y2="40.64" width="0.1524" layer="91"/>
<wire x1="241.3" y1="40.64" x2="241.3" y2="55.88" width="0.1524" layer="91"/>
<junction x="116.84" y="40.64"/>
<pinref part="U$3" gate="G$1" pin="SLEEP"/>
<wire x1="241.3" y1="55.88" x2="246.38" y2="55.88" width="0.1524" layer="91"/>
</segment>
</net>
<net name="N$6" class="0">
<segment>
<wire x1="121.92" y1="58.42" x2="114.3" y2="58.42" width="0.1524" layer="91"/>
<wire x1="114.3" y1="58.42" x2="114.3" y2="38.1" width="0.1524" layer="91"/>
<wire x1="114.3" y1="38.1" x2="10.16" y2="38.1" width="0.1524" layer="91"/>
<wire x1="10.16" y1="38.1" x2="10.16" y2="60.96" width="0.1524" layer="91"/>
<pinref part="U$1" gate="G$1" pin="RST"/>
<wire x1="10.16" y1="60.96" x2="17.78" y2="60.96" width="0.1524" layer="91"/>
<pinref part="U$3" gate="G$1" pin="RST"/>
<wire x1="246.38" y1="58.42" x2="238.76" y2="58.42" width="0.1524" layer="91"/>
<wire x1="238.76" y1="58.42" x2="238.76" y2="38.1" width="0.1524" layer="91"/>
<wire x1="238.76" y1="38.1" x2="114.3" y2="38.1" width="0.1524" layer="91"/>
<junction x="114.3" y="38.1"/>
</segment>
</net>
<net name="N$7" class="0">
<segment>
<pinref part="U$1" gate="G$1" pin="EN"/>
<wire x1="17.78" y1="71.12" x2="17.78" y2="78.74" width="0.1524" layer="91"/>
<wire x1="17.78" y1="78.74" x2="121.92" y2="78.74" width="0.1524" layer="91"/>
<wire x1="121.92" y1="78.74" x2="121.92" y2="68.58" width="0.1524" layer="91"/>
<pinref part="U$3" gate="G$1" pin="EN"/>
<wire x1="121.92" y1="78.74" x2="246.38" y2="78.74" width="0.1524" layer="91"/>
<wire x1="246.38" y1="78.74" x2="246.38" y2="68.58" width="0.1524" layer="91"/>
<junction x="121.92" y="78.74"/>
</segment>
</net>
<net name="N$8" class="0">
<segment>
<pinref part="U$1" gate="G$1" pin="MS1"/>
<wire x1="17.78" y1="68.58" x2="15.24" y2="68.58" width="0.1524" layer="91"/>
<wire x1="15.24" y1="68.58" x2="15.24" y2="81.28" width="0.1524" layer="91"/>
<wire x1="15.24" y1="81.28" x2="119.38" y2="81.28" width="0.1524" layer="91"/>
<wire x1="119.38" y1="81.28" x2="119.38" y2="66.04" width="0.1524" layer="91"/>
<wire x1="119.38" y1="66.04" x2="121.92" y2="66.04" width="0.1524" layer="91"/>
<wire x1="119.38" y1="81.28" x2="243.84" y2="81.28" width="0.1524" layer="91"/>
<wire x1="243.84" y1="81.28" x2="243.84" y2="66.04" width="0.1524" layer="91"/>
<junction x="119.38" y="81.28"/>
<pinref part="U$3" gate="G$1" pin="MS1"/>
<wire x1="243.84" y1="66.04" x2="246.38" y2="66.04" width="0.1524" layer="91"/>
</segment>
</net>
<net name="N$9" class="0">
<segment>
<wire x1="121.92" y1="63.5" x2="116.84" y2="63.5" width="0.1524" layer="91"/>
<wire x1="116.84" y1="63.5" x2="116.84" y2="83.82" width="0.1524" layer="91"/>
<wire x1="116.84" y1="83.82" x2="12.7" y2="83.82" width="0.1524" layer="91"/>
<wire x1="12.7" y1="83.82" x2="12.7" y2="66.04" width="0.1524" layer="91"/>
<pinref part="U$1" gate="G$1" pin="MS2"/>
<wire x1="12.7" y1="66.04" x2="17.78" y2="66.04" width="0.1524" layer="91"/>
<wire x1="116.84" y1="83.82" x2="241.3" y2="83.82" width="0.1524" layer="91"/>
<wire x1="241.3" y1="83.82" x2="241.3" y2="63.5" width="0.1524" layer="91"/>
<junction x="116.84" y="83.82"/>
<pinref part="U$3" gate="G$1" pin="MS2"/>
<wire x1="241.3" y1="63.5" x2="246.38" y2="63.5" width="0.1524" layer="91"/>
</segment>
</net>
<net name="N$10" class="0">
<segment>
<pinref part="U$1" gate="G$1" pin="MS3"/>
<wire x1="17.78" y1="63.5" x2="10.16" y2="63.5" width="0.1524" layer="91"/>
<wire x1="10.16" y1="63.5" x2="10.16" y2="86.36" width="0.1524" layer="91"/>
<wire x1="10.16" y1="86.36" x2="114.3" y2="86.36" width="0.1524" layer="91"/>
<wire x1="114.3" y1="86.36" x2="114.3" y2="60.96" width="0.1524" layer="91"/>
<wire x1="114.3" y1="60.96" x2="121.92" y2="60.96" width="0.1524" layer="91"/>
<wire x1="114.3" y1="86.36" x2="238.76" y2="86.36" width="0.1524" layer="91"/>
<junction x="114.3" y="86.36"/>
<wire x1="238.76" y1="86.36" x2="238.76" y2="60.96" width="0.1524" layer="91"/>
<pinref part="U$3" gate="G$1" pin="MS3"/>
<wire x1="238.76" y1="60.96" x2="246.38" y2="60.96" width="0.1524" layer="91"/>
</segment>
</net>
<net name="N$11" class="0">
<segment>
<pinref part="U$1" gate="G$1" pin="VMOT"/>
<wire x1="58.42" y1="71.12" x2="111.76" y2="71.12" width="0.1524" layer="91"/>
<wire x1="111.76" y1="71.12" x2="111.76" y2="88.9" width="0.1524" layer="91"/>
<wire x1="111.76" y1="88.9" x2="109.22" y2="88.9" width="0.1524" layer="91"/>
<wire x1="111.76" y1="88.9" x2="162.56" y2="88.9" width="0.1524" layer="91"/>
<wire x1="162.56" y1="88.9" x2="162.56" y2="68.58" width="0.1524" layer="91"/>
<wire x1="162.56" y1="88.9" x2="287.02" y2="88.9" width="0.1524" layer="91"/>
<junction x="162.56" y="88.9"/>
<pinref part="U$3" gate="G$1" pin="VMOT"/>
<wire x1="287.02" y1="88.9" x2="287.02" y2="68.58" width="0.1524" layer="91"/>
</segment>
</net>
<net name="N$12" class="0">
<segment>
<pinref part="U$1" gate="G$1" pin="GND@0"/>
<wire x1="58.42" y1="68.58" x2="104.14" y2="68.58" width="0.1524" layer="91"/>
<wire x1="104.14" y1="68.58" x2="104.14" y2="91.44" width="0.1524" layer="91"/>
<wire x1="104.14" y1="91.44" x2="165.1" y2="91.44" width="0.1524" layer="91"/>
<wire x1="165.1" y1="91.44" x2="165.1" y2="66.04" width="0.1524" layer="91"/>
<wire x1="165.1" y1="66.04" x2="162.56" y2="66.04" width="0.1524" layer="91"/>
<wire x1="165.1" y1="91.44" x2="292.1" y2="91.44" width="0.1524" layer="91"/>
<wire x1="292.1" y1="91.44" x2="292.1" y2="66.04" width="0.1524" layer="91"/>
<junction x="165.1" y="91.44"/>
<pinref part="U$3" gate="G$1" pin="GND@0"/>
<wire x1="292.1" y1="66.04" x2="287.02" y2="66.04" width="0.1524" layer="91"/>
</segment>
</net>
<net name="N$14" class="0">
<segment>
<pinref part="U$3" gate="G$1" pin="1B"/>
<pinref part="SV3" gate="1" pin="1"/>
<wire x1="287.02" y1="55.88" x2="307.34" y2="55.88" width="0.1524" layer="91"/>
</segment>
</net>
<net name="N$15" class="0">
<segment>
<pinref part="SV3" gate="1" pin="2"/>
<pinref part="U$3" gate="G$1" pin="1A"/>
<wire x1="307.34" y1="58.42" x2="287.02" y2="58.42" width="0.1524" layer="91"/>
</segment>
</net>
<net name="N$16" class="0">
<segment>
<pinref part="U$3" gate="G$1" pin="2A"/>
<pinref part="SV3" gate="1" pin="3"/>
<wire x1="287.02" y1="60.96" x2="307.34" y2="60.96" width="0.1524" layer="91"/>
</segment>
</net>
<net name="N$17" class="0">
<segment>
<pinref part="SV3" gate="1" pin="4"/>
<pinref part="U$3" gate="G$1" pin="2B"/>
<wire x1="307.34" y1="63.5" x2="287.02" y2="63.5" width="0.1524" layer="91"/>
</segment>
</net>
<net name="N$22" class="0">
<segment>
<pinref part="U$1" gate="G$1" pin="1B"/>
<pinref part="SV1" gate="1" pin="1"/>
<wire x1="58.42" y1="58.42" x2="76.2" y2="58.42" width="0.1524" layer="91"/>
</segment>
</net>
<net name="N$23" class="0">
<segment>
<pinref part="SV1" gate="1" pin="2"/>
<pinref part="U$1" gate="G$1" pin="1A"/>
<wire x1="76.2" y1="60.96" x2="58.42" y2="60.96" width="0.1524" layer="91"/>
</segment>
</net>
<net name="N$24" class="0">
<segment>
<pinref part="U$1" gate="G$1" pin="2A"/>
<pinref part="SV1" gate="1" pin="3"/>
<wire x1="58.42" y1="63.5" x2="76.2" y2="63.5" width="0.1524" layer="91"/>
</segment>
</net>
<net name="N$25" class="0">
<segment>
<pinref part="SV1" gate="1" pin="4"/>
<pinref part="U$1" gate="G$1" pin="2B"/>
<wire x1="76.2" y1="66.04" x2="58.42" y2="66.04" width="0.1524" layer="91"/>
</segment>
</net>
</nets>
</sheet>
</sheets>
</schematic>
</drawing>
<compatibility>
<note version="8.2" severity="warning">
Since Version 8.2, EAGLE supports online libraries. The ids
of those online libraries will not be understood (or retained)
with this version.
</note>
<note version="8.3" severity="warning">
Since Version 8.3, EAGLE supports URNs for individual library
assets (packages, symbols, and devices). The URNs of those assets
will not be understood (or retained) with this version.
</note>
<note version="8.3" severity="warning">
Since Version 8.3, EAGLE supports the association of 3D packages
with devices in libraries, schematics, and board files. Those 3D
packages will not be understood (or retained) with this version.
</note>
</compatibility>
</eagle>
