%TF.GenerationSoftware,KiCad,Pcbnew,7.0.2-0*%
%TF.CreationDate,2023-05-19T22:42:41-06:00*%
%TF.ProjectId,nrf51x_coin_kicad,6e726635-3178-45f6-936f-696e5f6b6963,rev?*%
%TF.SameCoordinates,Original*%
%TF.FileFunction,Soldermask,Top*%
%TF.FilePolarity,Negative*%
%FSLAX46Y46*%
G04 Gerber Fmt 4.6, Leading zero omitted, Abs format (unit mm)*
G04 Created by KiCad (PCBNEW 7.0.2-0) date 2023-05-19 22:42:41*
%MOMM*%
%LPD*%
G01*
G04 APERTURE LIST*
G04 Aperture macros list*
%AMRoundRect*
0 Rectangle with rounded corners*
0 $1 Rounding radius*
0 $2 $3 $4 $5 $6 $7 $8 $9 X,Y pos of 4 corners*
0 Add a 4 corners polygon primitive as box body*
4,1,4,$2,$3,$4,$5,$6,$7,$8,$9,$2,$3,0*
0 Add four circle primitives for the rounded corners*
1,1,$1+$1,$2,$3*
1,1,$1+$1,$4,$5*
1,1,$1+$1,$6,$7*
1,1,$1+$1,$8,$9*
0 Add four rect primitives between the rounded corners*
20,1,$1+$1,$2,$3,$4,$5,0*
20,1,$1+$1,$4,$5,$6,$7,0*
20,1,$1+$1,$6,$7,$8,$9,0*
20,1,$1+$1,$8,$9,$2,$3,0*%
G04 Aperture macros list end*
%ADD10R,1.700000X1.700000*%
%ADD11O,1.700000X1.700000*%
%ADD12RoundRect,0.250000X-0.350000X-0.575000X0.350000X-0.575000X0.350000X0.575000X-0.350000X0.575000X0*%
%ADD13O,1.200000X1.650000*%
%ADD14R,0.850000X0.850000*%
%ADD15O,0.850000X0.850000*%
%ADD16R,1.500000X1.500000*%
%ADD17R,2.100000X2.100000*%
%ADD18C,2.100000*%
%ADD19RoundRect,0.250000X0.450000X-0.325000X0.450000X0.325000X-0.450000X0.325000X-0.450000X-0.325000X0*%
%ADD20O,2.000000X0.500000*%
%ADD21O,0.500000X2.000000*%
%ADD22RoundRect,0.250000X0.625000X-0.400000X0.625000X0.400000X-0.625000X0.400000X-0.625000X-0.400000X0*%
%ADD23RoundRect,0.243750X0.456250X-0.243750X0.456250X0.243750X-0.456250X0.243750X-0.456250X-0.243750X0*%
%ADD24R,2.000000X0.950000*%
G04 APERTURE END LIST*
D10*
%TO.C,J1*%
X165800000Y-86720000D03*
D11*
X165800000Y-89260000D03*
X165800000Y-91800000D03*
X165800000Y-94340000D03*
X165800000Y-96880000D03*
%TD*%
D10*
%TO.C,J9*%
X121400000Y-91400000D03*
D11*
X121400000Y-93940000D03*
X121400000Y-96480000D03*
X121400000Y-99020000D03*
%TD*%
D12*
%TO.C,J5*%
X138800000Y-81000000D03*
D13*
X138800000Y-83000000D03*
X140800000Y-81000000D03*
X140800000Y-83000000D03*
X142800000Y-81000000D03*
X142800000Y-83000000D03*
X144800000Y-81000000D03*
X144800000Y-83000000D03*
X146800000Y-81000000D03*
X146800000Y-83000000D03*
X148800000Y-81000000D03*
X148800000Y-83000000D03*
X150800000Y-81000000D03*
X150800000Y-83000000D03*
X152800000Y-81000000D03*
X152800000Y-83000000D03*
X154800000Y-81000000D03*
X154800000Y-83000000D03*
%TD*%
D14*
%TO.C,J7*%
X119800000Y-80800000D03*
D15*
X119800000Y-81800000D03*
X119800000Y-82800000D03*
X119800000Y-83800000D03*
%TD*%
D16*
%TO.C,SW2*%
X126300000Y-92000000D03*
X134100000Y-92000000D03*
%TD*%
D10*
%TO.C,J8*%
X147525000Y-94200000D03*
D11*
X150065000Y-94200000D03*
%TD*%
D16*
%TO.C,SW1*%
X126500000Y-86400000D03*
X134300000Y-86400000D03*
%TD*%
D12*
%TO.C,J6*%
X139000000Y-101000000D03*
D13*
X139000000Y-103000000D03*
X141000000Y-101000000D03*
X141000000Y-103000000D03*
X143000000Y-101000000D03*
X143000000Y-103000000D03*
X145000000Y-101000000D03*
X145000000Y-103000000D03*
X147000000Y-101000000D03*
X147000000Y-103000000D03*
X149000000Y-101000000D03*
X149000000Y-103000000D03*
X151000000Y-101000000D03*
X151000000Y-103000000D03*
X153000000Y-101000000D03*
X153000000Y-103000000D03*
X155000000Y-101000000D03*
X155000000Y-103000000D03*
%TD*%
D17*
%TO.C,BT1*%
X122400000Y-104800000D03*
D18*
X122400000Y-84800000D03*
%TD*%
D19*
%TO.C,D1*%
X160800000Y-92225000D03*
X160800000Y-90175000D03*
%TD*%
D20*
%TO.C,U1*%
X136600000Y-88750000D03*
X136600000Y-89750000D03*
X136600000Y-90750000D03*
X136600000Y-91750000D03*
X136600000Y-92750000D03*
X136600000Y-93750000D03*
D21*
X139525000Y-96800000D03*
X140525000Y-96800000D03*
X141525000Y-96800000D03*
X142525000Y-96800000D03*
X143525000Y-96800000D03*
X150600000Y-96800000D03*
X151725000Y-96800000D03*
%TD*%
D22*
%TO.C,R1*%
X160800000Y-98475000D03*
X160800000Y-95375000D03*
%TD*%
D10*
%TO.C,J2*%
X169400000Y-86720000D03*
D11*
X169400000Y-89260000D03*
X169400000Y-91800000D03*
X169400000Y-94340000D03*
X169400000Y-96880000D03*
%TD*%
D10*
%TO.C,J3*%
X127120000Y-81400000D03*
D11*
X129660000Y-81400000D03*
X132200000Y-81400000D03*
%TD*%
D23*
%TO.C,D2*%
X160800000Y-87650000D03*
X160800000Y-85775000D03*
%TD*%
D10*
%TO.C,J4*%
X129860000Y-103600000D03*
D11*
X132400000Y-103600000D03*
%TD*%
D16*
%TO.C,SW3*%
X126500000Y-97150000D03*
X134300000Y-97150000D03*
%TD*%
D24*
%TO.C,U2*%
X158450000Y-93410000D03*
X158450000Y-92140000D03*
X158450000Y-90870000D03*
X158450000Y-89600000D03*
X158450000Y-88330000D03*
X158450000Y-87060000D03*
X158450000Y-85790000D03*
X158450000Y-84520000D03*
%TD*%
M02*
