<?xml version="1.0" encoding="utf-8"?>
<!DOCTYPE eagle SYSTEM "eagle.dtd">
<eagle version="9.3.2">
<drawing>
<settings>
<setting alwaysvectorfont="no"/>
<setting verticaltext="up"/>
</settings>
<grid distance="0.05" unitdist="inch" unit="inch" style="lines" multiple="1" display="yes" altdistance="1" altunitdist="mm" altunit="mm"/>
<layers>
<layer number="1" name="Top" color="4" fill="1" visible="yes" active="yes"/>
<layer number="16" name="Bottom" color="1" fill="1" visible="yes" active="yes"/>
<layer number="17" name="Pads" color="2" fill="1" visible="yes" active="yes"/>
<layer number="18" name="Vias" color="2" fill="1" visible="yes" active="yes"/>
<layer number="19" name="Unrouted" color="6" fill="1" visible="yes" active="yes"/>
<layer number="20" name="Dimension" color="24" fill="1" visible="yes" active="yes"/>
<layer number="21" name="tPlace" color="7" fill="1" visible="yes" active="yes"/>
<layer number="22" name="bPlace" color="7" fill="1" visible="yes" active="yes"/>
<layer number="23" name="tOrigins" color="15" fill="1" visible="yes" active="yes"/>
<layer number="24" name="bOrigins" color="15" fill="1" visible="yes" active="yes"/>
<layer number="25" name="tNames" color="7" fill="1" visible="yes" active="yes"/>
<layer number="26" name="bNames" color="7" fill="1" visible="yes" active="yes"/>
<layer number="27" name="tValues" color="7" fill="1" visible="yes" active="yes"/>
<layer number="28" name="bValues" color="7" fill="1" visible="yes" active="yes"/>
<layer number="29" name="tStop" color="7" fill="3" visible="yes" active="yes"/>
<layer number="30" name="bStop" color="7" fill="6" visible="yes" active="yes"/>
<layer number="31" name="tCream" color="7" fill="4" visible="yes" active="yes"/>
<layer number="32" name="bCream" color="7" fill="5" visible="yes" active="yes"/>
<layer number="33" name="tFinish" color="6" fill="3" visible="yes" active="yes"/>
<layer number="34" name="bFinish" color="6" fill="6" visible="yes" active="yes"/>
<layer number="35" name="tGlue" color="7" fill="4" visible="yes" active="yes"/>
<layer number="36" name="bGlue" color="7" fill="5" visible="yes" active="yes"/>
<layer number="37" name="tTest" color="7" fill="1" visible="yes" active="yes"/>
<layer number="38" name="bTest" color="7" fill="1" visible="yes" active="yes"/>
<layer number="39" name="tKeepout" color="4" fill="11" visible="yes" active="yes"/>
<layer number="40" name="bKeepout" color="1" fill="11" visible="yes" active="yes"/>
<layer number="41" name="tRestrict" color="4" fill="10" visible="yes" active="yes"/>
<layer number="42" name="bRestrict" color="1" fill="10" visible="yes" active="yes"/>
<layer number="43" name="vRestrict" color="2" fill="10" visible="yes" active="yes"/>
<layer number="44" name="Drills" color="7" fill="1" visible="yes" active="yes"/>
<layer number="45" name="Holes" color="7" fill="1" visible="yes" active="yes"/>
<layer number="46" name="Milling" color="3" fill="1" visible="yes" active="yes"/>
<layer number="47" name="Measures" color="7" fill="1" visible="yes" active="yes"/>
<layer number="48" name="Document" color="7" fill="1" visible="yes" active="yes"/>
<layer number="49" name="Reference" color="7" fill="1" visible="yes" active="yes"/>
<layer number="50" name="dxf" color="7" fill="1" visible="no" active="no"/>
<layer number="51" name="tDocu" color="7" fill="1" visible="yes" active="yes"/>
<layer number="52" name="bDocu" color="7" fill="1" visible="yes" active="yes"/>
<layer number="53" name="tGND_GNDA" color="7" fill="9" visible="no" active="no"/>
<layer number="54" name="bGND_GNDA" color="1" fill="9" visible="no" active="no"/>
<layer number="56" name="wert" color="7" fill="1" visible="no" active="no"/>
<layer number="57" name="tCAD" color="7" fill="1" visible="no" active="no"/>
<layer number="59" name="tCarbon" color="7" fill="1" visible="no" active="no"/>
<layer number="60" name="bCarbon" color="7" fill="1" visible="no" active="no"/>
<layer number="88" name="SimResults" color="9" fill="1" visible="no" active="no"/>
<layer number="89" name="SimProbes" color="9" fill="1" visible="no" active="no"/>
<layer number="90" name="Modules" color="5" fill="1" visible="no" active="no"/>
<layer number="91" name="Nets" color="2" fill="1" visible="no" active="no"/>
<layer number="92" name="Busses" color="1" fill="1" visible="no" active="no"/>
<layer number="93" name="Pins" color="2" fill="1" visible="no" active="no"/>
<layer number="94" name="Symbols" color="4" fill="1" visible="no" active="no"/>
<layer number="95" name="Names" color="7" fill="1" visible="no" active="no"/>
<layer number="96" name="Values" color="7" fill="1" visible="no" active="no"/>
<layer number="97" name="Info" color="7" fill="1" visible="no" active="no"/>
<layer number="98" name="Guide" color="6" fill="1" visible="no" active="no"/>
<layer number="99" name="SpiceOrder" color="7" fill="1" visible="no" active="no"/>
<layer number="100" name="Muster" color="7" fill="1" visible="no" active="no"/>
<layer number="101" name="Patch_Top" color="12" fill="4" visible="yes" active="yes"/>
<layer number="102" name="Vscore" color="7" fill="1" visible="yes" active="yes"/>
<layer number="103" name="tMap" color="7" fill="1" visible="yes" active="yes"/>
<layer number="104" name="Name" color="7" fill="1" visible="yes" active="yes"/>
<layer number="105" name="tPlate" color="7" fill="1" visible="yes" active="yes"/>
<layer number="106" name="bPlate" color="7" fill="1" visible="yes" active="yes"/>
<layer number="107" name="Crop" color="7" fill="1" visible="yes" active="yes"/>
<layer number="108" name="fp8" color="7" fill="1" visible="yes" active="yes"/>
<layer number="109" name="fp9" color="7" fill="1" visible="yes" active="yes"/>
<layer number="110" name="fp0" color="7" fill="1" visible="yes" active="yes"/>
<layer number="111" name="LPC17xx" color="7" fill="1" visible="yes" active="yes"/>
<layer number="112" name="tSilk" color="7" fill="1" visible="yes" active="yes"/>
<layer number="113" name="IDFDebug" color="4" fill="1" visible="no" active="no"/>
<layer number="116" name="Patch_BOT" color="9" fill="4" visible="yes" active="yes"/>
<layer number="118" name="Rect_Pads" color="7" fill="1" visible="no" active="no"/>
<layer number="121" name="_tsilk" color="7" fill="1" visible="yes" active="yes"/>
<layer number="122" name="_bsilk" color="7" fill="1" visible="yes" active="yes"/>
<layer number="123" name="tTestmark" color="7" fill="1" visible="yes" active="yes"/>
<layer number="124" name="bTestmark" color="7" fill="1" visible="yes" active="yes"/>
<layer number="125" name="_tNames" color="7" fill="1" visible="yes" active="yes"/>
<layer number="126" name="_bNames" color="7" fill="1" visible="yes" active="yes"/>
<layer number="127" name="_tValues" color="7" fill="1" visible="yes" active="yes"/>
<layer number="128" name="_bValues" color="7" fill="1" visible="yes" active="yes"/>
<layer number="129" name="Mask" color="7" fill="1" visible="no" active="no"/>
<layer number="131" name="tAdjust" color="7" fill="1" visible="yes" active="yes"/>
<layer number="132" name="bAdjust" color="7" fill="1" visible="yes" active="yes"/>
<layer number="144" name="Drill_legend" color="7" fill="1" visible="yes" active="yes"/>
<layer number="150" name="Notes" color="7" fill="1" visible="yes" active="yes"/>
<layer number="151" name="HeatSink" color="7" fill="1" visible="yes" active="yes"/>
<layer number="152" name="_bDocu" color="7" fill="1" visible="yes" active="yes"/>
<layer number="153" name="FabDoc1" color="6" fill="1" visible="no" active="no"/>
<layer number="154" name="FabDoc2" color="2" fill="1" visible="no" active="no"/>
<layer number="155" name="FabDoc3" color="7" fill="15" visible="no" active="no"/>
<layer number="199" name="Contour" color="7" fill="1" visible="yes" active="yes"/>
<layer number="200" name="200bmp" color="1" fill="10" visible="yes" active="yes"/>
<layer number="201" name="201bmp" color="2" fill="10" visible="yes" active="yes"/>
<layer number="202" name="202bmp" color="3" fill="10" visible="yes" active="yes"/>
<layer number="203" name="203bmp" color="4" fill="10" visible="yes" active="yes"/>
<layer number="204" name="204bmp" color="5" fill="10" visible="yes" active="yes"/>
<layer number="205" name="205bmp" color="6" fill="10" visible="yes" active="yes"/>
<layer number="206" name="206bmp" color="7" fill="10" visible="yes" active="yes"/>
<layer number="207" name="207bmp" color="8" fill="10" visible="yes" active="yes"/>
<layer number="208" name="208bmp" color="9" fill="10" visible="yes" active="yes"/>
<layer number="209" name="209bmp" color="7" fill="1" visible="yes" active="yes"/>
<layer number="210" name="210bmp" color="7" fill="1" visible="yes" active="yes"/>
<layer number="211" name="211bmp" color="7" fill="1" visible="yes" active="yes"/>
<layer number="212" name="212bmp" color="7" fill="1" visible="yes" active="yes"/>
<layer number="213" name="213bmp" color="7" fill="1" visible="yes" active="yes"/>
<layer number="214" name="214bmp" color="7" fill="1" visible="yes" active="yes"/>
<layer number="215" name="215bmp" color="7" fill="1" visible="yes" active="yes"/>
<layer number="216" name="216bmp" color="7" fill="1" visible="yes" active="yes"/>
<layer number="217" name="217bmp" color="18" fill="1" visible="no" active="no"/>
<layer number="218" name="218bmp" color="19" fill="1" visible="no" active="no"/>
<layer number="219" name="219bmp" color="20" fill="1" visible="no" active="no"/>
<layer number="220" name="220bmp" color="21" fill="1" visible="no" active="no"/>
<layer number="221" name="221bmp" color="22" fill="1" visible="no" active="no"/>
<layer number="222" name="222bmp" color="23" fill="1" visible="no" active="no"/>
<layer number="223" name="223bmp" color="24" fill="1" visible="no" active="no"/>
<layer number="224" name="224bmp" color="25" fill="1" visible="no" active="no"/>
<layer number="225" name="225bmp" color="7" fill="1" visible="no" active="no"/>
<layer number="226" name="226bmp" color="7" fill="1" visible="no" active="no"/>
<layer number="227" name="227bmp" color="7" fill="1" visible="no" active="no"/>
<layer number="228" name="228bmp" color="7" fill="1" visible="no" active="no"/>
<layer number="229" name="229bmp" color="7" fill="1" visible="no" active="no"/>
<layer number="230" name="230bmp" color="7" fill="1" visible="no" active="no"/>
<layer number="231" name="231bmp" color="7" fill="1" visible="no" active="no"/>
<layer number="248" name="Housing" color="7" fill="1" visible="yes" active="yes"/>
<layer number="249" name="Edge" color="7" fill="1" visible="yes" active="yes"/>
<layer number="250" name="Descript" color="3" fill="1" visible="no" active="no"/>
<layer number="251" name="SMDround" color="12" fill="11" visible="no" active="no"/>
<layer number="254" name="cooling" color="7" fill="1" visible="yes" active="yes"/>
<layer number="255" name="routoute" color="7" fill="1" visible="no" active="no"/>
</layers>
<board>
<plain>
<wire x1="-1.95" y1="13.55" x2="-2" y2="13.55" width="0" layer="20"/>
<rectangle x1="4.0838" y1="44.1882" x2="4.541" y2="44.239" layer="200"/>
<rectangle x1="4.033" y1="44.239" x2="4.5918" y2="44.2898" layer="200"/>
<rectangle x1="3.9822" y1="44.2898" x2="4.6426" y2="44.3406" layer="200"/>
<rectangle x1="3.9314" y1="44.3406" x2="4.6426" y2="44.3914" layer="200"/>
<rectangle x1="3.9314" y1="44.3914" x2="4.6934" y2="44.4422" layer="200"/>
<rectangle x1="3.8806" y1="44.4422" x2="4.7442" y2="44.493" layer="200"/>
<rectangle x1="3.8806" y1="44.493" x2="4.795" y2="44.5438" layer="200"/>
<rectangle x1="3.8806" y1="44.5438" x2="4.795" y2="44.5946" layer="200"/>
<rectangle x1="3.8806" y1="44.5946" x2="4.8458" y2="44.6454" layer="200"/>
<rectangle x1="3.8298" y1="44.6454" x2="4.8966" y2="44.6962" layer="200"/>
<rectangle x1="3.8298" y1="44.6962" x2="4.9474" y2="44.747" layer="200"/>
<rectangle x1="3.8806" y1="44.747" x2="4.9982" y2="44.7978" layer="200"/>
<rectangle x1="3.8806" y1="44.7978" x2="4.9982" y2="44.8486" layer="200"/>
<rectangle x1="3.8806" y1="44.8486" x2="5.049" y2="44.8994" layer="200"/>
<rectangle x1="3.8806" y1="44.8994" x2="5.0998" y2="44.9502" layer="200"/>
<rectangle x1="3.8806" y1="44.9502" x2="5.1506" y2="45.001" layer="200"/>
<rectangle x1="3.8806" y1="45.001" x2="5.1506" y2="45.0518" layer="200"/>
<rectangle x1="3.9314" y1="45.0518" x2="5.2014" y2="45.1026" layer="200"/>
<rectangle x1="3.9314" y1="45.1026" x2="5.2522" y2="45.1534" layer="200"/>
<rectangle x1="3.9314" y1="45.1534" x2="5.303" y2="45.2042" layer="200"/>
<rectangle x1="3.9822" y1="45.2042" x2="5.3538" y2="45.255" layer="200"/>
<rectangle x1="3.9822" y1="45.255" x2="5.3538" y2="45.3058" layer="200"/>
<rectangle x1="3.9822" y1="45.3058" x2="5.4046" y2="45.3566" layer="200"/>
<rectangle x1="4.033" y1="45.3566" x2="5.4554" y2="45.4074" layer="200"/>
<rectangle x1="4.033" y1="45.4074" x2="5.5062" y2="45.4582" layer="200"/>
<rectangle x1="4.033" y1="45.4582" x2="5.5062" y2="45.509" layer="200"/>
<rectangle x1="4.0838" y1="45.509" x2="5.557" y2="45.5598" layer="200"/>
<rectangle x1="4.0838" y1="45.5598" x2="5.6078" y2="45.6106" layer="200"/>
<rectangle x1="4.0838" y1="45.6106" x2="5.6586" y2="45.6614" layer="200"/>
<rectangle x1="4.1346" y1="45.6614" x2="5.6586" y2="45.7122" layer="200"/>
<rectangle x1="4.1346" y1="45.7122" x2="5.7094" y2="45.763" layer="200"/>
<rectangle x1="4.1346" y1="45.763" x2="5.7602" y2="45.8138" layer="200"/>
<rectangle x1="4.1854" y1="45.8138" x2="5.811" y2="45.8646" layer="200"/>
<rectangle x1="4.1854" y1="45.8646" x2="5.8618" y2="45.9154" layer="200"/>
<rectangle x1="4.1854" y1="45.9154" x2="5.8618" y2="45.9662" layer="200"/>
<rectangle x1="4.2362" y1="45.9662" x2="5.9126" y2="46.017" layer="200"/>
<rectangle x1="4.2362" y1="46.017" x2="5.9634" y2="46.0678" layer="200"/>
<rectangle x1="4.2362" y1="46.0678" x2="6.0142" y2="46.1186" layer="200"/>
<rectangle x1="4.287" y1="46.1186" x2="6.0142" y2="46.1694" layer="200"/>
<rectangle x1="4.287" y1="46.1694" x2="6.065" y2="46.2202" layer="200"/>
<rectangle x1="4.287" y1="46.2202" x2="6.1158" y2="46.271" layer="200"/>
<rectangle x1="4.3378" y1="46.271" x2="6.1666" y2="46.3218" layer="200"/>
<rectangle x1="4.3378" y1="46.3218" x2="6.2174" y2="46.3726" layer="200"/>
<rectangle x1="4.3378" y1="46.3726" x2="6.2174" y2="46.4234" layer="200"/>
<rectangle x1="4.3886" y1="46.4234" x2="6.2682" y2="46.4742" layer="200"/>
<rectangle x1="4.3886" y1="46.4742" x2="6.319" y2="46.525" layer="200"/>
<rectangle x1="4.3886" y1="46.525" x2="6.3698" y2="46.5758" layer="200"/>
<rectangle x1="4.4394" y1="46.5758" x2="6.3698" y2="46.6266" layer="200"/>
<rectangle x1="4.4394" y1="46.6266" x2="6.4206" y2="46.6774" layer="200"/>
<rectangle x1="4.4394" y1="46.6774" x2="6.4714" y2="46.7282" layer="200"/>
<rectangle x1="4.4902" y1="46.7282" x2="6.5222" y2="46.779" layer="200"/>
<rectangle x1="4.4902" y1="46.779" x2="6.573" y2="46.8298" layer="200"/>
<rectangle x1="4.4902" y1="46.8298" x2="6.573" y2="46.8806" layer="200"/>
<rectangle x1="4.541" y1="46.8806" x2="6.6238" y2="46.9314" layer="200"/>
<rectangle x1="4.541" y1="46.9314" x2="6.6746" y2="46.9822" layer="200"/>
<rectangle x1="4.541" y1="46.9822" x2="6.7254" y2="47.033" layer="200"/>
<rectangle x1="4.5918" y1="47.033" x2="6.7254" y2="47.0838" layer="200"/>
<rectangle x1="4.5918" y1="47.0838" x2="6.7762" y2="47.1346" layer="200"/>
<rectangle x1="4.5918" y1="47.1346" x2="6.827" y2="47.1854" layer="200"/>
<rectangle x1="4.6426" y1="47.1854" x2="6.8778" y2="47.2362" layer="200"/>
<rectangle x1="4.6426" y1="47.2362" x2="6.8778" y2="47.287" layer="200"/>
<rectangle x1="4.6426" y1="47.287" x2="6.9286" y2="47.3378" layer="200"/>
<rectangle x1="4.6934" y1="47.3378" x2="6.9794" y2="47.3886" layer="200"/>
<rectangle x1="4.6934" y1="47.3886" x2="7.0302" y2="47.4394" layer="200"/>
<rectangle x1="4.6934" y1="47.4394" x2="7.081" y2="47.4902" layer="200"/>
<rectangle x1="4.7442" y1="47.4902" x2="7.081" y2="47.541" layer="200"/>
<rectangle x1="4.7442" y1="47.541" x2="7.1318" y2="47.5918" layer="200"/>
<rectangle x1="4.7442" y1="47.5918" x2="7.1826" y2="47.6426" layer="200"/>
<rectangle x1="4.795" y1="47.6426" x2="7.2334" y2="47.6934" layer="200"/>
<rectangle x1="4.795" y1="47.6934" x2="7.2334" y2="47.7442" layer="200"/>
<rectangle x1="4.795" y1="47.7442" x2="7.2842" y2="47.795" layer="200"/>
<rectangle x1="4.8458" y1="47.795" x2="7.335" y2="47.8458" layer="200"/>
<rectangle x1="4.8458" y1="47.8458" x2="7.3858" y2="47.8966" layer="200"/>
<rectangle x1="4.8458" y1="47.8966" x2="7.4366" y2="47.9474" layer="200"/>
<rectangle x1="4.8966" y1="47.9474" x2="7.4366" y2="47.9982" layer="200"/>
<rectangle x1="4.8966" y1="47.9982" x2="7.4874" y2="48.049" layer="200"/>
<rectangle x1="4.8966" y1="48.049" x2="7.5382" y2="48.0998" layer="200"/>
<rectangle x1="4.9474" y1="48.0998" x2="7.589" y2="48.1506" layer="200"/>
<rectangle x1="4.9474" y1="48.1506" x2="7.589" y2="48.2014" layer="200"/>
<rectangle x1="4.9474" y1="48.2014" x2="7.6398" y2="48.2522" layer="200"/>
<rectangle x1="4.9982" y1="48.2522" x2="7.6906" y2="48.303" layer="200"/>
<rectangle x1="4.9982" y1="48.303" x2="7.7414" y2="48.3538" layer="200"/>
<rectangle x1="4.9982" y1="48.3538" x2="7.7922" y2="48.4046" layer="200"/>
<rectangle x1="5.049" y1="48.4046" x2="7.7922" y2="48.4554" layer="200"/>
<rectangle x1="5.049" y1="48.4554" x2="7.843" y2="48.5062" layer="200"/>
<rectangle x1="5.049" y1="48.5062" x2="7.8938" y2="48.557" layer="200"/>
<rectangle x1="5.0998" y1="48.557" x2="7.9446" y2="48.6078" layer="200"/>
<rectangle x1="5.0998" y1="48.6078" x2="7.9446" y2="48.6586" layer="200"/>
<rectangle x1="5.0998" y1="48.6586" x2="7.9954" y2="48.7094" layer="200"/>
<rectangle x1="5.1506" y1="48.7094" x2="8.0462" y2="48.7602" layer="200"/>
<rectangle x1="5.1506" y1="48.7602" x2="8.097" y2="48.811" layer="200"/>
<rectangle x1="5.1506" y1="48.811" x2="8.097" y2="48.8618" layer="200"/>
<rectangle x1="5.2014" y1="48.8618" x2="8.1478" y2="48.9126" layer="200"/>
<rectangle x1="5.2014" y1="48.9126" x2="8.1986" y2="48.9634" layer="200"/>
<rectangle x1="5.2014" y1="48.9634" x2="8.2494" y2="49.0142" layer="200"/>
<rectangle x1="5.2522" y1="49.0142" x2="8.3002" y2="49.065" layer="200"/>
<rectangle x1="5.2522" y1="49.065" x2="8.3002" y2="49.1158" layer="200"/>
<rectangle x1="5.2522" y1="49.1158" x2="8.351" y2="49.1666" layer="200"/>
<rectangle x1="5.303" y1="49.1666" x2="8.4018" y2="49.2174" layer="200"/>
<rectangle x1="5.303" y1="49.2174" x2="8.4526" y2="49.2682" layer="200"/>
<rectangle x1="5.303" y1="49.2682" x2="8.4526" y2="49.319" layer="200"/>
<rectangle x1="5.3538" y1="49.319" x2="8.5034" y2="49.3698" layer="200"/>
<rectangle x1="5.3538" y1="49.3698" x2="8.5542" y2="49.4206" layer="200"/>
<rectangle x1="5.3538" y1="49.4206" x2="8.605" y2="49.4714" layer="200"/>
<rectangle x1="5.4046" y1="49.4714" x2="8.6558" y2="49.5222" layer="200"/>
<rectangle x1="5.4046" y1="49.5222" x2="8.6558" y2="49.573" layer="200"/>
<rectangle x1="5.4046" y1="49.573" x2="8.7066" y2="49.6238" layer="200"/>
<rectangle x1="5.4554" y1="49.6238" x2="8.7574" y2="49.6746" layer="200"/>
<rectangle x1="5.4554" y1="49.6746" x2="8.8082" y2="49.7254" layer="200"/>
<rectangle x1="5.4554" y1="49.7254" x2="8.8082" y2="49.7762" layer="200"/>
<rectangle x1="5.5062" y1="49.7762" x2="8.859" y2="49.827" layer="200"/>
<rectangle x1="5.5062" y1="49.827" x2="8.9098" y2="49.8778" layer="200"/>
<rectangle x1="5.5062" y1="49.8778" x2="8.9606" y2="49.9286" layer="200"/>
<rectangle x1="5.557" y1="49.9286" x2="9.0114" y2="49.9794" layer="200"/>
<rectangle x1="5.557" y1="49.9794" x2="9.0114" y2="50.0302" layer="200"/>
<rectangle x1="5.557" y1="50.0302" x2="9.0622" y2="50.081" layer="200"/>
<rectangle x1="5.6078" y1="50.081" x2="9.113" y2="50.1318" layer="200"/>
<rectangle x1="5.6078" y1="50.1318" x2="9.1638" y2="50.1826" layer="200"/>
<rectangle x1="5.6078" y1="50.1826" x2="9.1638" y2="50.2334" layer="200"/>
<rectangle x1="5.6586" y1="50.2334" x2="9.2146" y2="50.2842" layer="200"/>
<rectangle x1="5.6586" y1="50.2842" x2="9.2654" y2="50.335" layer="200"/>
<rectangle x1="5.6586" y1="50.335" x2="9.3162" y2="50.3858" layer="200"/>
<rectangle x1="5.7094" y1="50.3858" x2="9.3162" y2="50.4366" layer="200"/>
<rectangle x1="5.7094" y1="50.4366" x2="9.367" y2="50.4874" layer="200"/>
<rectangle x1="5.7094" y1="50.4874" x2="9.4178" y2="50.5382" layer="200"/>
<rectangle x1="5.7602" y1="50.5382" x2="9.4686" y2="50.589" layer="200"/>
<rectangle x1="5.7602" y1="50.589" x2="9.5194" y2="50.6398" layer="200"/>
<rectangle x1="5.7602" y1="50.6398" x2="9.5194" y2="50.6906" layer="200"/>
<rectangle x1="5.811" y1="50.6906" x2="9.5702" y2="50.7414" layer="200"/>
<rectangle x1="5.811" y1="50.7414" x2="9.621" y2="50.7922" layer="200"/>
<rectangle x1="5.811" y1="50.7922" x2="9.6718" y2="50.843" layer="200"/>
<rectangle x1="5.8618" y1="50.843" x2="9.6718" y2="50.8938" layer="200"/>
<rectangle x1="5.8618" y1="50.8938" x2="9.7226" y2="50.9446" layer="200"/>
<rectangle x1="5.8618" y1="50.9446" x2="9.7734" y2="50.9954" layer="200"/>
<rectangle x1="5.9126" y1="50.9954" x2="9.8242" y2="51.0462" layer="200"/>
<rectangle x1="5.9126" y1="51.0462" x2="9.875" y2="51.097" layer="200"/>
<rectangle x1="5.9126" y1="51.097" x2="9.875" y2="51.1478" layer="200"/>
<rectangle x1="5.9634" y1="51.1478" x2="9.9258" y2="51.1986" layer="200"/>
<rectangle x1="5.9634" y1="51.1986" x2="9.9766" y2="51.2494" layer="200"/>
<rectangle x1="5.9634" y1="51.2494" x2="10.0274" y2="51.3002" layer="200"/>
<rectangle x1="6.0142" y1="51.3002" x2="10.0274" y2="51.351" layer="200"/>
<rectangle x1="6.0142" y1="51.351" x2="10.0782" y2="51.4018" layer="200"/>
<rectangle x1="6.0142" y1="51.4018" x2="10.129" y2="51.4526" layer="200"/>
<rectangle x1="6.065" y1="51.4526" x2="10.1798" y2="51.5034" layer="200"/>
<rectangle x1="6.0142" y1="51.5034" x2="10.2306" y2="51.5542" layer="200"/>
<rectangle x1="6.065" y1="51.5542" x2="10.2306" y2="51.605" layer="200"/>
<rectangle x1="6.065" y1="51.605" x2="10.2814" y2="51.6558" layer="200"/>
<rectangle x1="6.065" y1="51.6558" x2="10.3322" y2="51.7066" layer="200"/>
<rectangle x1="6.065" y1="51.7066" x2="10.383" y2="51.7574" layer="200"/>
<rectangle x1="6.065" y1="51.7574" x2="10.383" y2="51.8082" layer="200"/>
<rectangle x1="6.065" y1="51.8082" x2="10.4338" y2="51.859" layer="200"/>
<rectangle x1="6.065" y1="51.859" x2="10.4846" y2="51.9098" layer="200"/>
<rectangle x1="6.065" y1="51.9098" x2="10.5354" y2="51.9606" layer="200"/>
<rectangle x1="6.065" y1="51.9606" x2="10.5354" y2="52.0114" layer="200"/>
<rectangle x1="6.065" y1="52.0114" x2="10.5862" y2="52.0622" layer="200"/>
<rectangle x1="6.065" y1="52.0622" x2="10.637" y2="52.113" layer="200"/>
<rectangle x1="6.0142" y1="52.113" x2="10.6878" y2="52.1638" layer="200"/>
<rectangle x1="5.9634" y1="52.1638" x2="10.7386" y2="52.2146" layer="200"/>
<rectangle x1="3.3726" y1="52.2146" x2="10.7386" y2="52.2654" layer="200"/>
<rectangle x1="3.1186" y1="52.2654" x2="10.7894" y2="52.3162" layer="200"/>
<rectangle x1="3.0678" y1="52.3162" x2="10.8402" y2="52.367" layer="200"/>
<rectangle x1="2.9662" y1="52.367" x2="10.891" y2="52.4178" layer="200"/>
<rectangle x1="2.9662" y1="52.4178" x2="10.891" y2="52.4686" layer="200"/>
<rectangle x1="2.9154" y1="52.4686" x2="10.9418" y2="52.5194" layer="200"/>
<rectangle x1="2.8646" y1="52.5194" x2="10.9926" y2="52.5702" layer="200"/>
<rectangle x1="2.8646" y1="52.5702" x2="11.0434" y2="52.621" layer="200"/>
<rectangle x1="2.8646" y1="52.621" x2="11.0942" y2="52.6718" layer="200"/>
<rectangle x1="2.8646" y1="52.6718" x2="11.0942" y2="52.7226" layer="200"/>
<rectangle x1="2.8646" y1="52.7226" x2="11.145" y2="52.7734" layer="200"/>
<rectangle x1="2.8646" y1="52.7734" x2="11.1958" y2="52.8242" layer="200"/>
<rectangle x1="2.8646" y1="52.8242" x2="11.2466" y2="52.875" layer="200"/>
<rectangle x1="2.8646" y1="52.875" x2="11.2466" y2="52.9258" layer="200"/>
<rectangle x1="2.8646" y1="52.9258" x2="11.2974" y2="52.9766" layer="200"/>
<rectangle x1="2.8646" y1="52.9766" x2="11.3482" y2="53.0274" layer="200"/>
<rectangle x1="2.8646" y1="53.0274" x2="11.399" y2="53.0782" layer="200"/>
<rectangle x1="2.9154" y1="53.0782" x2="11.4498" y2="53.129" layer="200"/>
<rectangle x1="2.9154" y1="53.129" x2="11.4498" y2="53.1798" layer="200"/>
<rectangle x1="2.9154" y1="53.1798" x2="11.5006" y2="53.2306" layer="200"/>
<rectangle x1="2.9662" y1="53.2306" x2="11.5514" y2="53.2814" layer="200"/>
<rectangle x1="2.9662" y1="53.2814" x2="11.6022" y2="53.3322" layer="200"/>
<rectangle x1="3.017" y1="53.3322" x2="11.6022" y2="53.383" layer="200"/>
<rectangle x1="3.017" y1="53.383" x2="11.653" y2="53.4338" layer="200"/>
<rectangle x1="3.0678" y1="53.4338" x2="11.7038" y2="53.4846" layer="200"/>
<rectangle x1="3.0678" y1="53.4846" x2="11.7546" y2="53.5354" layer="200"/>
<rectangle x1="3.1186" y1="53.5354" x2="11.7546" y2="53.5862" layer="200"/>
<rectangle x1="3.1694" y1="53.5862" x2="11.8054" y2="53.637" layer="200"/>
<rectangle x1="3.1694" y1="53.637" x2="11.8562" y2="53.6878" layer="200"/>
<rectangle x1="3.2202" y1="53.6878" x2="11.907" y2="53.7386" layer="200"/>
<rectangle x1="3.2202" y1="53.7386" x2="11.907" y2="53.7894" layer="200"/>
<rectangle x1="3.271" y1="53.7894" x2="11.9578" y2="53.8402" layer="200"/>
<rectangle x1="3.271" y1="53.8402" x2="11.9578" y2="53.891" layer="200"/>
<rectangle x1="3.3218" y1="53.891" x2="11.9578" y2="53.9418" layer="200"/>
<rectangle x1="3.3218" y1="53.9418" x2="11.9578" y2="53.9926" layer="200"/>
<rectangle x1="3.3726" y1="53.9926" x2="11.9578" y2="54.0434" layer="200"/>
<rectangle x1="3.4234" y1="54.0434" x2="11.9578" y2="54.0942" layer="200"/>
<rectangle x1="3.4234" y1="54.0942" x2="11.9578" y2="54.145" layer="200"/>
<rectangle x1="3.4742" y1="54.145" x2="11.907" y2="54.1958" layer="200"/>
<rectangle x1="3.4742" y1="54.1958" x2="11.907" y2="54.2466" layer="200"/>
<rectangle x1="3.525" y1="54.2466" x2="11.8562" y2="54.2974" layer="200"/>
<rectangle x1="3.525" y1="54.2974" x2="11.7546" y2="54.3482" layer="200"/>
<rectangle x1="3.5758" y1="54.3482" x2="11.5006" y2="54.399" layer="200"/>
<rectangle x1="3.5758" y1="54.399" x2="10.4338" y2="54.4498" layer="200"/>
<rectangle x1="3.6266" y1="54.4498" x2="10.383" y2="54.5006" layer="200"/>
<rectangle x1="3.6266" y1="54.5006" x2="10.3322" y2="54.5514" layer="200"/>
<rectangle x1="3.6774" y1="54.5514" x2="10.3322" y2="54.6022" layer="200"/>
<rectangle x1="3.7282" y1="54.6022" x2="10.3322" y2="54.653" layer="200"/>
<rectangle x1="3.7282" y1="54.653" x2="10.3322" y2="54.7038" layer="200"/>
<rectangle x1="3.779" y1="54.7038" x2="10.383" y2="54.7546" layer="200"/>
<rectangle x1="3.779" y1="54.7546" x2="10.383" y2="54.8054" layer="200"/>
<rectangle x1="3.8298" y1="54.8054" x2="10.4338" y2="54.8562" layer="200"/>
<rectangle x1="3.8298" y1="54.8562" x2="10.4338" y2="54.907" layer="200"/>
<rectangle x1="3.8806" y1="54.907" x2="10.4846" y2="54.9578" layer="200"/>
<rectangle x1="3.8806" y1="54.9578" x2="10.4846" y2="55.0086" layer="200"/>
<rectangle x1="3.9314" y1="55.0086" x2="10.5354" y2="55.0594" layer="200"/>
<rectangle x1="3.9822" y1="55.0594" x2="10.5862" y2="55.1102" layer="200"/>
<rectangle x1="3.9822" y1="55.1102" x2="10.5862" y2="55.161" layer="200"/>
<rectangle x1="4.033" y1="55.161" x2="10.637" y2="55.2118" layer="200"/>
<rectangle x1="4.033" y1="55.2118" x2="10.637" y2="55.2626" layer="200"/>
<rectangle x1="4.0838" y1="55.2626" x2="10.6878" y2="55.3134" layer="200"/>
<rectangle x1="4.0838" y1="55.3134" x2="10.6878" y2="55.3642" layer="200"/>
<rectangle x1="4.1346" y1="55.3642" x2="10.7386" y2="55.415" layer="200"/>
<rectangle x1="4.1346" y1="55.415" x2="10.7386" y2="55.4658" layer="200"/>
<rectangle x1="4.1854" y1="55.4658" x2="10.7894" y2="55.5166" layer="200"/>
<rectangle x1="4.1854" y1="55.5166" x2="10.7894" y2="55.5674" layer="200"/>
<rectangle x1="4.2362" y1="55.5674" x2="10.8402" y2="55.6182" layer="200"/>
<rectangle x1="4.287" y1="55.6182" x2="10.8402" y2="55.669" layer="200"/>
<rectangle x1="4.287" y1="55.669" x2="10.891" y2="55.7198" layer="200"/>
<rectangle x1="4.3378" y1="55.7198" x2="10.891" y2="55.7706" layer="200"/>
<rectangle x1="4.3378" y1="55.7706" x2="10.9418" y2="55.8214" layer="200"/>
<rectangle x1="4.3886" y1="55.8214" x2="10.9418" y2="55.8722" layer="200"/>
<rectangle x1="4.3886" y1="55.8722" x2="10.9926" y2="55.923" layer="200"/>
<rectangle x1="4.4394" y1="55.923" x2="10.9926" y2="55.9738" layer="200"/>
<rectangle x1="4.4394" y1="55.9738" x2="11.0434" y2="56.0246" layer="200"/>
<rectangle x1="4.4902" y1="56.0246" x2="11.0434" y2="56.0754" layer="200"/>
<rectangle x1="4.541" y1="56.0754" x2="11.0942" y2="56.1262" layer="200"/>
<rectangle x1="4.541" y1="56.1262" x2="11.145" y2="56.177" layer="200"/>
<rectangle x1="4.5918" y1="56.177" x2="11.145" y2="56.2278" layer="200"/>
<rectangle x1="4.5918" y1="56.2278" x2="11.1958" y2="56.2786" layer="200"/>
<rectangle x1="4.6426" y1="56.2786" x2="11.1958" y2="56.3294" layer="200"/>
<rectangle x1="4.6426" y1="56.3294" x2="11.2466" y2="56.3802" layer="200"/>
<rectangle x1="4.6934" y1="56.3802" x2="11.2466" y2="56.431" layer="200"/>
<rectangle x1="4.6934" y1="56.431" x2="11.2974" y2="56.4818" layer="200"/>
<rectangle x1="4.7442" y1="56.4818" x2="11.2974" y2="56.5326" layer="200"/>
<rectangle x1="4.7442" y1="56.5326" x2="11.3482" y2="56.5834" layer="200"/>
<rectangle x1="4.795" y1="56.5834" x2="11.3482" y2="56.6342" layer="200"/>
<rectangle x1="4.8458" y1="56.6342" x2="11.399" y2="56.685" layer="200"/>
<rectangle x1="4.8458" y1="56.685" x2="11.399" y2="56.7358" layer="200"/>
<rectangle x1="4.8966" y1="56.7358" x2="11.4498" y2="56.7866" layer="200"/>
<rectangle x1="4.8966" y1="56.7866" x2="11.4498" y2="56.8374" layer="200"/>
<rectangle x1="4.9474" y1="56.8374" x2="11.5006" y2="56.8882" layer="200"/>
<rectangle x1="4.9474" y1="56.8882" x2="11.5006" y2="56.939" layer="200"/>
<rectangle x1="4.9982" y1="56.939" x2="11.5514" y2="56.9898" layer="200"/>
<rectangle x1="4.9982" y1="56.9898" x2="11.5514" y2="57.0406" layer="200"/>
<rectangle x1="5.049" y1="57.0406" x2="11.6022" y2="57.0914" layer="200"/>
<rectangle x1="5.0998" y1="57.0914" x2="11.653" y2="57.1422" layer="200"/>
<rectangle x1="5.0998" y1="57.1422" x2="11.653" y2="57.193" layer="200"/>
<rectangle x1="5.1506" y1="57.193" x2="11.7038" y2="57.2438" layer="200"/>
<rectangle x1="5.1506" y1="57.2438" x2="11.7038" y2="57.2946" layer="200"/>
<rectangle x1="5.2014" y1="57.2946" x2="11.7546" y2="57.3454" layer="200"/>
<rectangle x1="5.2014" y1="57.3454" x2="11.7546" y2="57.3962" layer="200"/>
<rectangle x1="5.2522" y1="57.3962" x2="11.8054" y2="57.447" layer="200"/>
<rectangle x1="5.2522" y1="57.447" x2="11.8054" y2="57.4978" layer="200"/>
<rectangle x1="5.303" y1="57.4978" x2="11.8562" y2="57.5486" layer="200"/>
<rectangle x1="5.3538" y1="57.5486" x2="11.8562" y2="57.5994" layer="200"/>
<rectangle x1="5.3538" y1="57.5994" x2="11.907" y2="57.6502" layer="200"/>
<rectangle x1="5.4046" y1="57.6502" x2="11.907" y2="57.701" layer="200"/>
<rectangle x1="5.4554" y1="57.701" x2="11.907" y2="57.7518" layer="200"/>
<rectangle x1="5.5062" y1="57.7518" x2="11.9578" y2="57.8026" layer="200"/>
<rectangle x1="5.5062" y1="57.8026" x2="11.9578" y2="57.8534" layer="200"/>
<rectangle x1="5.557" y1="57.8534" x2="11.9578" y2="57.9042" layer="200"/>
<rectangle x1="5.6078" y1="57.9042" x2="11.9578" y2="57.955" layer="200"/>
<rectangle x1="5.6586" y1="57.955" x2="11.9578" y2="58.0058" layer="200"/>
<rectangle x1="5.7094" y1="58.0058" x2="12.0086" y2="58.0566" layer="200"/>
<rectangle x1="5.7602" y1="58.0566" x2="12.0086" y2="58.1074" layer="200"/>
<rectangle x1="5.8618" y1="58.1074" x2="11.9578" y2="58.1582" layer="200"/>
<rectangle x1="5.9126" y1="58.1582" x2="11.9578" y2="58.209" layer="200"/>
<rectangle x1="5.9634" y1="58.209" x2="11.9578" y2="58.2598" layer="200"/>
<rectangle x1="6.065" y1="58.2598" x2="11.9578" y2="58.3106" layer="200"/>
<rectangle x1="6.1158" y1="58.3106" x2="11.907" y2="58.3614" layer="200"/>
<rectangle x1="6.2174" y1="58.3614" x2="11.8562" y2="58.4122" layer="200"/>
<rectangle x1="6.319" y1="58.4122" x2="11.8562" y2="58.463" layer="200"/>
<rectangle x1="6.4206" y1="58.463" x2="11.7546" y2="58.5138" layer="200"/>
<rectangle x1="6.573" y1="58.5138" x2="11.7038" y2="58.5646" layer="200"/>
<rectangle x1="6.8778" y1="58.5646" x2="11.4498" y2="58.6154" layer="200"/>
<wire x1="21" y1="0" x2="5" y2="82" width="0.1524" layer="20" curve="-66.194056"/>
<wire x1="5" y1="82" x2="14" y2="82" width="0.1524" layer="20"/>
<wire x1="14" y1="82" x2="17" y2="79" width="0.1524" layer="20"/>
<wire x1="17" y1="79" x2="50" y2="79" width="0.1524" layer="20"/>
<wire x1="50" y1="79" x2="52" y2="77" width="0.1524" layer="20"/>
<wire x1="52" y1="77" x2="52" y2="57" width="0.1524" layer="20"/>
<wire x1="52" y1="57" x2="49" y2="54" width="0.1524" layer="20"/>
<wire x1="49" y1="54" x2="49" y2="20" width="0.1524" layer="20"/>
<wire x1="49" y1="20" x2="48" y2="19" width="0.1524" layer="20"/>
<wire x1="48" y1="19" x2="45" y2="19" width="0.1524" layer="20"/>
<wire x1="45" y1="19" x2="44" y2="18" width="0.1524" layer="20"/>
<wire x1="44" y1="18" x2="44" y2="8" width="0.1524" layer="20"/>
<wire x1="44" y1="8" x2="43" y2="7" width="0.1524" layer="20"/>
<wire x1="43" y1="7" x2="30" y2="7" width="0.1524" layer="20"/>
<wire x1="30" y1="7" x2="23" y2="0" width="0.1524" layer="20"/>
<wire x1="23" y1="0" x2="21" y2="0" width="0.1524" layer="20"/>
<wire x1="18" y1="55" x2="36" y2="55" width="0.1524" layer="20"/>
<wire x1="36" y1="55" x2="37" y2="54" width="0.1524" layer="20"/>
<wire x1="37" y1="54" x2="37" y2="46" width="0.1524" layer="20"/>
<wire x1="37" y1="46" x2="34" y2="46" width="0.1524" layer="20"/>
<wire x1="34" y1="46" x2="33" y2="45" width="0.1524" layer="20"/>
<wire x1="33" y1="45" x2="22" y2="45" width="0.1524" layer="20"/>
<wire x1="22" y1="45" x2="21" y2="46" width="0.1524" layer="20"/>
<wire x1="21" y1="46" x2="18" y2="46" width="0.1524" layer="20"/>
<wire x1="18" y1="46" x2="17" y2="47" width="0.1524" layer="20"/>
<wire x1="17" y1="47" x2="17" y2="54" width="0.1524" layer="20"/>
<wire x1="17" y1="54" x2="18" y2="55" width="0.1524" layer="20"/>
</plain>
<libraries>
<library name="adafruit">
<packages>
<package name="SOT23">
<description>&lt;b&gt;SOT-23&lt;/b&gt;</description>
<wire x1="1.4224" y1="0.6604" x2="1.4224" y2="-0.6604" width="0.1524" layer="51"/>
<wire x1="1.4224" y1="-0.6604" x2="-1.4224" y2="-0.6604" width="0.1524" layer="51"/>
<wire x1="-1.4224" y1="-0.6604" x2="-1.4224" y2="0.6604" width="0.1524" layer="51"/>
<wire x1="-1.4224" y1="0.6604" x2="1.4224" y2="0.6604" width="0.1524" layer="51"/>
<smd name="3" x="0" y="1.1" dx="1" dy="1.4" layer="1"/>
<smd name="2" x="0.95" y="-1.1" dx="1" dy="1.4" layer="1"/>
<smd name="1" x="-0.95" y="-1.1" dx="1" dy="1.4" layer="1"/>
<text x="-1.905" y="1.905" size="1.27" layer="25">&gt;NAME</text>
<text x="-1.905" y="-3.175" size="1.27" layer="27">&gt;VALUE</text>
<rectangle x1="-0.2286" y1="0.7112" x2="0.2286" y2="1.2954" layer="51"/>
<rectangle x1="0.7112" y1="-1.2954" x2="1.1684" y2="-0.7112" layer="51"/>
<rectangle x1="-1.1684" y1="-1.2954" x2="-0.7112" y2="-0.7112" layer="51"/>
</package>
<package name="PNA460XM">
<wire x1="-3.81" y1="-1.27" x2="-2.54" y2="-1.27" width="0.127" layer="21"/>
<wire x1="-2.54" y1="-1.27" x2="2.54" y2="-1.27" width="0.4064" layer="21"/>
<wire x1="2.54" y1="-1.27" x2="3.81" y2="-1.27" width="0.127" layer="21"/>
<wire x1="3.81" y1="-1.27" x2="3.81" y2="1.27" width="0.127" layer="21"/>
<wire x1="3.81" y1="1.27" x2="-3.81" y2="1.27" width="0.127" layer="21"/>
<wire x1="-3.81" y1="1.27" x2="-3.81" y2="-1.27" width="0.127" layer="21"/>
<wire x1="2.54" y1="-1.27" x2="-2.54" y2="-1.27" width="0.4064" layer="21" curve="-112.624029"/>
<pad name="1" x="-2.54" y="0" drill="1.016" diameter="1.9304" shape="square" rot="R90"/>
<pad name="2" x="0" y="0" drill="1.016" diameter="1.9304" rot="R90"/>
<pad name="3" x="2.54" y="0" drill="1.016" diameter="1.9304" rot="R90"/>
<text x="-3.8862" y="1.8288" size="1.27" layer="25" ratio="10">&gt;NAME</text>
<rectangle x1="2.286" y1="-0.254" x2="2.794" y2="0.254" layer="51"/>
<rectangle x1="-0.254" y1="-0.254" x2="0.254" y2="0.254" layer="51"/>
<rectangle x1="-2.794" y1="-0.254" x2="-2.286" y2="0.254" layer="51"/>
</package>
<package name="0204/5">
<description>&lt;b&gt;RESISTOR&lt;/b&gt;&lt;p&gt;
type 0204, grid 5 mm</description>
<wire x1="2.54" y1="0" x2="2.032" y2="0" width="0.508" layer="51"/>
<wire x1="-2.54" y1="0" x2="-2.032" y2="0" width="0.508" layer="51"/>
<wire x1="-1.778" y1="0.635" x2="-1.524" y2="0.889" width="0.1524" layer="21" curve="-90" cap="flat"/>
<wire x1="-1.778" y1="-0.635" x2="-1.524" y2="-0.889" width="0.1524" layer="21" curve="90" cap="flat"/>
<wire x1="1.524" y1="-0.889" x2="1.778" y2="-0.635" width="0.1524" layer="21" curve="90" cap="flat"/>
<wire x1="1.524" y1="0.889" x2="1.778" y2="0.635" width="0.1524" layer="21" curve="-90" cap="flat"/>
<wire x1="-1.778" y1="-0.635" x2="-1.778" y2="0.635" width="0.1524" layer="51"/>
<wire x1="-1.524" y1="0.889" x2="-1.27" y2="0.889" width="0.1524" layer="21"/>
<wire x1="-1.143" y1="0.762" x2="-1.27" y2="0.889" width="0.1524" layer="21"/>
<wire x1="-1.524" y1="-0.889" x2="-1.27" y2="-0.889" width="0.1524" layer="21"/>
<wire x1="-1.143" y1="-0.762" x2="-1.27" y2="-0.889" width="0.1524" layer="21"/>
<wire x1="1.143" y1="0.762" x2="1.27" y2="0.889" width="0.1524" layer="21"/>
<wire x1="1.143" y1="0.762" x2="-1.143" y2="0.762" width="0.1524" layer="21"/>
<wire x1="1.143" y1="-0.762" x2="1.27" y2="-0.889" width="0.1524" layer="21"/>
<wire x1="1.143" y1="-0.762" x2="-1.143" y2="-0.762" width="0.1524" layer="21"/>
<wire x1="1.524" y1="0.889" x2="1.27" y2="0.889" width="0.1524" layer="21"/>
<wire x1="1.524" y1="-0.889" x2="1.27" y2="-0.889" width="0.1524" layer="21"/>
<wire x1="1.778" y1="-0.635" x2="1.778" y2="0.635" width="0.1524" layer="51"/>
<pad name="1" x="-2.54" y="0" drill="0.8128" diameter="1.6764" shape="octagon"/>
<pad name="2" x="2.54" y="0" drill="0.8128" diameter="1.6764" shape="octagon"/>
<text x="-2.0066" y="1.1684" size="0.9906" layer="25" ratio="12">&gt;NAME</text>
<text x="-2.1336" y="-2.3114" size="0.9906" layer="27" ratio="12">&gt;VALUE</text>
<rectangle x1="-2.032" y1="-0.254" x2="-1.778" y2="0.254" layer="51"/>
<rectangle x1="1.778" y1="-0.254" x2="2.032" y2="0.254" layer="51"/>
</package>
</packages>
</library>
<library name="RHD2000_eval_board">
<description>Intan Technologies RHD2000 Eval Board</description>
<packages>
<package name="1206">
<wire x1="-1.5494" y1="0.8128" x2="1.5494" y2="0.8128" width="0.1016" layer="51"/>
<wire x1="1.5494" y1="-0.8128" x2="-1.5494" y2="-0.8128" width="0.1016" layer="51"/>
<wire x1="-2.54" y1="1.27" x2="2.54" y2="1.27" width="0.127" layer="21"/>
<wire x1="2.54" y1="1.27" x2="2.54" y2="-1.27" width="0.127" layer="21"/>
<wire x1="2.54" y1="-1.27" x2="-2.54" y2="-1.27" width="0.127" layer="21"/>
<wire x1="-2.54" y1="-1.27" x2="-2.54" y2="1.27" width="0.127" layer="21"/>
<smd name="1" x="-1.651" y="0" dx="1.2192" dy="1.8796" layer="1"/>
<smd name="2" x="1.651" y="0" dx="1.2192" dy="1.8796" layer="1"/>
<text x="-2.54" y="1.524" size="1.016" layer="25" font="vector">&gt;NAME</text>
<text x="-2.54" y="-2.54" size="1.016" layer="27" font="vector">&gt;VALUE</text>
<rectangle x1="-1.6002" y1="-0.8128" x2="-1.0922" y2="0.8128" layer="51"/>
<rectangle x1="1.0922" y1="-0.8128" x2="1.6002" y2="0.8128" layer="51"/>
</package>
</packages>
</library>
<library name="SparkFun-Switches">
<description>&lt;h3&gt;SparkFun Switches, Buttons, Encoders&lt;/h3&gt;
In this library you'll find switches, buttons, joysticks, and anything that moves to create or disrupt an electrical connection.
&lt;br&gt;
&lt;br&gt;
We've spent an enormous amount of time creating and checking these footprints and parts, but it is &lt;b&gt; the end user's responsibility&lt;/b&gt; to ensure correctness and suitablity for a given componet or application. 
&lt;br&gt;
&lt;br&gt;If you enjoy using this library, please buy one of our products at &lt;a href=" www.sparkfun.com"&gt;SparkFun.com&lt;/a&gt;.
&lt;br&gt;
&lt;br&gt;
&lt;b&gt;Licensing:&lt;/b&gt; Creative Commons ShareAlike 4.0 International - https://creativecommons.org/licenses/by-sa/4.0/ 
&lt;br&gt;
&lt;br&gt;
You are welcome to use this library for commercial purposes. For attribution, we ask that when you begin to sell your device using our footprint, you email us with a link to the product being sold. We want bragging rights that we helped (in a very small part) to create your 8th world wonder. We would like the opportunity to feature your device on our homepage.</description>
<packages>
<package name="TACTILE_SWITCH_SMD_6.0X3.5MM">
<description>&lt;h3&gt;Momentary Switch (Pushbutton) - SPST - SMD, 6.0 x 3.5 mm&lt;/h3&gt;
&lt;p&gt;Normally-open (NO) SPST momentary switches (buttons, pushbuttons).&lt;/p&gt;
&lt;p&gt;&lt;a href="https://www.sparkfun.com/datasheets/Components/1101.pdf"&gt;Datasheet&lt;/a&gt;&lt;/p&gt;</description>
<wire x1="-3" y1="1.1" x2="-3" y2="-1.1" width="0.127" layer="51"/>
<wire x1="3" y1="1.1" x2="3" y2="-1.1" width="0.127" layer="51"/>
<wire x1="-2.75" y1="1.75" x2="-3" y2="1.5" width="0.2032" layer="21" curve="90"/>
<wire x1="-2.75" y1="1.75" x2="2.75" y2="1.75" width="0.2032" layer="21"/>
<wire x1="2.75" y1="1.75" x2="3" y2="1.5" width="0.2032" layer="21" curve="-90"/>
<wire x1="3" y1="-1.5" x2="2.75" y2="-1.75" width="0.2032" layer="21" curve="-90"/>
<wire x1="2.75" y1="-1.75" x2="-2.75" y2="-1.75" width="0.2032" layer="21"/>
<wire x1="-3" y1="-1.5" x2="-2.75" y2="-1.75" width="0.2032" layer="21" curve="90"/>
<wire x1="-3" y1="-1.5" x2="-3" y2="-1.1" width="0.2032" layer="21"/>
<wire x1="-3" y1="1.1" x2="-3" y2="1.5" width="0.2032" layer="21"/>
<wire x1="3" y1="1.1" x2="3" y2="1.5" width="0.2032" layer="21"/>
<wire x1="3" y1="-1.5" x2="3" y2="-1.1" width="0.2032" layer="21"/>
<wire x1="-1.5" y1="0.75" x2="1.5" y2="0.75" width="0.2032" layer="21"/>
<wire x1="1.5" y1="-0.75" x2="-1.5" y2="-0.75" width="0.2032" layer="21"/>
<wire x1="-1.5" y1="-0.75" x2="-1.5" y2="0.75" width="0.2032" layer="21"/>
<wire x1="1.5" y1="-0.75" x2="1.5" y2="0.75" width="0.2032" layer="21"/>
<wire x1="-2" y1="0" x2="-1" y2="0" width="0.127" layer="51"/>
<wire x1="-1" y1="0" x2="0.1" y2="0.5" width="0.127" layer="51"/>
<wire x1="0.3" y1="0" x2="2" y2="0" width="0.127" layer="51"/>
<smd name="1" x="-3.15" y="0" dx="2.3" dy="1.6" layer="1" rot="R180"/>
<smd name="2" x="3.15" y="0" dx="2.3" dy="1.6" layer="1" rot="R180"/>
<text x="0" y="1.905" size="0.6096" layer="25" font="vector" ratio="20" align="bottom-center">&gt;Name</text>
<text x="0" y="-1.905" size="0.6096" layer="27" font="vector" ratio="20" align="top-center">&gt;Value</text>
</package>
</packages>
</library>
<library name="esp8266modules">
<packages>
<package name="ESP12E-SMD">
<description>ESP8266 Module 12E</description>
<wire x1="7.9" y1="14.2" x2="7.9" y2="6.9" width="0.127" layer="21"/>
<wire x1="-8.1" y1="6.9" x2="-8.1" y2="14.2" width="0.127" layer="21"/>
<wire x1="-8.1" y1="14.2" x2="7.9" y2="14.2" width="0.127" layer="21"/>
<wire x1="-4.9" y1="8.6" x2="-4.9" y2="13.5" width="0.6096" layer="21"/>
<wire x1="-4.9" y1="13.5" x2="-4" y2="13.5" width="0.6096" layer="21"/>
<wire x1="-4" y1="13.5" x2="-4" y2="9.8" width="0.6096" layer="21"/>
<wire x1="-4" y1="9.8" x2="-3" y2="9.8" width="0.6096" layer="21"/>
<wire x1="-3" y1="9.8" x2="-3" y2="13.4" width="0.6096" layer="21"/>
<wire x1="-3" y1="13.4" x2="-1.8" y2="13.4" width="0.6096" layer="21"/>
<wire x1="-1.8" y1="13.4" x2="-1.8" y2="9.8" width="0.6096" layer="21"/>
<wire x1="-1.8" y1="9.8" x2="-0.6" y2="9.8" width="0.6096" layer="21"/>
<wire x1="-0.6" y1="9.8" x2="-0.6" y2="13.4" width="0.6096" layer="21"/>
<wire x1="-0.6" y1="13.4" x2="0.5" y2="13.4" width="0.6096" layer="21"/>
<wire x1="0.5" y1="13.4" x2="0.5" y2="9.9" width="0.6096" layer="21"/>
<wire x1="0.5" y1="9.9" x2="1.6" y2="9.9" width="0.6096" layer="21"/>
<wire x1="1.6" y1="9.9" x2="1.6" y2="13.4" width="0.6096" layer="21"/>
<wire x1="1.6" y1="13.4" x2="5.6" y2="13.4" width="0.6096" layer="21"/>
<wire x1="-4.9" y1="8.5" x2="-4.9" y2="7.9" width="0.6096" layer="21"/>
<wire x1="-4.9" y1="7.9" x2="1.6" y2="7.9" width="0.6096" layer="21"/>
<text x="0" y="3" size="1.4224" layer="21" align="bottom-center">ESP - 12E</text>
<text x="-7.7" y="-11.9" size="1.4224" layer="27">&gt;Value</text>
<text x="-7.7" y="15.1" size="1.4224" layer="25">&gt;Name</text>
<smd name="RESET" x="-8.3" y="5.8" dx="3" dy="1.2" layer="1"/>
<smd name="ADC" x="-8.3" y="3.8" dx="3" dy="1.2" layer="1"/>
<smd name="CH_PD" x="-8.3" y="1.8" dx="3" dy="1.2" layer="1"/>
<smd name="GPIO16" x="-8.3" y="-0.2" dx="3" dy="1.2" layer="1"/>
<smd name="GPIO14" x="-8.3" y="-2.2" dx="3" dy="1.2" layer="1"/>
<smd name="GPIO12" x="-8.3" y="-4.2" dx="3" dy="1.2" layer="1"/>
<smd name="GPIO13" x="-8.3" y="-6.2" dx="3" dy="1.2" layer="1"/>
<smd name="VCC" x="-8.3" y="-8.2" dx="3" dy="1.2" layer="1"/>
<smd name="TXD0" x="8.1" y="5.8" dx="3" dy="1.2" layer="1"/>
<smd name="RXD0" x="8.1" y="3.8" dx="3" dy="1.2" layer="1"/>
<smd name="GPIO4" x="8.1" y="-0.2" dx="3" dy="1.2" layer="1"/>
<smd name="GPIO5" x="8.1" y="1.8" dx="3" dy="1.2" layer="1"/>
<smd name="GPIO0" x="8.1" y="-2.2" dx="3" dy="1.2" layer="1"/>
<smd name="GPIO2" x="8.1" y="-4.2" dx="3" dy="1.2" layer="1"/>
<smd name="GPIO15" x="8.1" y="-6.2" dx="3" dy="1.2" layer="1"/>
<smd name="GND" x="8.1" y="-8.2" dx="3" dy="1.2" layer="1"/>
<smd name="MOSI" x="3.2" y="-10.3" dx="3" dy="1.2" layer="1" rot="R90"/>
<smd name="GPIO10" x="1.2" y="-10.3" dx="3" dy="1.2" layer="1" rot="R90"/>
<smd name="GPIO9" x="-0.8" y="-10.3" dx="3" dy="1.2" layer="1" rot="R90"/>
<smd name="MISO" x="-2.8" y="-10.3" dx="3" dy="1.2" layer="1" rot="R90"/>
<smd name="CS0" x="-4.8" y="-10.3" dx="3" dy="1.2" layer="1" rot="R90"/>
<smd name="SCLK" x="5.2" y="-10.3" dx="3" dy="1.2" layer="1" rot="R90"/>
<wire x1="-5.8" y1="-9.8" x2="-8.1" y2="-9.8" width="0.127" layer="21"/>
<wire x1="7.9" y1="-9.8" x2="6.2" y2="-9.8" width="0.127" layer="21"/>
</package>
</packages>
</library>
<library name="ams1117-3.3v">
<description>&lt;1A LOW DROPOUT VOLTAGE REGULATOR, SOT-223&lt;/b&gt;&lt;p&gt;
&lt;author&gt;Created by SamacSys&lt;/author&gt;</description>
<packages>
<package name="SOT229P700X180-4N">
<description>&lt;b&gt;3 Lead SOT-223 Plastic Package&lt;/b&gt;&lt;br&gt;
</description>
<smd name="1" x="-3.35" y="2.29" dx="1.3" dy="0.95" layer="1"/>
<smd name="2" x="-3.35" y="0" dx="1.3" dy="0.95" layer="1"/>
<smd name="3" x="-3.35" y="-2.29" dx="1.3" dy="0.95" layer="1"/>
<smd name="4" x="3.35" y="0" dx="3.25" dy="1.3" layer="1" rot="R90"/>
<text x="0" y="0" size="1.27" layer="25" align="center">&gt;NAME</text>
<text x="0" y="0" size="1.27" layer="27" align="center">&gt;VALUE</text>
<wire x1="-4.25" y1="3.605" x2="4.25" y2="3.605" width="0.05" layer="51"/>
<wire x1="4.25" y1="3.605" x2="4.25" y2="-3.605" width="0.05" layer="51"/>
<wire x1="4.25" y1="-3.605" x2="-4.25" y2="-3.605" width="0.05" layer="51"/>
<wire x1="-4.25" y1="-3.605" x2="-4.25" y2="3.605" width="0.05" layer="51"/>
<wire x1="-1.752" y1="3.252" x2="1.752" y2="3.252" width="0.1" layer="51"/>
<wire x1="1.752" y1="3.252" x2="1.752" y2="-3.252" width="0.1" layer="51"/>
<wire x1="1.752" y1="-3.252" x2="-1.752" y2="-3.252" width="0.1" layer="51"/>
<wire x1="-1.752" y1="-3.252" x2="-1.752" y2="3.252" width="0.1" layer="51"/>
<wire x1="-1.752" y1="0.962" x2="0.538" y2="3.252" width="0.1" layer="51"/>
<wire x1="-1.752" y1="3.252" x2="1.752" y2="3.252" width="0.2" layer="21"/>
<wire x1="1.752" y1="3.252" x2="1.752" y2="-3.252" width="0.2" layer="21"/>
<wire x1="1.752" y1="-3.252" x2="-1.752" y2="-3.252" width="0.2" layer="21"/>
<wire x1="-1.752" y1="-3.252" x2="-1.752" y2="3.252" width="0.2" layer="21"/>
<wire x1="-4" y1="3.115" x2="-2.7" y2="3.115" width="0.2" layer="21"/>
</package>
</packages>
</library>
<library name="con-lstb" urn="urn:adsk.eagle:library:162">
<description>&lt;b&gt;Pin Headers&lt;/b&gt;&lt;p&gt;
Naming:&lt;p&gt;
MA = male&lt;p&gt;
# contacts - # rows&lt;p&gt;
W = angled&lt;p&gt;
&lt;author&gt;Created by librarian@cadsoft.de&lt;/author&gt;</description>
<packages>
<package name="MA04-1" urn="urn:adsk.eagle:footprint:8285/1" library_version="1">
<description>&lt;b&gt;PIN HEADER&lt;/b&gt;</description>
<wire x1="-4.445" y1="1.27" x2="-3.175" y2="1.27" width="0.1524" layer="21"/>
<wire x1="-3.175" y1="1.27" x2="-2.54" y2="0.635" width="0.1524" layer="21"/>
<wire x1="-2.54" y1="-0.635" x2="-3.175" y2="-1.27" width="0.1524" layer="21"/>
<wire x1="-2.54" y1="0.635" x2="-1.905" y2="1.27" width="0.1524" layer="21"/>
<wire x1="-1.905" y1="1.27" x2="-0.635" y2="1.27" width="0.1524" layer="21"/>
<wire x1="-0.635" y1="1.27" x2="0" y2="0.635" width="0.1524" layer="21"/>
<wire x1="0" y1="-0.635" x2="-0.635" y2="-1.27" width="0.1524" layer="21"/>
<wire x1="-0.635" y1="-1.27" x2="-1.905" y2="-1.27" width="0.1524" layer="21"/>
<wire x1="-1.905" y1="-1.27" x2="-2.54" y2="-0.635" width="0.1524" layer="21"/>
<wire x1="-5.08" y1="0.635" x2="-5.08" y2="-0.635" width="0.1524" layer="21"/>
<wire x1="-4.445" y1="1.27" x2="-5.08" y2="0.635" width="0.1524" layer="21"/>
<wire x1="-5.08" y1="-0.635" x2="-4.445" y2="-1.27" width="0.1524" layer="21"/>
<wire x1="-3.175" y1="-1.27" x2="-4.445" y2="-1.27" width="0.1524" layer="21"/>
<wire x1="0" y1="0.635" x2="0.635" y2="1.27" width="0.1524" layer="21"/>
<wire x1="0.635" y1="1.27" x2="1.905" y2="1.27" width="0.1524" layer="21"/>
<wire x1="1.905" y1="1.27" x2="2.54" y2="0.635" width="0.1524" layer="21"/>
<wire x1="2.54" y1="-0.635" x2="1.905" y2="-1.27" width="0.1524" layer="21"/>
<wire x1="1.905" y1="-1.27" x2="0.635" y2="-1.27" width="0.1524" layer="21"/>
<wire x1="0.635" y1="-1.27" x2="0" y2="-0.635" width="0.1524" layer="21"/>
<wire x1="3.175" y1="1.27" x2="4.445" y2="1.27" width="0.1524" layer="21"/>
<wire x1="4.445" y1="1.27" x2="5.08" y2="0.635" width="0.1524" layer="21"/>
<wire x1="5.08" y1="0.635" x2="5.08" y2="-0.635" width="0.1524" layer="21"/>
<wire x1="5.08" y1="-0.635" x2="4.445" y2="-1.27" width="0.1524" layer="21"/>
<wire x1="3.175" y1="1.27" x2="2.54" y2="0.635" width="0.1524" layer="21"/>
<wire x1="2.54" y1="-0.635" x2="3.175" y2="-1.27" width="0.1524" layer="21"/>
<wire x1="4.445" y1="-1.27" x2="3.175" y2="-1.27" width="0.1524" layer="21"/>
<pad name="1" x="-3.81" y="0" drill="1.016" shape="long" rot="R90"/>
<pad name="2" x="-1.27" y="0" drill="1.016" shape="long" rot="R90"/>
<pad name="3" x="1.27" y="0" drill="1.016" shape="long" rot="R90"/>
<pad name="4" x="3.81" y="0" drill="1.016" shape="long" rot="R90"/>
<text x="-5.08" y="1.651" size="1.27" layer="25" ratio="10">&gt;NAME</text>
<text x="-6.223" y="-0.635" size="1.27" layer="21" ratio="10">1</text>
<text x="0.635" y="1.651" size="1.27" layer="27" ratio="10">&gt;VALUE</text>
<text x="5.334" y="-0.635" size="1.27" layer="21" ratio="10">4</text>
<rectangle x1="-1.524" y1="-0.254" x2="-1.016" y2="0.254" layer="51"/>
<rectangle x1="-4.064" y1="-0.254" x2="-3.556" y2="0.254" layer="51"/>
<rectangle x1="1.016" y1="-0.254" x2="1.524" y2="0.254" layer="51"/>
<rectangle x1="3.556" y1="-0.254" x2="4.064" y2="0.254" layer="51"/>
</package>
</packages>
<packages3d>
<package3d name="MA04-1" urn="urn:adsk.eagle:package:8337/1" type="box" library_version="1">
<description>PIN HEADER</description>
<packageinstances>
<packageinstance name="MA04-1"/>
</packageinstances>
</package3d>
</packages3d>
</library>
<library name="RepRapjr">
<packages>
<package name="LED5MM">
<description>&lt;B&gt;LED&lt;/B&gt;&lt;p&gt;
5 mm, round</description>
<wire x1="2.54" y1="-1.905" x2="2.54" y2="1.905" width="0.2032" layer="21"/>
<wire x1="2.54" y1="-1.905" x2="2.54" y2="1.905" width="0.254" layer="21" curve="-286.260205"/>
<wire x1="-1.143" y1="0" x2="0" y2="1.143" width="0.1524" layer="51" curve="-90"/>
<wire x1="0" y1="-1.143" x2="1.143" y2="0" width="0.1524" layer="51" curve="90"/>
<wire x1="-1.651" y1="0" x2="0" y2="1.651" width="0.1524" layer="51" curve="-90"/>
<wire x1="0" y1="-1.651" x2="1.651" y2="0" width="0.1524" layer="51" curve="90"/>
<wire x1="-2.159" y1="0" x2="0" y2="2.159" width="0.1524" layer="51" curve="-90"/>
<wire x1="0" y1="-2.159" x2="2.159" y2="0" width="0.1524" layer="51" curve="90"/>
<circle x="0" y="0" radius="2.54" width="0.1524" layer="21"/>
<pad name="A" x="-1.27" y="0" drill="0.8128" shape="octagon"/>
<pad name="K" x="1.27" y="0" drill="0.8128" shape="octagon"/>
<text x="3.175" y="0.5334" size="1.27" layer="25" ratio="10">&gt;NAME</text>
<text x="3.2004" y="-1.8034" size="1.27" layer="27" ratio="10">&gt;VALUE</text>
</package>
</packages>
</library>
<library name="HLK-PM01">
<description>&lt;h5&gt;Hi-Link Power Supply&lt;/h5&gt;
&lt;br/&gt;

HLK-PM01 3W
&lt;br /&gt;
&lt;br/&gt;
Author: &lt;a href="https://github.com/AhmedSaid/EAGLELibraries"&gt;Ahmed Said&lt;/a&gt;</description>
<packages>
<package name="HLK-PM01">
<description>&lt;h5&gt;Hi-Link Power Supply&lt;/h5&gt;
&lt;br/&gt;

HLK-PM01 3W
&lt;br /&gt;
&lt;br/&gt;
Author: &lt;a href="https://github.com/AhmedSaid/EAGLELibraries"&gt;Ahmed Said&lt;/a&gt;</description>
<wire x1="-17" y1="10.1" x2="17" y2="10.1" width="0.127" layer="51"/>
<wire x1="17" y1="10.1" x2="17" y2="-10.1" width="0.127" layer="51"/>
<wire x1="17" y1="-10.1" x2="-17" y2="-10.1" width="0.127" layer="51"/>
<wire x1="-17" y1="-10.1" x2="-17" y2="10.1" width="0.127" layer="51"/>
<pad name="P$1" x="-14.7" y="2.5" drill="1.016" shape="square"/>
<pad name="P$2" x="-14.7" y="-2.5" drill="1.016" shape="square"/>
<pad name="P$3" x="14.7" y="7.7" drill="1.016" shape="square"/>
<pad name="P$4" x="14.7" y="-7.7" drill="1.016" shape="square"/>
<text x="-15.24" y="7.62" size="1.27" layer="21">&gt;NAME</text>
</package>
</packages>
</library>
<library name="relay">
<description>&lt;b&gt;Relays&lt;/b&gt;&lt;p&gt;
&lt;ul&gt;
&lt;li&gt;Eichhoff
&lt;li&gt;Finder
&lt;li&gt;Fujitsu
&lt;li&gt;HAMLIN
&lt;li&gt;OMRON
&lt;li&gt;Matsushita
&lt;li&gt;NAiS
&lt;li&gt;Siemens
&lt;li&gt;Schrack
&lt;/ul&gt;
&lt;author&gt;Created by librarian@cadsoft.de&lt;/author&gt;</description>
<packages>
<package name="M3XXH">
<description>&lt;b&gt;RELAY&lt;/b&gt;&lt;p&gt;
1 x switch</description>
<wire x1="-7.874" y1="5.461" x2="-6.985" y2="5.461" width="0.1524" layer="21"/>
<wire x1="-6.985" y1="5.461" x2="-5.715" y2="5.461" width="0.1524" layer="51"/>
<wire x1="-5.715" y1="5.461" x2="-4.445" y2="5.461" width="0.1524" layer="21"/>
<wire x1="-4.445" y1="5.461" x2="-3.175" y2="5.461" width="0.1524" layer="51"/>
<wire x1="-3.175" y1="5.461" x2="7.874" y2="5.461" width="0.1524" layer="21"/>
<wire x1="7.874" y1="-5.461" x2="7.874" y2="5.461" width="0.1524" layer="21"/>
<wire x1="7.874" y1="-5.461" x2="-3.175" y2="-5.461" width="0.1524" layer="21"/>
<wire x1="-3.175" y1="-5.461" x2="-4.445" y2="-5.461" width="0.1524" layer="51"/>
<wire x1="-4.445" y1="-5.461" x2="-5.715" y2="-5.461" width="0.1524" layer="21"/>
<wire x1="-5.715" y1="-5.461" x2="-6.985" y2="-5.461" width="0.1524" layer="51"/>
<wire x1="-6.985" y1="-5.461" x2="-7.874" y2="-5.461" width="0.1524" layer="21"/>
<wire x1="-7.874" y1="5.461" x2="-7.874" y2="-5.461" width="0.1524" layer="21"/>
<wire x1="6.35" y1="-2.286" x2="6.35" y2="0" width="0.1524" layer="21"/>
<wire x1="-5.334" y1="0" x2="-6.604" y2="-0.889" width="0.1524" layer="21"/>
<wire x1="-6.35" y1="-2.032" x2="-6.35" y2="-0.762" width="0.1524" layer="21"/>
<wire x1="-6.35" y1="2.032" x2="-6.35" y2="0.889" width="0.1524" layer="21"/>
<wire x1="-2.413" y1="-0.762" x2="-2.413" y2="-2.794" width="0.1524" layer="21"/>
<wire x1="1.27" y1="-2.794" x2="1.27" y2="-0.762" width="0.1524" layer="21"/>
<wire x1="1.27" y1="-0.762" x2="0.127" y2="-0.762" width="0.1524" layer="21"/>
<wire x1="-2.413" y1="3.81" x2="-0.508" y2="3.81" width="0.1524" layer="21"/>
<wire x1="-0.508" y1="-0.762" x2="-0.508" y2="3.81" width="0.1524" layer="21"/>
<wire x1="-0.508" y1="-0.762" x2="-2.413" y2="-0.762" width="0.1524" layer="21"/>
<wire x1="-0.508" y1="-2.794" x2="-0.508" y2="-3.81" width="0.1524" layer="21"/>
<wire x1="-0.508" y1="-2.794" x2="1.27" y2="-2.794" width="0.1524" layer="21"/>
<wire x1="-0.508" y1="-3.81" x2="-2.413" y2="-3.81" width="0.1524" layer="21"/>
<wire x1="-2.413" y1="-2.794" x2="-1.143" y2="-2.794" width="0.1524" layer="21"/>
<wire x1="-1.143" y1="-2.794" x2="-0.508" y2="-2.794" width="0.1524" layer="21"/>
<wire x1="0.127" y1="-0.762" x2="-1.143" y2="-2.794" width="0.1524" layer="21"/>
<wire x1="0.127" y1="-0.762" x2="-0.508" y2="-0.762" width="0.1524" layer="21"/>
<wire x1="-5.334" y1="0" x2="6.35" y2="0" width="0.1524" layer="21"/>
<wire x1="6.35" y1="0" x2="6.35" y2="2.286" width="0.1524" layer="21"/>
<circle x="6.35" y="0" radius="0.254" width="0.254" layer="21"/>
<pad name="P" x="6.35" y="-3.81" drill="1.016" shape="long" rot="R90"/>
<pad name="P@" x="6.35" y="3.81" drill="1.016" shape="long" rot="R90"/>
<pad name="2" x="-3.81" y="-3.81" drill="1.016" shape="long" rot="R90"/>
<pad name="O" x="-6.35" y="-3.81" drill="1.016" shape="long" rot="R90"/>
<pad name="S" x="-6.35" y="3.81" drill="1.016" shape="long" rot="R90"/>
<pad name="1" x="-3.81" y="3.81" drill="1.016" shape="long" rot="R90"/>
<text x="9.525" y="-5.461" size="1.27" layer="25" ratio="10" rot="R90">&gt;NAME</text>
<text x="-8.255" y="-5.461" size="1.27" layer="27" ratio="10" rot="R90">&gt;VALUE</text>
</package>
</packages>
</library>
<library name="led" urn="urn:adsk.eagle:library:259">
<description>&lt;b&gt;LEDs&lt;/b&gt;&lt;p&gt;
&lt;author&gt;Created by librarian@cadsoft.de&lt;/author&gt;&lt;br&gt;
Extended by Federico Battaglin &lt;author&gt;&amp;lt;federico.rd@fdpinternational.com&amp;gt;&lt;/author&gt; with DUOLED</description>
<packages>
<package name="SML0603" urn="urn:adsk.eagle:footprint:15685/1" library_version="5">
<description>&lt;b&gt;SML0603-XXX (HIGH INTENSITY) LED&lt;/b&gt;&lt;p&gt;
&lt;table&gt;
&lt;tr&gt;&lt;td&gt;AG3K&lt;/td&gt;&lt;td&gt;AQUA GREEN&lt;/td&gt;&lt;/tr&gt;
&lt;tr&gt;&lt;td&gt;B1K&lt;/td&gt;&lt;td&gt;SUPER BLUE&lt;/td&gt;&lt;/tr&gt;
&lt;tr&gt;&lt;td&gt;R1K&lt;/td&gt;&lt;td&gt;SUPER RED&lt;/td&gt;&lt;/tr&gt;
&lt;tr&gt;&lt;td&gt;R3K&lt;/td&gt;&lt;td&gt;ULTRA RED&lt;/td&gt;&lt;/tr&gt;
&lt;tr&gt;&lt;td&gt;O3K&lt;/td&gt;&lt;td&gt;SUPER ORANGE&lt;/td&gt;&lt;/tr&gt;
&lt;tr&gt;&lt;td&gt;O3KH&lt;/td&gt;&lt;td&gt;SOFT ORANGE&lt;/td&gt;&lt;/tr&gt;
&lt;tr&gt;&lt;td&gt;Y3KH&lt;/td&gt;&lt;td&gt;SUPER YELLOW&lt;/td&gt;&lt;/tr&gt;
&lt;tr&gt;&lt;td&gt;Y3K&lt;/td&gt;&lt;td&gt;SUPER YELLOW&lt;/td&gt;&lt;/tr&gt;
&lt;tr&gt;&lt;td&gt;2CW&lt;/td&gt;&lt;td&gt;WHITE&lt;/td&gt;&lt;/tr&gt;
&lt;/table&gt;
Source: http://www.ledtronics.com/ds/smd-0603/Dstr0092.pdf</description>
<wire x1="-0.75" y1="0.35" x2="0.75" y2="0.35" width="0.1016" layer="51"/>
<wire x1="0.75" y1="0.35" x2="0.75" y2="-0.35" width="0.1016" layer="51"/>
<wire x1="0.75" y1="-0.35" x2="-0.75" y2="-0.35" width="0.1016" layer="51"/>
<wire x1="-0.75" y1="-0.35" x2="-0.75" y2="0.35" width="0.1016" layer="51"/>
<wire x1="-0.45" y1="0.3" x2="-0.45" y2="-0.3" width="0.1016" layer="51"/>
<wire x1="0.45" y1="0.3" x2="0.45" y2="-0.3" width="0.1016" layer="51"/>
<wire x1="-0.2" y1="0.35" x2="0.2" y2="0.35" width="0.1016" layer="21"/>
<wire x1="-0.2" y1="-0.35" x2="0.2" y2="-0.35" width="0.1016" layer="21"/>
<smd name="C" x="-0.75" y="0" dx="0.8" dy="0.8" layer="1"/>
<smd name="A" x="0.75" y="0" dx="0.8" dy="0.8" layer="1"/>
<text x="-1" y="1" size="1.27" layer="25">&gt;NAME</text>
<text x="-1" y="-2" size="1.27" layer="27">&gt;VALUE</text>
<rectangle x1="-0.4" y1="0.175" x2="0" y2="0.4" layer="51"/>
<rectangle x1="-0.25" y1="0.175" x2="0" y2="0.4" layer="21"/>
</package>
</packages>
<packages3d>
<package3d name="SML0603" urn="urn:adsk.eagle:package:15832/1" type="box" library_version="5">
<description>SML0603-XXX (HIGH INTENSITY) LED

AG3KAQUA GREEN
B1KSUPER BLUE
R1KSUPER RED
R3KULTRA RED
O3KSUPER ORANGE
O3KHSOFT ORANGE
Y3KHSUPER YELLOW
Y3KSUPER YELLOW
2CWWHITE

Source: http://www.ledtronics.com/ds/smd-0603/Dstr0092.pdf</description>
<packageinstances>
<packageinstance name="SML0603"/>
</packageinstances>
</package3d>
</packages3d>
</library>
<library name="con-wago-500" urn="urn:adsk.eagle:library:195">
<description>&lt;b&gt;Wago Screw Clamps&lt;/b&gt;&lt;p&gt;
Grid 5.00 mm&lt;p&gt;
&lt;author&gt;Created by librarian@cadsoft.de&lt;/author&gt;</description>
<packages>
<package name="W237-102" urn="urn:adsk.eagle:footprint:10676/1" library_version="2">
<description>&lt;b&gt;WAGO SCREW CLAMP&lt;/b&gt;</description>
<wire x1="-3.491" y1="-2.286" x2="-1.484" y2="-0.279" width="0.254" layer="51"/>
<wire x1="1.488" y1="-2.261" x2="3.469" y2="-0.254" width="0.254" layer="51"/>
<wire x1="-4.989" y1="-5.461" x2="4.993" y2="-5.461" width="0.1524" layer="21"/>
<wire x1="4.993" y1="3.734" x2="4.993" y2="3.531" width="0.1524" layer="21"/>
<wire x1="4.993" y1="3.734" x2="-4.989" y2="3.734" width="0.1524" layer="21"/>
<wire x1="-4.989" y1="-5.461" x2="-4.989" y2="-3.073" width="0.1524" layer="21"/>
<wire x1="-4.989" y1="-3.073" x2="-3.389" y2="-3.073" width="0.1524" layer="21"/>
<wire x1="-3.389" y1="-3.073" x2="-1.611" y2="-3.073" width="0.1524" layer="51"/>
<wire x1="-1.611" y1="-3.073" x2="1.615" y2="-3.073" width="0.1524" layer="21"/>
<wire x1="3.393" y1="-3.073" x2="4.993" y2="-3.073" width="0.1524" layer="21"/>
<wire x1="-4.989" y1="-3.073" x2="-4.989" y2="3.531" width="0.1524" layer="21"/>
<wire x1="4.993" y1="-3.073" x2="4.993" y2="-5.461" width="0.1524" layer="21"/>
<wire x1="-4.989" y1="3.531" x2="4.993" y2="3.531" width="0.1524" layer="21"/>
<wire x1="-4.989" y1="3.531" x2="-4.989" y2="3.734" width="0.1524" layer="21"/>
<wire x1="4.993" y1="3.531" x2="4.993" y2="-3.073" width="0.1524" layer="21"/>
<wire x1="1.615" y1="-3.073" x2="3.393" y2="-3.073" width="0.1524" layer="51"/>
<circle x="-2.5" y="-1.27" radius="1.4986" width="0.1524" layer="51"/>
<circle x="-2.5" y="2.2098" radius="0.508" width="0.1524" layer="21"/>
<circle x="2.5038" y="-1.27" radius="1.4986" width="0.1524" layer="51"/>
<circle x="2.5038" y="2.2098" radius="0.508" width="0.1524" layer="21"/>
<pad name="1" x="-2.5" y="-1.27" drill="1.1938" shape="long" rot="R90"/>
<pad name="2" x="2.5" y="-1.27" drill="1.1938" shape="long" rot="R90"/>
<text x="-5.04" y="-7.62" size="1.27" layer="27" ratio="10">&gt;VALUE</text>
<text x="-3.8462" y="-5.0038" size="1.27" layer="25" ratio="10">&gt;NAME</text>
<text x="-4.532" y="0.635" size="1.27" layer="21" ratio="10">1</text>
<text x="0.421" y="0.635" size="1.27" layer="21" ratio="10">2</text>
</package>
</packages>
<packages3d>
<package3d name="W237-102" urn="urn:adsk.eagle:package:10688/1" type="box" library_version="2">
<description>WAGO SCREW CLAMP</description>
<packageinstances>
<packageinstance name="W237-102"/>
</packageinstances>
</package3d>
</packages3d>
</library>
</libraries>
<attributes>
</attributes>
<variantdefs>
</variantdefs>
<classes>
<class number="0" name="default" width="0" drill="0">
</class>
</classes>
<designrules name="default *">
<description language="de">&lt;b&gt;EAGLE Design Rules&lt;/b&gt;
&lt;p&gt;
Die Standard-Design-Rules sind so gewählt, dass sie für 
die meisten Anwendungen passen. Sollte ihre Platine 
besondere Anforderungen haben, treffen Sie die erforderlichen
Einstellungen hier und speichern die Design Rules unter 
einem neuen Namen ab.</description>
<description language="en">&lt;b&gt;EAGLE Design Rules&lt;/b&gt;
&lt;p&gt;
The default Design Rules have been set to cover
a wide range of applications. Your particular design
may have different requirements, so please make the
necessary adjustments and save your customized
design rules under a new name.</description>
<param name="layerSetup" value="(1*16)"/>
<param name="mtCopper" value="0.035mm 0.035mm 0.035mm 0.035mm 0.035mm 0.035mm 0.035mm 0.035mm 0.035mm 0.035mm 0.035mm 0.035mm 0.035mm 0.035mm 0.035mm 0.035mm"/>
<param name="mtIsolate" value="1.5mm 0.15mm 0.2mm 0.15mm 0.2mm 0.15mm 0.2mm 0.15mm 0.2mm 0.15mm 0.2mm 0.15mm 0.2mm 0.15mm 0.2mm"/>
<param name="mdWireWire" value="6mil"/>
<param name="mdWirePad" value="6mil"/>
<param name="mdWireVia" value="6mil"/>
<param name="mdPadPad" value="6mil"/>
<param name="mdPadVia" value="6mil"/>
<param name="mdViaVia" value="6mil"/>
<param name="mdSmdPad" value="6mil"/>
<param name="mdSmdVia" value="6mil"/>
<param name="mdSmdSmd" value="6mil"/>
<param name="mdViaViaSameLayer" value="6mil"/>
<param name="mnLayersViaInSmd" value="2"/>
<param name="mdCopperDimension" value="40mil"/>
<param name="mdDrill" value="6mil"/>
<param name="mdSmdStop" value="0mil"/>
<param name="msWidth" value="20mil"/>
<param name="msDrill" value="0.35mm"/>
<param name="msMicroVia" value="9.99mm"/>
<param name="msBlindViaRatio" value="0.5"/>
<param name="rvPadTop" value="0.25"/>
<param name="rvPadInner" value="0.25"/>
<param name="rvPadBottom" value="0.25"/>
<param name="rvViaOuter" value="0.25"/>
<param name="rvViaInner" value="0.25"/>
<param name="rvMicroViaOuter" value="0.25"/>
<param name="rvMicroViaInner" value="0.25"/>
<param name="rlMinPadTop" value="10mil"/>
<param name="rlMaxPadTop" value="20mil"/>
<param name="rlMinPadInner" value="10mil"/>
<param name="rlMaxPadInner" value="20mil"/>
<param name="rlMinPadBottom" value="10mil"/>
<param name="rlMaxPadBottom" value="20mil"/>
<param name="rlMinViaOuter" value="8mil"/>
<param name="rlMaxViaOuter" value="20mil"/>
<param name="rlMinViaInner" value="8mil"/>
<param name="rlMaxViaInner" value="20mil"/>
<param name="rlMinMicroViaOuter" value="4mil"/>
<param name="rlMaxMicroViaOuter" value="20mil"/>
<param name="rlMinMicroViaInner" value="4mil"/>
<param name="rlMaxMicroViaInner" value="20mil"/>
<param name="psTop" value="-1"/>
<param name="psBottom" value="-1"/>
<param name="psFirst" value="-1"/>
<param name="psElongationLong" value="100"/>
<param name="psElongationOffset" value="100"/>
<param name="mvStopFrame" value="1"/>
<param name="mvCreamFrame" value="0"/>
<param name="mlMinStopFrame" value="4mil"/>
<param name="mlMaxStopFrame" value="4mil"/>
<param name="mlMinCreamFrame" value="0mil"/>
<param name="mlMaxCreamFrame" value="0mil"/>
<param name="mlViaStopLimit" value="0mil"/>
<param name="srRoundness" value="0"/>
<param name="srMinRoundness" value="0mil"/>
<param name="srMaxRoundness" value="0mil"/>
<param name="slThermalIsolate" value="10mil"/>
<param name="slThermalsForVias" value="0"/>
<param name="dpMaxLengthDifference" value="10mm"/>
<param name="dpGapFactor" value="2.5"/>
<param name="checkAngle" value="0"/>
<param name="checkFont" value="1"/>
<param name="checkRestrict" value="1"/>
<param name="checkStop" value="0"/>
<param name="checkValues" value="0"/>
<param name="checkNames" value="1"/>
<param name="checkWireStubs" value="1"/>
<param name="checkPolygonWidth" value="0"/>
<param name="useDiameter" value="13"/>
<param name="maxErrors" value="50"/>
</designrules>
<autorouter>
<pass name="Default">
<param name="RoutingGrid" value="50mil"/>
<param name="AutoGrid" value="1"/>
<param name="Efforts" value="2"/>
<param name="TopRouterVariant" value="1"/>
<param name="tpViaShape" value="round"/>
<param name="PrefDir.1" value="a"/>
<param name="PrefDir.2" value="0"/>
<param name="PrefDir.3" value="0"/>
<param name="PrefDir.4" value="0"/>
<param name="PrefDir.5" value="0"/>
<param name="PrefDir.6" value="0"/>
<param name="PrefDir.7" value="0"/>
<param name="PrefDir.8" value="0"/>
<param name="PrefDir.9" value="0"/>
<param name="PrefDir.10" value="0"/>
<param name="PrefDir.11" value="0"/>
<param name="PrefDir.12" value="0"/>
<param name="PrefDir.13" value="0"/>
<param name="PrefDir.14" value="0"/>
<param name="PrefDir.15" value="0"/>
<param name="PrefDir.16" value="a"/>
<param name="cfVia" value="8"/>
<param name="cfNonPref" value="5"/>
<param name="cfChangeDir" value="2"/>
<param name="cfOrthStep" value="2"/>
<param name="cfDiagStep" value="3"/>
<param name="cfExtdStep" value="0"/>
<param name="cfBonusStep" value="1"/>
<param name="cfMalusStep" value="1"/>
<param name="cfPadImpact" value="4"/>
<param name="cfSmdImpact" value="4"/>
<param name="cfBusImpact" value="0"/>
<param name="cfHugging" value="3"/>
<param name="cfAvoid" value="4"/>
<param name="cfPolygon" value="10"/>
<param name="cfBase.1" value="0"/>
<param name="cfBase.2" value="1"/>
<param name="cfBase.3" value="1"/>
<param name="cfBase.4" value="1"/>
<param name="cfBase.5" value="1"/>
<param name="cfBase.6" value="1"/>
<param name="cfBase.7" value="1"/>
<param name="cfBase.8" value="1"/>
<param name="cfBase.9" value="1"/>
<param name="cfBase.10" value="1"/>
<param name="cfBase.11" value="1"/>
<param name="cfBase.12" value="1"/>
<param name="cfBase.13" value="1"/>
<param name="cfBase.14" value="1"/>
<param name="cfBase.15" value="1"/>
<param name="cfBase.16" value="0"/>
<param name="mnVias" value="20"/>
<param name="mnSegments" value="9999"/>
<param name="mnExtdSteps" value="9999"/>
<param name="mnRipupLevel" value="10"/>
<param name="mnRipupSteps" value="100"/>
<param name="mnRipupTotal" value="100"/>
</pass>
<pass name="Follow-me" refer="Default" active="yes">
</pass>
<pass name="Busses" refer="Default" active="yes">
<param name="cfNonPref" value="4"/>
<param name="cfBusImpact" value="4"/>
<param name="cfHugging" value="0"/>
<param name="mnVias" value="0"/>
</pass>
<pass name="Route" refer="Default" active="yes">
</pass>
<pass name="Optimize1" refer="Default" active="yes">
<param name="cfVia" value="99"/>
<param name="cfExtdStep" value="10"/>
<param name="cfHugging" value="1"/>
<param name="mnExtdSteps" value="1"/>
<param name="mnRipupLevel" value="0"/>
</pass>
<pass name="Optimize2" refer="Optimize1" active="yes">
<param name="cfNonPref" value="0"/>
<param name="cfChangeDir" value="6"/>
<param name="cfExtdStep" value="0"/>
<param name="cfBonusStep" value="2"/>
<param name="cfMalusStep" value="2"/>
<param name="cfPadImpact" value="2"/>
<param name="cfSmdImpact" value="2"/>
<param name="cfHugging" value="0"/>
</pass>
<pass name="Optimize3" refer="Optimize2" active="yes">
<param name="cfChangeDir" value="8"/>
<param name="cfPadImpact" value="0"/>
<param name="cfSmdImpact" value="0"/>
</pass>
<pass name="Optimize4" refer="Optimize3" active="yes">
<param name="cfChangeDir" value="25"/>
</pass>
</autorouter>
<elements>
<element name="Q1" library="adafruit" package="SOT23" value="" x="19.82" y="27.01" smashed="yes" rot="MR0">
<attribute name="NAME" x="21.725" y="28.915" size="1.27" layer="26" rot="MR0"/>
<attribute name="VALUE" x="21.725" y="23.835" size="1.27" layer="28" rot="MR0"/>
</element>
<element name="U$1" library="adafruit" package="PNA460XM" value="PNA460XM" x="8.89" y="23.17" smashed="yes" rot="R295.3">
<attribute name="NAME" x="8.8825875" y="27.464996875" size="1.27" layer="25" ratio="10" rot="R295.3"/>
</element>
<element name="THERM" library="adafruit" package="0204/5" value="" x="47.39" y="38.78" smashed="yes" rot="R90">
<attribute name="NAME" x="46.2216" y="36.7734" size="0.9906" layer="25" ratio="12" rot="R90"/>
<attribute name="VALUE" x="49.7014" y="36.6464" size="0.9906" layer="27" ratio="12" rot="R90"/>
</element>
<element name="S2" library="SparkFun-Switches" package="TACTILE_SWITCH_SMD_6.0X3.5MM" value="MOMENTARY-SWITCH-SPST-SMD-6.0X3.5MM" x="27.74" y="22.59" smashed="yes" rot="R180">
<attribute name="NAME" x="27.74" y="20.685" size="0.6096" layer="25" font="vector" ratio="20" rot="R180" align="bottom-center"/>
<attribute name="PROD_ID" value="SWCH-00815" x="27.74" y="22.59" size="1.778" layer="27" rot="R180" display="off"/>
<attribute name="SF_SKU" value="COM-08229" x="27.74" y="22.59" size="1.778" layer="27" rot="R180" display="off"/>
<attribute name="VALUE" x="27.74" y="24.495" size="0.6096" layer="27" font="vector" ratio="20" rot="R180" align="top-center"/>
</element>
<element name="10KΩ" library="RHD2000_eval_board" package="1206" value="" x="31" y="36.5" smashed="yes" rot="MR0">
<attribute name="NAME" x="33.54" y="38.024" size="1.016" layer="26" font="vector" rot="MR0"/>
<attribute name="VALUE" x="33.54" y="33.96" size="1.016" layer="28" font="vector" rot="MR0"/>
</element>
<element name="20ΩLED" library="RHD2000_eval_board" package="1206" value="" x="31" y="32" smashed="yes" rot="MR0">
<attribute name="NAME" x="33.54" y="33.524" size="1.016" layer="26" font="vector" rot="MR0"/>
<attribute name="VALUE" x="33.54" y="29.46" size="1.016" layer="28" font="vector" rot="MR0"/>
</element>
<element name="U1" library="esp8266modules" package="ESP12E-SMD" value="" x="27.5" y="38.5" smashed="yes">
<attribute name="NAME" x="19.8" y="53.6" size="1.4224" layer="25"/>
<attribute name="VALUE" x="19.8" y="26.6" size="1.4224" layer="27"/>
</element>
<element name="IC1" library="ams1117-3.3v" package="SOT229P700X180-4N" value="AMS1117-3.3V" x="21.5" y="39" smashed="yes" rot="MR270">
<attribute name="DESCRIPTION" value="1A LOW DROPOUT VOLTAGE REGULATOR, SOT-223" x="21.5" y="39" size="1.778" layer="28" rot="MR270" display="off"/>
<attribute name="HEIGHT" value="1.8mm" x="21.5" y="39" size="1.778" layer="28" rot="MR270" display="off"/>
<attribute name="MANUFACTURER_NAME" value="Advanced Monolithic Systems" x="21.5" y="39" size="1.778" layer="28" rot="MR270" display="off"/>
<attribute name="MANUFACTURER_PART_NUMBER" value="ams1117-3.3v" x="21.5" y="39" size="1.778" layer="28" rot="MR270" display="off"/>
<attribute name="MOUSER_PART_NUMBER" value="" x="21.5" y="39" size="1.778" layer="28" rot="MR270" display="off"/>
<attribute name="MOUSER_PRICE-STOCK" value="" x="21.5" y="39" size="1.778" layer="28" rot="MR270" display="off"/>
<attribute name="NAME" x="26" y="39" size="1.27" layer="26" rot="MR270" align="center"/>
<attribute name="RS_PART_NUMBER" value="" x="21.5" y="39" size="1.778" layer="28" rot="MR270" display="off"/>
<attribute name="RS_PRICE-STOCK" value="" x="21.5" y="39" size="1.778" layer="28" rot="MR270" display="off"/>
<attribute name="VALUE" x="15.5" y="37.5" size="1.27" layer="28" rot="MR270" align="center"/>
</element>
<element name="+/-/RX/TX" library="con-lstb" library_urn="urn:adsk.eagle:library:162" package="MA04-1" package3d_urn="urn:adsk.eagle:package:8337/1" value="" x="43" y="39" smashed="yes" rot="R90">
<attribute name="MF" value="" x="43" y="39" size="1.778" layer="27" rot="R90" display="off"/>
<attribute name="MPN" value="" x="43" y="39" size="1.778" layer="27" rot="R90" display="off"/>
<attribute name="NAME" x="41.349" y="33.92" size="1.27" layer="25" ratio="10" rot="R90"/>
<attribute name="OC_FARNELL" value="unknown" x="43" y="39" size="1.778" layer="27" rot="R90" display="off"/>
<attribute name="OC_NEWARK" value="unknown" x="43" y="39" size="1.778" layer="27" rot="R90" display="off"/>
<attribute name="VALUE" x="41.349" y="39.635" size="1.27" layer="27" ratio="10" rot="R90"/>
</element>
<element name="220K" library="RHD2000_eval_board" package="1206" value="" x="30.5" y="40.5" smashed="yes" rot="MR0">
<attribute name="NAME" x="33.04" y="42.024" size="1.016" layer="26" font="vector" rot="MR0"/>
<attribute name="VALUE" x="33.04" y="37.96" size="1.016" layer="28" font="vector" rot="MR0"/>
</element>
<element name="100KΩ" library="RHD2000_eval_board" package="1206" value="" x="31.5" y="27.5" smashed="yes" rot="MR0">
<attribute name="NAME" x="34.04" y="29.024" size="1.016" layer="26" font="vector" rot="MR0"/>
<attribute name="VALUE" x="34.04" y="24.96" size="1.016" layer="28" font="vector" rot="MR0"/>
</element>
<element name="LED4" library="RepRapjr" package="LED5MM" value="" x="3.9756" y="42.2504" smashed="yes" rot="R278.8">
<attribute name="NAME" x="4.98845" y="39.194375" size="1.27" layer="25" ratio="10" rot="R278.8"/>
<attribute name="VALUE" x="2.68304375" y="38.811778125" size="1.27" layer="27" ratio="10" rot="R278.8"/>
</element>
<element name="LED1" library="RepRapjr" package="LED5MM" value="" x="4.9116" y="73.9712" smashed="yes" rot="MR90">
<attribute name="NAME" x="5.445" y="77.1462" size="1.27" layer="26" ratio="10" rot="MR90"/>
<attribute name="VALUE" x="3.1082" y="77.1716" size="1.27" layer="28" ratio="10" rot="MR90"/>
</element>
<element name="LED2" library="RepRapjr" package="LED5MM" value="" x="22.0264" y="3.97" smashed="yes" rot="R138.2">
<attribute name="NAME" x="19.303984375" y="5.688603125" size="1.27" layer="25" ratio="10" rot="R138.2"/>
<attribute name="VALUE" x="20.842603125" y="7.447559375" size="1.27" layer="27" ratio="10" rot="R138.2"/>
</element>
<element name="HLK1" library="HLK-PM01" package="HLK-PM01" value="HLK-PM013W" x="35" y="68" smashed="yes">
<attribute name="NAME" x="19.76" y="75.62" size="1.27" layer="21"/>
</element>
<element name="Q2" library="adafruit" package="SOT23" value="" x="25" y="27" smashed="yes" rot="MR0">
<attribute name="NAME" x="26.905" y="28.905" size="1.27" layer="26" rot="MR0"/>
<attribute name="VALUE" x="26.905" y="23.825" size="1.27" layer="28" rot="MR0"/>
</element>
<element name="K1" library="relay" package="M3XXH" value="M3XXH" x="34" y="14" smashed="yes">
<attribute name="NAME" x="43.525" y="8.539" size="1.27" layer="25" ratio="10" rot="R90"/>
<attribute name="VALUE" x="25.745" y="8.539" size="1.27" layer="27" ratio="10" rot="R90"/>
</element>
<element name="LED3" library="led" library_urn="urn:adsk.eagle:library:259" package="SML0603" package3d_urn="urn:adsk.eagle:package:15832/1" value="" x="35" y="15" smashed="yes">
<attribute name="NAME" x="34" y="16" size="1.27" layer="25"/>
<attribute name="POPULARITY" value="17" x="35" y="15" size="1.778" layer="27" display="off"/>
<attribute name="VALUE" x="34" y="13" size="1.27" layer="27"/>
</element>
<element name="AC_IN" library="con-wago-500" library_urn="urn:adsk.eagle:library:195" package="W237-102" package3d_urn="urn:adsk.eagle:package:10688/1" value="" x="42" y="26" smashed="yes" rot="R90">
<attribute name="MF" value="" x="42" y="26" size="1.778" layer="27" rot="R90" display="off"/>
<attribute name="MPN" value="237-102" x="42" y="26" size="1.778" layer="27" rot="R90" display="off"/>
<attribute name="NAME" x="47.0038" y="22.1538" size="1.27" layer="25" ratio="10" rot="R90"/>
<attribute name="OC_FARNELL" value="unknown" x="42" y="26" size="1.778" layer="27" rot="R90" display="off"/>
<attribute name="OC_NEWARK" value="70K9898" x="42" y="26" size="1.778" layer="27" rot="R90" display="off"/>
<attribute name="POPULARITY" value="32" x="42" y="26" size="1.778" layer="27" rot="R90" display="off"/>
<attribute name="VALUE" x="49.62" y="20.96" size="1.27" layer="27" ratio="10" rot="R90"/>
</element>
<element name="AC_OUT" library="con-wago-500" library_urn="urn:adsk.eagle:library:195" package="W237-102" package3d_urn="urn:adsk.eagle:package:10688/1" value="" x="42" y="51" smashed="yes" rot="R90">
<attribute name="MF" value="" x="42" y="51" size="1.778" layer="27" rot="R90" display="off"/>
<attribute name="MPN" value="237-102" x="42" y="51" size="1.778" layer="27" rot="R90" display="off"/>
<attribute name="NAME" x="47.0038" y="47.1538" size="1.27" layer="25" ratio="10" rot="R90"/>
<attribute name="OC_FARNELL" value="unknown" x="42" y="51" size="1.778" layer="27" rot="R90" display="off"/>
<attribute name="OC_NEWARK" value="70K9898" x="42" y="51" size="1.778" layer="27" rot="R90" display="off"/>
<attribute name="POPULARITY" value="32" x="42" y="51" size="1.778" layer="27" rot="R90" display="off"/>
<attribute name="VALUE" x="49.62" y="45.96" size="1.27" layer="27" ratio="10" rot="R90"/>
</element>
</elements>
<signals>
<signal name="VCC33">
<contactref element="U$1" pad="3"/>
<contactref element="20ΩLED" pad="2"/>
<contactref element="THERM" pad="1"/>
<contactref element="U1" pad="VCC"/>
<contactref element="U1" pad="CH_PD"/>
<contactref element="IC1" pad="2"/>
<contactref element="+/-/RX/TX" pad="1"/>
<wire x1="43.5" y1="36" x2="43" y2="35.5" width="0.508" layer="1"/>
<wire x1="47" y1="36" x2="45.5" y2="36" width="0.508" layer="1"/>
<wire x1="45.5" y1="36" x2="43.5" y2="36" width="0.508" layer="1"/>
<wire x1="43" y1="35.5" x2="43" y2="35.19" width="0.508" layer="1"/>
<wire x1="47" y1="36" x2="47.39" y2="36.24" width="0.508" layer="1"/>
<wire x1="21.5" y1="41" x2="21.5" y2="42.35" width="0.508" layer="16"/>
<wire x1="21" y1="40.5" x2="21.5" y2="41" width="0.508" layer="1"/>
<wire x1="19.5" y1="40.5" x2="21" y2="40.5" width="0.508" layer="1"/>
<wire x1="19.5" y1="40.5" x2="19.2" y2="40.3" width="0.508" layer="1"/>
<wire x1="28" y1="32" x2="29.349" y2="32" width="0.508" layer="16"/>
<wire x1="28" y1="31.5" x2="28" y2="32" width="0.508" layer="16"/>
<wire x1="21.5" y1="31.5" x2="22.5" y2="31.5" width="0.508" layer="1"/>
<wire x1="22.5" y1="31.5" x2="28" y2="31.5" width="0.508" layer="1"/>
<wire x1="20.5" y1="30.5" x2="21.5" y2="31.5" width="0.508" layer="1"/>
<wire x1="19.5" y1="30.5" x2="20.5" y2="30.5" width="0.508" layer="1"/>
<wire x1="19.5" y1="30.5" x2="19.2" y2="30.3" width="0.508" layer="1"/>
<wire x1="21" y1="39.5" x2="21" y2="40.5" width="0.508" layer="1"/>
<wire x1="22.5" y1="38" x2="21" y2="39.5" width="0.508" layer="1"/>
<wire x1="22.5" y1="31.5" x2="22.5" y2="38" width="0.508" layer="1"/>
<wire x1="12.5" y1="23.5" x2="10" y2="21" width="0.508" layer="16"/>
<wire x1="12.5" y1="26" x2="12.5" y2="23.5" width="0.508" layer="16"/>
<wire x1="16.5" y1="30" x2="12.5" y2="26" width="0.508" layer="1"/>
<wire x1="19" y1="30" x2="16.5" y2="30" width="0.508" layer="1"/>
<wire x1="10" y1="21" x2="9.9754875" y2="20.873628125" width="0.508" layer="16"/>
<wire x1="19" y1="30" x2="19.2" y2="30.3" width="0.508" layer="1"/>
<wire x1="45.5" y1="20.5" x2="45.5" y2="36" width="0.508" layer="1"/>
<wire x1="44.5" y1="20.5" x2="45.5" y2="20.5" width="0.508" layer="1"/>
<wire x1="42" y1="18" x2="44.5" y2="20.5" width="0.508" layer="1"/>
<wire x1="42" y1="15.5" x2="42" y2="18" width="0.508" layer="1"/>
<wire x1="37" y1="15.5" x2="42" y2="15.5" width="0.508" layer="1"/>
<wire x1="32.5" y1="20" x2="37" y2="15.5" width="0.508" layer="1"/>
<wire x1="10.5" y1="20" x2="32.5" y2="20" width="0.508" layer="1"/>
<wire x1="10" y1="20.5" x2="10.5" y2="20" width="0.508" layer="1"/>
<wire x1="10" y1="20.5" x2="9.9754875" y2="20.873628125" width="0.508" layer="1"/>
<via x="21.5" y="41" extent="1-16" drill="0.35"/>
<via x="28" y="31.5" extent="1-16" drill="0.35"/>
<via x="12.5" y="26" extent="1-16" drill="0.35"/>
</signal>
<signal name="GND">
<contactref element="U$1" pad="2"/>
<contactref element="Q1" pad="2"/>
<contactref element="S2" pad="1"/>
<contactref element="10KΩ" pad="2"/>
<contactref element="U1" pad="GPIO15"/>
<contactref element="U1" pad="GND"/>
<contactref element="IC1" pad="1"/>
<contactref element="+/-/RX/TX" pad="2"/>
<contactref element="100KΩ" pad="2"/>
<contactref element="Q2" pad="2"/>
<contactref element="HLK1" pad="P$3"/>
<wire x1="24" y1="32" x2="24" y2="26" width="0.508" layer="16"/>
<wire x1="28.5" y1="36.5" x2="24" y2="32" width="0.508" layer="16"/>
<wire x1="29.349" y1="36.5" x2="28.5" y2="36.5" width="0.508" layer="16"/>
<wire x1="24" y1="26" x2="24.05" y2="25.9" width="0.508" layer="16"/>
<wire x1="22" y1="22.5" x2="20.5" y2="24" width="0.508" layer="16"/>
<wire x1="20.5" y1="24" x2="19" y2="25.5" width="0.508" layer="16"/>
<wire x1="22" y1="18.5" x2="22" y2="22.5" width="0.508" layer="16"/>
<wire x1="22.5" y1="18" x2="22" y2="18.5" width="0.508" layer="16"/>
<wire x1="24" y1="18" x2="22.5" y2="18" width="0.508" layer="16"/>
<wire x1="24" y1="25.5" x2="24" y2="18" width="0.508" layer="16"/>
<wire x1="19" y1="25.5" x2="18.87" y2="25.91" width="0.508" layer="16"/>
<wire x1="24" y1="25.5" x2="24.05" y2="25.9" width="0.508" layer="16"/>
<wire x1="30.5" y1="28" x2="30" y2="27.5" width="0.508" layer="16"/>
<wire x1="30.5" y1="35.5" x2="30.5" y2="28" width="0.508" layer="16"/>
<wire x1="29.5" y1="36.5" x2="30.5" y2="35.5" width="0.508" layer="16"/>
<wire x1="30" y1="27.5" x2="29.849" y2="27.5" width="0.508" layer="16"/>
<wire x1="29.5" y1="36.5" x2="29.349" y2="36.5" width="0.508" layer="16"/>
<wire x1="35.5" y1="27.5" x2="32" y2="24" width="0.508" layer="1"/>
<wire x1="32" y1="24" x2="31" y2="23" width="0.508" layer="1"/>
<wire x1="35.5" y1="30" x2="35.5" y2="27.5" width="0.508" layer="1"/>
<wire x1="31" y1="23" x2="30.89" y2="22.59" width="0.508" layer="1"/>
<wire x1="35.5" y1="30" x2="35.6" y2="30.3" width="0.508" layer="1"/>
<wire x1="36" y1="30.5" x2="36" y2="32" width="0.508" layer="1"/>
<wire x1="36" y1="32" x2="35.6" y2="32.3" width="0.508" layer="1"/>
<wire x1="36" y1="30.5" x2="35.6" y2="30.3" width="0.508" layer="1"/>
<wire x1="42" y1="36.5" x2="43" y2="37.5" width="0.508" layer="1"/>
<wire x1="40.5" y1="36.5" x2="42" y2="36.5" width="0.508" layer="1"/>
<wire x1="36.5" y1="32.5" x2="40.5" y2="36.5" width="0.508" layer="1"/>
<wire x1="36" y1="32.5" x2="36.5" y2="32.5" width="0.508" layer="1"/>
<wire x1="43" y1="37.5" x2="43" y2="37.73" width="0.508" layer="1"/>
<wire x1="36" y1="32.5" x2="35.6" y2="32.3" width="0.508" layer="1"/>
<wire x1="9.5" y1="24" x2="9" y2="23.5" width="0.508" layer="1"/>
<wire x1="32" y1="24" x2="20.5" y2="24" width="0.508" layer="1"/>
<wire x1="20.5" y1="24" x2="15.5" y2="24" width="0.508" layer="1"/>
<wire x1="15.5" y1="24" x2="9.5" y2="24" width="0.508" layer="1"/>
<wire x1="9" y1="23.5" x2="8.89" y2="23.17" width="0.508" layer="1"/>
<wire x1="15.5" y1="46" x2="19" y2="42.5" width="0.508" layer="16"/>
<wire x1="15.5" y1="54.5" x2="15.5" y2="46" width="0.508" layer="16"/>
<wire x1="36.5" y1="75.5" x2="15.5" y2="54.5" width="0.508" layer="16"/>
<wire x1="49.5" y1="75.5" x2="36.5" y2="75.5" width="0.508" layer="16"/>
<wire x1="19" y1="42.5" x2="19.21" y2="42.35" width="0.508" layer="16"/>
<wire x1="49.5" y1="75.5" x2="49.7" y2="75.7" width="0.508" layer="16"/>
<wire x1="15.5" y1="46" x2="15.5" y2="24" width="0.508" layer="16"/>
<via x="20.5" y="24" extent="1-16" drill="0.35"/>
<via x="15.5" y="24" extent="1-16" drill="0.35"/>
</signal>
<signal name="N$3">
<contactref element="U$1" pad="1"/>
<contactref element="U1" pad="GPIO5"/>
<wire x1="35" y1="39.5" x2="35.5" y2="40" width="0.508" layer="1"/>
<wire x1="31.5" y1="39.5" x2="35" y2="39.5" width="0.508" layer="1"/>
<wire x1="26" y1="34" x2="31.5" y2="39.5" width="0.508" layer="1"/>
<wire x1="26" y1="32.5" x2="26" y2="34" width="0.508" layer="1"/>
<wire x1="28.5" y1="32.5" x2="26" y2="32.5" width="0.508" layer="1"/>
<wire x1="29" y1="32" x2="28.5" y2="32.5" width="0.508" layer="1"/>
<wire x1="29" y1="30.5" x2="29" y2="32" width="0.508" layer="1"/>
<wire x1="22" y1="30.5" x2="29" y2="30.5" width="0.508" layer="1"/>
<wire x1="21.5" y1="30" x2="22" y2="30.5" width="0.508" layer="1"/>
<wire x1="21.5" y1="25" x2="21.5" y2="30" width="0.508" layer="1"/>
<wire x1="8" y1="25" x2="21.5" y2="25" width="0.508" layer="1"/>
<wire x1="35.5" y1="40" x2="35.6" y2="40.3" width="0.508" layer="1"/>
<wire x1="8" y1="25" x2="7.804509375" y2="25.46636875" width="0.508" layer="1"/>
</signal>
<signal name="N$4">
<contactref element="20ΩLED" pad="1"/>
<contactref element="LED4" pad="A"/>
<contactref element="LED1" pad="A"/>
<contactref element="LED2" pad="A"/>
<wire x1="4.5" y1="44.5" x2="4" y2="44" width="0.508" layer="16"/>
<wire x1="4.5" y1="72.5" x2="4.5" y2="44.5" width="0.508" layer="16"/>
<wire x1="4" y1="44" x2="3.78130625" y2="43.50545" width="0.508" layer="16"/>
<wire x1="4.5" y1="72.5" x2="4.9116" y2="72.7012" width="0.508" layer="16"/>
<wire x1="34.5" y1="30.5" x2="33" y2="32" width="0.508" layer="16"/>
<wire x1="34.5" y1="19.5" x2="34.5" y2="30.5" width="0.508" layer="16"/>
<wire x1="31" y1="16" x2="34.5" y2="19.5" width="0.508" layer="16"/>
<wire x1="23" y1="8" x2="31" y2="16" width="0.508" layer="1"/>
<wire x1="23" y1="3.5" x2="23" y2="8" width="0.508" layer="1"/>
<wire x1="33" y1="32" x2="32.651" y2="32" width="0.508" layer="16"/>
<wire x1="23" y1="3.5" x2="22.973153125" y2="3.123503125" width="0.508" layer="1"/>
<wire x1="13.5" y1="34" x2="4" y2="43.5" width="0.508" layer="16"/>
<wire x1="13.5" y1="11.5" x2="13.5" y2="34" width="0.508" layer="16"/>
<wire x1="19.5" y1="5.5" x2="13.5" y2="11.5" width="0.508" layer="16"/>
<wire x1="19.5" y1="4.5" x2="19.5" y2="5.5" width="0.508" layer="16"/>
<wire x1="20.5" y1="3.5" x2="19.5" y2="4.5" width="0.508" layer="16"/>
<wire x1="22.5" y1="3.5" x2="20.5" y2="3.5" width="0.508" layer="16"/>
<wire x1="4" y1="43.5" x2="3.78130625" y2="43.50545" width="0.508" layer="16"/>
<wire x1="22.5" y1="3.5" x2="22.973153125" y2="3.123503125" width="0.508" layer="16"/>
<via x="31" y="16" extent="1-16" drill="0.35"/>
</signal>
<signal name="N$5">
<contactref element="Q1" pad="3"/>
<contactref element="LED4" pad="K"/>
<contactref element="LED1" pad="K"/>
<contactref element="LED2" pad="K"/>
<wire x1="17.5" y1="28" x2="19.5" y2="28" width="0.508" layer="16"/>
<wire x1="17.5" y1="8.5" x2="17.5" y2="28" width="0.508" layer="16"/>
<wire x1="21" y1="5" x2="17.5" y2="8.5" width="0.508" layer="16"/>
<wire x1="19.5" y1="28" x2="19.82" y2="28.11" width="0.508" layer="16"/>
<wire x1="21" y1="5" x2="21.07964375" y2="4.81649375" width="0.508" layer="16"/>
<wire x1="2.5" y1="42.5" x2="4" y2="41" width="0.508" layer="16"/>
<wire x1="2.5" y1="69" x2="2.5" y2="42.5" width="0.508" layer="16"/>
<wire x1="3.5" y1="70" x2="2.5" y2="69" width="0.508" layer="16"/>
<wire x1="3.5" y1="73" x2="3.5" y2="70" width="0.508" layer="16"/>
<wire x1="4.5" y1="74" x2="3.5" y2="73" width="0.508" layer="16"/>
<wire x1="4.5" y1="75" x2="4.5" y2="74" width="0.508" layer="16"/>
<wire x1="4" y1="41" x2="4.169890625" y2="40.995346875" width="0.508" layer="16"/>
<wire x1="4.5" y1="75" x2="4.9116" y2="75.2412" width="0.508" layer="16"/>
<wire x1="16.5" y1="29" x2="17.5" y2="28" width="0.508" layer="16"/>
<wire x1="16.5" y1="31" x2="16.5" y2="29" width="0.508" layer="16"/>
<wire x1="7" y1="40.5" x2="16.5" y2="31" width="0.508" layer="1"/>
<wire x1="4.5" y1="40.5" x2="7" y2="40.5" width="0.508" layer="1"/>
<wire x1="4.5" y1="40.5" x2="4.169890625" y2="40.995346875" width="0.508" layer="1"/>
<via x="16.5" y="31" extent="1-16" drill="0.35"/>
</signal>
<signal name="N$6">
<contactref element="Q1" pad="1"/>
<contactref element="U1" pad="GPIO14"/>
<wire x1="21.5" y1="26.5" x2="21" y2="26" width="0.508" layer="16"/>
<wire x1="21.5" y1="34" x2="21.5" y2="26.5" width="0.508" layer="16"/>
<wire x1="21.5" y1="36" x2="21.5" y2="34" width="0.508" layer="1"/>
<wire x1="19.5" y1="36" x2="21.5" y2="36" width="0.508" layer="1"/>
<wire x1="21" y1="26" x2="20.77" y2="25.91" width="0.508" layer="16"/>
<wire x1="19.5" y1="36" x2="19.2" y2="36.3" width="0.508" layer="1"/>
<via x="21.5" y="34" extent="1-16" drill="0.35"/>
</signal>
<signal name="N$7">
<contactref element="S2" pad="2"/>
<contactref element="U1" pad="GPIO0"/>
<wire x1="26.5" y1="23" x2="25" y2="23" width="0.508" layer="1"/>
<wire x1="28" y1="24.5" x2="26.5" y2="23" width="0.508" layer="16"/>
<wire x1="28" y1="30" x2="28" y2="24.5" width="0.508" layer="16"/>
<wire x1="27" y1="31" x2="28" y2="30" width="0.508" layer="16"/>
<wire x1="27" y1="33.5" x2="27" y2="31" width="0.508" layer="16"/>
<wire x1="29.5" y1="36" x2="27" y2="33.5" width="0.508" layer="1"/>
<wire x1="35.5" y1="36" x2="29.5" y2="36" width="0.508" layer="1"/>
<wire x1="25" y1="23" x2="24.59" y2="22.59" width="0.508" layer="1"/>
<wire x1="35.5" y1="36" x2="35.6" y2="36.3" width="0.508" layer="1"/>
<via x="26.5" y="23" extent="1-16" drill="0.35"/>
<via x="27" y="33.5" extent="1-16" drill="0.35"/>
</signal>
<signal name="N$11">
<contactref element="+/-/RX/TX" pad="4"/>
<contactref element="U1" pad="TXD0"/>
<wire x1="36.5" y1="43.5" x2="36" y2="44" width="0.508" layer="1"/>
<wire x1="42.5" y1="43.5" x2="36.5" y2="43.5" width="0.508" layer="1"/>
<wire x1="43" y1="43" x2="42.5" y2="43.5" width="0.508" layer="1"/>
<wire x1="36" y1="44" x2="35.6" y2="44.3" width="0.508" layer="1"/>
<wire x1="43" y1="43" x2="43" y2="42.81" width="0.508" layer="1"/>
</signal>
<signal name="N$12">
<contactref element="U1" pad="RXD0"/>
<contactref element="+/-/RX/TX" pad="3"/>
<wire x1="36.5" y1="41.5" x2="36" y2="42" width="0.508" layer="1"/>
<wire x1="42" y1="41.5" x2="36.5" y2="41.5" width="0.508" layer="1"/>
<wire x1="43" y1="40.5" x2="42" y2="41.5" width="0.508" layer="1"/>
<wire x1="36" y1="42" x2="35.6" y2="42.3" width="0.508" layer="1"/>
<wire x1="43" y1="40.5" x2="43" y2="40.27" width="0.508" layer="1"/>
</signal>
<signal name="N$10">
<contactref element="100KΩ" pad="1"/>
<contactref element="220K" pad="2"/>
<contactref element="U1" pad="ADC"/>
<wire x1="31.5" y1="29" x2="33" y2="27.5" width="0.508" layer="16"/>
<wire x1="31.5" y1="38" x2="31.5" y2="29" width="0.508" layer="16"/>
<wire x1="29" y1="40.5" x2="31.5" y2="38" width="0.508" layer="16"/>
<wire x1="33" y1="27.5" x2="33.151" y2="27.5" width="0.508" layer="16"/>
<wire x1="29" y1="40.5" x2="28.849" y2="40.5" width="0.508" layer="16"/>
<wire x1="28.5" y1="42" x2="19.5" y2="42" width="0.508" layer="1"/>
<wire x1="28.5" y1="40.5" x2="28.5" y2="42" width="0.508" layer="16"/>
<wire x1="19.5" y1="42" x2="19.2" y2="42.3" width="0.508" layer="1"/>
<wire x1="28.5" y1="40.5" x2="28.849" y2="40.5" width="0.508" layer="16"/>
<via x="28.5" y="42" extent="1-16" drill="0.35"/>
</signal>
<signal name="N$9">
<contactref element="220K" pad="1"/>
<contactref element="THERM" pad="2"/>
<contactref element="10KΩ" pad="1"/>
<wire x1="32.5" y1="40.5" x2="32.5" y2="39" width="0.508" layer="16"/>
<wire x1="32.5" y1="39" x2="32.5" y2="36.5" width="0.508" layer="16"/>
<wire x1="32.5" y1="36.5" x2="32.651" y2="36.5" width="0.508" layer="16"/>
<wire x1="32.5" y1="40.5" x2="32.151" y2="40.5" width="0.508" layer="16"/>
<wire x1="45" y1="39" x2="47" y2="41" width="0.508" layer="1"/>
<wire x1="38" y1="39" x2="45" y2="39" width="0.508" layer="1"/>
<wire x1="32.5" y1="39" x2="38" y2="39" width="0.508" layer="16"/>
<wire x1="47" y1="41" x2="47.39" y2="41.32" width="0.508" layer="1"/>
<via x="38" y="39" extent="1-16" drill="0.35"/>
</signal>
<signal name="VCC">
<contactref element="LED3" pad="C"/>
<contactref element="K1" pad="1"/>
<contactref element="HLK1" pad="P$4"/>
<contactref element="IC1" pad="3"/>
<wire x1="31.5" y1="17.5" x2="34" y2="15" width="0.508" layer="1"/>
<wire x1="30.5" y1="17.5" x2="31.5" y2="17.5" width="0.508" layer="1"/>
<wire x1="34" y1="15" x2="34.25" y2="15" width="0.508" layer="1"/>
<wire x1="30.5" y1="17.5" x2="30.19" y2="17.81" width="0.508" layer="1"/>
<wire x1="27.5" y1="42.5" x2="24" y2="42.5" width="0.508" layer="16"/>
<wire x1="28.5" y1="43.5" x2="27.5" y2="42.5" width="0.508" layer="16"/>
<wire x1="40" y1="43.5" x2="28.5" y2="43.5" width="0.508" layer="16"/>
<wire x1="40" y1="53" x2="40" y2="43.5" width="0.508" layer="16"/>
<wire x1="47" y1="60" x2="40" y2="53" width="0.508" layer="16"/>
<wire x1="49.5" y1="60" x2="47" y2="60" width="0.508" layer="16"/>
<wire x1="24" y1="42.5" x2="23.79" y2="42.35" width="0.508" layer="16"/>
<wire x1="49.5" y1="60" x2="49.7" y2="60.3" width="0.508" layer="16"/>
<wire x1="28" y1="15.5" x2="30" y2="17.5" width="0.508" layer="1"/>
<wire x1="26.5" y1="15.5" x2="28" y2="15.5" width="0.508" layer="1"/>
<wire x1="23" y1="19" x2="26.5" y2="15.5" width="0.508" layer="1"/>
<wire x1="23" y1="34" x2="23" y2="19" width="0.508" layer="16"/>
<wire x1="24" y1="35" x2="23" y2="34" width="0.508" layer="16"/>
<wire x1="24" y1="42" x2="24" y2="35" width="0.508" layer="16"/>
<wire x1="30" y1="17.5" x2="30.19" y2="17.81" width="0.508" layer="1"/>
<wire x1="24" y1="42" x2="23.79" y2="42.35" width="0.508" layer="16"/>
<via x="23" y="19" extent="1-16" drill="0.35"/>
</signal>
<signal name="N$2">
<contactref element="K1" pad="2"/>
<contactref element="LED3" pad="A"/>
<contactref element="Q2" pad="3"/>
<wire x1="35.5" y1="10.5" x2="35.5" y2="15" width="0.508" layer="1"/>
<wire x1="30.5" y1="10.5" x2="35.5" y2="10.5" width="0.508" layer="1"/>
<wire x1="35.5" y1="15" x2="35.75" y2="15" width="0.508" layer="1"/>
<wire x1="30.5" y1="10.5" x2="30.19" y2="10.19" width="0.508" layer="1"/>
<wire x1="25" y1="15.5" x2="25" y2="28.1" width="0.508" layer="16"/>
<wire x1="30" y1="10.5" x2="25" y2="15.5" width="0.508" layer="16"/>
<wire x1="30" y1="10.5" x2="30.19" y2="10.19" width="0.508" layer="16"/>
</signal>
<signal name="BULB">
<contactref element="Q2" pad="1"/>
<contactref element="U1" pad="GPIO10"/>
<wire x1="27" y1="26" x2="26" y2="26" width="0.508" layer="16"/>
<wire x1="27.5" y1="26" x2="27" y2="26" width="0.508" layer="1"/>
<wire x1="28.5" y1="27" x2="27.5" y2="26" width="0.508" layer="1"/>
<wire x1="28.5" y1="28" x2="28.5" y2="27" width="0.508" layer="1"/>
<wire x1="26" y1="26" x2="25.95" y2="25.9" width="0.508" layer="16"/>
<wire x1="28.5" y1="28" x2="28.7" y2="28.2" width="0.508" layer="1"/>
<via x="27" y="26" extent="1-16" drill="0.35"/>
</signal>
<signal name="N$1">
<contactref element="AC_OUT" pad="1"/>
<contactref element="K1" pad="S"/>
<wire x1="30.5" y1="15" x2="28" y2="17.5" width="0.508" layer="16"/>
<wire x1="39" y1="15" x2="30.5" y2="15" width="0.508" layer="16"/>
<wire x1="39" y1="41.5" x2="39" y2="15" width="0.508" layer="16"/>
<wire x1="43" y1="45.5" x2="39" y2="41.5" width="0.508" layer="16"/>
<wire x1="43" y1="48.5" x2="43" y2="45.5" width="0.508" layer="16"/>
<wire x1="28" y1="17.5" x2="27.65" y2="17.81" width="0.508" layer="16"/>
<wire x1="43" y1="48.5" x2="43.27" y2="48.5" width="0.508" layer="16"/>
</signal>
<signal name="N$13">
<contactref element="AC_IN" pad="2"/>
<contactref element="HLK1" pad="P$2"/>
<contactref element="K1" pad="P@"/>
<wire x1="40.5" y1="28.5" x2="40.5" y2="21" width="0.508" layer="1"/>
<wire x1="40.5" y1="21" x2="40.5" y2="18" width="0.508" layer="1"/>
<wire x1="43.27" y1="28.5" x2="40.5" y2="28.5" width="0.508" layer="1"/>
<wire x1="40.5" y1="18" x2="40.35" y2="17.81" width="0.508" layer="1"/>
<wire x1="14.5" y1="60" x2="20" y2="65.5" width="0.508" layer="16"/>
<wire x1="14.5" y1="23" x2="14.5" y2="60" width="0.508" layer="16"/>
<wire x1="16.5" y1="21" x2="14.5" y2="23" width="0.508" layer="1"/>
<wire x1="40.5" y1="21" x2="16.5" y2="21" width="0.508" layer="1"/>
<wire x1="20" y1="65.5" x2="20.3" y2="65.5" width="0.508" layer="16"/>
<via x="14.5" y="23" extent="1-16" drill="0.35"/>
</signal>
<signal name="N$14">
<contactref element="AC_IN" pad="1"/>
<contactref element="AC_OUT" pad="2"/>
<contactref element="HLK1" pad="P$1"/>
<wire x1="34.5" y1="56.5" x2="20.5" y2="70.5" width="0.508" layer="1"/>
<wire x1="40" y1="56.5" x2="34.5" y2="56.5" width="0.508" layer="1"/>
<wire x1="43" y1="53.5" x2="40" y2="56.5" width="0.508" layer="1"/>
<wire x1="20.5" y1="70.5" x2="20.3" y2="70.5" width="0.508" layer="1"/>
<wire x1="43" y1="53.5" x2="43.27" y2="53.5" width="0.508" layer="1"/>
<wire x1="45.5" y1="25.5" x2="43.5" y2="23.5" width="0.508" layer="16"/>
<wire x1="45.5" y1="51.5" x2="45.5" y2="25.5" width="0.508" layer="16"/>
<wire x1="43.5" y1="53.5" x2="45.5" y2="51.5" width="0.508" layer="16"/>
<wire x1="43.5" y1="23.5" x2="43.27" y2="23.5" width="0.508" layer="16"/>
<wire x1="43.5" y1="53.5" x2="43.27" y2="53.5" width="0.508" layer="16"/>
</signal>
</signals>
<mfgpreviewcolors>
<mfgpreviewcolor name="soldermaskcolor" color="0xC8008000"/>
<mfgpreviewcolor name="silkscreencolor" color="0xFFFEFEFE"/>
<mfgpreviewcolor name="backgroundcolor" color="0xFF282828"/>
<mfgpreviewcolor name="coppercolor" color="0xFFFFBF00"/>
<mfgpreviewcolor name="substratecolor" color="0xFF786E46"/>
</mfgpreviewcolors>
</board>
</drawing>
<compatibility>
<note version="8.2" severity="warning">
Since Version 8.2, EAGLE supports online libraries. The ids
of those online libraries will not be understood (or retained)
with this version.
</note>
<note version="8.3" severity="warning">
Since Version 8.3, EAGLE supports URNs for individual library
assets (packages, symbols, and devices). The URNs of those assets
will not be understood (or retained) with this version.
</note>
<note version="8.3" severity="warning">
Since Version 8.3, EAGLE supports the association of 3D packages
with devices in libraries, schematics, and board files. Those 3D
packages will not be understood (or retained) with this version.
</note>
</compatibility>
</eagle>
