<?xml version="1.0" encoding="utf-8"?>
<!DOCTYPE eagle SYSTEM "eagle.dtd">
<eagle version="9.3.2">
<drawing>
<settings>
<setting alwaysvectorfont="no"/>
<setting verticaltext="up"/>
</settings>
<grid distance="0.1" unitdist="inch" unit="inch" style="lines" multiple="1" display="no" altdistance="0.01" altunitdist="inch" altunit="inch"/>
<layers>
<layer number="1" name="Top" color="4" fill="1" visible="no" active="no"/>
<layer number="16" name="Bottom" color="1" fill="1" visible="no" active="no"/>
<layer number="17" name="Pads" color="2" fill="1" visible="no" active="no"/>
<layer number="18" name="Vias" color="2" fill="1" visible="no" active="no"/>
<layer number="19" name="Unrouted" color="6" fill="1" visible="no" active="no"/>
<layer number="20" name="Dimension" color="15" fill="1" visible="no" active="no"/>
<layer number="21" name="tPlace" color="7" fill="1" visible="no" active="no"/>
<layer number="22" name="bPlace" color="7" fill="1" visible="no" active="no"/>
<layer number="23" name="tOrigins" color="15" fill="1" visible="no" active="no"/>
<layer number="24" name="bOrigins" color="15" fill="1" visible="no" active="no"/>
<layer number="25" name="tNames" color="7" fill="1" visible="no" active="no"/>
<layer number="26" name="bNames" color="7" fill="1" visible="no" active="no"/>
<layer number="27" name="tValues" color="7" fill="1" visible="no" active="no"/>
<layer number="28" name="bValues" color="7" fill="1" visible="no" active="no"/>
<layer number="29" name="tStop" color="7" fill="3" visible="no" active="no"/>
<layer number="30" name="bStop" color="7" fill="6" visible="no" active="no"/>
<layer number="31" name="tCream" color="7" fill="4" visible="no" active="no"/>
<layer number="32" name="bCream" color="7" fill="5" visible="no" active="no"/>
<layer number="33" name="tFinish" color="6" fill="3" visible="no" active="no"/>
<layer number="34" name="bFinish" color="6" fill="6" visible="no" active="no"/>
<layer number="35" name="tGlue" color="7" fill="4" visible="no" active="no"/>
<layer number="36" name="bGlue" color="7" fill="5" visible="no" active="no"/>
<layer number="37" name="tTest" color="7" fill="1" visible="no" active="no"/>
<layer number="38" name="bTest" color="7" fill="1" visible="no" active="no"/>
<layer number="39" name="tKeepout" color="4" fill="11" visible="no" active="no"/>
<layer number="40" name="bKeepout" color="1" fill="11" visible="no" active="no"/>
<layer number="41" name="tRestrict" color="4" fill="10" visible="no" active="no"/>
<layer number="42" name="bRestrict" color="1" fill="10" visible="no" active="no"/>
<layer number="43" name="vRestrict" color="2" fill="10" visible="no" active="no"/>
<layer number="44" name="Drills" color="7" fill="1" visible="no" active="no"/>
<layer number="45" name="Holes" color="7" fill="1" visible="no" active="no"/>
<layer number="46" name="Milling" color="3" fill="1" visible="no" active="no"/>
<layer number="47" name="Measures" color="7" fill="1" visible="no" active="no"/>
<layer number="48" name="Document" color="7" fill="1" visible="no" active="no"/>
<layer number="49" name="Reference" color="7" fill="1" visible="no" active="no"/>
<layer number="51" name="tDocu" color="6" fill="1" visible="no" active="no"/>
<layer number="52" name="bDocu" color="7" fill="1" visible="no" active="no"/>
<layer number="88" name="SimResults" color="9" fill="1" visible="yes" active="yes"/>
<layer number="89" name="SimProbes" color="9" fill="1" visible="yes" active="yes"/>
<layer number="90" name="Modules" color="5" fill="1" visible="yes" active="yes"/>
<layer number="91" name="Nets" color="2" fill="1" visible="yes" active="yes"/>
<layer number="92" name="Busses" color="1" fill="1" visible="yes" active="yes"/>
<layer number="93" name="Pins" color="2" fill="1" visible="no" active="yes"/>
<layer number="94" name="Symbols" color="4" fill="1" visible="yes" active="yes"/>
<layer number="95" name="Names" color="7" fill="1" visible="yes" active="yes"/>
<layer number="96" name="Values" color="7" fill="1" visible="yes" active="yes"/>
<layer number="97" name="Info" color="7" fill="1" visible="yes" active="yes"/>
<layer number="98" name="Guide" color="6" fill="1" visible="yes" active="yes"/>
<layer number="99" name="SpiceOrder" color="7" fill="1" visible="yes" active="yes"/>
</layers>
<schematic xreflabel="%F%N/%S.%C%R" xrefpart="/%S.%C%R">
<libraries>
<library name="linear" urn="urn:adsk.eagle:library:262">
<description>&lt;b&gt;Linear Devices&lt;/b&gt;&lt;p&gt;
Operational amplifiers,  comparators, voltage regulators, ADCs, DACs, etc.&lt;p&gt;
&lt;author&gt;Created by librarian@cadsoft.de&lt;/author&gt;</description>
<packages>
<package name="SOT23" urn="urn:adsk.eagle:footprint:16354/1" library_version="4">
<description>&lt;b&gt;SMALL OUTLINE TRANSISTOR&lt;/b&gt;&lt;p&gt;
reflow soldering</description>
<wire x1="-1.973" y1="1.983" x2="1.973" y2="1.983" width="0.0508" layer="39"/>
<wire x1="1.973" y1="-1.983" x2="-1.973" y2="-1.983" width="0.0508" layer="39"/>
<wire x1="-1.973" y1="-1.983" x2="-1.973" y2="1.983" width="0.0508" layer="39"/>
<wire x1="1.973" y1="1.983" x2="1.973" y2="-1.983" width="0.0508" layer="39"/>
<wire x1="1.422" y1="0.66" x2="1.422" y2="-0.66" width="0.1524" layer="51"/>
<wire x1="1.422" y1="-0.66" x2="-1.422" y2="-0.66" width="0.1524" layer="51"/>
<wire x1="-1.422" y1="-0.66" x2="-1.422" y2="0.66" width="0.1524" layer="51"/>
<wire x1="-1.422" y1="0.66" x2="1.422" y2="0.66" width="0.1524" layer="51"/>
<wire x1="-1.422" y1="-0.152" x2="-1.422" y2="0.66" width="0.1524" layer="21"/>
<wire x1="-1.422" y1="0.66" x2="-0.864" y2="0.66" width="0.1524" layer="21"/>
<wire x1="0.864" y1="0.66" x2="1.422" y2="0.66" width="0.1524" layer="21"/>
<wire x1="1.422" y1="0.66" x2="1.422" y2="-0.152" width="0.1524" layer="21"/>
<smd name="3" x="0" y="1.1" dx="1" dy="1.4" layer="1"/>
<smd name="2" x="0.95" y="-1.1" dx="1" dy="1.4" layer="1"/>
<smd name="1" x="-0.95" y="-1.1" dx="1" dy="1.4" layer="1"/>
<text x="-1.905" y="1.905" size="1.27" layer="25">&gt;NAME</text>
<text x="-1.905" y="-3.175" size="1.27" layer="27">&gt;VALUE</text>
<rectangle x1="-0.2286" y1="0.7112" x2="0.2286" y2="1.2954" layer="51"/>
<rectangle x1="0.7112" y1="-1.2954" x2="1.1684" y2="-0.7112" layer="51"/>
<rectangle x1="-1.1684" y1="-1.2954" x2="-0.7112" y2="-0.7112" layer="51"/>
<rectangle x1="-0.5001" y1="-0.3" x2="0.5001" y2="0.3" layer="35"/>
</package>
</packages>
<packages3d>
<package3d name="SOT23" urn="urn:adsk.eagle:package:16489/2" type="model" library_version="4">
<description>SMALL OUTLINE TRANSISTOR
reflow soldering</description>
<packageinstances>
<packageinstance name="SOT23"/>
</packageinstances>
</package3d>
</packages3d>
<symbols>
<symbol name="LM50" urn="urn:adsk.eagle:symbol:16353/1" library_version="4">
<wire x1="-7.62" y1="2.54" x2="7.62" y2="2.54" width="0.254" layer="94"/>
<wire x1="7.62" y1="2.54" x2="7.62" y2="-5.08" width="0.254" layer="94"/>
<wire x1="7.62" y1="-5.08" x2="-7.62" y2="-5.08" width="0.254" layer="94"/>
<wire x1="-7.62" y1="-5.08" x2="-7.62" y2="2.54" width="0.254" layer="94"/>
<text x="-2.286" y="-4.064" size="1.524" layer="95">GND</text>
<text x="-7.62" y="3.81" size="1.778" layer="95">&gt;NAME</text>
<text x="2.54" y="-7.62" size="1.778" layer="96">&gt;VALUE</text>
<pin name="+VS" x="-10.16" y="0" length="short" direction="in"/>
<pin name="VO" x="10.16" y="0" length="short" direction="in" rot="R180"/>
<pin name="GND" x="0" y="-7.62" visible="pad" length="short" direction="pwr" rot="R90"/>
</symbol>
</symbols>
<devicesets>
<deviceset name="LM50" urn="urn:adsk.eagle:component:16823/2" prefix="IC" library_version="4">
<description>&lt;b&gt;SOT-23 Single-Supply Centigrade Temperature Sensor&lt;/b&gt;&lt;p&gt;
Vout = (10mV/°C x Temp °C) +5mmmV&lt;br&gt;

Source: http://cache.national.com/ds/LM/LM50.pdf</description>
<gates>
<gate name="G$1" symbol="LM50" x="0" y="0"/>
</gates>
<devices>
<device name="" package="SOT23">
<connects>
<connect gate="G$1" pin="+VS" pad="1"/>
<connect gate="G$1" pin="GND" pad="3"/>
<connect gate="G$1" pin="VO" pad="2"/>
</connects>
<package3dinstances>
<package3dinstance package3d_urn="urn:adsk.eagle:package:16489/2"/>
</package3dinstances>
<technologies>
<technology name=""/>
</technologies>
</device>
</devices>
</deviceset>
</devicesets>
</library>
<library name="con-lstb" urn="urn:adsk.eagle:library:162">
<description>&lt;b&gt;Pin Headers&lt;/b&gt;&lt;p&gt;
Naming:&lt;p&gt;
MA = male&lt;p&gt;
# contacts - # rows&lt;p&gt;
W = angled&lt;p&gt;
&lt;author&gt;Created by librarian@cadsoft.de&lt;/author&gt;</description>
<packages>
<package name="MA03-1" urn="urn:adsk.eagle:footprint:8281/1" library_version="1">
<description>&lt;b&gt;PIN HEADER&lt;/b&gt;</description>
<wire x1="-3.175" y1="1.27" x2="-1.905" y2="1.27" width="0.1524" layer="21"/>
<wire x1="-1.905" y1="1.27" x2="-1.27" y2="0.635" width="0.1524" layer="21"/>
<wire x1="-1.27" y1="-0.635" x2="-1.905" y2="-1.27" width="0.1524" layer="21"/>
<wire x1="-1.27" y1="0.635" x2="-0.635" y2="1.27" width="0.1524" layer="21"/>
<wire x1="-0.635" y1="1.27" x2="0.635" y2="1.27" width="0.1524" layer="21"/>
<wire x1="0.635" y1="1.27" x2="1.27" y2="0.635" width="0.1524" layer="21"/>
<wire x1="1.27" y1="-0.635" x2="0.635" y2="-1.27" width="0.1524" layer="21"/>
<wire x1="0.635" y1="-1.27" x2="-0.635" y2="-1.27" width="0.1524" layer="21"/>
<wire x1="-0.635" y1="-1.27" x2="-1.27" y2="-0.635" width="0.1524" layer="21"/>
<wire x1="-3.81" y1="0.635" x2="-3.81" y2="-0.635" width="0.1524" layer="21"/>
<wire x1="-3.175" y1="1.27" x2="-3.81" y2="0.635" width="0.1524" layer="21"/>
<wire x1="-3.81" y1="-0.635" x2="-3.175" y2="-1.27" width="0.1524" layer="21"/>
<wire x1="-1.905" y1="-1.27" x2="-3.175" y2="-1.27" width="0.1524" layer="21"/>
<wire x1="1.27" y1="0.635" x2="1.905" y2="1.27" width="0.1524" layer="21"/>
<wire x1="1.905" y1="1.27" x2="3.175" y2="1.27" width="0.1524" layer="21"/>
<wire x1="3.175" y1="1.27" x2="3.81" y2="0.635" width="0.1524" layer="21"/>
<wire x1="3.81" y1="-0.635" x2="3.175" y2="-1.27" width="0.1524" layer="21"/>
<wire x1="3.175" y1="-1.27" x2="1.905" y2="-1.27" width="0.1524" layer="21"/>
<wire x1="1.905" y1="-1.27" x2="1.27" y2="-0.635" width="0.1524" layer="21"/>
<wire x1="3.81" y1="0.635" x2="3.81" y2="-0.635" width="0.1524" layer="21"/>
<pad name="1" x="-2.54" y="0" drill="1.016" shape="long" rot="R90"/>
<pad name="2" x="0" y="0" drill="1.016" shape="long" rot="R90"/>
<pad name="3" x="2.54" y="0" drill="1.016" shape="long" rot="R90"/>
<text x="-3.81" y="1.651" size="1.27" layer="25" ratio="10">&gt;NAME</text>
<text x="-5.08" y="-0.635" size="1.27" layer="21" ratio="10">1</text>
<text x="-3.81" y="-2.921" size="1.27" layer="27" ratio="10">&gt;VALUE</text>
<rectangle x1="-0.254" y1="-0.254" x2="0.254" y2="0.254" layer="51"/>
<rectangle x1="-2.794" y1="-0.254" x2="-2.286" y2="0.254" layer="51"/>
<rectangle x1="2.286" y1="-0.254" x2="2.794" y2="0.254" layer="51"/>
</package>
<package name="MA04-1" urn="urn:adsk.eagle:footprint:8285/1" library_version="1">
<description>&lt;b&gt;PIN HEADER&lt;/b&gt;</description>
<wire x1="-4.445" y1="1.27" x2="-3.175" y2="1.27" width="0.1524" layer="21"/>
<wire x1="-3.175" y1="1.27" x2="-2.54" y2="0.635" width="0.1524" layer="21"/>
<wire x1="-2.54" y1="-0.635" x2="-3.175" y2="-1.27" width="0.1524" layer="21"/>
<wire x1="-2.54" y1="0.635" x2="-1.905" y2="1.27" width="0.1524" layer="21"/>
<wire x1="-1.905" y1="1.27" x2="-0.635" y2="1.27" width="0.1524" layer="21"/>
<wire x1="-0.635" y1="1.27" x2="0" y2="0.635" width="0.1524" layer="21"/>
<wire x1="0" y1="-0.635" x2="-0.635" y2="-1.27" width="0.1524" layer="21"/>
<wire x1="-0.635" y1="-1.27" x2="-1.905" y2="-1.27" width="0.1524" layer="21"/>
<wire x1="-1.905" y1="-1.27" x2="-2.54" y2="-0.635" width="0.1524" layer="21"/>
<wire x1="-5.08" y1="0.635" x2="-5.08" y2="-0.635" width="0.1524" layer="21"/>
<wire x1="-4.445" y1="1.27" x2="-5.08" y2="0.635" width="0.1524" layer="21"/>
<wire x1="-5.08" y1="-0.635" x2="-4.445" y2="-1.27" width="0.1524" layer="21"/>
<wire x1="-3.175" y1="-1.27" x2="-4.445" y2="-1.27" width="0.1524" layer="21"/>
<wire x1="0" y1="0.635" x2="0.635" y2="1.27" width="0.1524" layer="21"/>
<wire x1="0.635" y1="1.27" x2="1.905" y2="1.27" width="0.1524" layer="21"/>
<wire x1="1.905" y1="1.27" x2="2.54" y2="0.635" width="0.1524" layer="21"/>
<wire x1="2.54" y1="-0.635" x2="1.905" y2="-1.27" width="0.1524" layer="21"/>
<wire x1="1.905" y1="-1.27" x2="0.635" y2="-1.27" width="0.1524" layer="21"/>
<wire x1="0.635" y1="-1.27" x2="0" y2="-0.635" width="0.1524" layer="21"/>
<wire x1="3.175" y1="1.27" x2="4.445" y2="1.27" width="0.1524" layer="21"/>
<wire x1="4.445" y1="1.27" x2="5.08" y2="0.635" width="0.1524" layer="21"/>
<wire x1="5.08" y1="0.635" x2="5.08" y2="-0.635" width="0.1524" layer="21"/>
<wire x1="5.08" y1="-0.635" x2="4.445" y2="-1.27" width="0.1524" layer="21"/>
<wire x1="3.175" y1="1.27" x2="2.54" y2="0.635" width="0.1524" layer="21"/>
<wire x1="2.54" y1="-0.635" x2="3.175" y2="-1.27" width="0.1524" layer="21"/>
<wire x1="4.445" y1="-1.27" x2="3.175" y2="-1.27" width="0.1524" layer="21"/>
<pad name="1" x="-3.81" y="0" drill="1.016" shape="long" rot="R90"/>
<pad name="2" x="-1.27" y="0" drill="1.016" shape="long" rot="R90"/>
<pad name="3" x="1.27" y="0" drill="1.016" shape="long" rot="R90"/>
<pad name="4" x="3.81" y="0" drill="1.016" shape="long" rot="R90"/>
<text x="-5.08" y="1.651" size="1.27" layer="25" ratio="10">&gt;NAME</text>
<text x="-6.223" y="-0.635" size="1.27" layer="21" ratio="10">1</text>
<text x="0.635" y="1.651" size="1.27" layer="27" ratio="10">&gt;VALUE</text>
<text x="5.334" y="-0.635" size="1.27" layer="21" ratio="10">4</text>
<rectangle x1="-1.524" y1="-0.254" x2="-1.016" y2="0.254" layer="51"/>
<rectangle x1="-4.064" y1="-0.254" x2="-3.556" y2="0.254" layer="51"/>
<rectangle x1="1.016" y1="-0.254" x2="1.524" y2="0.254" layer="51"/>
<rectangle x1="3.556" y1="-0.254" x2="4.064" y2="0.254" layer="51"/>
</package>
</packages>
<packages3d>
<package3d name="MA03-1" urn="urn:adsk.eagle:package:8339/1" type="box" library_version="1">
<description>PIN HEADER</description>
<packageinstances>
<packageinstance name="MA03-1"/>
</packageinstances>
</package3d>
<package3d name="MA04-1" urn="urn:adsk.eagle:package:8337/1" type="box" library_version="1">
<description>PIN HEADER</description>
<packageinstances>
<packageinstance name="MA04-1"/>
</packageinstances>
</package3d>
</packages3d>
<symbols>
<symbol name="MA03-1" urn="urn:adsk.eagle:symbol:8280/1" library_version="1">
<wire x1="3.81" y1="-5.08" x2="-1.27" y2="-5.08" width="0.4064" layer="94"/>
<wire x1="1.27" y1="2.54" x2="2.54" y2="2.54" width="0.6096" layer="94"/>
<wire x1="1.27" y1="0" x2="2.54" y2="0" width="0.6096" layer="94"/>
<wire x1="1.27" y1="-2.54" x2="2.54" y2="-2.54" width="0.6096" layer="94"/>
<wire x1="-1.27" y1="5.08" x2="-1.27" y2="-5.08" width="0.4064" layer="94"/>
<wire x1="3.81" y1="-5.08" x2="3.81" y2="5.08" width="0.4064" layer="94"/>
<wire x1="-1.27" y1="5.08" x2="3.81" y2="5.08" width="0.4064" layer="94"/>
<text x="-1.27" y="-7.62" size="1.778" layer="96">&gt;VALUE</text>
<text x="-1.27" y="5.842" size="1.778" layer="95">&gt;NAME</text>
<pin name="1" x="7.62" y="-2.54" visible="pad" length="middle" direction="pas" swaplevel="1" rot="R180"/>
<pin name="2" x="7.62" y="0" visible="pad" length="middle" direction="pas" swaplevel="1" rot="R180"/>
<pin name="3" x="7.62" y="2.54" visible="pad" length="middle" direction="pas" swaplevel="1" rot="R180"/>
</symbol>
<symbol name="MA04-1" urn="urn:adsk.eagle:symbol:8284/1" library_version="1">
<wire x1="3.81" y1="-7.62" x2="-1.27" y2="-7.62" width="0.4064" layer="94"/>
<wire x1="1.27" y1="0" x2="2.54" y2="0" width="0.6096" layer="94"/>
<wire x1="1.27" y1="-2.54" x2="2.54" y2="-2.54" width="0.6096" layer="94"/>
<wire x1="1.27" y1="-5.08" x2="2.54" y2="-5.08" width="0.6096" layer="94"/>
<wire x1="-1.27" y1="5.08" x2="-1.27" y2="-7.62" width="0.4064" layer="94"/>
<wire x1="3.81" y1="-7.62" x2="3.81" y2="5.08" width="0.4064" layer="94"/>
<wire x1="-1.27" y1="5.08" x2="3.81" y2="5.08" width="0.4064" layer="94"/>
<wire x1="1.27" y1="2.54" x2="2.54" y2="2.54" width="0.6096" layer="94"/>
<text x="-1.27" y="-10.16" size="1.778" layer="96">&gt;VALUE</text>
<text x="-1.27" y="5.842" size="1.778" layer="95">&gt;NAME</text>
<pin name="1" x="7.62" y="-5.08" visible="pad" length="middle" direction="pas" swaplevel="1" rot="R180"/>
<pin name="2" x="7.62" y="-2.54" visible="pad" length="middle" direction="pas" swaplevel="1" rot="R180"/>
<pin name="3" x="7.62" y="0" visible="pad" length="middle" direction="pas" swaplevel="1" rot="R180"/>
<pin name="4" x="7.62" y="2.54" visible="pad" length="middle" direction="pas" swaplevel="1" rot="R180"/>
</symbol>
</symbols>
<devicesets>
<deviceset name="MA03-1" urn="urn:adsk.eagle:component:8376/1" prefix="SV" uservalue="yes" library_version="1">
<description>&lt;b&gt;PIN HEADER&lt;/b&gt;</description>
<gates>
<gate name="G$1" symbol="MA03-1" x="0" y="0"/>
</gates>
<devices>
<device name="" package="MA03-1">
<connects>
<connect gate="G$1" pin="1" pad="1"/>
<connect gate="G$1" pin="2" pad="2"/>
<connect gate="G$1" pin="3" pad="3"/>
</connects>
<package3dinstances>
<package3dinstance package3d_urn="urn:adsk.eagle:package:8339/1"/>
</package3dinstances>
<technologies>
<technology name="">
<attribute name="MF" value="" constant="no"/>
<attribute name="MPN" value="" constant="no"/>
<attribute name="OC_FARNELL" value="unknown" constant="no"/>
<attribute name="OC_NEWARK" value="unknown" constant="no"/>
</technology>
</technologies>
</device>
</devices>
</deviceset>
<deviceset name="MA04-1" urn="urn:adsk.eagle:component:8375/1" prefix="SV" uservalue="yes" library_version="1">
<description>&lt;b&gt;PIN HEADER&lt;/b&gt;</description>
<gates>
<gate name="1" symbol="MA04-1" x="0" y="0"/>
</gates>
<devices>
<device name="" package="MA04-1">
<connects>
<connect gate="1" pin="1" pad="1"/>
<connect gate="1" pin="2" pad="2"/>
<connect gate="1" pin="3" pad="3"/>
<connect gate="1" pin="4" pad="4"/>
</connects>
<package3dinstances>
<package3dinstance package3d_urn="urn:adsk.eagle:package:8337/1"/>
</package3dinstances>
<technologies>
<technology name="">
<attribute name="MF" value="" constant="no"/>
<attribute name="MPN" value="" constant="no"/>
<attribute name="OC_FARNELL" value="unknown" constant="no"/>
<attribute name="OC_NEWARK" value="unknown" constant="no"/>
</technology>
</technologies>
</device>
</devices>
</deviceset>
</devicesets>
</library>
<library name="huike">
<description>HUI KE realys

www.szunion-tech.com</description>
<packages>
</packages>
<symbols>
</symbols>
<devicesets>
<deviceset name="HK410XF-">
<description>&lt;b&gt;This is unwated device but we cannot delet it from lib!&lt;/b&gt;&lt;p&gt;
&lt;b&gt;HUIKE (Fujitsu) subminaiture relay&lt;/b&gt;&lt;p&gt;
www.szunion-tech.com</description>
<gates>
</gates>
<devices>
<device name="">
<technologies>
<technology name=""/>
<technology name="DC12V"/>
<technology name="DC24V"/>
<technology name="DC3V"/>
<technology name="DC5V"/>
<technology name="DC6V"/>
<technology name="DC9V"/>
</technologies>
</device>
</devices>
</deviceset>
</devicesets>
</library>
<library name="relay" urn="urn:adsk.eagle:library:339">
<description>&lt;b&gt;Relays&lt;/b&gt;&lt;p&gt;
&lt;ul&gt;
&lt;li&gt;Eichhoff
&lt;li&gt;Finder
&lt;li&gt;Fujitsu
&lt;li&gt;HAMLIN
&lt;li&gt;OMRON
&lt;li&gt;Matsushita
&lt;li&gt;NAiS
&lt;li&gt;Siemens
&lt;li&gt;Schrack
&lt;/ul&gt;
&lt;author&gt;Created by librarian@cadsoft.de&lt;/author&gt;</description>
<packages>
<package name="M3XXH" urn="urn:adsk.eagle:footprint:23994/1" library_version="4">
<description>&lt;b&gt;RELAY&lt;/b&gt;&lt;p&gt;
1 x switch</description>
<wire x1="-7.874" y1="5.461" x2="-6.985" y2="5.461" width="0.1524" layer="21"/>
<wire x1="-6.985" y1="5.461" x2="-5.715" y2="5.461" width="0.1524" layer="51"/>
<wire x1="-5.715" y1="5.461" x2="-4.445" y2="5.461" width="0.1524" layer="21"/>
<wire x1="-4.445" y1="5.461" x2="-3.175" y2="5.461" width="0.1524" layer="51"/>
<wire x1="-3.175" y1="5.461" x2="7.874" y2="5.461" width="0.1524" layer="21"/>
<wire x1="7.874" y1="-5.461" x2="7.874" y2="5.461" width="0.1524" layer="21"/>
<wire x1="7.874" y1="-5.461" x2="-3.175" y2="-5.461" width="0.1524" layer="21"/>
<wire x1="-3.175" y1="-5.461" x2="-4.445" y2="-5.461" width="0.1524" layer="51"/>
<wire x1="-4.445" y1="-5.461" x2="-5.715" y2="-5.461" width="0.1524" layer="21"/>
<wire x1="-5.715" y1="-5.461" x2="-6.985" y2="-5.461" width="0.1524" layer="51"/>
<wire x1="-6.985" y1="-5.461" x2="-7.874" y2="-5.461" width="0.1524" layer="21"/>
<wire x1="-7.874" y1="5.461" x2="-7.874" y2="-5.461" width="0.1524" layer="21"/>
<wire x1="6.35" y1="-2.286" x2="6.35" y2="0" width="0.1524" layer="21"/>
<wire x1="-5.334" y1="0" x2="-6.604" y2="-0.889" width="0.1524" layer="21"/>
<wire x1="-6.35" y1="-2.032" x2="-6.35" y2="-0.762" width="0.1524" layer="21"/>
<wire x1="-6.35" y1="2.032" x2="-6.35" y2="0.889" width="0.1524" layer="21"/>
<wire x1="-2.413" y1="-0.762" x2="-2.413" y2="-2.794" width="0.1524" layer="21"/>
<wire x1="1.27" y1="-2.794" x2="1.27" y2="-0.762" width="0.1524" layer="21"/>
<wire x1="1.27" y1="-0.762" x2="0.127" y2="-0.762" width="0.1524" layer="21"/>
<wire x1="-2.413" y1="3.81" x2="-0.508" y2="3.81" width="0.1524" layer="21"/>
<wire x1="-0.508" y1="-0.762" x2="-0.508" y2="3.81" width="0.1524" layer="21"/>
<wire x1="-0.508" y1="-0.762" x2="-2.413" y2="-0.762" width="0.1524" layer="21"/>
<wire x1="-0.508" y1="-2.794" x2="-0.508" y2="-3.81" width="0.1524" layer="21"/>
<wire x1="-0.508" y1="-2.794" x2="1.27" y2="-2.794" width="0.1524" layer="21"/>
<wire x1="-0.508" y1="-3.81" x2="-2.413" y2="-3.81" width="0.1524" layer="21"/>
<wire x1="-2.413" y1="-2.794" x2="-1.143" y2="-2.794" width="0.1524" layer="21"/>
<wire x1="-1.143" y1="-2.794" x2="-0.508" y2="-2.794" width="0.1524" layer="21"/>
<wire x1="0.127" y1="-0.762" x2="-1.143" y2="-2.794" width="0.1524" layer="21"/>
<wire x1="0.127" y1="-0.762" x2="-0.508" y2="-0.762" width="0.1524" layer="21"/>
<wire x1="-5.334" y1="0" x2="6.35" y2="0" width="0.1524" layer="21"/>
<wire x1="6.35" y1="0" x2="6.35" y2="2.286" width="0.1524" layer="21"/>
<circle x="6.35" y="0" radius="0.254" width="0.254" layer="21"/>
<pad name="P" x="6.35" y="-3.81" drill="1.016" shape="long" rot="R90"/>
<pad name="P@" x="6.35" y="3.81" drill="1.016" shape="long" rot="R90"/>
<pad name="2" x="-3.81" y="-3.81" drill="1.016" shape="long" rot="R90"/>
<pad name="O" x="-6.35" y="-3.81" drill="1.016" shape="long" rot="R90"/>
<pad name="S" x="-6.35" y="3.81" drill="1.016" shape="long" rot="R90"/>
<pad name="1" x="-3.81" y="3.81" drill="1.016" shape="long" rot="R90"/>
<text x="9.525" y="-5.461" size="1.27" layer="25" ratio="10" rot="R90">&gt;NAME</text>
<text x="-8.255" y="-5.461" size="1.27" layer="27" ratio="10" rot="R90">&gt;VALUE</text>
</package>
</packages>
<packages3d>
<package3d name="M3XXH" urn="urn:adsk.eagle:package:24330/1" type="box" library_version="4">
<description>RELAY
1 x switch</description>
<packageinstances>
<packageinstance name="M3XXH"/>
</packageinstances>
</package3d>
</packages3d>
<symbols>
<symbol name="K" urn="urn:adsk.eagle:symbol:23941/1" library_version="4">
<wire x1="-3.81" y1="-1.905" x2="-1.905" y2="-1.905" width="0.254" layer="94"/>
<wire x1="3.81" y1="-1.905" x2="3.81" y2="1.905" width="0.254" layer="94"/>
<wire x1="3.81" y1="1.905" x2="1.905" y2="1.905" width="0.254" layer="94"/>
<wire x1="-3.81" y1="1.905" x2="-3.81" y2="-1.905" width="0.254" layer="94"/>
<wire x1="0" y1="-2.54" x2="0" y2="-1.905" width="0.1524" layer="94"/>
<wire x1="0" y1="-1.905" x2="3.81" y2="-1.905" width="0.254" layer="94"/>
<wire x1="0" y1="2.54" x2="0" y2="1.905" width="0.1524" layer="94"/>
<wire x1="0" y1="1.905" x2="-3.81" y2="1.905" width="0.254" layer="94"/>
<wire x1="-1.905" y1="-1.905" x2="1.905" y2="1.905" width="0.1524" layer="94"/>
<wire x1="-1.905" y1="-1.905" x2="0" y2="-1.905" width="0.254" layer="94"/>
<wire x1="1.905" y1="1.905" x2="0" y2="1.905" width="0.254" layer="94"/>
<text x="1.27" y="2.921" size="1.778" layer="96">&gt;VALUE</text>
<text x="1.27" y="5.08" size="1.778" layer="95">&gt;PART</text>
<pin name="2" x="0" y="-5.08" visible="pad" length="short" direction="pas" rot="R90"/>
<pin name="1" x="0" y="5.08" visible="pad" length="short" direction="pas" rot="R270"/>
</symbol>
<symbol name="U1" urn="urn:adsk.eagle:symbol:23981/1" library_version="4">
<wire x1="3.175" y1="5.08" x2="1.905" y2="5.08" width="0.254" layer="94"/>
<wire x1="-3.175" y1="5.08" x2="-1.905" y2="5.08" width="0.254" layer="94"/>
<wire x1="0" y1="1.27" x2="2.54" y2="5.715" width="0.254" layer="94"/>
<wire x1="-2.54" y1="0" x2="0" y2="0" width="0.1524" layer="94"/>
<wire x1="0" y1="0" x2="0" y2="1.27" width="0.254" layer="94"/>
<circle x="0" y="0" radius="0.127" width="0.4064" layer="94"/>
<circle x="0" y="1.27" radius="0.127" width="0.4064" layer="94"/>
<text x="2.54" y="0" size="1.778" layer="95">&gt;PART</text>
<pin name="O" x="5.08" y="5.08" visible="pad" length="short" direction="pas" rot="R180"/>
<pin name="S" x="-5.08" y="5.08" visible="pad" length="short" direction="pas"/>
<pin name="P" x="0" y="-2.54" visible="pad" length="short" direction="pas" swaplevel="1" rot="R90"/>
<pin name="P@1" x="-2.54" y="-2.54" visible="pad" length="short" direction="pas" swaplevel="1" rot="R90"/>
</symbol>
</symbols>
<devicesets>
<deviceset name="M3XXH" urn="urn:adsk.eagle:component:24603/1" prefix="K" library_version="4">
<description>&lt;b&gt;RELAY&lt;/b&gt;&lt;p&gt;
1 x switch</description>
<gates>
<gate name="1" symbol="K" x="0" y="0" addlevel="must"/>
<gate name="2" symbol="U1" x="17.78" y="0" addlevel="always"/>
</gates>
<devices>
<device name="" package="M3XXH">
<connects>
<connect gate="1" pin="1" pad="1"/>
<connect gate="1" pin="2" pad="2"/>
<connect gate="2" pin="O" pad="O"/>
<connect gate="2" pin="P" pad="P"/>
<connect gate="2" pin="P@1" pad="P@"/>
<connect gate="2" pin="S" pad="S"/>
</connects>
<package3dinstances>
<package3dinstance package3d_urn="urn:adsk.eagle:package:24330/1"/>
</package3dinstances>
<technologies>
<technology name="">
<attribute name="MF" value="" constant="no"/>
<attribute name="MPN" value="" constant="no"/>
<attribute name="OC_FARNELL" value="unknown" constant="no"/>
<attribute name="OC_NEWARK" value="unknown" constant="no"/>
</technology>
</technologies>
</device>
</devices>
</deviceset>
</devicesets>
</library>
<library name="supply1" urn="urn:adsk.eagle:library:371">
<description>&lt;b&gt;Supply Symbols&lt;/b&gt;&lt;p&gt;
 GND, VCC, 0V, +5V, -5V, etc.&lt;p&gt;
 Please keep in mind, that these devices are necessary for the
 automatic wiring of the supply signals.&lt;p&gt;
 The pin name defined in the symbol is identical to the net which is to be wired automatically.&lt;p&gt;
 In this library the device names are the same as the pin names of the symbols, therefore the correct signal names appear next to the supply symbols in the schematic.&lt;p&gt;
 &lt;author&gt;Created by librarian@cadsoft.de&lt;/author&gt;</description>
<packages>
</packages>
<symbols>
<symbol name="VCC" urn="urn:adsk.eagle:symbol:26928/1" library_version="1">
<wire x1="1.27" y1="-1.905" x2="0" y2="0" width="0.254" layer="94"/>
<wire x1="0" y1="0" x2="-1.27" y2="-1.905" width="0.254" layer="94"/>
<text x="-2.54" y="-2.54" size="1.778" layer="96" rot="R90">&gt;VALUE</text>
<pin name="VCC" x="0" y="-2.54" visible="off" length="short" direction="sup" rot="R90"/>
</symbol>
</symbols>
<devicesets>
<deviceset name="VCC" urn="urn:adsk.eagle:component:26957/1" prefix="P+" library_version="1">
<description>&lt;b&gt;SUPPLY SYMBOL&lt;/b&gt;</description>
<gates>
<gate name="VCC" symbol="VCC" x="0" y="0"/>
</gates>
<devices>
<device name="">
<technologies>
<technology name=""/>
</technologies>
</device>
</devices>
</deviceset>
</devicesets>
</library>
<library name="supply2" urn="urn:adsk.eagle:library:372">
<description>&lt;b&gt;Supply Symbols&lt;/b&gt;&lt;p&gt;
GND, VCC, 0V, +5V, -5V, etc.&lt;p&gt;
Please keep in mind, that these devices are necessary for the
automatic wiring of the supply signals.&lt;p&gt;
The pin name defined in the symbol is identical to the net which is to be wired automatically.&lt;p&gt;
In this library the device names are the same as the pin names of the symbols, therefore the correct signal names appear next to the supply symbols in the schematic.&lt;p&gt;
&lt;author&gt;Created by librarian@cadsoft.de&lt;/author&gt;</description>
<packages>
</packages>
<symbols>
<symbol name="GND" urn="urn:adsk.eagle:symbol:26990/1" library_version="2">
<wire x1="-1.27" y1="0" x2="1.27" y2="0" width="0.254" layer="94"/>
<wire x1="1.27" y1="0" x2="0" y2="-1.27" width="0.254" layer="94"/>
<wire x1="0" y1="-1.27" x2="-1.27" y2="0" width="0.254" layer="94"/>
<text x="-1.905" y="-3.175" size="1.778" layer="96">&gt;VALUE</text>
<pin name="GND" x="0" y="2.54" visible="off" length="short" direction="sup" rot="R270"/>
</symbol>
</symbols>
<devicesets>
<deviceset name="GND" urn="urn:adsk.eagle:component:27037/1" prefix="SUPPLY" library_version="2">
<description>&lt;b&gt;SUPPLY SYMBOL&lt;/b&gt;</description>
<gates>
<gate name="GND" symbol="GND" x="0" y="0"/>
</gates>
<devices>
<device name="">
<technologies>
<technology name=""/>
</technologies>
</device>
</devices>
</deviceset>
</devicesets>
</library>
</libraries>
<attributes>
</attributes>
<variantdefs>
</variantdefs>
<classes>
<class number="0" name="default" width="0" drill="0">
</class>
</classes>
<parts>
<part name="IC1" library="linear" library_urn="urn:adsk.eagle:library:262" deviceset="LM50" device="" package3d_urn="urn:adsk.eagle:package:16489/2"/>
<part name="INCOMING" library="con-lstb" library_urn="urn:adsk.eagle:library:162" deviceset="MA03-1" device="" package3d_urn="urn:adsk.eagle:package:8339/1"/>
<part name="K1" library="relay" library_urn="urn:adsk.eagle:library:339" deviceset="M3XXH" device="" package3d_urn="urn:adsk.eagle:package:24330/1"/>
<part name="P+1" library="supply1" library_urn="urn:adsk.eagle:library:371" deviceset="VCC" device=""/>
<part name="SUPPLY1" library="supply2" library_urn="urn:adsk.eagle:library:372" deviceset="GND" device=""/>
<part name="OUTGOING(*,*,-,+)" library="con-lstb" library_urn="urn:adsk.eagle:library:162" deviceset="MA04-1" device="" package3d_urn="urn:adsk.eagle:package:8337/1"/>
</parts>
<sheets>
<sheet>
<plain>
</plain>
<instances>
<instance part="IC1" gate="G$1" x="71.12" y="55.88" smashed="yes">
<attribute name="NAME" x="63.5" y="59.69" size="1.778" layer="95"/>
<attribute name="VALUE" x="73.66" y="48.26" size="1.778" layer="96"/>
</instance>
<instance part="INCOMING" gate="G$1" x="35.56" y="68.58" smashed="yes">
<attribute name="VALUE" x="34.29" y="60.96" size="1.778" layer="96"/>
<attribute name="NAME" x="34.29" y="74.422" size="1.778" layer="95"/>
</instance>
<instance part="K1" gate="1" x="76.2" y="78.74" smashed="yes">
<attribute name="VALUE" x="77.47" y="81.661" size="1.778" layer="96"/>
<attribute name="PART" x="77.47" y="83.82" size="1.778" layer="95"/>
</instance>
<instance part="K1" gate="2" x="93.98" y="78.74" smashed="yes">
<attribute name="PART" x="96.52" y="78.74" size="1.778" layer="95"/>
</instance>
<instance part="P+1" gate="VCC" x="22.86" y="73.66" smashed="yes">
<attribute name="VALUE" x="20.32" y="71.12" size="1.778" layer="96" rot="R90"/>
</instance>
<instance part="SUPPLY1" gate="GND" x="0" y="66.04" smashed="yes">
<attribute name="VALUE" x="-1.905" y="62.865" size="1.778" layer="96"/>
</instance>
<instance part="OUTGOING(*,*,-,+)" gate="1" x="20.32" y="35.56" smashed="yes">
<attribute name="VALUE" x="19.05" y="25.4" size="1.778" layer="96"/>
<attribute name="NAME" x="19.05" y="41.402" size="1.778" layer="95"/>
</instance>
</instances>
<busses>
</busses>
<nets>
<net name="N$1" class="0">
<segment>
<pinref part="INCOMING" gate="G$1" pin="3"/>
<wire x1="43.18" y1="71.12" x2="58.42" y2="71.12" width="0.1524" layer="91"/>
<wire x1="58.42" y1="71.12" x2="58.42" y2="55.88" width="0.1524" layer="91"/>
<pinref part="IC1" gate="G$1" pin="+VS"/>
<wire x1="58.42" y1="55.88" x2="60.96" y2="55.88" width="0.1524" layer="91"/>
</segment>
</net>
<net name="N$2" class="0">
<segment>
<pinref part="IC1" gate="G$1" pin="GND"/>
<wire x1="71.12" y1="48.26" x2="71.12" y2="73.66" width="0.1524" layer="91"/>
<pinref part="K1" gate="1" pin="2"/>
<wire x1="71.12" y1="73.66" x2="76.2" y2="73.66" width="0.1524" layer="91"/>
<wire x1="71.12" y1="48.26" x2="71.12" y2="33.02" width="0.1524" layer="91"/>
<wire x1="71.12" y1="33.02" x2="27.94" y2="33.02" width="0.1524" layer="91"/>
<junction x="71.12" y="48.26"/>
<pinref part="OUTGOING(*,*,-,+)" gate="1" pin="2"/>
</segment>
</net>
<net name="VCC" class="0">
<segment>
<pinref part="INCOMING" gate="G$1" pin="2"/>
<wire x1="43.18" y1="68.58" x2="53.34" y2="68.58" width="0.1524" layer="91"/>
<wire x1="53.34" y1="68.58" x2="53.34" y2="86.36" width="0.1524" layer="91"/>
<pinref part="K1" gate="1" pin="1"/>
<wire x1="53.34" y1="86.36" x2="76.2" y2="86.36" width="0.1524" layer="91"/>
<wire x1="76.2" y1="86.36" x2="76.2" y2="83.82" width="0.1524" layer="91"/>
<pinref part="P+1" gate="VCC" pin="VCC"/>
<wire x1="22.86" y1="71.12" x2="22.86" y2="68.58" width="0.1524" layer="91"/>
<wire x1="22.86" y1="68.58" x2="30.48" y2="68.58" width="0.1524" layer="91"/>
<junction x="43.18" y="68.58"/>
<pinref part="OUTGOING(*,*,-,+)" gate="1" pin="1"/>
<wire x1="30.48" y1="68.58" x2="43.18" y2="68.58" width="0.1524" layer="91"/>
<wire x1="27.94" y1="30.48" x2="30.48" y2="30.48" width="0.1524" layer="91"/>
<wire x1="30.48" y1="30.48" x2="30.48" y2="68.58" width="0.1524" layer="91"/>
<junction x="30.48" y="68.58"/>
</segment>
</net>
<net name="GND" class="0">
<segment>
<pinref part="SUPPLY1" gate="GND" pin="GND"/>
<wire x1="0" y1="68.58" x2="12.7" y2="68.58" width="0.1524" layer="91"/>
<wire x1="12.7" y1="68.58" x2="12.7" y2="66.04" width="0.1524" layer="91"/>
<pinref part="INCOMING" gate="G$1" pin="1"/>
<wire x1="12.7" y1="66.04" x2="43.18" y2="66.04" width="0.1524" layer="91"/>
<pinref part="IC1" gate="G$1" pin="VO"/>
<wire x1="43.18" y1="66.04" x2="81.28" y2="66.04" width="0.1524" layer="91"/>
<wire x1="81.28" y1="66.04" x2="81.28" y2="55.88" width="0.1524" layer="91"/>
<junction x="43.18" y="66.04"/>
</segment>
</net>
<net name="N$3" class="0">
<segment>
<pinref part="K1" gate="2" pin="S"/>
<wire x1="88.9" y1="83.82" x2="86.36" y2="83.82" width="0.1524" layer="91"/>
<wire x1="86.36" y1="83.82" x2="86.36" y2="96.52" width="0.1524" layer="91"/>
<wire x1="86.36" y1="96.52" x2="60.96" y2="96.52" width="0.1524" layer="91"/>
<wire x1="60.96" y1="96.52" x2="60.96" y2="38.1" width="0.1524" layer="91"/>
<wire x1="60.96" y1="38.1" x2="27.94" y2="38.1" width="0.1524" layer="91"/>
<pinref part="OUTGOING(*,*,-,+)" gate="1" pin="4"/>
</segment>
</net>
<net name="N$4" class="0">
<segment>
<pinref part="K1" gate="2" pin="P"/>
<wire x1="93.98" y1="76.2" x2="93.98" y2="35.56" width="0.1524" layer="91"/>
<wire x1="93.98" y1="35.56" x2="27.94" y2="35.56" width="0.1524" layer="91"/>
<pinref part="OUTGOING(*,*,-,+)" gate="1" pin="3"/>
</segment>
</net>
</nets>
</sheet>
</sheets>
</schematic>
</drawing>
<compatibility>
<note version="8.2" severity="warning">
Since Version 8.2, EAGLE supports online libraries. The ids
of those online libraries will not be understood (or retained)
with this version.
</note>
<note version="8.3" severity="warning">
Since Version 8.3, EAGLE supports URNs for individual library
assets (packages, symbols, and devices). The URNs of those assets
will not be understood (or retained) with this version.
</note>
<note version="8.3" severity="warning">
Since Version 8.3, EAGLE supports the association of 3D packages
with devices in libraries, schematics, and board files. Those 3D
packages will not be understood (or retained) with this version.
</note>
</compatibility>
</eagle>
