G04*
G04 GERBER (RE)GENERATED BY FLATCAM v8.991 - www.flatcam.org - Version Date: 2019/12/27*
G04 Filename: copper_bottom.gbr_panelized*
G04 Created on : Tuesday, 07 July 2020 at 00:22*
G04*
G04 RS-274X GERBER GENERATED BY FLATCAM v8.991 - www.flatcam.org - Version Date: 2019/12/27*
G04 Filename: copper_bottom.gbr_panelized*
G04 Created on : Tuesday, 07 July 2020 at 00:18*
%FSLAX24Y24*%
%MOMM*%
%ADD10R,0.95X1.3*%
%ADD11R,3.25X1.3*%
%ADD12R,1.4X1.0*%
%ADD13R,2.54X1.27*%
%ADD14C,0.508*%
%ADD15C,0.7564*%

G71*
G90*
G01*
%LPD*%
D10*
X66330Y116390D03*
X89230Y116390D03*
X112130Y116390D03*
X253871Y116390D03*
X276771Y116390D03*
X299671Y116390D03*
X441413Y116390D03*
X464313Y116390D03*
X487213Y116390D03*
X628954Y116390D03*
X651854Y116390D03*
X674754Y116390D03*
X816495Y116390D03*
X839395Y116390D03*
X862295Y116390D03*
X66330Y313931D03*
X89230Y313931D03*
X112130Y313931D03*
X253871Y313931D03*
X276771Y313931D03*
X299671Y313931D03*
X441413Y313931D03*
X464313Y313931D03*
X487213Y313931D03*
X628954Y313931D03*
X651854Y313931D03*
X674754Y313931D03*
X816495Y313931D03*
X839395Y313931D03*
X862295Y313931D03*
X66330Y511473D03*
X89230Y511473D03*
X112130Y511473D03*
X253871Y511473D03*
X276771Y511473D03*
X299671Y511473D03*
X441413Y511473D03*
X464313Y511473D03*
X487213Y511473D03*
X628954Y511473D03*
X651854Y511473D03*
X674754Y511473D03*
X816495Y511473D03*
X839395Y511473D03*
X862295Y511473D03*
X66330Y709014D03*
X89230Y709014D03*
X112130Y709014D03*
X253871Y709014D03*
X276771Y709014D03*
X299671Y709014D03*
X441413Y709014D03*
X464313Y709014D03*
X487213Y709014D03*
X628954Y709014D03*
X651854Y709014D03*
X674754Y709014D03*
X816495Y709014D03*
X839395Y709014D03*
X862295Y709014D03*
X66330Y906555D03*
X89230Y906555D03*
X112130Y906555D03*
X253871Y906555D03*
X276771Y906555D03*
X299671Y906555D03*
X441413Y906555D03*
X464313Y906555D03*
X487213Y906555D03*
X628954Y906555D03*
X651854Y906555D03*
X674754Y906555D03*
X816495Y906555D03*
X839395Y906555D03*
X862295Y906555D03*
D11*
X89230Y49390D03*
X276771Y49390D03*
X464313Y49390D03*
X651854Y49390D03*
X839395Y49390D03*
X89230Y246931D03*
X276771Y246931D03*
X464313Y246931D03*
X651854Y246931D03*
X839395Y246931D03*
X89230Y444473D03*
X276771Y444473D03*
X464313Y444473D03*
X651854Y444473D03*
X839395Y444473D03*
X89230Y642014D03*
X276771Y642014D03*
X464313Y642014D03*
X651854Y642014D03*
X839395Y642014D03*
X89230Y839555D03*
X276771Y839555D03*
X464313Y839555D03*
X651854Y839555D03*
X839395Y839555D03*
D12*
X79000Y160000D03*
X101000Y150500D03*
X101000Y169500D03*
X266541Y160000D03*
X288541Y150500D03*
X288541Y169500D03*
X454083Y160000D03*
X476083Y150500D03*
X476083Y169500D03*
X641624Y160000D03*
X663624Y150500D03*
X663624Y169500D03*
X829165Y160000D03*
X851165Y150500D03*
X851165Y169500D03*
X79000Y357541D03*
X101000Y348041D03*
X101000Y367041D03*
X266541Y357541D03*
X288541Y348041D03*
X288541Y367041D03*
X454083Y357541D03*
X476083Y348041D03*
X476083Y367041D03*
X641624Y357541D03*
X663624Y348041D03*
X663624Y367041D03*
X829165Y357541D03*
X851165Y348041D03*
X851165Y367041D03*
X79000Y555083D03*
X101000Y545583D03*
X101000Y564583D03*
X266541Y555083D03*
X288541Y545583D03*
X288541Y564583D03*
X454083Y555083D03*
X476083Y545583D03*
X476083Y564583D03*
X641624Y555083D03*
X663624Y545583D03*
X663624Y564583D03*
X829165Y555083D03*
X851165Y545583D03*
X851165Y564583D03*
X79000Y752624D03*
X101000Y743124D03*
X101000Y762124D03*
X266541Y752624D03*
X288541Y743124D03*
X288541Y762124D03*
X454083Y752624D03*
X476083Y743124D03*
X476083Y762124D03*
X641624Y752624D03*
X663624Y743124D03*
X663624Y762124D03*
X829165Y752624D03*
X851165Y743124D03*
X851165Y762124D03*
X79000Y950165D03*
X101000Y940665D03*
X101000Y959665D03*
X266541Y950165D03*
X288541Y940665D03*
X288541Y959665D03*
X454083Y950165D03*
X476083Y940665D03*
X476083Y959665D03*
X641624Y950165D03*
X663624Y940665D03*
X663624Y959665D03*
X829165Y950165D03*
X851165Y940665D03*
X851165Y959665D03*
D13*
X160000Y50000D03*
X160000Y90000D03*
X25000Y95000D03*
X25000Y145000D03*
X160000Y170000D03*
X160000Y130000D03*
X160000Y10000D03*
X347541Y50000D03*
X347541Y90000D03*
X212541Y95000D03*
X212541Y145000D03*
X347541Y170000D03*
X347541Y130000D03*
X347541Y10000D03*
X535083Y50000D03*
X535083Y90000D03*
X400083Y95000D03*
X400083Y145000D03*
X535083Y170000D03*
X535083Y130000D03*
X535083Y10000D03*
X722624Y50000D03*
X722624Y90000D03*
X587624Y95000D03*
X587624Y145000D03*
X722624Y170000D03*
X722624Y130000D03*
X722624Y10000D03*
X910165Y50000D03*
X910165Y90000D03*
X775165Y95000D03*
X775165Y145000D03*
X910165Y170000D03*
X910165Y130000D03*
X910165Y10000D03*
X160000Y247541D03*
X160000Y287541D03*
X25000Y292541D03*
X25000Y342541D03*
X160000Y367541D03*
X160000Y327541D03*
X160000Y207541D03*
X347541Y247541D03*
X347541Y287541D03*
X212541Y292541D03*
X212541Y342541D03*
X347541Y367541D03*
X347541Y327541D03*
X347541Y207541D03*
X535083Y247541D03*
X535083Y287541D03*
X400083Y292541D03*
X400083Y342541D03*
X535083Y367541D03*
X535083Y327541D03*
X535083Y207541D03*
X722624Y247541D03*
X722624Y287541D03*
X587624Y292541D03*
X587624Y342541D03*
X722624Y367541D03*
X722624Y327541D03*
X722624Y207541D03*
X910165Y247541D03*
X910165Y287541D03*
X775165Y292541D03*
X775165Y342541D03*
X910165Y367541D03*
X910165Y327541D03*
X910165Y207541D03*
X160000Y445083D03*
X160000Y485083D03*
X25000Y490083D03*
X25000Y540083D03*
X160000Y565083D03*
X160000Y525083D03*
X160000Y405083D03*
X347541Y445083D03*
X347541Y485083D03*
X212541Y490083D03*
X212541Y540083D03*
X347541Y565083D03*
X347541Y525083D03*
X347541Y405083D03*
X535083Y445083D03*
X535083Y485083D03*
X400083Y490083D03*
X400083Y540083D03*
X535083Y565083D03*
X535083Y525083D03*
X535083Y405083D03*
X722624Y445083D03*
X722624Y485083D03*
X587624Y490083D03*
X587624Y540083D03*
X722624Y565083D03*
X722624Y525083D03*
X722624Y405083D03*
X910165Y445083D03*
X910165Y485083D03*
X775165Y490083D03*
X775165Y540083D03*
X910165Y565083D03*
X910165Y525083D03*
X910165Y405083D03*
X160000Y642624D03*
X160000Y682624D03*
X25000Y687624D03*
X25000Y737624D03*
X160000Y762624D03*
X160000Y722624D03*
X160000Y602624D03*
X347541Y642624D03*
X347541Y682624D03*
X212541Y687624D03*
X212541Y737624D03*
X347541Y762624D03*
X347541Y722624D03*
X347541Y602624D03*
X535083Y642624D03*
X535083Y682624D03*
X400083Y687624D03*
X400083Y737624D03*
X535083Y762624D03*
X535083Y722624D03*
X535083Y602624D03*
X722624Y642624D03*
X722624Y682624D03*
X587624Y687624D03*
X587624Y737624D03*
X722624Y762624D03*
X722624Y722624D03*
X722624Y602624D03*
X910165Y642624D03*
X910165Y682624D03*
X775165Y687624D03*
X775165Y737624D03*
X910165Y762624D03*
X910165Y722624D03*
X910165Y602624D03*
X160000Y840165D03*
X160000Y880165D03*
X25000Y885165D03*
X25000Y935165D03*
X160000Y960165D03*
X160000Y920165D03*
X160000Y800165D03*
X347541Y840165D03*
X347541Y880165D03*
X212541Y885165D03*
X212541Y935165D03*
X347541Y960165D03*
X347541Y920165D03*
X347541Y800165D03*
X535083Y840165D03*
X535083Y880165D03*
X400083Y885165D03*
X400083Y935165D03*
X535083Y960165D03*
X535083Y920165D03*
X535083Y800165D03*
X722624Y840165D03*
X722624Y880165D03*
X587624Y885165D03*
X587624Y935165D03*
X722624Y960165D03*
X722624Y920165D03*
X722624Y800165D03*
X910165Y840165D03*
X910165Y880165D03*
X775165Y885165D03*
X775165Y935165D03*
X910165Y960165D03*
X910165Y920165D03*
X910165Y800165D03*
D14*
X112268Y82550D02*
X112268Y95758D01*
X112268Y115570D01*
X112268Y82550D02*
X141986Y52832D01*
X158496Y52832D01*
X112268Y115570D02*
X112130Y116390D01*
X158496Y52832D02*
X160000Y50000D01*
X112268Y95758D02*
X26416Y95758D01*
X25000Y95000D01*
X69342Y118872D02*
X69342Y132080D01*
X85852Y148590D01*
X99060Y148590D01*
X69342Y118872D02*
X66330Y116390D01*
X99060Y148590D02*
X101000Y150500D01*
X158496Y89154D02*
X141986Y72644D01*
X132080Y72644D01*
X123825Y80899D02*
X122174Y82550D01*
X123825Y80899D02*
X132080Y72644D01*
X122174Y82550D02*
X122174Y125476D01*
X118872Y128778D01*
X105664Y128778D01*
X102362Y125476D01*
X102362Y112268D01*
X95758Y105664D01*
X79248Y105664D01*
X69342Y115570D01*
X158496Y89154D02*
X160000Y90000D01*
X69342Y115570D02*
X66330Y116390D01*
X123825Y80899D02*
X125476Y82550D01*
X112268Y158496D02*
X102362Y168402D01*
X112268Y158496D02*
X112268Y141986D01*
X108966Y138684D01*
X89154Y138684D01*
X79248Y128778D01*
X56134Y79248D02*
X36322Y59436D01*
X102362Y168402D02*
X101000Y169500D01*
X39624Y158496D02*
X75946Y158496D01*
X39624Y158496D02*
X26416Y145288D01*
X75946Y158496D02*
X79000Y160000D01*
X26416Y145288D02*
X25000Y145000D01*
X92456Y128778D02*
X92456Y118872D01*
X89230Y116390D01*
X135382Y145288D02*
X135382Y82550D01*
X135382Y145288D02*
X158496Y168402D01*
X160000Y170000D01*
X161798Y115570D02*
X161798Y128778D01*
X160000Y130000D01*
X145288Y26416D02*
X135382Y26416D01*
X145288Y26416D02*
X158496Y13208D01*
X160000Y10000D01*
X299809Y82550D02*
X299809Y95758D01*
X299809Y115570D01*
X299809Y82550D02*
X329527Y52832D01*
X346037Y52832D01*
X299809Y115570D02*
X299671Y116390D01*
X346037Y52832D02*
X347541Y50000D01*
X299809Y95758D02*
X213957Y95758D01*
X212541Y95000D01*
X256883Y118872D02*
X256883Y132080D01*
X273393Y148590D01*
X286601Y148590D01*
X256883Y118872D02*
X253871Y116390D01*
X286601Y148590D02*
X288541Y150500D01*
X346037Y89154D02*
X329527Y72644D01*
X319621Y72644D01*
X311366Y80899D02*
X309715Y82550D01*
X311366Y80899D02*
X319621Y72644D01*
X309715Y82550D02*
X309715Y125476D01*
X306413Y128778D01*
X293205Y128778D01*
X289903Y125476D01*
X289903Y112268D01*
X283299Y105664D01*
X266789Y105664D01*
X256883Y115570D01*
X346037Y89154D02*
X347541Y90000D01*
X256883Y115570D02*
X253871Y116390D01*
X311366Y80899D02*
X313017Y82550D01*
X299809Y158496D02*
X289903Y168402D01*
X299809Y158496D02*
X299809Y141986D01*
X296507Y138684D01*
X276695Y138684D01*
X266789Y128778D01*
X243675Y79248D02*
X223863Y59436D01*
X289903Y168402D02*
X288541Y169500D01*
X227165Y158496D02*
X263487Y158496D01*
X227165Y158496D02*
X213957Y145288D01*
X263487Y158496D02*
X266541Y160000D01*
X213957Y145288D02*
X212541Y145000D01*
X279997Y128778D02*
X279997Y118872D01*
X276771Y116390D01*
X322923Y145288D02*
X322923Y82550D01*
X322923Y145288D02*
X346037Y168402D01*
X347541Y170000D01*
X349339Y115570D02*
X349339Y128778D01*
X347541Y130000D01*
X332829Y26416D02*
X322923Y26416D01*
X332829Y26416D02*
X346037Y13208D01*
X347541Y10000D01*
X487351Y82550D02*
X487351Y95758D01*
X487351Y115570D01*
X487351Y82550D02*
X517069Y52832D01*
X533579Y52832D01*
X487351Y115570D02*
X487213Y116390D01*
X533579Y52832D02*
X535083Y50000D01*
X487351Y95758D02*
X401499Y95758D01*
X400083Y95000D01*
X444425Y118872D02*
X444425Y132080D01*
X460935Y148590D01*
X474143Y148590D01*
X444425Y118872D02*
X441413Y116390D01*
X474143Y148590D02*
X476083Y150500D01*
X533579Y89154D02*
X517069Y72644D01*
X507163Y72644D01*
X498908Y80899D02*
X497257Y82550D01*
X498908Y80899D02*
X507163Y72644D01*
X497257Y82550D02*
X497257Y125476D01*
X493955Y128778D01*
X480747Y128778D01*
X477445Y125476D01*
X477445Y112268D01*
X470841Y105664D01*
X454331Y105664D01*
X444425Y115570D01*
X533579Y89154D02*
X535083Y90000D01*
X444425Y115570D02*
X441413Y116390D01*
X498908Y80899D02*
X500559Y82550D01*
X487351Y158496D02*
X477445Y168402D01*
X487351Y158496D02*
X487351Y141986D01*
X484049Y138684D01*
X464237Y138684D01*
X454331Y128778D01*
X431217Y79248D02*
X411405Y59436D01*
X477445Y168402D02*
X476083Y169500D01*
X414707Y158496D02*
X451029Y158496D01*
X414707Y158496D02*
X401499Y145288D01*
X451029Y158496D02*
X454083Y160000D01*
X401499Y145288D02*
X400083Y145000D01*
X467539Y128778D02*
X467539Y118872D01*
X464313Y116390D01*
X510465Y145288D02*
X510465Y82550D01*
X510465Y145288D02*
X533579Y168402D01*
X535083Y170000D01*
X536881Y115570D02*
X536881Y128778D01*
X535083Y130000D01*
X520371Y26416D02*
X510465Y26416D01*
X520371Y26416D02*
X533579Y13208D01*
X535083Y10000D01*
X674892Y82550D02*
X674892Y95758D01*
X674892Y115570D01*
X674892Y82550D02*
X704610Y52832D01*
X721120Y52832D01*
X674892Y115570D02*
X674754Y116390D01*
X721120Y52832D02*
X722624Y50000D01*
X674892Y95758D02*
X589040Y95758D01*
X587624Y95000D01*
X631966Y118872D02*
X631966Y132080D01*
X648476Y148590D01*
X661684Y148590D01*
X631966Y118872D02*
X628954Y116390D01*
X661684Y148590D02*
X663624Y150500D01*
X721120Y89154D02*
X704610Y72644D01*
X694704Y72644D01*
X686449Y80899D02*
X684798Y82550D01*
X686449Y80899D02*
X694704Y72644D01*
X684798Y82550D02*
X684798Y125476D01*
X681496Y128778D01*
X668288Y128778D01*
X664986Y125476D01*
X664986Y112268D01*
X658382Y105664D01*
X641872Y105664D01*
X631966Y115570D01*
X721120Y89154D02*
X722624Y90000D01*
X631966Y115570D02*
X628954Y116390D01*
X686449Y80899D02*
X688100Y82550D01*
X674892Y158496D02*
X664986Y168402D01*
X674892Y158496D02*
X674892Y141986D01*
X671590Y138684D01*
X651778Y138684D01*
X641872Y128778D01*
X618758Y79248D02*
X598946Y59436D01*
X664986Y168402D02*
X663624Y169500D01*
X602248Y158496D02*
X638570Y158496D01*
X602248Y158496D02*
X589040Y145288D01*
X638570Y158496D02*
X641624Y160000D01*
X589040Y145288D02*
X587624Y145000D01*
X655080Y128778D02*
X655080Y118872D01*
X651854Y116390D01*
X698006Y145288D02*
X698006Y82550D01*
X698006Y145288D02*
X721120Y168402D01*
X722624Y170000D01*
X724422Y115570D02*
X724422Y128778D01*
X722624Y130000D01*
X707912Y26416D02*
X698006Y26416D01*
X707912Y26416D02*
X721120Y13208D01*
X722624Y10000D01*
X862433Y82550D02*
X862433Y95758D01*
X862433Y115570D01*
X862433Y82550D02*
X892151Y52832D01*
X908661Y52832D01*
X862433Y115570D02*
X862295Y116390D01*
X908661Y52832D02*
X910165Y50000D01*
X862433Y95758D02*
X776581Y95758D01*
X775165Y95000D01*
X819507Y118872D02*
X819507Y132080D01*
X836017Y148590D01*
X849225Y148590D01*
X819507Y118872D02*
X816495Y116390D01*
X849225Y148590D02*
X851165Y150500D01*
X908661Y89154D02*
X892151Y72644D01*
X882245Y72644D01*
X873990Y80899D02*
X872339Y82550D01*
X873990Y80899D02*
X882245Y72644D01*
X872339Y82550D02*
X872339Y125476D01*
X869037Y128778D01*
X855829Y128778D01*
X852527Y125476D01*
X852527Y112268D01*
X845923Y105664D01*
X829413Y105664D01*
X819507Y115570D01*
X908661Y89154D02*
X910165Y90000D01*
X819507Y115570D02*
X816495Y116390D01*
X873990Y80899D02*
X875641Y82550D01*
X862433Y158496D02*
X852527Y168402D01*
X862433Y158496D02*
X862433Y141986D01*
X859131Y138684D01*
X839319Y138684D01*
X829413Y128778D01*
X806299Y79248D02*
X786487Y59436D01*
X852527Y168402D02*
X851165Y169500D01*
X789789Y158496D02*
X826111Y158496D01*
X789789Y158496D02*
X776581Y145288D01*
X826111Y158496D02*
X829165Y160000D01*
X776581Y145288D02*
X775165Y145000D01*
X842621Y128778D02*
X842621Y118872D01*
X839395Y116390D01*
X885547Y145288D02*
X885547Y82550D01*
X885547Y145288D02*
X908661Y168402D01*
X910165Y170000D01*
X911963Y115570D02*
X911963Y128778D01*
X910165Y130000D01*
X895453Y26416D02*
X885547Y26416D01*
X895453Y26416D02*
X908661Y13208D01*
X910165Y10000D01*
X112268Y280091D02*
X112268Y293299D01*
X112268Y313111D01*
X112268Y280091D02*
X141986Y250373D01*
X158496Y250373D01*
X112268Y313111D02*
X112130Y313931D01*
X158496Y250373D02*
X160000Y247541D01*
X112268Y293299D02*
X26416Y293299D01*
X25000Y292541D01*
X69342Y316413D02*
X69342Y329621D01*
X85852Y346131D01*
X99060Y346131D01*
X69342Y316413D02*
X66330Y313931D01*
X99060Y346131D02*
X101000Y348041D01*
X158496Y286695D02*
X141986Y270185D01*
X132080Y270185D01*
X123825Y278440D02*
X122174Y280091D01*
X123825Y278440D02*
X132080Y270185D01*
X122174Y280091D02*
X122174Y323017D01*
X118872Y326319D01*
X105664Y326319D01*
X102362Y323017D01*
X102362Y309809D01*
X95758Y303205D01*
X79248Y303205D01*
X69342Y313111D01*
X158496Y286695D02*
X160000Y287541D01*
X69342Y313111D02*
X66330Y313931D01*
X123825Y278440D02*
X125476Y280091D01*
X112268Y356037D02*
X102362Y365943D01*
X112268Y356037D02*
X112268Y339527D01*
X108966Y336225D01*
X89154Y336225D01*
X79248Y326319D01*
X56134Y276789D02*
X36322Y256977D01*
X102362Y365943D02*
X101000Y367041D01*
X39624Y356037D02*
X75946Y356037D01*
X39624Y356037D02*
X26416Y342829D01*
X75946Y356037D02*
X79000Y357541D01*
X26416Y342829D02*
X25000Y342541D01*
X92456Y326319D02*
X92456Y316413D01*
X89230Y313931D01*
X135382Y342829D02*
X135382Y280091D01*
X135382Y342829D02*
X158496Y365943D01*
X160000Y367541D01*
X161798Y313111D02*
X161798Y326319D01*
X160000Y327541D01*
X145288Y223957D02*
X135382Y223957D01*
X145288Y223957D02*
X158496Y210749D01*
X160000Y207541D01*
X299809Y280091D02*
X299809Y293299D01*
X299809Y313111D01*
X299809Y280091D02*
X329527Y250373D01*
X346037Y250373D01*
X299809Y313111D02*
X299671Y313931D01*
X346037Y250373D02*
X347541Y247541D01*
X299809Y293299D02*
X213957Y293299D01*
X212541Y292541D01*
X256883Y316413D02*
X256883Y329621D01*
X273393Y346131D01*
X286601Y346131D01*
X256883Y316413D02*
X253871Y313931D01*
X286601Y346131D02*
X288541Y348041D01*
X346037Y286695D02*
X329527Y270185D01*
X319621Y270185D01*
X311366Y278440D02*
X309715Y280091D01*
X311366Y278440D02*
X319621Y270185D01*
X309715Y280091D02*
X309715Y323017D01*
X306413Y326319D01*
X293205Y326319D01*
X289903Y323017D01*
X289903Y309809D01*
X283299Y303205D01*
X266789Y303205D01*
X256883Y313111D01*
X346037Y286695D02*
X347541Y287541D01*
X256883Y313111D02*
X253871Y313931D01*
X311366Y278440D02*
X313017Y280091D01*
X299809Y356037D02*
X289903Y365943D01*
X299809Y356037D02*
X299809Y339527D01*
X296507Y336225D01*
X276695Y336225D01*
X266789Y326319D01*
X243675Y276789D02*
X223863Y256977D01*
X289903Y365943D02*
X288541Y367041D01*
X227165Y356037D02*
X263487Y356037D01*
X227165Y356037D02*
X213957Y342829D01*
X263487Y356037D02*
X266541Y357541D01*
X213957Y342829D02*
X212541Y342541D01*
X279997Y326319D02*
X279997Y316413D01*
X276771Y313931D01*
X322923Y342829D02*
X322923Y280091D01*
X322923Y342829D02*
X346037Y365943D01*
X347541Y367541D01*
X349339Y313111D02*
X349339Y326319D01*
X347541Y327541D01*
X332829Y223957D02*
X322923Y223957D01*
X332829Y223957D02*
X346037Y210749D01*
X347541Y207541D01*
X487351Y280091D02*
X487351Y293299D01*
X487351Y313111D01*
X487351Y280091D02*
X517069Y250373D01*
X533579Y250373D01*
X487351Y313111D02*
X487213Y313931D01*
X533579Y250373D02*
X535083Y247541D01*
X487351Y293299D02*
X401499Y293299D01*
X400083Y292541D01*
X444425Y316413D02*
X444425Y329621D01*
X460935Y346131D01*
X474143Y346131D01*
X444425Y316413D02*
X441413Y313931D01*
X474143Y346131D02*
X476083Y348041D01*
X533579Y286695D02*
X517069Y270185D01*
X507163Y270185D01*
X498908Y278440D02*
X497257Y280091D01*
X498908Y278440D02*
X507163Y270185D01*
X497257Y280091D02*
X497257Y323017D01*
X493955Y326319D01*
X480747Y326319D01*
X477445Y323017D01*
X477445Y309809D01*
X470841Y303205D01*
X454331Y303205D01*
X444425Y313111D01*
X533579Y286695D02*
X535083Y287541D01*
X444425Y313111D02*
X441413Y313931D01*
X498908Y278440D02*
X500559Y280091D01*
X487351Y356037D02*
X477445Y365943D01*
X487351Y356037D02*
X487351Y339527D01*
X484049Y336225D01*
X464237Y336225D01*
X454331Y326319D01*
X431217Y276789D02*
X411405Y256977D01*
X477445Y365943D02*
X476083Y367041D01*
X414707Y356037D02*
X451029Y356037D01*
X414707Y356037D02*
X401499Y342829D01*
X451029Y356037D02*
X454083Y357541D01*
X401499Y342829D02*
X400083Y342541D01*
X467539Y326319D02*
X467539Y316413D01*
X464313Y313931D01*
X510465Y342829D02*
X510465Y280091D01*
X510465Y342829D02*
X533579Y365943D01*
X535083Y367541D01*
X536881Y313111D02*
X536881Y326319D01*
X535083Y327541D01*
X520371Y223957D02*
X510465Y223957D01*
X520371Y223957D02*
X533579Y210749D01*
X535083Y207541D01*
X674892Y280091D02*
X674892Y293299D01*
X674892Y313111D01*
X674892Y280091D02*
X704610Y250373D01*
X721120Y250373D01*
X674892Y313111D02*
X674754Y313931D01*
X721120Y250373D02*
X722624Y247541D01*
X674892Y293299D02*
X589040Y293299D01*
X587624Y292541D01*
X631966Y316413D02*
X631966Y329621D01*
X648476Y346131D01*
X661684Y346131D01*
X631966Y316413D02*
X628954Y313931D01*
X661684Y346131D02*
X663624Y348041D01*
X721120Y286695D02*
X704610Y270185D01*
X694704Y270185D01*
X686449Y278440D02*
X684798Y280091D01*
X686449Y278440D02*
X694704Y270185D01*
X684798Y280091D02*
X684798Y323017D01*
X681496Y326319D01*
X668288Y326319D01*
X664986Y323017D01*
X664986Y309809D01*
X658382Y303205D01*
X641872Y303205D01*
X631966Y313111D01*
X721120Y286695D02*
X722624Y287541D01*
X631966Y313111D02*
X628954Y313931D01*
X686449Y278440D02*
X688100Y280091D01*
X674892Y356037D02*
X664986Y365943D01*
X674892Y356037D02*
X674892Y339527D01*
X671590Y336225D01*
X651778Y336225D01*
X641872Y326319D01*
X618758Y276789D02*
X598946Y256977D01*
X664986Y365943D02*
X663624Y367041D01*
X602248Y356037D02*
X638570Y356037D01*
X602248Y356037D02*
X589040Y342829D01*
X638570Y356037D02*
X641624Y357541D01*
X589040Y342829D02*
X587624Y342541D01*
X655080Y326319D02*
X655080Y316413D01*
X651854Y313931D01*
X698006Y342829D02*
X698006Y280091D01*
X698006Y342829D02*
X721120Y365943D01*
X722624Y367541D01*
X724422Y313111D02*
X724422Y326319D01*
X722624Y327541D01*
X707912Y223957D02*
X698006Y223957D01*
X707912Y223957D02*
X721120Y210749D01*
X722624Y207541D01*
X862433Y280091D02*
X862433Y293299D01*
X862433Y313111D01*
X862433Y280091D02*
X892151Y250373D01*
X908661Y250373D01*
X862433Y313111D02*
X862295Y313931D01*
X908661Y250373D02*
X910165Y247541D01*
X862433Y293299D02*
X776581Y293299D01*
X775165Y292541D01*
X819507Y316413D02*
X819507Y329621D01*
X836017Y346131D01*
X849225Y346131D01*
X819507Y316413D02*
X816495Y313931D01*
X849225Y346131D02*
X851165Y348041D01*
X908661Y286695D02*
X892151Y270185D01*
X882245Y270185D01*
X873990Y278440D02*
X872339Y280091D01*
X873990Y278440D02*
X882245Y270185D01*
X872339Y280091D02*
X872339Y323017D01*
X869037Y326319D01*
X855829Y326319D01*
X852527Y323017D01*
X852527Y309809D01*
X845923Y303205D01*
X829413Y303205D01*
X819507Y313111D01*
X908661Y286695D02*
X910165Y287541D01*
X819507Y313111D02*
X816495Y313931D01*
X873990Y278440D02*
X875641Y280091D01*
X862433Y356037D02*
X852527Y365943D01*
X862433Y356037D02*
X862433Y339527D01*
X859131Y336225D01*
X839319Y336225D01*
X829413Y326319D01*
X806299Y276789D02*
X786487Y256977D01*
X852527Y365943D02*
X851165Y367041D01*
X789789Y356037D02*
X826111Y356037D01*
X789789Y356037D02*
X776581Y342829D01*
X826111Y356037D02*
X829165Y357541D01*
X776581Y342829D02*
X775165Y342541D01*
X842621Y326319D02*
X842621Y316413D01*
X839395Y313931D01*
X885547Y342829D02*
X885547Y280091D01*
X885547Y342829D02*
X908661Y365943D01*
X910165Y367541D01*
X911963Y313111D02*
X911963Y326319D01*
X910165Y327541D01*
X895453Y223957D02*
X885547Y223957D01*
X895453Y223957D02*
X908661Y210749D01*
X910165Y207541D01*
X112268Y477633D02*
X112268Y490841D01*
X112268Y510653D01*
X112268Y477633D02*
X141986Y447915D01*
X158496Y447915D01*
X112268Y510653D02*
X112130Y511473D01*
X158496Y447915D02*
X160000Y445083D01*
X112268Y490841D02*
X26416Y490841D01*
X25000Y490083D01*
X69342Y513955D02*
X69342Y527163D01*
X85852Y543673D01*
X99060Y543673D01*
X69342Y513955D02*
X66330Y511473D01*
X99060Y543673D02*
X101000Y545583D01*
X158496Y484237D02*
X141986Y467727D01*
X132080Y467727D01*
X123825Y475982D02*
X122174Y477633D01*
X123825Y475982D02*
X132080Y467727D01*
X122174Y477633D02*
X122174Y520559D01*
X118872Y523861D01*
X105664Y523861D01*
X102362Y520559D01*
X102362Y507351D01*
X95758Y500747D01*
X79248Y500747D01*
X69342Y510653D01*
X158496Y484237D02*
X160000Y485083D01*
X69342Y510653D02*
X66330Y511473D01*
X123825Y475982D02*
X125476Y477633D01*
X112268Y553579D02*
X102362Y563485D01*
X112268Y553579D02*
X112268Y537069D01*
X108966Y533767D01*
X89154Y533767D01*
X79248Y523861D01*
X56134Y474331D02*
X36322Y454519D01*
X102362Y563485D02*
X101000Y564583D01*
X39624Y553579D02*
X75946Y553579D01*
X39624Y553579D02*
X26416Y540371D01*
X75946Y553579D02*
X79000Y555083D01*
X26416Y540371D02*
X25000Y540083D01*
X92456Y523861D02*
X92456Y513955D01*
X89230Y511473D01*
X135382Y540371D02*
X135382Y477633D01*
X135382Y540371D02*
X158496Y563485D01*
X160000Y565083D01*
X161798Y510653D02*
X161798Y523861D01*
X160000Y525083D01*
X145288Y421499D02*
X135382Y421499D01*
X145288Y421499D02*
X158496Y408291D01*
X160000Y405083D01*
X299809Y477633D02*
X299809Y490841D01*
X299809Y510653D01*
X299809Y477633D02*
X329527Y447915D01*
X346037Y447915D01*
X299809Y510653D02*
X299671Y511473D01*
X346037Y447915D02*
X347541Y445083D01*
X299809Y490841D02*
X213957Y490841D01*
X212541Y490083D01*
X256883Y513955D02*
X256883Y527163D01*
X273393Y543673D01*
X286601Y543673D01*
X256883Y513955D02*
X253871Y511473D01*
X286601Y543673D02*
X288541Y545583D01*
X346037Y484237D02*
X329527Y467727D01*
X319621Y467727D01*
X311366Y475982D02*
X309715Y477633D01*
X311366Y475982D02*
X319621Y467727D01*
X309715Y477633D02*
X309715Y520559D01*
X306413Y523861D01*
X293205Y523861D01*
X289903Y520559D01*
X289903Y507351D01*
X283299Y500747D01*
X266789Y500747D01*
X256883Y510653D01*
X346037Y484237D02*
X347541Y485083D01*
X256883Y510653D02*
X253871Y511473D01*
X311366Y475982D02*
X313017Y477633D01*
X299809Y553579D02*
X289903Y563485D01*
X299809Y553579D02*
X299809Y537069D01*
X296507Y533767D01*
X276695Y533767D01*
X266789Y523861D01*
X243675Y474331D02*
X223863Y454519D01*
X289903Y563485D02*
X288541Y564583D01*
X227165Y553579D02*
X263487Y553579D01*
X227165Y553579D02*
X213957Y540371D01*
X263487Y553579D02*
X266541Y555083D01*
X213957Y540371D02*
X212541Y540083D01*
X279997Y523861D02*
X279997Y513955D01*
X276771Y511473D01*
X322923Y540371D02*
X322923Y477633D01*
X322923Y540371D02*
X346037Y563485D01*
X347541Y565083D01*
X349339Y510653D02*
X349339Y523861D01*
X347541Y525083D01*
X332829Y421499D02*
X322923Y421499D01*
X332829Y421499D02*
X346037Y408291D01*
X347541Y405083D01*
X487351Y477633D02*
X487351Y490841D01*
X487351Y510653D01*
X487351Y477633D02*
X517069Y447915D01*
X533579Y447915D01*
X487351Y510653D02*
X487213Y511473D01*
X533579Y447915D02*
X535083Y445083D01*
X487351Y490841D02*
X401499Y490841D01*
X400083Y490083D01*
X444425Y513955D02*
X444425Y527163D01*
X460935Y543673D01*
X474143Y543673D01*
X444425Y513955D02*
X441413Y511473D01*
X474143Y543673D02*
X476083Y545583D01*
X533579Y484237D02*
X517069Y467727D01*
X507163Y467727D01*
X498908Y475982D02*
X497257Y477633D01*
X498908Y475982D02*
X507163Y467727D01*
X497257Y477633D02*
X497257Y520559D01*
X493955Y523861D01*
X480747Y523861D01*
X477445Y520559D01*
X477445Y507351D01*
X470841Y500747D01*
X454331Y500747D01*
X444425Y510653D01*
X533579Y484237D02*
X535083Y485083D01*
X444425Y510653D02*
X441413Y511473D01*
X498908Y475982D02*
X500559Y477633D01*
X487351Y553579D02*
X477445Y563485D01*
X487351Y553579D02*
X487351Y537069D01*
X484049Y533767D01*
X464237Y533767D01*
X454331Y523861D01*
X431217Y474331D02*
X411405Y454519D01*
X477445Y563485D02*
X476083Y564583D01*
X414707Y553579D02*
X451029Y553579D01*
X414707Y553579D02*
X401499Y540371D01*
X451029Y553579D02*
X454083Y555083D01*
X401499Y540371D02*
X400083Y540083D01*
X467539Y523861D02*
X467539Y513955D01*
X464313Y511473D01*
X510465Y540371D02*
X510465Y477633D01*
X510465Y540371D02*
X533579Y563485D01*
X535083Y565083D01*
X536881Y510653D02*
X536881Y523861D01*
X535083Y525083D01*
X520371Y421499D02*
X510465Y421499D01*
X520371Y421499D02*
X533579Y408291D01*
X535083Y405083D01*
X674892Y477633D02*
X674892Y490841D01*
X674892Y510653D01*
X674892Y477633D02*
X704610Y447915D01*
X721120Y447915D01*
X674892Y510653D02*
X674754Y511473D01*
X721120Y447915D02*
X722624Y445083D01*
X674892Y490841D02*
X589040Y490841D01*
X587624Y490083D01*
X631966Y513955D02*
X631966Y527163D01*
X648476Y543673D01*
X661684Y543673D01*
X631966Y513955D02*
X628954Y511473D01*
X661684Y543673D02*
X663624Y545583D01*
X721120Y484237D02*
X704610Y467727D01*
X694704Y467727D01*
X686449Y475982D02*
X684798Y477633D01*
X686449Y475982D02*
X694704Y467727D01*
X684798Y477633D02*
X684798Y520559D01*
X681496Y523861D01*
X668288Y523861D01*
X664986Y520559D01*
X664986Y507351D01*
X658382Y500747D01*
X641872Y500747D01*
X631966Y510653D01*
X721120Y484237D02*
X722624Y485083D01*
X631966Y510653D02*
X628954Y511473D01*
X686449Y475982D02*
X688100Y477633D01*
X674892Y553579D02*
X664986Y563485D01*
X674892Y553579D02*
X674892Y537069D01*
X671590Y533767D01*
X651778Y533767D01*
X641872Y523861D01*
X618758Y474331D02*
X598946Y454519D01*
X664986Y563485D02*
X663624Y564583D01*
X602248Y553579D02*
X638570Y553579D01*
X602248Y553579D02*
X589040Y540371D01*
X638570Y553579D02*
X641624Y555083D01*
X589040Y540371D02*
X587624Y540083D01*
X655080Y523861D02*
X655080Y513955D01*
X651854Y511473D01*
X698006Y540371D02*
X698006Y477633D01*
X698006Y540371D02*
X721120Y563485D01*
X722624Y565083D01*
X724422Y510653D02*
X724422Y523861D01*
X722624Y525083D01*
X707912Y421499D02*
X698006Y421499D01*
X707912Y421499D02*
X721120Y408291D01*
X722624Y405083D01*
X862433Y477633D02*
X862433Y490841D01*
X862433Y510653D01*
X862433Y477633D02*
X892151Y447915D01*
X908661Y447915D01*
X862433Y510653D02*
X862295Y511473D01*
X908661Y447915D02*
X910165Y445083D01*
X862433Y490841D02*
X776581Y490841D01*
X775165Y490083D01*
X819507Y513955D02*
X819507Y527163D01*
X836017Y543673D01*
X849225Y543673D01*
X819507Y513955D02*
X816495Y511473D01*
X849225Y543673D02*
X851165Y545583D01*
X908661Y484237D02*
X892151Y467727D01*
X882245Y467727D01*
X873990Y475982D02*
X872339Y477633D01*
X873990Y475982D02*
X882245Y467727D01*
X872339Y477633D02*
X872339Y520559D01*
X869037Y523861D01*
X855829Y523861D01*
X852527Y520559D01*
X852527Y507351D01*
X845923Y500747D01*
X829413Y500747D01*
X819507Y510653D01*
X908661Y484237D02*
X910165Y485083D01*
X819507Y510653D02*
X816495Y511473D01*
X873990Y475982D02*
X875641Y477633D01*
X862433Y553579D02*
X852527Y563485D01*
X862433Y553579D02*
X862433Y537069D01*
X859131Y533767D01*
X839319Y533767D01*
X829413Y523861D01*
X806299Y474331D02*
X786487Y454519D01*
X852527Y563485D02*
X851165Y564583D01*
X789789Y553579D02*
X826111Y553579D01*
X789789Y553579D02*
X776581Y540371D01*
X826111Y553579D02*
X829165Y555083D01*
X776581Y540371D02*
X775165Y540083D01*
X842621Y523861D02*
X842621Y513955D01*
X839395Y511473D01*
X885547Y540371D02*
X885547Y477633D01*
X885547Y540371D02*
X908661Y563485D01*
X910165Y565083D01*
X911963Y510653D02*
X911963Y523861D01*
X910165Y525083D01*
X895453Y421499D02*
X885547Y421499D01*
X895453Y421499D02*
X908661Y408291D01*
X910165Y405083D01*
X112268Y675174D02*
X112268Y688382D01*
X112268Y708194D01*
X112268Y675174D02*
X141986Y645456D01*
X158496Y645456D01*
X112268Y708194D02*
X112130Y709014D01*
X158496Y645456D02*
X160000Y642624D01*
X112268Y688382D02*
X26416Y688382D01*
X25000Y687624D01*
X69342Y711496D02*
X69342Y724704D01*
X85852Y741214D01*
X99060Y741214D01*
X69342Y711496D02*
X66330Y709014D01*
X99060Y741214D02*
X101000Y743124D01*
X158496Y681778D02*
X141986Y665268D01*
X132080Y665268D01*
X123825Y673523D02*
X122174Y675174D01*
X123825Y673523D02*
X132080Y665268D01*
X122174Y675174D02*
X122174Y718100D01*
X118872Y721402D01*
X105664Y721402D01*
X102362Y718100D01*
X102362Y704892D01*
X95758Y698288D01*
X79248Y698288D01*
X69342Y708194D01*
X158496Y681778D02*
X160000Y682624D01*
X69342Y708194D02*
X66330Y709014D01*
X123825Y673523D02*
X125476Y675174D01*
X112268Y751120D02*
X102362Y761026D01*
X112268Y751120D02*
X112268Y734610D01*
X108966Y731308D01*
X89154Y731308D01*
X79248Y721402D01*
X56134Y671872D02*
X36322Y652060D01*
X102362Y761026D02*
X101000Y762124D01*
X39624Y751120D02*
X75946Y751120D01*
X39624Y751120D02*
X26416Y737912D01*
X75946Y751120D02*
X79000Y752624D01*
X26416Y737912D02*
X25000Y737624D01*
X92456Y721402D02*
X92456Y711496D01*
X89230Y709014D01*
X135382Y737912D02*
X135382Y675174D01*
X135382Y737912D02*
X158496Y761026D01*
X160000Y762624D01*
X161798Y708194D02*
X161798Y721402D01*
X160000Y722624D01*
X145288Y619040D02*
X135382Y619040D01*
X145288Y619040D02*
X158496Y605832D01*
X160000Y602624D01*
X299809Y675174D02*
X299809Y688382D01*
X299809Y708194D01*
X299809Y675174D02*
X329527Y645456D01*
X346037Y645456D01*
X299809Y708194D02*
X299671Y709014D01*
X346037Y645456D02*
X347541Y642624D01*
X299809Y688382D02*
X213957Y688382D01*
X212541Y687624D01*
X256883Y711496D02*
X256883Y724704D01*
X273393Y741214D01*
X286601Y741214D01*
X256883Y711496D02*
X253871Y709014D01*
X286601Y741214D02*
X288541Y743124D01*
X346037Y681778D02*
X329527Y665268D01*
X319621Y665268D01*
X311366Y673523D02*
X309715Y675174D01*
X311366Y673523D02*
X319621Y665268D01*
X309715Y675174D02*
X309715Y718100D01*
X306413Y721402D01*
X293205Y721402D01*
X289903Y718100D01*
X289903Y704892D01*
X283299Y698288D01*
X266789Y698288D01*
X256883Y708194D01*
X346037Y681778D02*
X347541Y682624D01*
X256883Y708194D02*
X253871Y709014D01*
X311366Y673523D02*
X313017Y675174D01*
X299809Y751120D02*
X289903Y761026D01*
X299809Y751120D02*
X299809Y734610D01*
X296507Y731308D01*
X276695Y731308D01*
X266789Y721402D01*
X243675Y671872D02*
X223863Y652060D01*
X289903Y761026D02*
X288541Y762124D01*
X227165Y751120D02*
X263487Y751120D01*
X227165Y751120D02*
X213957Y737912D01*
X263487Y751120D02*
X266541Y752624D01*
X213957Y737912D02*
X212541Y737624D01*
X279997Y721402D02*
X279997Y711496D01*
X276771Y709014D01*
X322923Y737912D02*
X322923Y675174D01*
X322923Y737912D02*
X346037Y761026D01*
X347541Y762624D01*
X349339Y708194D02*
X349339Y721402D01*
X347541Y722624D01*
X332829Y619040D02*
X322923Y619040D01*
X332829Y619040D02*
X346037Y605832D01*
X347541Y602624D01*
X487351Y675174D02*
X487351Y688382D01*
X487351Y708194D01*
X487351Y675174D02*
X517069Y645456D01*
X533579Y645456D01*
X487351Y708194D02*
X487213Y709014D01*
X533579Y645456D02*
X535083Y642624D01*
X487351Y688382D02*
X401499Y688382D01*
X400083Y687624D01*
X444425Y711496D02*
X444425Y724704D01*
X460935Y741214D01*
X474143Y741214D01*
X444425Y711496D02*
X441413Y709014D01*
X474143Y741214D02*
X476083Y743124D01*
X533579Y681778D02*
X517069Y665268D01*
X507163Y665268D01*
X498908Y673523D02*
X497257Y675174D01*
X498908Y673523D02*
X507163Y665268D01*
X497257Y675174D02*
X497257Y718100D01*
X493955Y721402D01*
X480747Y721402D01*
X477445Y718100D01*
X477445Y704892D01*
X470841Y698288D01*
X454331Y698288D01*
X444425Y708194D01*
X533579Y681778D02*
X535083Y682624D01*
X444425Y708194D02*
X441413Y709014D01*
X498908Y673523D02*
X500559Y675174D01*
X487351Y751120D02*
X477445Y761026D01*
X487351Y751120D02*
X487351Y734610D01*
X484049Y731308D01*
X464237Y731308D01*
X454331Y721402D01*
X431217Y671872D02*
X411405Y652060D01*
X477445Y761026D02*
X476083Y762124D01*
X414707Y751120D02*
X451029Y751120D01*
X414707Y751120D02*
X401499Y737912D01*
X451029Y751120D02*
X454083Y752624D01*
X401499Y737912D02*
X400083Y737624D01*
X467539Y721402D02*
X467539Y711496D01*
X464313Y709014D01*
X510465Y737912D02*
X510465Y675174D01*
X510465Y737912D02*
X533579Y761026D01*
X535083Y762624D01*
X536881Y708194D02*
X536881Y721402D01*
X535083Y722624D01*
X520371Y619040D02*
X510465Y619040D01*
X520371Y619040D02*
X533579Y605832D01*
X535083Y602624D01*
X674892Y675174D02*
X674892Y688382D01*
X674892Y708194D01*
X674892Y675174D02*
X704610Y645456D01*
X721120Y645456D01*
X674892Y708194D02*
X674754Y709014D01*
X721120Y645456D02*
X722624Y642624D01*
X674892Y688382D02*
X589040Y688382D01*
X587624Y687624D01*
X631966Y711496D02*
X631966Y724704D01*
X648476Y741214D01*
X661684Y741214D01*
X631966Y711496D02*
X628954Y709014D01*
X661684Y741214D02*
X663624Y743124D01*
X721120Y681778D02*
X704610Y665268D01*
X694704Y665268D01*
X686449Y673523D02*
X684798Y675174D01*
X686449Y673523D02*
X694704Y665268D01*
X684798Y675174D02*
X684798Y718100D01*
X681496Y721402D01*
X668288Y721402D01*
X664986Y718100D01*
X664986Y704892D01*
X658382Y698288D01*
X641872Y698288D01*
X631966Y708194D01*
X721120Y681778D02*
X722624Y682624D01*
X631966Y708194D02*
X628954Y709014D01*
X686449Y673523D02*
X688100Y675174D01*
X674892Y751120D02*
X664986Y761026D01*
X674892Y751120D02*
X674892Y734610D01*
X671590Y731308D01*
X651778Y731308D01*
X641872Y721402D01*
X618758Y671872D02*
X598946Y652060D01*
X664986Y761026D02*
X663624Y762124D01*
X602248Y751120D02*
X638570Y751120D01*
X602248Y751120D02*
X589040Y737912D01*
X638570Y751120D02*
X641624Y752624D01*
X589040Y737912D02*
X587624Y737624D01*
X655080Y721402D02*
X655080Y711496D01*
X651854Y709014D01*
X698006Y737912D02*
X698006Y675174D01*
X698006Y737912D02*
X721120Y761026D01*
X722624Y762624D01*
X724422Y708194D02*
X724422Y721402D01*
X722624Y722624D01*
X707912Y619040D02*
X698006Y619040D01*
X707912Y619040D02*
X721120Y605832D01*
X722624Y602624D01*
X862433Y675174D02*
X862433Y688382D01*
X862433Y708194D01*
X862433Y675174D02*
X892151Y645456D01*
X908661Y645456D01*
X862433Y708194D02*
X862295Y709014D01*
X908661Y645456D02*
X910165Y642624D01*
X862433Y688382D02*
X776581Y688382D01*
X775165Y687624D01*
X819507Y711496D02*
X819507Y724704D01*
X836017Y741214D01*
X849225Y741214D01*
X819507Y711496D02*
X816495Y709014D01*
X849225Y741214D02*
X851165Y743124D01*
X908661Y681778D02*
X892151Y665268D01*
X882245Y665268D01*
X873990Y673523D02*
X872339Y675174D01*
X873990Y673523D02*
X882245Y665268D01*
X872339Y675174D02*
X872339Y718100D01*
X869037Y721402D01*
X855829Y721402D01*
X852527Y718100D01*
X852527Y704892D01*
X845923Y698288D01*
X829413Y698288D01*
X819507Y708194D01*
X908661Y681778D02*
X910165Y682624D01*
X819507Y708194D02*
X816495Y709014D01*
X873990Y673523D02*
X875641Y675174D01*
X862433Y751120D02*
X852527Y761026D01*
X862433Y751120D02*
X862433Y734610D01*
X859131Y731308D01*
X839319Y731308D01*
X829413Y721402D01*
X806299Y671872D02*
X786487Y652060D01*
X852527Y761026D02*
X851165Y762124D01*
X789789Y751120D02*
X826111Y751120D01*
X789789Y751120D02*
X776581Y737912D01*
X826111Y751120D02*
X829165Y752624D01*
X776581Y737912D02*
X775165Y737624D01*
X842621Y721402D02*
X842621Y711496D01*
X839395Y709014D01*
X885547Y737912D02*
X885547Y675174D01*
X885547Y737912D02*
X908661Y761026D01*
X910165Y762624D01*
X911963Y708194D02*
X911963Y721402D01*
X910165Y722624D01*
X895453Y619040D02*
X885547Y619040D01*
X895453Y619040D02*
X908661Y605832D01*
X910165Y602624D01*
X112268Y872715D02*
X112268Y885923D01*
X112268Y905735D01*
X112268Y872715D02*
X141986Y842997D01*
X158496Y842997D01*
X112268Y905735D02*
X112130Y906555D01*
X158496Y842997D02*
X160000Y840165D01*
X112268Y885923D02*
X26416Y885923D01*
X25000Y885165D01*
X69342Y909037D02*
X69342Y922245D01*
X85852Y938755D01*
X99060Y938755D01*
X69342Y909037D02*
X66330Y906555D01*
X99060Y938755D02*
X101000Y940665D01*
X158496Y879319D02*
X141986Y862809D01*
X132080Y862809D01*
X123825Y871064D02*
X122174Y872715D01*
X123825Y871064D02*
X132080Y862809D01*
X122174Y872715D02*
X122174Y915641D01*
X118872Y918943D01*
X105664Y918943D01*
X102362Y915641D01*
X102362Y902433D01*
X95758Y895829D01*
X79248Y895829D01*
X69342Y905735D01*
X158496Y879319D02*
X160000Y880165D01*
X69342Y905735D02*
X66330Y906555D01*
X123825Y871064D02*
X125476Y872715D01*
X112268Y948661D02*
X102362Y958567D01*
X112268Y948661D02*
X112268Y932151D01*
X108966Y928849D01*
X89154Y928849D01*
X79248Y918943D01*
X56134Y869413D02*
X36322Y849601D01*
X102362Y958567D02*
X101000Y959665D01*
X39624Y948661D02*
X75946Y948661D01*
X39624Y948661D02*
X26416Y935453D01*
X75946Y948661D02*
X79000Y950165D01*
X26416Y935453D02*
X25000Y935165D01*
X92456Y918943D02*
X92456Y909037D01*
X89230Y906555D01*
X135382Y935453D02*
X135382Y872715D01*
X135382Y935453D02*
X158496Y958567D01*
X160000Y960165D01*
X161798Y905735D02*
X161798Y918943D01*
X160000Y920165D01*
X145288Y816581D02*
X135382Y816581D01*
X145288Y816581D02*
X158496Y803373D01*
X160000Y800165D01*
X299809Y872715D02*
X299809Y885923D01*
X299809Y905735D01*
X299809Y872715D02*
X329527Y842997D01*
X346037Y842997D01*
X299809Y905735D02*
X299671Y906555D01*
X346037Y842997D02*
X347541Y840165D01*
X299809Y885923D02*
X213957Y885923D01*
X212541Y885165D01*
X256883Y909037D02*
X256883Y922245D01*
X273393Y938755D01*
X286601Y938755D01*
X256883Y909037D02*
X253871Y906555D01*
X286601Y938755D02*
X288541Y940665D01*
X346037Y879319D02*
X329527Y862809D01*
X319621Y862809D01*
X311366Y871064D02*
X309715Y872715D01*
X311366Y871064D02*
X319621Y862809D01*
X309715Y872715D02*
X309715Y915641D01*
X306413Y918943D01*
X293205Y918943D01*
X289903Y915641D01*
X289903Y902433D01*
X283299Y895829D01*
X266789Y895829D01*
X256883Y905735D01*
X346037Y879319D02*
X347541Y880165D01*
X256883Y905735D02*
X253871Y906555D01*
X311366Y871064D02*
X313017Y872715D01*
X299809Y948661D02*
X289903Y958567D01*
X299809Y948661D02*
X299809Y932151D01*
X296507Y928849D01*
X276695Y928849D01*
X266789Y918943D01*
X243675Y869413D02*
X223863Y849601D01*
X289903Y958567D02*
X288541Y959665D01*
X227165Y948661D02*
X263487Y948661D01*
X227165Y948661D02*
X213957Y935453D01*
X263487Y948661D02*
X266541Y950165D01*
X213957Y935453D02*
X212541Y935165D01*
X279997Y918943D02*
X279997Y909037D01*
X276771Y906555D01*
X322923Y935453D02*
X322923Y872715D01*
X322923Y935453D02*
X346037Y958567D01*
X347541Y960165D01*
X349339Y905735D02*
X349339Y918943D01*
X347541Y920165D01*
X332829Y816581D02*
X322923Y816581D01*
X332829Y816581D02*
X346037Y803373D01*
X347541Y800165D01*
X487351Y872715D02*
X487351Y885923D01*
X487351Y905735D01*
X487351Y872715D02*
X517069Y842997D01*
X533579Y842997D01*
X487351Y905735D02*
X487213Y906555D01*
X533579Y842997D02*
X535083Y840165D01*
X487351Y885923D02*
X401499Y885923D01*
X400083Y885165D01*
X444425Y909037D02*
X444425Y922245D01*
X460935Y938755D01*
X474143Y938755D01*
X444425Y909037D02*
X441413Y906555D01*
X474143Y938755D02*
X476083Y940665D01*
X533579Y879319D02*
X517069Y862809D01*
X507163Y862809D01*
X498908Y871064D02*
X497257Y872715D01*
X498908Y871064D02*
X507163Y862809D01*
X497257Y872715D02*
X497257Y915641D01*
X493955Y918943D01*
X480747Y918943D01*
X477445Y915641D01*
X477445Y902433D01*
X470841Y895829D01*
X454331Y895829D01*
X444425Y905735D01*
X533579Y879319D02*
X535083Y880165D01*
X444425Y905735D02*
X441413Y906555D01*
X498908Y871064D02*
X500559Y872715D01*
X487351Y948661D02*
X477445Y958567D01*
X487351Y948661D02*
X487351Y932151D01*
X484049Y928849D01*
X464237Y928849D01*
X454331Y918943D01*
X431217Y869413D02*
X411405Y849601D01*
X477445Y958567D02*
X476083Y959665D01*
X414707Y948661D02*
X451029Y948661D01*
X414707Y948661D02*
X401499Y935453D01*
X451029Y948661D02*
X454083Y950165D01*
X401499Y935453D02*
X400083Y935165D01*
X467539Y918943D02*
X467539Y909037D01*
X464313Y906555D01*
X510465Y935453D02*
X510465Y872715D01*
X510465Y935453D02*
X533579Y958567D01*
X535083Y960165D01*
X536881Y905735D02*
X536881Y918943D01*
X535083Y920165D01*
X520371Y816581D02*
X510465Y816581D01*
X520371Y816581D02*
X533579Y803373D01*
X535083Y800165D01*
X674892Y872715D02*
X674892Y885923D01*
X674892Y905735D01*
X674892Y872715D02*
X704610Y842997D01*
X721120Y842997D01*
X674892Y905735D02*
X674754Y906555D01*
X721120Y842997D02*
X722624Y840165D01*
X674892Y885923D02*
X589040Y885923D01*
X587624Y885165D01*
X631966Y909037D02*
X631966Y922245D01*
X648476Y938755D01*
X661684Y938755D01*
X631966Y909037D02*
X628954Y906555D01*
X661684Y938755D02*
X663624Y940665D01*
X721120Y879319D02*
X704610Y862809D01*
X694704Y862809D01*
X686449Y871064D02*
X684798Y872715D01*
X686449Y871064D02*
X694704Y862809D01*
X684798Y872715D02*
X684798Y915641D01*
X681496Y918943D01*
X668288Y918943D01*
X664986Y915641D01*
X664986Y902433D01*
X658382Y895829D01*
X641872Y895829D01*
X631966Y905735D01*
X721120Y879319D02*
X722624Y880165D01*
X631966Y905735D02*
X628954Y906555D01*
X686449Y871064D02*
X688100Y872715D01*
X674892Y948661D02*
X664986Y958567D01*
X674892Y948661D02*
X674892Y932151D01*
X671590Y928849D01*
X651778Y928849D01*
X641872Y918943D01*
X618758Y869413D02*
X598946Y849601D01*
X664986Y958567D02*
X663624Y959665D01*
X602248Y948661D02*
X638570Y948661D01*
X602248Y948661D02*
X589040Y935453D01*
X638570Y948661D02*
X641624Y950165D01*
X589040Y935453D02*
X587624Y935165D01*
X655080Y918943D02*
X655080Y909037D01*
X651854Y906555D01*
X698006Y935453D02*
X698006Y872715D01*
X698006Y935453D02*
X721120Y958567D01*
X722624Y960165D01*
X724422Y905735D02*
X724422Y918943D01*
X722624Y920165D01*
X707912Y816581D02*
X698006Y816581D01*
X707912Y816581D02*
X721120Y803373D01*
X722624Y800165D01*
X862433Y872715D02*
X862433Y885923D01*
X862433Y905735D01*
X862433Y872715D02*
X892151Y842997D01*
X908661Y842997D01*
X862433Y905735D02*
X862295Y906555D01*
X908661Y842997D02*
X910165Y840165D01*
X862433Y885923D02*
X776581Y885923D01*
X775165Y885165D01*
X819507Y909037D02*
X819507Y922245D01*
X836017Y938755D01*
X849225Y938755D01*
X819507Y909037D02*
X816495Y906555D01*
X849225Y938755D02*
X851165Y940665D01*
X908661Y879319D02*
X892151Y862809D01*
X882245Y862809D01*
X873990Y871064D02*
X872339Y872715D01*
X873990Y871064D02*
X882245Y862809D01*
X872339Y872715D02*
X872339Y915641D01*
X869037Y918943D01*
X855829Y918943D01*
X852527Y915641D01*
X852527Y902433D01*
X845923Y895829D01*
X829413Y895829D01*
X819507Y905735D01*
X908661Y879319D02*
X910165Y880165D01*
X819507Y905735D02*
X816495Y906555D01*
X873990Y871064D02*
X875641Y872715D01*
X862433Y948661D02*
X852527Y958567D01*
X862433Y948661D02*
X862433Y932151D01*
X859131Y928849D01*
X839319Y928849D01*
X829413Y918943D01*
X806299Y869413D02*
X786487Y849601D01*
X852527Y958567D02*
X851165Y959665D01*
X789789Y948661D02*
X826111Y948661D01*
X789789Y948661D02*
X776581Y935453D01*
X826111Y948661D02*
X829165Y950165D01*
X776581Y935453D02*
X775165Y935165D01*
X842621Y918943D02*
X842621Y909037D01*
X839395Y906555D01*
X885547Y935453D02*
X885547Y872715D01*
X885547Y935453D02*
X908661Y958567D01*
X910165Y960165D01*
X911963Y905735D02*
X911963Y918943D01*
X910165Y920165D01*
X895453Y816581D02*
X885547Y816581D01*
X895453Y816581D02*
X908661Y803373D01*
X910165Y800165D01*
D15*
X125476Y82550D03*
X79248Y128778D03*
X56134Y79248D03*
X36322Y59436D03*
X92456Y128778D03*
X135382Y82550D03*
X161798Y115570D03*
X135382Y26416D03*
X313017Y82550D03*
X266789Y128778D03*
X243675Y79248D03*
X223863Y59436D03*
X279997Y128778D03*
X322923Y82550D03*
X349339Y115570D03*
X322923Y26416D03*
X500559Y82550D03*
X454331Y128778D03*
X431217Y79248D03*
X411405Y59436D03*
X467539Y128778D03*
X510465Y82550D03*
X536881Y115570D03*
X510465Y26416D03*
X688100Y82550D03*
X641872Y128778D03*
X618758Y79248D03*
X598946Y59436D03*
X655080Y128778D03*
X698006Y82550D03*
X724422Y115570D03*
X698006Y26416D03*
X875641Y82550D03*
X829413Y128778D03*
X806299Y79248D03*
X786487Y59436D03*
X842621Y128778D03*
X885547Y82550D03*
X911963Y115570D03*
X885547Y26416D03*
X125476Y280091D03*
X79248Y326319D03*
X56134Y276789D03*
X36322Y256977D03*
X92456Y326319D03*
X135382Y280091D03*
X161798Y313111D03*
X135382Y223957D03*
X313017Y280091D03*
X266789Y326319D03*
X243675Y276789D03*
X223863Y256977D03*
X279997Y326319D03*
X322923Y280091D03*
X349339Y313111D03*
X322923Y223957D03*
X500559Y280091D03*
X454331Y326319D03*
X431217Y276789D03*
X411405Y256977D03*
X467539Y326319D03*
X510465Y280091D03*
X536881Y313111D03*
X510465Y223957D03*
X688100Y280091D03*
X641872Y326319D03*
X618758Y276789D03*
X598946Y256977D03*
X655080Y326319D03*
X698006Y280091D03*
X724422Y313111D03*
X698006Y223957D03*
X875641Y280091D03*
X829413Y326319D03*
X806299Y276789D03*
X786487Y256977D03*
X842621Y326319D03*
X885547Y280091D03*
X911963Y313111D03*
X885547Y223957D03*
X125476Y477633D03*
X79248Y523861D03*
X56134Y474331D03*
X36322Y454519D03*
X92456Y523861D03*
X135382Y477633D03*
X161798Y510653D03*
X135382Y421499D03*
X313017Y477633D03*
X266789Y523861D03*
X243675Y474331D03*
X223863Y454519D03*
X279997Y523861D03*
X322923Y477633D03*
X349339Y510653D03*
X322923Y421499D03*
X500559Y477633D03*
X454331Y523861D03*
X431217Y474331D03*
X411405Y454519D03*
X467539Y523861D03*
X510465Y477633D03*
X536881Y510653D03*
X510465Y421499D03*
X688100Y477633D03*
X641872Y523861D03*
X618758Y474331D03*
X598946Y454519D03*
X655080Y523861D03*
X698006Y477633D03*
X724422Y510653D03*
X698006Y421499D03*
X875641Y477633D03*
X829413Y523861D03*
X806299Y474331D03*
X786487Y454519D03*
X842621Y523861D03*
X885547Y477633D03*
X911963Y510653D03*
X885547Y421499D03*
X125476Y675174D03*
X79248Y721402D03*
X56134Y671872D03*
X36322Y652060D03*
X92456Y721402D03*
X135382Y675174D03*
X161798Y708194D03*
X135382Y619040D03*
X313017Y675174D03*
X266789Y721402D03*
X243675Y671872D03*
X223863Y652060D03*
X279997Y721402D03*
X322923Y675174D03*
X349339Y708194D03*
X322923Y619040D03*
X500559Y675174D03*
X454331Y721402D03*
X431217Y671872D03*
X411405Y652060D03*
X467539Y721402D03*
X510465Y675174D03*
X536881Y708194D03*
X510465Y619040D03*
X688100Y675174D03*
X641872Y721402D03*
X618758Y671872D03*
X598946Y652060D03*
X655080Y721402D03*
X698006Y675174D03*
X724422Y708194D03*
X698006Y619040D03*
X875641Y675174D03*
X829413Y721402D03*
X806299Y671872D03*
X786487Y652060D03*
X842621Y721402D03*
X885547Y675174D03*
X911963Y708194D03*
X885547Y619040D03*
X125476Y872715D03*
X79248Y918943D03*
X56134Y869413D03*
X36322Y849601D03*
X92456Y918943D03*
X135382Y872715D03*
X161798Y905735D03*
X135382Y816581D03*
X313017Y872715D03*
X266789Y918943D03*
X243675Y869413D03*
X223863Y849601D03*
X279997Y918943D03*
X322923Y872715D03*
X349339Y905735D03*
X322923Y816581D03*
X500559Y872715D03*
X454331Y918943D03*
X431217Y869413D03*
X411405Y849601D03*
X467539Y918943D03*
X510465Y872715D03*
X536881Y905735D03*
X510465Y816581D03*
X688100Y872715D03*
X641872Y918943D03*
X618758Y869413D03*
X598946Y849601D03*
X655080Y918943D03*
X698006Y872715D03*
X724422Y905735D03*
X698006Y816581D03*
X875641Y872715D03*
X829413Y918943D03*
X806299Y869413D03*
X786487Y849601D03*
X842621Y918943D03*
X885547Y872715D03*
X911963Y905735D03*
X885547Y816581D03*
M02*
