G04*
G04 GERBER (RE)GENERATED BY FLATCAM v8.991 - www.flatcam.org - Version Date: 2019/12/27*
G04 Filename: solderpaste_bottom.gbr_panelized*
G04 Created on : Tuesday, 07 July 2020 at 00:22*
G04*
G04 RS-274X GERBER GENERATED BY FLATCAM v8.991 - www.flatcam.org - Version Date: 2019/12/27*
G04 Filename: solderpaste_bottom.gbr_panelized*
G04 Created on : Tuesday, 07 July 2020 at 00:18*
%FSLAX24Y24*%
%MOMM*%
%ADD10R,0.95X1.3*%
%ADD11R,3.25X1.3*%
%ADD12R,1.4X1.0*%
%ADD13R,2.54X1.27*%

G71*
G90*
G01*
%LPD*%
D10*
X66330Y116390D03*
X89230Y116390D03*
X112130Y116390D03*
X253871Y116390D03*
X276771Y116390D03*
X299671Y116390D03*
X441413Y116390D03*
X464313Y116390D03*
X487213Y116390D03*
X628954Y116390D03*
X651854Y116390D03*
X674754Y116390D03*
X816495Y116390D03*
X839395Y116390D03*
X862295Y116390D03*
X66330Y313931D03*
X89230Y313931D03*
X112130Y313931D03*
X253871Y313931D03*
X276771Y313931D03*
X299671Y313931D03*
X441413Y313931D03*
X464313Y313931D03*
X487213Y313931D03*
X628954Y313931D03*
X651854Y313931D03*
X674754Y313931D03*
X816495Y313931D03*
X839395Y313931D03*
X862295Y313931D03*
X66330Y511473D03*
X89230Y511473D03*
X112130Y511473D03*
X253871Y511473D03*
X276771Y511473D03*
X299671Y511473D03*
X441413Y511473D03*
X464313Y511473D03*
X487213Y511473D03*
X628954Y511473D03*
X651854Y511473D03*
X674754Y511473D03*
X816495Y511473D03*
X839395Y511473D03*
X862295Y511473D03*
X66330Y709014D03*
X89230Y709014D03*
X112130Y709014D03*
X253871Y709014D03*
X276771Y709014D03*
X299671Y709014D03*
X441413Y709014D03*
X464313Y709014D03*
X487213Y709014D03*
X628954Y709014D03*
X651854Y709014D03*
X674754Y709014D03*
X816495Y709014D03*
X839395Y709014D03*
X862295Y709014D03*
X66330Y906555D03*
X89230Y906555D03*
X112130Y906555D03*
X253871Y906555D03*
X276771Y906555D03*
X299671Y906555D03*
X441413Y906555D03*
X464313Y906555D03*
X487213Y906555D03*
X628954Y906555D03*
X651854Y906555D03*
X674754Y906555D03*
X816495Y906555D03*
X839395Y906555D03*
X862295Y906555D03*
D11*
X89230Y49390D03*
X276771Y49390D03*
X464313Y49390D03*
X651854Y49390D03*
X839395Y49390D03*
X89230Y246931D03*
X276771Y246931D03*
X464313Y246931D03*
X651854Y246931D03*
X839395Y246931D03*
X89230Y444473D03*
X276771Y444473D03*
X464313Y444473D03*
X651854Y444473D03*
X839395Y444473D03*
X89230Y642014D03*
X276771Y642014D03*
X464313Y642014D03*
X651854Y642014D03*
X839395Y642014D03*
X89230Y839555D03*
X276771Y839555D03*
X464313Y839555D03*
X651854Y839555D03*
X839395Y839555D03*
D12*
X79000Y160000D03*
X101000Y150500D03*
X101000Y169500D03*
X266541Y160000D03*
X288541Y150500D03*
X288541Y169500D03*
X454083Y160000D03*
X476083Y150500D03*
X476083Y169500D03*
X641624Y160000D03*
X663624Y150500D03*
X663624Y169500D03*
X829165Y160000D03*
X851165Y150500D03*
X851165Y169500D03*
X79000Y357541D03*
X101000Y348041D03*
X101000Y367041D03*
X266541Y357541D03*
X288541Y348041D03*
X288541Y367041D03*
X454083Y357541D03*
X476083Y348041D03*
X476083Y367041D03*
X641624Y357541D03*
X663624Y348041D03*
X663624Y367041D03*
X829165Y357541D03*
X851165Y348041D03*
X851165Y367041D03*
X79000Y555083D03*
X101000Y545583D03*
X101000Y564583D03*
X266541Y555083D03*
X288541Y545583D03*
X288541Y564583D03*
X454083Y555083D03*
X476083Y545583D03*
X476083Y564583D03*
X641624Y555083D03*
X663624Y545583D03*
X663624Y564583D03*
X829165Y555083D03*
X851165Y545583D03*
X851165Y564583D03*
X79000Y752624D03*
X101000Y743124D03*
X101000Y762124D03*
X266541Y752624D03*
X288541Y743124D03*
X288541Y762124D03*
X454083Y752624D03*
X476083Y743124D03*
X476083Y762124D03*
X641624Y752624D03*
X663624Y743124D03*
X663624Y762124D03*
X829165Y752624D03*
X851165Y743124D03*
X851165Y762124D03*
X79000Y950165D03*
X101000Y940665D03*
X101000Y959665D03*
X266541Y950165D03*
X288541Y940665D03*
X288541Y959665D03*
X454083Y950165D03*
X476083Y940665D03*
X476083Y959665D03*
X641624Y950165D03*
X663624Y940665D03*
X663624Y959665D03*
X829165Y950165D03*
X851165Y940665D03*
X851165Y959665D03*
D13*
X160000Y50000D03*
X160000Y90000D03*
X25000Y95000D03*
X25000Y145000D03*
X160000Y170000D03*
X160000Y130000D03*
X160000Y10000D03*
X347541Y50000D03*
X347541Y90000D03*
X212541Y95000D03*
X212541Y145000D03*
X347541Y170000D03*
X347541Y130000D03*
X347541Y10000D03*
X535083Y50000D03*
X535083Y90000D03*
X400083Y95000D03*
X400083Y145000D03*
X535083Y170000D03*
X535083Y130000D03*
X535083Y10000D03*
X722624Y50000D03*
X722624Y90000D03*
X587624Y95000D03*
X587624Y145000D03*
X722624Y170000D03*
X722624Y130000D03*
X722624Y10000D03*
X910165Y50000D03*
X910165Y90000D03*
X775165Y95000D03*
X775165Y145000D03*
X910165Y170000D03*
X910165Y130000D03*
X910165Y10000D03*
X160000Y247541D03*
X160000Y287541D03*
X25000Y292541D03*
X25000Y342541D03*
X160000Y367541D03*
X160000Y327541D03*
X160000Y207541D03*
X347541Y247541D03*
X347541Y287541D03*
X212541Y292541D03*
X212541Y342541D03*
X347541Y367541D03*
X347541Y327541D03*
X347541Y207541D03*
X535083Y247541D03*
X535083Y287541D03*
X400083Y292541D03*
X400083Y342541D03*
X535083Y367541D03*
X535083Y327541D03*
X535083Y207541D03*
X722624Y247541D03*
X722624Y287541D03*
X587624Y292541D03*
X587624Y342541D03*
X722624Y367541D03*
X722624Y327541D03*
X722624Y207541D03*
X910165Y247541D03*
X910165Y287541D03*
X775165Y292541D03*
X775165Y342541D03*
X910165Y367541D03*
X910165Y327541D03*
X910165Y207541D03*
X160000Y445083D03*
X160000Y485083D03*
X25000Y490083D03*
X25000Y540083D03*
X160000Y565083D03*
X160000Y525083D03*
X160000Y405083D03*
X347541Y445083D03*
X347541Y485083D03*
X212541Y490083D03*
X212541Y540083D03*
X347541Y565083D03*
X347541Y525083D03*
X347541Y405083D03*
X535083Y445083D03*
X535083Y485083D03*
X400083Y490083D03*
X400083Y540083D03*
X535083Y565083D03*
X535083Y525083D03*
X535083Y405083D03*
X722624Y445083D03*
X722624Y485083D03*
X587624Y490083D03*
X587624Y540083D03*
X722624Y565083D03*
X722624Y525083D03*
X722624Y405083D03*
X910165Y445083D03*
X910165Y485083D03*
X775165Y490083D03*
X775165Y540083D03*
X910165Y565083D03*
X910165Y525083D03*
X910165Y405083D03*
X160000Y642624D03*
X160000Y682624D03*
X25000Y687624D03*
X25000Y737624D03*
X160000Y762624D03*
X160000Y722624D03*
X160000Y602624D03*
X347541Y642624D03*
X347541Y682624D03*
X212541Y687624D03*
X212541Y737624D03*
X347541Y762624D03*
X347541Y722624D03*
X347541Y602624D03*
X535083Y642624D03*
X535083Y682624D03*
X400083Y687624D03*
X400083Y737624D03*
X535083Y762624D03*
X535083Y722624D03*
X535083Y602624D03*
X722624Y642624D03*
X722624Y682624D03*
X587624Y687624D03*
X587624Y737624D03*
X722624Y762624D03*
X722624Y722624D03*
X722624Y602624D03*
X910165Y642624D03*
X910165Y682624D03*
X775165Y687624D03*
X775165Y737624D03*
X910165Y762624D03*
X910165Y722624D03*
X910165Y602624D03*
X160000Y840165D03*
X160000Y880165D03*
X25000Y885165D03*
X25000Y935165D03*
X160000Y960165D03*
X160000Y920165D03*
X160000Y800165D03*
X347541Y840165D03*
X347541Y880165D03*
X212541Y885165D03*
X212541Y935165D03*
X347541Y960165D03*
X347541Y920165D03*
X347541Y800165D03*
X535083Y840165D03*
X535083Y880165D03*
X400083Y885165D03*
X400083Y935165D03*
X535083Y960165D03*
X535083Y920165D03*
X535083Y800165D03*
X722624Y840165D03*
X722624Y880165D03*
X587624Y885165D03*
X587624Y935165D03*
X722624Y960165D03*
X722624Y920165D03*
X722624Y800165D03*
X910165Y840165D03*
X910165Y880165D03*
X775165Y885165D03*
X775165Y935165D03*
X910165Y960165D03*
X910165Y920165D03*
X910165Y800165D03*
M02*
