G04 EAGLE Gerber RS-274X export*
G75*
%MOMM*%
%FSLAX34Y34*%
%LPD*%
%INSilkscreen Top*%
%IPPOS*%
%AMOC8*
5,1,8,0,0,1.08239X$1,22.5*%
G01*
%ADD10C,0.152400*%
%ADD11C,0.127000*%
%ADD12C,0.101600*%


D10*
X379984Y133604D02*
X379984Y146304D01*
X386334Y152654D01*
X399034Y152654D02*
X405384Y146304D01*
X386334Y152654D02*
X379984Y159004D01*
X379984Y171704D01*
X386334Y178054D01*
X399034Y178054D02*
X405384Y171704D01*
X405384Y159004D01*
X399034Y152654D01*
X399034Y127254D02*
X386334Y127254D01*
X379984Y133604D01*
X399034Y127254D02*
X405384Y133604D01*
X405384Y146304D01*
X386334Y178054D02*
X379984Y184404D01*
X379984Y197104D01*
X386334Y203454D01*
X399034Y203454D02*
X405384Y197104D01*
X405384Y184404D01*
X399034Y178054D01*
X399034Y203454D02*
X386334Y203454D01*
D11*
X386969Y118364D02*
X389509Y115189D01*
X386969Y118364D02*
X398399Y118364D01*
X398399Y115189D02*
X398399Y121539D01*
X375539Y127889D02*
X364109Y131699D01*
X375539Y135509D01*
X372682Y134557D02*
X372682Y128842D01*
X375539Y142457D02*
X375539Y144997D01*
X375539Y142457D02*
X375537Y142357D01*
X375531Y142258D01*
X375521Y142158D01*
X375508Y142060D01*
X375490Y141961D01*
X375469Y141864D01*
X375444Y141768D01*
X375415Y141672D01*
X375382Y141578D01*
X375346Y141485D01*
X375306Y141394D01*
X375262Y141304D01*
X375215Y141216D01*
X375165Y141130D01*
X375111Y141046D01*
X375054Y140964D01*
X374994Y140885D01*
X374930Y140807D01*
X374864Y140733D01*
X374795Y140661D01*
X374723Y140592D01*
X374649Y140526D01*
X374571Y140462D01*
X374492Y140402D01*
X374410Y140345D01*
X374326Y140291D01*
X374240Y140241D01*
X374152Y140194D01*
X374062Y140150D01*
X373971Y140110D01*
X373878Y140074D01*
X373784Y140041D01*
X373688Y140012D01*
X373592Y139987D01*
X373495Y139966D01*
X373396Y139948D01*
X373298Y139935D01*
X373198Y139925D01*
X373099Y139919D01*
X372999Y139917D01*
X366649Y139917D01*
X366549Y139919D01*
X366450Y139925D01*
X366350Y139935D01*
X366252Y139948D01*
X366153Y139966D01*
X366056Y139987D01*
X365960Y140012D01*
X365864Y140041D01*
X365770Y140074D01*
X365677Y140110D01*
X365586Y140150D01*
X365496Y140194D01*
X365408Y140241D01*
X365322Y140291D01*
X365238Y140345D01*
X365156Y140402D01*
X365077Y140462D01*
X364999Y140526D01*
X364925Y140592D01*
X364853Y140661D01*
X364784Y140733D01*
X364718Y140807D01*
X364654Y140885D01*
X364594Y140964D01*
X364537Y141046D01*
X364483Y141130D01*
X364433Y141216D01*
X364386Y141304D01*
X364342Y141394D01*
X364302Y141485D01*
X364266Y141578D01*
X364233Y141672D01*
X364204Y141768D01*
X364179Y141864D01*
X364158Y141961D01*
X364140Y142060D01*
X364127Y142158D01*
X364117Y142258D01*
X364111Y142357D01*
X364109Y142457D01*
X364109Y144997D01*
X376809Y148971D02*
X376809Y154051D01*
X375539Y159512D02*
X364109Y159512D01*
X375539Y158242D02*
X375539Y160782D01*
X364109Y160782D02*
X364109Y158242D01*
X364109Y165862D02*
X375539Y165862D01*
X375539Y172212D02*
X364109Y165862D01*
X364109Y172212D02*
X375539Y172212D01*
D10*
X222250Y190500D02*
X209550Y190500D01*
X222250Y190500D02*
X228600Y184150D01*
X228600Y171450D02*
X222250Y165100D01*
X228600Y184150D02*
X234950Y190500D01*
X247650Y190500D01*
X254000Y184150D01*
X254000Y171450D02*
X247650Y165100D01*
X234950Y165100D01*
X228600Y171450D01*
X203200Y171450D02*
X203200Y184150D01*
X209550Y190500D01*
X203200Y171450D02*
X209550Y165100D01*
X222250Y165100D01*
X254000Y184150D02*
X260350Y190500D01*
X273050Y190500D01*
X279400Y184150D01*
X279400Y171450D02*
X273050Y165100D01*
X260350Y165100D01*
X254000Y171450D01*
X279400Y171450D02*
X279400Y184150D01*
D11*
X194310Y183515D02*
X191135Y180975D01*
X194310Y183515D02*
X194310Y172085D01*
X191135Y172085D02*
X197485Y172085D01*
X203835Y194945D02*
X203835Y206375D01*
X207645Y200025D01*
X211455Y206375D01*
X211455Y194945D01*
X217043Y198120D02*
X217043Y203200D01*
X217045Y203311D01*
X217051Y203421D01*
X217060Y203532D01*
X217074Y203642D01*
X217091Y203751D01*
X217112Y203860D01*
X217137Y203968D01*
X217166Y204075D01*
X217198Y204181D01*
X217234Y204286D01*
X217274Y204389D01*
X217317Y204491D01*
X217364Y204592D01*
X217415Y204691D01*
X217468Y204788D01*
X217525Y204882D01*
X217586Y204975D01*
X217649Y205066D01*
X217716Y205155D01*
X217786Y205241D01*
X217859Y205324D01*
X217934Y205406D01*
X218012Y205484D01*
X218094Y205559D01*
X218177Y205632D01*
X218263Y205702D01*
X218352Y205769D01*
X218443Y205832D01*
X218536Y205893D01*
X218631Y205950D01*
X218727Y206003D01*
X218826Y206054D01*
X218927Y206101D01*
X219029Y206144D01*
X219132Y206184D01*
X219237Y206220D01*
X219343Y206252D01*
X219450Y206281D01*
X219558Y206306D01*
X219667Y206327D01*
X219776Y206344D01*
X219886Y206358D01*
X219997Y206367D01*
X220107Y206373D01*
X220218Y206375D01*
X220329Y206373D01*
X220439Y206367D01*
X220550Y206358D01*
X220660Y206344D01*
X220769Y206327D01*
X220878Y206306D01*
X220986Y206281D01*
X221093Y206252D01*
X221199Y206220D01*
X221304Y206184D01*
X221407Y206144D01*
X221509Y206101D01*
X221610Y206054D01*
X221709Y206003D01*
X221806Y205950D01*
X221900Y205893D01*
X221993Y205832D01*
X222084Y205769D01*
X222173Y205702D01*
X222259Y205632D01*
X222342Y205559D01*
X222424Y205484D01*
X222502Y205406D01*
X222577Y205324D01*
X222650Y205241D01*
X222720Y205155D01*
X222787Y205066D01*
X222850Y204975D01*
X222911Y204882D01*
X222968Y204788D01*
X223021Y204691D01*
X223072Y204592D01*
X223119Y204491D01*
X223162Y204389D01*
X223202Y204286D01*
X223238Y204181D01*
X223270Y204075D01*
X223299Y203968D01*
X223324Y203860D01*
X223345Y203751D01*
X223362Y203642D01*
X223376Y203532D01*
X223385Y203421D01*
X223391Y203311D01*
X223393Y203200D01*
X223393Y198120D01*
X223391Y198009D01*
X223385Y197899D01*
X223376Y197788D01*
X223362Y197678D01*
X223345Y197569D01*
X223324Y197460D01*
X223299Y197352D01*
X223270Y197245D01*
X223238Y197139D01*
X223202Y197034D01*
X223162Y196931D01*
X223119Y196829D01*
X223072Y196728D01*
X223021Y196629D01*
X222968Y196532D01*
X222911Y196438D01*
X222850Y196345D01*
X222787Y196254D01*
X222720Y196165D01*
X222650Y196079D01*
X222577Y195996D01*
X222502Y195914D01*
X222424Y195836D01*
X222342Y195761D01*
X222259Y195688D01*
X222173Y195618D01*
X222084Y195551D01*
X221993Y195488D01*
X221900Y195427D01*
X221805Y195370D01*
X221709Y195317D01*
X221610Y195266D01*
X221509Y195219D01*
X221407Y195176D01*
X221304Y195136D01*
X221199Y195100D01*
X221093Y195068D01*
X220986Y195039D01*
X220878Y195014D01*
X220769Y194993D01*
X220660Y194976D01*
X220550Y194962D01*
X220439Y194953D01*
X220329Y194947D01*
X220218Y194945D01*
X220107Y194947D01*
X219997Y194953D01*
X219886Y194962D01*
X219776Y194976D01*
X219667Y194993D01*
X219558Y195014D01*
X219450Y195039D01*
X219343Y195068D01*
X219237Y195100D01*
X219132Y195136D01*
X219029Y195176D01*
X218927Y195219D01*
X218826Y195266D01*
X218727Y195317D01*
X218631Y195370D01*
X218536Y195427D01*
X218443Y195488D01*
X218352Y195551D01*
X218263Y195618D01*
X218177Y195688D01*
X218094Y195761D01*
X218012Y195836D01*
X217934Y195914D01*
X217859Y195996D01*
X217786Y196079D01*
X217716Y196165D01*
X217649Y196254D01*
X217586Y196345D01*
X217525Y196438D01*
X217468Y196533D01*
X217415Y196629D01*
X217364Y196728D01*
X217317Y196829D01*
X217274Y196931D01*
X217234Y197034D01*
X217198Y197139D01*
X217166Y197245D01*
X217137Y197352D01*
X217112Y197460D01*
X217091Y197569D01*
X217074Y197678D01*
X217060Y197788D01*
X217051Y197899D01*
X217045Y198009D01*
X217043Y198120D01*
X230886Y194945D02*
X230886Y206375D01*
X227711Y206375D02*
X234061Y206375D01*
X238379Y203200D02*
X238379Y198120D01*
X238379Y203200D02*
X238381Y203311D01*
X238387Y203421D01*
X238396Y203532D01*
X238410Y203642D01*
X238427Y203751D01*
X238448Y203860D01*
X238473Y203968D01*
X238502Y204075D01*
X238534Y204181D01*
X238570Y204286D01*
X238610Y204389D01*
X238653Y204491D01*
X238700Y204592D01*
X238751Y204691D01*
X238804Y204788D01*
X238861Y204882D01*
X238922Y204975D01*
X238985Y205066D01*
X239052Y205155D01*
X239122Y205241D01*
X239195Y205324D01*
X239270Y205406D01*
X239348Y205484D01*
X239430Y205559D01*
X239513Y205632D01*
X239599Y205702D01*
X239688Y205769D01*
X239779Y205832D01*
X239872Y205893D01*
X239967Y205950D01*
X240063Y206003D01*
X240162Y206054D01*
X240263Y206101D01*
X240365Y206144D01*
X240468Y206184D01*
X240573Y206220D01*
X240679Y206252D01*
X240786Y206281D01*
X240894Y206306D01*
X241003Y206327D01*
X241112Y206344D01*
X241222Y206358D01*
X241333Y206367D01*
X241443Y206373D01*
X241554Y206375D01*
X241665Y206373D01*
X241775Y206367D01*
X241886Y206358D01*
X241996Y206344D01*
X242105Y206327D01*
X242214Y206306D01*
X242322Y206281D01*
X242429Y206252D01*
X242535Y206220D01*
X242640Y206184D01*
X242743Y206144D01*
X242845Y206101D01*
X242946Y206054D01*
X243045Y206003D01*
X243142Y205950D01*
X243236Y205893D01*
X243329Y205832D01*
X243420Y205769D01*
X243509Y205702D01*
X243595Y205632D01*
X243678Y205559D01*
X243760Y205484D01*
X243838Y205406D01*
X243913Y205324D01*
X243986Y205241D01*
X244056Y205155D01*
X244123Y205066D01*
X244186Y204975D01*
X244247Y204882D01*
X244304Y204788D01*
X244357Y204691D01*
X244408Y204592D01*
X244455Y204491D01*
X244498Y204389D01*
X244538Y204286D01*
X244574Y204181D01*
X244606Y204075D01*
X244635Y203968D01*
X244660Y203860D01*
X244681Y203751D01*
X244698Y203642D01*
X244712Y203532D01*
X244721Y203421D01*
X244727Y203311D01*
X244729Y203200D01*
X244729Y198120D01*
X244727Y198009D01*
X244721Y197899D01*
X244712Y197788D01*
X244698Y197678D01*
X244681Y197569D01*
X244660Y197460D01*
X244635Y197352D01*
X244606Y197245D01*
X244574Y197139D01*
X244538Y197034D01*
X244498Y196931D01*
X244455Y196829D01*
X244408Y196728D01*
X244357Y196629D01*
X244304Y196532D01*
X244247Y196438D01*
X244186Y196345D01*
X244123Y196254D01*
X244056Y196165D01*
X243986Y196079D01*
X243913Y195996D01*
X243838Y195914D01*
X243760Y195836D01*
X243678Y195761D01*
X243595Y195688D01*
X243509Y195618D01*
X243420Y195551D01*
X243329Y195488D01*
X243236Y195427D01*
X243141Y195370D01*
X243045Y195317D01*
X242946Y195266D01*
X242845Y195219D01*
X242743Y195176D01*
X242640Y195136D01*
X242535Y195100D01*
X242429Y195068D01*
X242322Y195039D01*
X242214Y195014D01*
X242105Y194993D01*
X241996Y194976D01*
X241886Y194962D01*
X241775Y194953D01*
X241665Y194947D01*
X241554Y194945D01*
X241443Y194947D01*
X241333Y194953D01*
X241222Y194962D01*
X241112Y194976D01*
X241003Y194993D01*
X240894Y195014D01*
X240786Y195039D01*
X240679Y195068D01*
X240573Y195100D01*
X240468Y195136D01*
X240365Y195176D01*
X240263Y195219D01*
X240162Y195266D01*
X240063Y195317D01*
X239967Y195370D01*
X239872Y195427D01*
X239779Y195488D01*
X239688Y195551D01*
X239599Y195618D01*
X239513Y195688D01*
X239430Y195761D01*
X239348Y195836D01*
X239270Y195914D01*
X239195Y195996D01*
X239122Y196079D01*
X239052Y196165D01*
X238985Y196254D01*
X238922Y196345D01*
X238861Y196438D01*
X238804Y196533D01*
X238751Y196629D01*
X238700Y196728D01*
X238653Y196829D01*
X238610Y196931D01*
X238570Y197034D01*
X238534Y197139D01*
X238502Y197245D01*
X238473Y197352D01*
X238448Y197460D01*
X238427Y197569D01*
X238410Y197678D01*
X238396Y197788D01*
X238387Y197899D01*
X238381Y198009D01*
X238379Y198120D01*
X250273Y194945D02*
X250273Y206375D01*
X253448Y206375D01*
X253559Y206373D01*
X253669Y206367D01*
X253780Y206358D01*
X253890Y206344D01*
X253999Y206327D01*
X254108Y206306D01*
X254216Y206281D01*
X254323Y206252D01*
X254429Y206220D01*
X254534Y206184D01*
X254637Y206144D01*
X254739Y206101D01*
X254840Y206054D01*
X254939Y206003D01*
X255036Y205950D01*
X255130Y205893D01*
X255223Y205832D01*
X255314Y205769D01*
X255403Y205702D01*
X255489Y205632D01*
X255572Y205559D01*
X255654Y205484D01*
X255732Y205406D01*
X255807Y205324D01*
X255880Y205241D01*
X255950Y205155D01*
X256017Y205066D01*
X256080Y204975D01*
X256141Y204882D01*
X256198Y204787D01*
X256251Y204691D01*
X256302Y204592D01*
X256349Y204491D01*
X256392Y204389D01*
X256432Y204286D01*
X256468Y204181D01*
X256500Y204075D01*
X256529Y203968D01*
X256554Y203860D01*
X256575Y203751D01*
X256592Y203642D01*
X256606Y203532D01*
X256615Y203421D01*
X256621Y203311D01*
X256623Y203200D01*
X256621Y203089D01*
X256615Y202979D01*
X256606Y202868D01*
X256592Y202758D01*
X256575Y202649D01*
X256554Y202540D01*
X256529Y202432D01*
X256500Y202325D01*
X256468Y202219D01*
X256432Y202114D01*
X256392Y202011D01*
X256349Y201909D01*
X256302Y201808D01*
X256251Y201709D01*
X256198Y201612D01*
X256141Y201518D01*
X256080Y201425D01*
X256017Y201334D01*
X255950Y201245D01*
X255880Y201159D01*
X255807Y201076D01*
X255732Y200994D01*
X255654Y200916D01*
X255572Y200841D01*
X255489Y200768D01*
X255403Y200698D01*
X255314Y200631D01*
X255223Y200568D01*
X255130Y200507D01*
X255035Y200450D01*
X254939Y200397D01*
X254840Y200346D01*
X254739Y200299D01*
X254637Y200256D01*
X254534Y200216D01*
X254429Y200180D01*
X254323Y200148D01*
X254216Y200119D01*
X254108Y200094D01*
X253999Y200073D01*
X253890Y200056D01*
X253780Y200042D01*
X253669Y200033D01*
X253559Y200027D01*
X253448Y200025D01*
X250273Y200025D01*
X254083Y200025D02*
X256623Y194945D01*
D12*
X296108Y58565D02*
X301300Y58565D01*
X296108Y58565D02*
X295995Y58567D01*
X295882Y58573D01*
X295769Y58583D01*
X295656Y58597D01*
X295544Y58614D01*
X295433Y58636D01*
X295323Y58661D01*
X295213Y58691D01*
X295105Y58724D01*
X294998Y58761D01*
X294892Y58801D01*
X294788Y58846D01*
X294685Y58894D01*
X294584Y58945D01*
X294485Y59000D01*
X294388Y59058D01*
X294293Y59120D01*
X294200Y59185D01*
X294110Y59253D01*
X294022Y59324D01*
X293936Y59399D01*
X293853Y59476D01*
X293773Y59556D01*
X293696Y59639D01*
X293621Y59725D01*
X293550Y59813D01*
X293482Y59903D01*
X293417Y59996D01*
X293355Y60091D01*
X293297Y60188D01*
X293242Y60287D01*
X293191Y60388D01*
X293143Y60491D01*
X293098Y60595D01*
X293058Y60701D01*
X293021Y60808D01*
X292988Y60916D01*
X292958Y61026D01*
X292933Y61136D01*
X292911Y61247D01*
X292894Y61359D01*
X292880Y61472D01*
X292870Y61585D01*
X292864Y61698D01*
X292862Y61811D01*
X292864Y61924D01*
X292870Y62037D01*
X292880Y62150D01*
X292894Y62263D01*
X292911Y62375D01*
X292933Y62486D01*
X292958Y62596D01*
X292988Y62706D01*
X293021Y62814D01*
X293058Y62921D01*
X293098Y63027D01*
X293143Y63131D01*
X293191Y63234D01*
X293242Y63335D01*
X293297Y63434D01*
X293355Y63531D01*
X293417Y63626D01*
X293482Y63719D01*
X293550Y63809D01*
X293621Y63897D01*
X293696Y63983D01*
X293773Y64066D01*
X293853Y64146D01*
X293936Y64223D01*
X294022Y64298D01*
X294110Y64369D01*
X294200Y64437D01*
X294293Y64502D01*
X294388Y64564D01*
X294485Y64622D01*
X294584Y64677D01*
X294685Y64728D01*
X294788Y64776D01*
X294892Y64821D01*
X294998Y64861D01*
X295105Y64898D01*
X295213Y64931D01*
X295323Y64961D01*
X295433Y64986D01*
X295544Y65008D01*
X295656Y65025D01*
X295769Y65039D01*
X295882Y65049D01*
X295995Y65055D01*
X296108Y65057D01*
X296108Y65056D02*
X301300Y65056D01*
X301300Y65057D02*
X301413Y65055D01*
X301526Y65049D01*
X301639Y65039D01*
X301752Y65025D01*
X301864Y65008D01*
X301975Y64986D01*
X302085Y64961D01*
X302195Y64931D01*
X302303Y64898D01*
X302410Y64861D01*
X302516Y64821D01*
X302620Y64776D01*
X302723Y64728D01*
X302824Y64677D01*
X302923Y64622D01*
X303020Y64564D01*
X303115Y64502D01*
X303208Y64437D01*
X303298Y64369D01*
X303386Y64298D01*
X303472Y64223D01*
X303555Y64146D01*
X303635Y64066D01*
X303712Y63983D01*
X303787Y63897D01*
X303858Y63809D01*
X303926Y63719D01*
X303991Y63626D01*
X304053Y63531D01*
X304111Y63434D01*
X304166Y63335D01*
X304217Y63234D01*
X304265Y63131D01*
X304310Y63027D01*
X304350Y62921D01*
X304387Y62814D01*
X304420Y62706D01*
X304450Y62596D01*
X304475Y62486D01*
X304497Y62375D01*
X304514Y62263D01*
X304528Y62150D01*
X304538Y62037D01*
X304544Y61924D01*
X304546Y61811D01*
X304544Y61698D01*
X304538Y61585D01*
X304528Y61472D01*
X304514Y61359D01*
X304497Y61247D01*
X304475Y61136D01*
X304450Y61026D01*
X304420Y60916D01*
X304387Y60808D01*
X304350Y60701D01*
X304310Y60595D01*
X304265Y60491D01*
X304217Y60388D01*
X304166Y60287D01*
X304111Y60188D01*
X304053Y60091D01*
X303991Y59996D01*
X303926Y59903D01*
X303858Y59813D01*
X303787Y59725D01*
X303712Y59639D01*
X303635Y59556D01*
X303555Y59476D01*
X303472Y59399D01*
X303386Y59324D01*
X303298Y59253D01*
X303208Y59185D01*
X303115Y59120D01*
X303020Y59058D01*
X302923Y59000D01*
X302824Y58945D01*
X302723Y58894D01*
X302620Y58846D01*
X302516Y58801D01*
X302410Y58761D01*
X302303Y58724D01*
X302195Y58691D01*
X302085Y58661D01*
X301975Y58636D01*
X301864Y58614D01*
X301752Y58597D01*
X301639Y58583D01*
X301526Y58573D01*
X301413Y58567D01*
X301300Y58565D01*
X301950Y63758D02*
X304546Y66354D01*
X295458Y69709D02*
X292862Y72954D01*
X304546Y72954D01*
X304546Y69709D02*
X304546Y76200D01*
D10*
X40640Y124460D02*
X40640Y137160D01*
X40640Y124460D02*
X34290Y118110D01*
X21590Y118110D02*
X15240Y124460D01*
X34290Y118110D02*
X40640Y111760D01*
X40640Y99060D01*
X34290Y92710D01*
X21590Y92710D02*
X15240Y99060D01*
X15240Y111760D01*
X21590Y118110D01*
X21590Y143510D02*
X34290Y143510D01*
X40640Y137160D01*
X21590Y143510D02*
X15240Y137160D01*
X15240Y124460D01*
X34290Y92710D02*
X40640Y86360D01*
X40640Y73660D01*
X34290Y67310D01*
X21590Y67310D02*
X15240Y73660D01*
X15240Y86360D01*
X21590Y92710D01*
X40640Y60960D02*
X40640Y48260D01*
X34290Y41910D01*
X21590Y41910D02*
X15240Y48260D01*
X34290Y41910D02*
X40640Y35560D01*
X40640Y22860D01*
X34290Y16510D01*
X21590Y16510D01*
X15240Y22860D01*
X15240Y35560D01*
X21590Y41910D01*
X40640Y60960D02*
X34290Y67310D01*
X21590Y67310D02*
X15240Y60960D01*
X15240Y48260D01*
D11*
X1905Y130175D02*
X-635Y133350D01*
X10795Y133350D01*
X10795Y130175D02*
X10795Y136525D01*
X56515Y32385D02*
X56515Y28575D01*
X56515Y32385D02*
X56513Y32485D01*
X56507Y32584D01*
X56497Y32684D01*
X56484Y32782D01*
X56466Y32881D01*
X56445Y32978D01*
X56420Y33074D01*
X56391Y33170D01*
X56358Y33264D01*
X56322Y33357D01*
X56282Y33448D01*
X56238Y33538D01*
X56191Y33626D01*
X56141Y33712D01*
X56087Y33796D01*
X56030Y33878D01*
X55970Y33957D01*
X55906Y34035D01*
X55840Y34109D01*
X55771Y34181D01*
X55699Y34250D01*
X55625Y34316D01*
X55547Y34380D01*
X55468Y34440D01*
X55386Y34497D01*
X55302Y34551D01*
X55216Y34601D01*
X55128Y34648D01*
X55038Y34692D01*
X54947Y34732D01*
X54854Y34768D01*
X54760Y34801D01*
X54664Y34830D01*
X54568Y34855D01*
X54471Y34876D01*
X54372Y34894D01*
X54274Y34907D01*
X54174Y34917D01*
X54075Y34923D01*
X53975Y34925D01*
X52705Y34925D01*
X52605Y34923D01*
X52506Y34917D01*
X52406Y34907D01*
X52308Y34894D01*
X52209Y34876D01*
X52112Y34855D01*
X52016Y34830D01*
X51920Y34801D01*
X51826Y34768D01*
X51733Y34732D01*
X51642Y34692D01*
X51552Y34648D01*
X51464Y34601D01*
X51378Y34551D01*
X51294Y34497D01*
X51212Y34440D01*
X51133Y34380D01*
X51055Y34316D01*
X50981Y34250D01*
X50909Y34181D01*
X50840Y34109D01*
X50774Y34035D01*
X50710Y33957D01*
X50650Y33878D01*
X50593Y33796D01*
X50539Y33712D01*
X50489Y33626D01*
X50442Y33538D01*
X50398Y33448D01*
X50358Y33357D01*
X50322Y33264D01*
X50289Y33170D01*
X50260Y33074D01*
X50235Y32978D01*
X50214Y32881D01*
X50196Y32782D01*
X50183Y32684D01*
X50173Y32584D01*
X50167Y32485D01*
X50165Y32385D01*
X50165Y28575D01*
X45085Y28575D01*
X45085Y34925D01*
X56515Y69215D02*
X45085Y73025D01*
X56515Y76835D01*
X53658Y75883D02*
X53658Y70168D01*
X56515Y81744D02*
X45085Y81744D01*
X45085Y84919D01*
X45087Y85030D01*
X45093Y85140D01*
X45102Y85251D01*
X45116Y85361D01*
X45133Y85470D01*
X45154Y85579D01*
X45179Y85687D01*
X45208Y85794D01*
X45240Y85900D01*
X45276Y86005D01*
X45316Y86108D01*
X45359Y86210D01*
X45406Y86311D01*
X45457Y86410D01*
X45510Y86506D01*
X45567Y86601D01*
X45628Y86694D01*
X45691Y86785D01*
X45758Y86874D01*
X45828Y86960D01*
X45901Y87043D01*
X45976Y87125D01*
X46054Y87203D01*
X46136Y87278D01*
X46219Y87351D01*
X46305Y87421D01*
X46394Y87488D01*
X46485Y87551D01*
X46578Y87612D01*
X46672Y87669D01*
X46769Y87722D01*
X46868Y87773D01*
X46969Y87820D01*
X47071Y87863D01*
X47174Y87903D01*
X47279Y87939D01*
X47385Y87971D01*
X47492Y88000D01*
X47600Y88025D01*
X47709Y88046D01*
X47818Y88063D01*
X47928Y88077D01*
X48039Y88086D01*
X48149Y88092D01*
X48260Y88094D01*
X48371Y88092D01*
X48481Y88086D01*
X48592Y88077D01*
X48702Y88063D01*
X48811Y88046D01*
X48920Y88025D01*
X49028Y88000D01*
X49135Y87971D01*
X49241Y87939D01*
X49346Y87903D01*
X49449Y87863D01*
X49551Y87820D01*
X49652Y87773D01*
X49751Y87722D01*
X49848Y87669D01*
X49942Y87612D01*
X50035Y87551D01*
X50126Y87488D01*
X50215Y87421D01*
X50301Y87351D01*
X50384Y87278D01*
X50466Y87203D01*
X50544Y87125D01*
X50619Y87043D01*
X50692Y86960D01*
X50762Y86874D01*
X50829Y86785D01*
X50892Y86694D01*
X50953Y86601D01*
X51010Y86507D01*
X51063Y86410D01*
X51114Y86311D01*
X51161Y86210D01*
X51204Y86108D01*
X51244Y86005D01*
X51280Y85900D01*
X51312Y85794D01*
X51341Y85687D01*
X51366Y85579D01*
X51387Y85470D01*
X51404Y85361D01*
X51418Y85251D01*
X51427Y85140D01*
X51433Y85030D01*
X51435Y84919D01*
X51435Y81744D01*
X51435Y85554D02*
X56515Y88094D01*
X56515Y93472D02*
X45085Y93472D01*
X45085Y96647D01*
X45087Y96758D01*
X45093Y96868D01*
X45102Y96979D01*
X45116Y97089D01*
X45133Y97198D01*
X45154Y97307D01*
X45179Y97415D01*
X45208Y97522D01*
X45240Y97628D01*
X45276Y97733D01*
X45316Y97836D01*
X45359Y97938D01*
X45406Y98039D01*
X45457Y98138D01*
X45510Y98235D01*
X45567Y98329D01*
X45628Y98422D01*
X45691Y98513D01*
X45758Y98602D01*
X45828Y98688D01*
X45901Y98771D01*
X45976Y98853D01*
X46054Y98931D01*
X46136Y99006D01*
X46219Y99079D01*
X46305Y99149D01*
X46394Y99216D01*
X46485Y99279D01*
X46578Y99340D01*
X46673Y99397D01*
X46769Y99450D01*
X46868Y99501D01*
X46969Y99548D01*
X47071Y99591D01*
X47174Y99631D01*
X47279Y99667D01*
X47385Y99699D01*
X47492Y99728D01*
X47600Y99753D01*
X47709Y99774D01*
X47818Y99791D01*
X47928Y99805D01*
X48039Y99814D01*
X48149Y99820D01*
X48260Y99822D01*
X53340Y99822D01*
X53451Y99820D01*
X53561Y99814D01*
X53672Y99805D01*
X53782Y99791D01*
X53891Y99774D01*
X54000Y99753D01*
X54108Y99728D01*
X54215Y99699D01*
X54321Y99667D01*
X54426Y99631D01*
X54529Y99591D01*
X54631Y99548D01*
X54732Y99501D01*
X54831Y99450D01*
X54928Y99397D01*
X55022Y99340D01*
X55115Y99279D01*
X55206Y99216D01*
X55295Y99149D01*
X55381Y99079D01*
X55464Y99006D01*
X55546Y98931D01*
X55624Y98853D01*
X55699Y98771D01*
X55772Y98688D01*
X55842Y98602D01*
X55909Y98513D01*
X55972Y98422D01*
X56033Y98329D01*
X56090Y98235D01*
X56143Y98138D01*
X56194Y98039D01*
X56241Y97938D01*
X56284Y97836D01*
X56324Y97733D01*
X56360Y97628D01*
X56392Y97522D01*
X56421Y97415D01*
X56446Y97307D01*
X56467Y97198D01*
X56484Y97089D01*
X56498Y96979D01*
X56507Y96868D01*
X56513Y96758D01*
X56515Y96647D01*
X56515Y93472D01*
X53340Y105664D02*
X45085Y105664D01*
X53340Y105664D02*
X53451Y105666D01*
X53561Y105672D01*
X53672Y105681D01*
X53782Y105695D01*
X53891Y105712D01*
X54000Y105733D01*
X54108Y105758D01*
X54215Y105787D01*
X54321Y105819D01*
X54426Y105855D01*
X54529Y105895D01*
X54631Y105938D01*
X54732Y105985D01*
X54831Y106036D01*
X54927Y106089D01*
X55022Y106146D01*
X55115Y106207D01*
X55206Y106270D01*
X55295Y106337D01*
X55381Y106407D01*
X55464Y106480D01*
X55546Y106555D01*
X55624Y106633D01*
X55699Y106715D01*
X55772Y106798D01*
X55842Y106884D01*
X55909Y106973D01*
X55972Y107064D01*
X56033Y107157D01*
X56090Y107251D01*
X56143Y107348D01*
X56194Y107447D01*
X56241Y107548D01*
X56284Y107650D01*
X56324Y107753D01*
X56360Y107858D01*
X56392Y107964D01*
X56421Y108071D01*
X56446Y108179D01*
X56467Y108288D01*
X56484Y108397D01*
X56498Y108507D01*
X56507Y108618D01*
X56513Y108728D01*
X56515Y108839D01*
X56513Y108950D01*
X56507Y109060D01*
X56498Y109171D01*
X56484Y109281D01*
X56467Y109390D01*
X56446Y109499D01*
X56421Y109607D01*
X56392Y109714D01*
X56360Y109820D01*
X56324Y109925D01*
X56284Y110028D01*
X56241Y110130D01*
X56194Y110231D01*
X56143Y110330D01*
X56090Y110426D01*
X56033Y110521D01*
X55972Y110614D01*
X55909Y110705D01*
X55842Y110794D01*
X55772Y110880D01*
X55699Y110963D01*
X55624Y111045D01*
X55546Y111123D01*
X55464Y111198D01*
X55381Y111271D01*
X55295Y111341D01*
X55206Y111408D01*
X55115Y111471D01*
X55022Y111532D01*
X54928Y111589D01*
X54831Y111642D01*
X54732Y111693D01*
X54631Y111740D01*
X54529Y111783D01*
X54426Y111823D01*
X54321Y111859D01*
X54215Y111891D01*
X54108Y111920D01*
X54000Y111945D01*
X53891Y111966D01*
X53782Y111983D01*
X53672Y111997D01*
X53561Y112006D01*
X53451Y112012D01*
X53340Y112014D01*
X45085Y112014D01*
X45085Y118364D02*
X56515Y118364D01*
X56515Y117094D02*
X56515Y119634D01*
X45085Y119634D02*
X45085Y117094D01*
X45085Y124714D02*
X56515Y124714D01*
X56515Y131064D02*
X45085Y124714D01*
X45085Y131064D02*
X56515Y131064D01*
X53340Y136525D02*
X48260Y136525D01*
X48149Y136527D01*
X48039Y136533D01*
X47928Y136542D01*
X47818Y136556D01*
X47709Y136573D01*
X47600Y136594D01*
X47492Y136619D01*
X47385Y136648D01*
X47279Y136680D01*
X47174Y136716D01*
X47071Y136756D01*
X46969Y136799D01*
X46868Y136846D01*
X46769Y136897D01*
X46673Y136950D01*
X46578Y137007D01*
X46485Y137068D01*
X46394Y137131D01*
X46305Y137198D01*
X46219Y137268D01*
X46136Y137341D01*
X46054Y137416D01*
X45976Y137494D01*
X45901Y137576D01*
X45828Y137659D01*
X45758Y137745D01*
X45691Y137834D01*
X45628Y137925D01*
X45567Y138018D01*
X45510Y138113D01*
X45457Y138209D01*
X45406Y138308D01*
X45359Y138409D01*
X45316Y138511D01*
X45276Y138614D01*
X45240Y138719D01*
X45208Y138825D01*
X45179Y138932D01*
X45154Y139040D01*
X45133Y139149D01*
X45116Y139258D01*
X45102Y139368D01*
X45093Y139479D01*
X45087Y139589D01*
X45085Y139700D01*
X45087Y139811D01*
X45093Y139921D01*
X45102Y140032D01*
X45116Y140142D01*
X45133Y140251D01*
X45154Y140360D01*
X45179Y140468D01*
X45208Y140575D01*
X45240Y140681D01*
X45276Y140786D01*
X45316Y140889D01*
X45359Y140991D01*
X45406Y141092D01*
X45457Y141191D01*
X45510Y141288D01*
X45567Y141382D01*
X45628Y141475D01*
X45691Y141566D01*
X45758Y141655D01*
X45828Y141741D01*
X45901Y141824D01*
X45976Y141906D01*
X46054Y141984D01*
X46136Y142059D01*
X46219Y142132D01*
X46305Y142202D01*
X46394Y142269D01*
X46485Y142332D01*
X46578Y142393D01*
X46673Y142450D01*
X46769Y142503D01*
X46868Y142554D01*
X46969Y142601D01*
X47071Y142644D01*
X47174Y142684D01*
X47279Y142720D01*
X47385Y142752D01*
X47492Y142781D01*
X47600Y142806D01*
X47709Y142827D01*
X47818Y142844D01*
X47928Y142858D01*
X48039Y142867D01*
X48149Y142873D01*
X48260Y142875D01*
X53340Y142875D01*
X53451Y142873D01*
X53561Y142867D01*
X53672Y142858D01*
X53782Y142844D01*
X53891Y142827D01*
X54000Y142806D01*
X54108Y142781D01*
X54215Y142752D01*
X54321Y142720D01*
X54426Y142684D01*
X54529Y142644D01*
X54631Y142601D01*
X54732Y142554D01*
X54831Y142503D01*
X54928Y142450D01*
X55022Y142393D01*
X55115Y142332D01*
X55206Y142269D01*
X55295Y142202D01*
X55381Y142132D01*
X55464Y142059D01*
X55546Y141984D01*
X55624Y141906D01*
X55699Y141824D01*
X55772Y141741D01*
X55842Y141655D01*
X55909Y141566D01*
X55972Y141475D01*
X56033Y141382D01*
X56090Y141287D01*
X56143Y141191D01*
X56194Y141092D01*
X56241Y140991D01*
X56284Y140889D01*
X56324Y140786D01*
X56360Y140681D01*
X56392Y140575D01*
X56421Y140468D01*
X56446Y140360D01*
X56467Y140251D01*
X56484Y140142D01*
X56498Y140032D01*
X56507Y139921D01*
X56513Y139811D01*
X56515Y139700D01*
X56513Y139589D01*
X56507Y139479D01*
X56498Y139368D01*
X56484Y139258D01*
X56467Y139149D01*
X56446Y139040D01*
X56421Y138932D01*
X56392Y138825D01*
X56360Y138719D01*
X56324Y138614D01*
X56284Y138511D01*
X56241Y138409D01*
X56194Y138308D01*
X56143Y138209D01*
X56090Y138112D01*
X56033Y138018D01*
X55972Y137925D01*
X55909Y137834D01*
X55842Y137745D01*
X55772Y137659D01*
X55699Y137576D01*
X55624Y137494D01*
X55546Y137416D01*
X55464Y137341D01*
X55381Y137268D01*
X55295Y137198D01*
X55206Y137131D01*
X55115Y137068D01*
X55022Y137007D01*
X54927Y136950D01*
X54831Y136897D01*
X54732Y136846D01*
X54631Y136799D01*
X54529Y136756D01*
X54426Y136716D01*
X54321Y136680D01*
X54215Y136648D01*
X54108Y136619D01*
X54000Y136594D01*
X53891Y136573D01*
X53782Y136556D01*
X53672Y136542D01*
X53561Y136533D01*
X53451Y136527D01*
X53340Y136525D01*
M02*
