%TF.GenerationSoftware,KiCad,Pcbnew,7.0.2-0*%
%TF.CreationDate,2023-11-25T19:39:29-06:00*%
%TF.ProjectId,panel_soil,70616e65-6c5f-4736-9f69-6c2e6b696361,rev?*%
%TF.SameCoordinates,Original*%
%TF.FileFunction,Soldermask,Bot*%
%TF.FilePolarity,Negative*%
%FSLAX46Y46*%
G04 Gerber Fmt 4.6, Leading zero omitted, Abs format (unit mm)*
G04 Created by KiCad (PCBNEW 7.0.2-0) date 2023-11-25 19:39:29*
%MOMM*%
%LPD*%
G01*
G04 APERTURE LIST*
G04 Aperture macros list*
%AMHorizOval*
0 Thick line with rounded ends*
0 $1 width*
0 $2 $3 position (X,Y) of the first rounded end (center of the circle)*
0 $4 $5 position (X,Y) of the second rounded end (center of the circle)*
0 Add line between two ends*
20,1,$1,$2,$3,$4,$5,0*
0 Add two circle primitives to create the rounded ends*
1,1,$1,$2,$3*
1,1,$1,$4,$5*%
%AMRotRect*
0 Rectangle, with rotation*
0 The origin of the aperture is its center*
0 $1 length*
0 $2 width*
0 $3 Rotation angle, in degrees counterclockwise*
0 Add horizontal line*
21,1,$1,$2,0,0,$3*%
G04 Aperture macros list end*
%ADD10C,0.500000*%
%ADD11O,1.727200X3.251200*%
%ADD12RotRect,1.700000X1.700000X30.000000*%
%ADD13HorizOval,1.700000X0.000000X0.000000X0.000000X0.000000X0*%
%ADD14R,1.700000X1.700000*%
%ADD15O,1.700000X1.700000*%
%ADD16C,1.600000*%
G04 APERTURE END LIST*
D10*
%TO.C,REF\u002A\u002A*%
X136691909Y-99701966D03*
%TD*%
D11*
%TO.C,-_13_10_+0*%
X104807344Y-118148957D03*
X107347344Y-118148957D03*
X109887344Y-118148957D03*
X112427344Y-118148957D03*
%TD*%
D10*
%TO.C,REF\u002A\u002A*%
X107102885Y-99762769D03*
%TD*%
D12*
%TO.C,J1*%
X151150088Y-86957417D03*
D13*
X152420088Y-89157122D03*
X153690088Y-91356826D03*
X154960088Y-93556531D03*
%TD*%
D14*
%TO.C,J4*%
X140333716Y-75648317D03*
%TD*%
D10*
%TO.C,REF\u002A\u002A*%
X107099397Y-70779475D03*
%TD*%
D14*
%TO.C,J4*%
X166950088Y-22647037D03*
%TD*%
%TO.C,J3*%
X104417344Y-23147037D03*
D15*
X106957344Y-23147037D03*
X109497344Y-23147037D03*
%TD*%
D10*
%TO.C,REF\u002A\u002A*%
X186952000Y-73262129D03*
%TD*%
%TO.C,REF\u002A\u002A*%
X149701187Y-59750956D03*
%TD*%
%TO.C,REF\u002A\u002A*%
X176317559Y-84251596D03*
%TD*%
D16*
%TO.C,TH1*%
X124863716Y-108648957D03*
X127403716Y-108648957D03*
%TD*%
D12*
%TO.C,J1*%
X151150088Y-113458057D03*
D13*
X152420088Y-115657762D03*
X153690088Y-117857466D03*
X154960088Y-120057171D03*
%TD*%
D10*
%TO.C,REF\u002A\u002A*%
X189924603Y-70801275D03*
%TD*%
D14*
%TO.C,J3*%
X131033716Y-102648957D03*
D15*
X133573716Y-102648957D03*
X136113716Y-102648957D03*
%TD*%
D14*
%TO.C,J4*%
X140333716Y-49147677D03*
%TD*%
D11*
%TO.C,-_13_10_+0*%
X131423716Y-38647037D03*
X133963716Y-38647037D03*
X136503716Y-38647037D03*
X139043716Y-38647037D03*
%TD*%
D10*
%TO.C,REF\u002A\u002A*%
X188436953Y-73201704D03*
%TD*%
D14*
%TO.C,J5*%
X158450088Y-121348957D03*
%TD*%
D10*
%TO.C,REF\u002A\u002A*%
X133719256Y-46761489D03*
%TD*%
D12*
%TO.C,J1*%
X97917344Y-33956137D03*
D13*
X99187344Y-36155842D03*
X100457344Y-38355546D03*
X101727344Y-40555251D03*
%TD*%
D14*
%TO.C,J5*%
X131833716Y-41847037D03*
%TD*%
%TO.C,J4*%
X113717344Y-102148957D03*
%TD*%
D10*
%TO.C,REF\u002A\u002A*%
X135203160Y-44300635D03*
%TD*%
%TO.C,REF\u002A\u002A*%
X149701187Y-31250317D03*
%TD*%
%TO.C,REF\u002A\u002A*%
X147254223Y-110771647D03*
%TD*%
%TO.C,REF\u002A\u002A*%
X160335628Y-73262129D03*
%TD*%
D12*
%TO.C,J1*%
X177766460Y-33956137D03*
D13*
X179036460Y-36155842D03*
X180306460Y-38355546D03*
X181576460Y-40555251D03*
%TD*%
D16*
%TO.C,TH1*%
X151480088Y-82148317D03*
X154020088Y-82148317D03*
%TD*%
D10*
%TO.C,REF\u002A\u002A*%
X108587837Y-73201704D03*
%TD*%
%TO.C,REF\u002A\u002A*%
X110075487Y-97301915D03*
%TD*%
%TO.C,REF\u002A\u002A*%
X176317559Y-112752236D03*
%TD*%
%TO.C,REF\u002A\u002A*%
X173879456Y-112740470D03*
%TD*%
%TO.C,REF\u002A\u002A*%
X173879456Y-86239830D03*
%TD*%
%TO.C,REF\u002A\u002A*%
X161820581Y-99702344D03*
%TD*%
D14*
%TO.C,J3*%
X157650088Y-102648957D03*
D15*
X160190088Y-102648957D03*
X162730088Y-102648957D03*
%TD*%
D10*
%TO.C,REF\u002A\u002A*%
X147254223Y-57770367D03*
%TD*%
%TO.C,REF\u002A\u002A*%
X107102885Y-73262129D03*
%TD*%
%TO.C,REF\u002A\u002A*%
X110075537Y-46700686D03*
%TD*%
%TO.C,REF\u002A\u002A*%
X108586788Y-44300635D03*
%TD*%
%TO.C,REF\u002A\u002A*%
X189924653Y-46700686D03*
%TD*%
D14*
%TO.C,J5*%
X185066460Y-41847037D03*
%TD*%
D11*
%TO.C,-_13_10_+0*%
X104807344Y-38647037D03*
X107347344Y-38647037D03*
X109887344Y-38647037D03*
X112427344Y-38647037D03*
%TD*%
D14*
%TO.C,J4*%
X140333716Y-22647037D03*
%TD*%
D12*
%TO.C,J1*%
X177766460Y-60456777D03*
D13*
X179036460Y-62656482D03*
X180306460Y-64856186D03*
X181576460Y-67055891D03*
%TD*%
D14*
%TO.C,J3*%
X184266460Y-76148317D03*
D15*
X186806460Y-76148317D03*
X189346460Y-76148317D03*
%TD*%
D10*
%TO.C,REF\u002A\u002A*%
X149701187Y-57750956D03*
%TD*%
D16*
%TO.C,TH1*%
X98247344Y-29147037D03*
X100787344Y-29147037D03*
%TD*%
D10*
%TO.C,REF\u002A\u002A*%
X149701187Y-112752236D03*
%TD*%
D14*
%TO.C,J3*%
X104417344Y-49647677D03*
D15*
X106957344Y-49647677D03*
X109497344Y-49647677D03*
%TD*%
D10*
%TO.C,REF\u002A\u002A*%
X173870595Y-57770367D03*
%TD*%
D16*
%TO.C,TH1*%
X98247344Y-108648957D03*
X100787344Y-108648957D03*
%TD*%
D10*
%TO.C,REF\u002A\u002A*%
X173870595Y-31269728D03*
%TD*%
%TO.C,REF\u002A\u002A*%
X135203160Y-97301915D03*
%TD*%
%TO.C,REF\u002A\u002A*%
X173870595Y-84271007D03*
%TD*%
D14*
%TO.C,J4*%
X166950088Y-102148957D03*
%TD*%
D10*
%TO.C,REF\u002A\u002A*%
X160332140Y-97280115D03*
%TD*%
%TO.C,REF\u002A\u002A*%
X176317559Y-111752236D03*
%TD*%
%TO.C,REF\u002A\u002A*%
X107099397Y-44278835D03*
%TD*%
D11*
%TO.C,-_13_10_+0*%
X158040088Y-118148957D03*
X160580088Y-118148957D03*
X163120088Y-118148957D03*
X165660088Y-118148957D03*
%TD*%
D10*
%TO.C,REF\u002A\u002A*%
X176317559Y-86251596D03*
%TD*%
%TO.C,REF\u002A\u002A*%
X176317559Y-31250317D03*
%TD*%
%TO.C,REF\u002A\u002A*%
X163308281Y-73201326D03*
%TD*%
%TO.C,REF\u002A\u002A*%
X110075487Y-44300635D03*
%TD*%
D14*
%TO.C,J3*%
X104417344Y-102648957D03*
D15*
X106957344Y-102648957D03*
X109497344Y-102648957D03*
%TD*%
D10*
%TO.C,REF\u002A\u002A*%
X173879456Y-33238550D03*
%TD*%
D16*
%TO.C,TH1*%
X178096460Y-82148317D03*
X180636460Y-82148317D03*
%TD*%
D10*
%TO.C,REF\u002A\u002A*%
X160332140Y-70779475D03*
%TD*%
%TO.C,REF\u002A\u002A*%
X133715768Y-70779475D03*
%TD*%
%TO.C,REF\u002A\u002A*%
X123084815Y-32250317D03*
%TD*%
D11*
%TO.C,-_13_10_+0*%
X184656460Y-65147677D03*
X187196460Y-65147677D03*
X189736460Y-65147677D03*
X192276460Y-65147677D03*
%TD*%
D10*
%TO.C,REF\u002A\u002A*%
X108587837Y-46701064D03*
%TD*%
%TO.C,REF\u002A\u002A*%
X161820581Y-73201704D03*
%TD*%
D11*
%TO.C,-_13_10_+0*%
X104807344Y-65147677D03*
X107347344Y-65147677D03*
X109887344Y-65147677D03*
X112427344Y-65147677D03*
%TD*%
%TO.C,-_13_10_+0*%
X184656460Y-38647037D03*
X187196460Y-38647037D03*
X189736460Y-38647037D03*
X192276460Y-38647037D03*
%TD*%
D10*
%TO.C,REF\u002A\u002A*%
X135204209Y-99702344D03*
%TD*%
%TO.C,REF\u002A\u002A*%
X161819532Y-44300635D03*
%TD*%
%TO.C,REF\u002A\u002A*%
X149701187Y-110752236D03*
%TD*%
%TO.C,REF\u002A\u002A*%
X136691859Y-70801275D03*
%TD*%
%TO.C,REF\u002A\u002A*%
X135204209Y-73201704D03*
%TD*%
%TO.C,REF\u002A\u002A*%
X149701187Y-84251596D03*
%TD*%
%TO.C,REF\u002A\u002A*%
X120637851Y-57770367D03*
%TD*%
%TO.C,REF\u002A\u002A*%
X108586788Y-97301915D03*
%TD*%
%TO.C,REF\u002A\u002A*%
X176317559Y-59750956D03*
%TD*%
D14*
%TO.C,J3*%
X131033716Y-76148317D03*
D15*
X133573716Y-76148317D03*
X136113716Y-76148317D03*
%TD*%
D10*
%TO.C,REF\u002A\u002A*%
X123084815Y-84251596D03*
%TD*%
%TO.C,REF\u002A\u002A*%
X123084815Y-57750956D03*
%TD*%
%TO.C,REF\u002A\u002A*%
X161820581Y-46701064D03*
%TD*%
%TO.C,REF\u002A\u002A*%
X133715768Y-97280115D03*
%TD*%
D11*
%TO.C,-_13_10_+0*%
X158040088Y-65147677D03*
X160580088Y-65147677D03*
X163120088Y-65147677D03*
X165660088Y-65147677D03*
%TD*%
D14*
%TO.C,J5*%
X131833716Y-121348957D03*
%TD*%
D10*
%TO.C,REF\u002A\u002A*%
X149701187Y-58750956D03*
%TD*%
D14*
%TO.C,J5*%
X131833716Y-68347677D03*
%TD*%
D10*
%TO.C,REF\u002A\u002A*%
X160335628Y-99762769D03*
%TD*%
%TO.C,REF\u002A\u002A*%
X133715768Y-44278835D03*
%TD*%
D14*
%TO.C,J3*%
X157650088Y-23147037D03*
D15*
X160190088Y-23147037D03*
X162730088Y-23147037D03*
%TD*%
D14*
%TO.C,J5*%
X105217344Y-41847037D03*
%TD*%
D10*
%TO.C,REF\u002A\u002A*%
X110075537Y-73201326D03*
%TD*%
D14*
%TO.C,J3*%
X131033716Y-49647677D03*
D15*
X133573716Y-49647677D03*
X136113716Y-49647677D03*
%TD*%
D10*
%TO.C,REF\u002A\u002A*%
X133719256Y-99762769D03*
%TD*%
%TO.C,REF\u002A\u002A*%
X107102885Y-46761489D03*
%TD*%
%TO.C,REF\u002A\u002A*%
X189924603Y-44300635D03*
%TD*%
D14*
%TO.C,J5*%
X105217344Y-121348957D03*
%TD*%
D10*
%TO.C,REF\u002A\u002A*%
X147263084Y-86239830D03*
%TD*%
%TO.C,REF\u002A\u002A*%
X147254223Y-84271007D03*
%TD*%
%TO.C,REF\u002A\u002A*%
X188436953Y-99702344D03*
%TD*%
%TO.C,REF\u002A\u002A*%
X149701187Y-85251596D03*
%TD*%
D14*
%TO.C,J3*%
X131033716Y-23147037D03*
D15*
X133573716Y-23147037D03*
X136113716Y-23147037D03*
%TD*%
D10*
%TO.C,REF\u002A\u002A*%
X136691859Y-97301915D03*
%TD*%
%TO.C,REF\u002A\u002A*%
X123084815Y-86251596D03*
%TD*%
%TO.C,REF\u002A\u002A*%
X110075537Y-99701966D03*
%TD*%
%TO.C,REF\u002A\u002A*%
X135204209Y-46701064D03*
%TD*%
%TO.C,REF\u002A\u002A*%
X186948512Y-70779475D03*
%TD*%
%TO.C,REF\u002A\u002A*%
X136691909Y-46700686D03*
%TD*%
D11*
%TO.C,-_13_10_+0*%
X131423716Y-91648317D03*
X133963716Y-91648317D03*
X136503716Y-91648317D03*
X139043716Y-91648317D03*
%TD*%
D10*
%TO.C,REF\u002A\u002A*%
X123084815Y-31250317D03*
%TD*%
%TO.C,REF\u002A\u002A*%
X176317559Y-85251596D03*
%TD*%
%TO.C,REF\u002A\u002A*%
X163308281Y-46700686D03*
%TD*%
%TO.C,REF\u002A\u002A*%
X161819532Y-97301915D03*
%TD*%
%TO.C,REF\u002A\u002A*%
X147263084Y-59739190D03*
%TD*%
D11*
%TO.C,-_13_10_+0*%
X184656460Y-118148957D03*
X187196460Y-118148957D03*
X189736460Y-118148957D03*
X192276460Y-118148957D03*
%TD*%
D14*
%TO.C,J4*%
X113717344Y-49147677D03*
%TD*%
%TO.C,J5*%
X105217344Y-68347677D03*
%TD*%
D10*
%TO.C,REF\u002A\u002A*%
X189924653Y-99701966D03*
%TD*%
D12*
%TO.C,J1*%
X151150088Y-33956137D03*
D13*
X152420088Y-36155842D03*
X153690088Y-38355546D03*
X154960088Y-40555251D03*
%TD*%
D10*
%TO.C,REF\u002A\u002A*%
X110075487Y-70801275D03*
%TD*%
D14*
%TO.C,J5*%
X131833716Y-94848317D03*
%TD*%
%TO.C,J3*%
X184266460Y-49647677D03*
D15*
X186806460Y-49647677D03*
X189346460Y-49647677D03*
%TD*%
D10*
%TO.C,REF\u002A\u002A*%
X173879456Y-59739190D03*
%TD*%
%TO.C,REF\u002A\u002A*%
X147254223Y-31269728D03*
%TD*%
D14*
%TO.C,J4*%
X193566460Y-75648317D03*
%TD*%
%TO.C,J4*%
X193566460Y-49147677D03*
%TD*%
D10*
%TO.C,REF\u002A\u002A*%
X123084815Y-59750956D03*
%TD*%
D16*
%TO.C,TH1*%
X151480088Y-29147037D03*
X154020088Y-29147037D03*
%TD*%
D11*
%TO.C,-_13_10_+0*%
X158040088Y-91648317D03*
X160580088Y-91648317D03*
X163120088Y-91648317D03*
X165660088Y-91648317D03*
%TD*%
D10*
%TO.C,REF\u002A\u002A*%
X188435904Y-44300635D03*
%TD*%
%TO.C,REF\u002A\u002A*%
X188435904Y-97301915D03*
%TD*%
D11*
%TO.C,-_13_10_+0*%
X104807344Y-91648317D03*
X107347344Y-91648317D03*
X109887344Y-91648317D03*
X112427344Y-91648317D03*
%TD*%
D10*
%TO.C,REF\u002A\u002A*%
X188435904Y-70801275D03*
%TD*%
D11*
%TO.C,-_13_10_+0*%
X184656460Y-91648317D03*
X187196460Y-91648317D03*
X189736460Y-91648317D03*
X192276460Y-91648317D03*
%TD*%
D16*
%TO.C,TH1*%
X178096460Y-29147037D03*
X180636460Y-29147037D03*
%TD*%
D11*
%TO.C,-_13_10_+0*%
X158040088Y-38647037D03*
X160580088Y-38647037D03*
X163120088Y-38647037D03*
X165660088Y-38647037D03*
%TD*%
D14*
%TO.C,J4*%
X166950088Y-75648317D03*
%TD*%
D12*
%TO.C,J1*%
X124533716Y-86957417D03*
D13*
X125803716Y-89157122D03*
X127073716Y-91356826D03*
X128343716Y-93556531D03*
%TD*%
D10*
%TO.C,REF\u002A\u002A*%
X149701187Y-32250317D03*
%TD*%
%TO.C,REF\u002A\u002A*%
X135203160Y-70801275D03*
%TD*%
D16*
%TO.C,TH1*%
X178096460Y-55647677D03*
X180636460Y-55647677D03*
%TD*%
D12*
%TO.C,J1*%
X177766460Y-86957417D03*
D13*
X179036460Y-89157122D03*
X180306460Y-91356826D03*
X181576460Y-93556531D03*
%TD*%
D10*
%TO.C,REF\u002A\u002A*%
X189924653Y-73201326D03*
%TD*%
D16*
%TO.C,TH1*%
X124863716Y-29147037D03*
X127403716Y-29147037D03*
%TD*%
D12*
%TO.C,J1*%
X124533716Y-113458057D03*
D13*
X125803716Y-115657762D03*
X127073716Y-117857466D03*
X128343716Y-120057171D03*
%TD*%
D14*
%TO.C,J3*%
X184266460Y-23147037D03*
D15*
X186806460Y-23147037D03*
X189346460Y-23147037D03*
%TD*%
D10*
%TO.C,REF\u002A\u002A*%
X108586788Y-70801275D03*
%TD*%
D14*
%TO.C,J3*%
X157650088Y-76148317D03*
D15*
X160190088Y-76148317D03*
X162730088Y-76148317D03*
%TD*%
D10*
%TO.C,REF\u002A\u002A*%
X186948512Y-97280115D03*
%TD*%
D14*
%TO.C,J5*%
X185066460Y-94848317D03*
%TD*%
D10*
%TO.C,REF\u002A\u002A*%
X120646712Y-33238550D03*
%TD*%
D14*
%TO.C,J5*%
X158450088Y-94848317D03*
%TD*%
%TO.C,J3*%
X184266460Y-102648957D03*
D15*
X186806460Y-102648957D03*
X189346460Y-102648957D03*
%TD*%
D10*
%TO.C,REF\u002A\u002A*%
X189924603Y-97301915D03*
%TD*%
D14*
%TO.C,J4*%
X193566460Y-102148957D03*
%TD*%
%TO.C,J4*%
X193566460Y-22647037D03*
%TD*%
D10*
%TO.C,REF\u002A\u002A*%
X136691909Y-73201326D03*
%TD*%
D14*
%TO.C,J4*%
X166950088Y-49147677D03*
%TD*%
%TO.C,J5*%
X185066460Y-121348957D03*
%TD*%
D10*
%TO.C,REF\u002A\u002A*%
X120646712Y-59739190D03*
%TD*%
%TO.C,REF\u002A\u002A*%
X176317559Y-32250317D03*
%TD*%
%TO.C,REF\u002A\u002A*%
X123084815Y-58750956D03*
%TD*%
D14*
%TO.C,J5*%
X158450088Y-41847037D03*
%TD*%
D16*
%TO.C,TH1*%
X124863716Y-55647677D03*
X127403716Y-55647677D03*
%TD*%
D12*
%TO.C,J1*%
X124533716Y-60456777D03*
D13*
X125803716Y-62656482D03*
X127073716Y-64856186D03*
X128343716Y-67055891D03*
%TD*%
D10*
%TO.C,REF\u002A\u002A*%
X120646712Y-112740470D03*
%TD*%
D14*
%TO.C,J5*%
X185066460Y-68347677D03*
%TD*%
D16*
%TO.C,TH1*%
X151480088Y-55647677D03*
X154020088Y-55647677D03*
%TD*%
D10*
%TO.C,REF\u002A\u002A*%
X186952000Y-99762769D03*
%TD*%
D14*
%TO.C,J3*%
X157650088Y-49647677D03*
D15*
X160190088Y-49647677D03*
X162730088Y-49647677D03*
%TD*%
D10*
%TO.C,REF\u002A\u002A*%
X176317559Y-57750956D03*
%TD*%
%TO.C,REF\u002A\u002A*%
X160335628Y-46761489D03*
%TD*%
%TO.C,REF\u002A\u002A*%
X149701187Y-33250316D03*
%TD*%
%TO.C,REF\u002A\u002A*%
X188436953Y-46701064D03*
%TD*%
%TO.C,REF\u002A\u002A*%
X160332140Y-44278835D03*
%TD*%
%TO.C,REF\u002A\u002A*%
X176317559Y-110752236D03*
%TD*%
%TO.C,REF\u002A\u002A*%
X147263084Y-112740470D03*
%TD*%
D12*
%TO.C,J1*%
X124533716Y-33956137D03*
D13*
X125803716Y-36155842D03*
X127073716Y-38355546D03*
X128343716Y-40555251D03*
%TD*%
D10*
%TO.C,REF\u002A\u002A*%
X133719256Y-73262129D03*
%TD*%
%TO.C,REF\u002A\u002A*%
X163308231Y-70801275D03*
%TD*%
D14*
%TO.C,J4*%
X113717344Y-75648317D03*
%TD*%
D10*
%TO.C,REF\u002A\u002A*%
X123084815Y-33250316D03*
%TD*%
D14*
%TO.C,J5*%
X105217344Y-94848317D03*
%TD*%
D10*
%TO.C,REF\u002A\u002A*%
X149701187Y-86251596D03*
%TD*%
D16*
%TO.C,TH1*%
X124863716Y-82148317D03*
X127403716Y-82148317D03*
%TD*%
D10*
%TO.C,REF\u002A\u002A*%
X120637851Y-84271007D03*
%TD*%
D12*
%TO.C,J1*%
X177766460Y-113458057D03*
D13*
X179036460Y-115657762D03*
X180306460Y-117857466D03*
X181576460Y-120057171D03*
%TD*%
D10*
%TO.C,REF\u002A\u002A*%
X163308281Y-99701966D03*
%TD*%
%TO.C,REF\u002A\u002A*%
X123084815Y-112752236D03*
%TD*%
D12*
%TO.C,J1*%
X97917344Y-60456777D03*
D13*
X99187344Y-62656482D03*
X100457344Y-64856186D03*
X101727344Y-67055891D03*
%TD*%
D10*
%TO.C,REF\u002A\u002A*%
X163308231Y-44300635D03*
%TD*%
%TO.C,REF\u002A\u002A*%
X123084815Y-85251596D03*
%TD*%
%TO.C,REF\u002A\u002A*%
X108587837Y-99702344D03*
%TD*%
%TO.C,REF\u002A\u002A*%
X176317559Y-58750956D03*
%TD*%
%TO.C,REF\u002A\u002A*%
X107099397Y-97280115D03*
%TD*%
%TO.C,REF\u002A\u002A*%
X186952000Y-46761489D03*
%TD*%
%TO.C,REF\u002A\u002A*%
X147263084Y-33238550D03*
%TD*%
D14*
%TO.C,J5*%
X158450088Y-68347677D03*
%TD*%
%TO.C,J4*%
X113717344Y-22647037D03*
%TD*%
D10*
%TO.C,REF\u002A\u002A*%
X120646712Y-86239830D03*
%TD*%
D12*
%TO.C,J1*%
X97917344Y-113458057D03*
D13*
X99187344Y-115657762D03*
X100457344Y-117857466D03*
X101727344Y-120057171D03*
%TD*%
D11*
%TO.C,-_13_10_+0*%
X131423716Y-65147677D03*
X133963716Y-65147677D03*
X136503716Y-65147677D03*
X139043716Y-65147677D03*
%TD*%
D16*
%TO.C,TH1*%
X98247344Y-55647677D03*
X100787344Y-55647677D03*
%TD*%
D14*
%TO.C,J3*%
X104417344Y-76148317D03*
D15*
X106957344Y-76148317D03*
X109497344Y-76148317D03*
%TD*%
D10*
%TO.C,REF\u002A\u002A*%
X120637851Y-110771647D03*
%TD*%
%TO.C,REF\u002A\u002A*%
X136691859Y-44300635D03*
%TD*%
%TO.C,REF\u002A\u002A*%
X123084815Y-111752236D03*
%TD*%
%TO.C,REF\u002A\u002A*%
X173870595Y-110771647D03*
%TD*%
%TO.C,REF\u002A\u002A*%
X161819532Y-70801275D03*
%TD*%
%TO.C,REF\u002A\u002A*%
X149701187Y-111752236D03*
%TD*%
D16*
%TO.C,TH1*%
X151480088Y-108648957D03*
X154020088Y-108648957D03*
%TD*%
D11*
%TO.C,-_13_10_+0*%
X131423716Y-118148957D03*
X133963716Y-118148957D03*
X136503716Y-118148957D03*
X139043716Y-118148957D03*
%TD*%
D10*
%TO.C,REF\u002A\u002A*%
X163308231Y-97301915D03*
%TD*%
D12*
%TO.C,J1*%
X97917344Y-86957417D03*
D13*
X99187344Y-89157122D03*
X100457344Y-91356826D03*
X101727344Y-93556531D03*
%TD*%
D16*
%TO.C,TH1*%
X178096460Y-108648957D03*
X180636460Y-108648957D03*
%TD*%
D12*
%TO.C,J1*%
X151150088Y-60456777D03*
D13*
X152420088Y-62656482D03*
X153690088Y-64856186D03*
X154960088Y-67055891D03*
%TD*%
D14*
%TO.C,J4*%
X140333716Y-102148957D03*
%TD*%
D10*
%TO.C,REF\u002A\u002A*%
X123084815Y-110752236D03*
%TD*%
%TO.C,REF\u002A\u002A*%
X176317559Y-33250316D03*
%TD*%
D16*
%TO.C,TH1*%
X98247344Y-82148317D03*
X100787344Y-82148317D03*
%TD*%
D10*
%TO.C,REF\u002A\u002A*%
X120637851Y-31269728D03*
%TD*%
%TO.C,REF\u002A\u002A*%
X186948512Y-44278835D03*
%TD*%
M02*
