%TF.GenerationSoftware,KiCad,Pcbnew,7.0.2-0*%
%TF.CreationDate,2023-11-25T19:39:29-06:00*%
%TF.ProjectId,panel_soil,70616e65-6c5f-4736-9f69-6c2e6b696361,rev?*%
%TF.SameCoordinates,Original*%
%TF.FileFunction,Copper,L1,Top*%
%TF.FilePolarity,Positive*%
%FSLAX46Y46*%
G04 Gerber Fmt 4.6, Leading zero omitted, Abs format (unit mm)*
G04 Created by KiCad (PCBNEW 7.0.2-0) date 2023-11-25 19:39:29*
%MOMM*%
%LPD*%
G01*
G04 APERTURE LIST*
G04 Aperture macros list*
%AMRoundRect*
0 Rectangle with rounded corners*
0 $1 Rounding radius*
0 $2 $3 $4 $5 $6 $7 $8 $9 X,Y pos of 4 corners*
0 Add a 4 corners polygon primitive as box body*
4,1,4,$2,$3,$4,$5,$6,$7,$8,$9,$2,$3,0*
0 Add four circle primitives for the rounded corners*
1,1,$1+$1,$2,$3*
1,1,$1+$1,$4,$5*
1,1,$1+$1,$6,$7*
1,1,$1+$1,$8,$9*
0 Add four rect primitives between the rounded corners*
20,1,$1+$1,$2,$3,$4,$5,0*
20,1,$1+$1,$4,$5,$6,$7,0*
20,1,$1+$1,$6,$7,$8,$9,0*
20,1,$1+$1,$8,$9,$2,$3,0*%
%AMHorizOval*
0 Thick line with rounded ends*
0 $1 width*
0 $2 $3 position (X,Y) of the first rounded end (center of the circle)*
0 $4 $5 position (X,Y) of the second rounded end (center of the circle)*
0 Add line between two ends*
20,1,$1,$2,$3,$4,$5,0*
0 Add two circle primitives to create the rounded ends*
1,1,$1,$2,$3*
1,1,$1,$4,$5*%
%AMRotRect*
0 Rectangle, with rotation*
0 The origin of the aperture is its center*
0 $1 length*
0 $2 width*
0 $3 Rotation angle, in degrees counterclockwise*
0 Add horizontal line*
21,1,$1,$2,0,0,$3*%
G04 Aperture macros list end*
%TA.AperFunction,ComponentPad*%
%ADD10O,1.524000X3.048000*%
%TD*%
%TA.AperFunction,ComponentPad*%
%ADD11RotRect,1.700000X1.700000X30.000000*%
%TD*%
%TA.AperFunction,ComponentPad*%
%ADD12HorizOval,1.700000X0.000000X0.000000X0.000000X0.000000X0*%
%TD*%
%TA.AperFunction,ComponentPad*%
%ADD13R,1.700000X1.700000*%
%TD*%
%TA.AperFunction,ComponentPad*%
%ADD14O,1.700000X1.700000*%
%TD*%
%TA.AperFunction,ComponentPad*%
%ADD15C,1.600000*%
%TD*%
%TA.AperFunction,SMDPad,CuDef*%
%ADD16R,1.270000X0.500000*%
%TD*%
%TA.AperFunction,SMDPad,CuDef*%
%ADD17R,0.500000X1.270000*%
%TD*%
%TA.AperFunction,SMDPad,CuDef*%
%ADD18RoundRect,0.250000X-0.312500X-0.625000X0.312500X-0.625000X0.312500X0.625000X-0.312500X0.625000X0*%
%TD*%
%TA.AperFunction,ViaPad*%
%ADD19C,0.600000*%
%TD*%
%TA.AperFunction,Conductor*%
%ADD20C,0.200000*%
%TD*%
G04 APERTURE END LIST*
D10*
%TO.P,-_13_10_+0,1,1*%
%TO.N,Board_12-/GND*%
X104807344Y-118148957D03*
%TO.P,-_13_10_+0,2,2*%
%TO.N,Board_12-/P013*%
X107347344Y-118148957D03*
%TO.P,-_13_10_+0,3,3*%
%TO.N,Board_12-/P010*%
X109887344Y-118148957D03*
%TO.P,-_13_10_+0,4,4*%
%TO.N,Board_12-/VCC33*%
X112427344Y-118148957D03*
%TD*%
D11*
%TO.P,J1,1,Pin_1*%
%TO.N,Board_10-Net-(J1-Pin_1)*%
X151150088Y-86957417D03*
D12*
%TO.P,J1,2,Pin_2*%
%TO.N,Board_10-Net-(J1-Pin_2)*%
X152420088Y-89157122D03*
%TO.P,J1,3,Pin_3*%
%TO.N,Board_10-/VCC33*%
X153690088Y-91356826D03*
%TO.P,J1,4,Pin_4*%
%TO.N,Board_10-/GND*%
X154960088Y-93556531D03*
%TD*%
D13*
%TO.P,J4,1,Pin_1*%
%TO.N,Board_9-/VCC33*%
X140333716Y-75648317D03*
%TD*%
%TO.P,J4,1,Pin_1*%
%TO.N,Board_2-/VCC33*%
X166950088Y-22647037D03*
%TD*%
%TO.P,J3,1,Pin_1*%
%TO.N,Board_0-/GND*%
X104417344Y-23147037D03*
D14*
%TO.P,J3,2,Pin_2*%
%TO.N,Board_0-/P013*%
X106957344Y-23147037D03*
%TO.P,J3,3,Pin_3*%
%TO.N,Board_0-P04*%
X109497344Y-23147037D03*
%TD*%
D15*
%TO.P,TH1,1*%
%TO.N,Board_13-/P013*%
X124863716Y-108648957D03*
%TO.P,TH1,2*%
%TO.N,Board_13-P04*%
X127403716Y-108648957D03*
%TD*%
D11*
%TO.P,J1,1,Pin_1*%
%TO.N,Board_14-Net-(J1-Pin_1)*%
X151150088Y-113458057D03*
D12*
%TO.P,J1,2,Pin_2*%
%TO.N,Board_14-Net-(J1-Pin_2)*%
X152420088Y-115657762D03*
%TO.P,J1,3,Pin_3*%
%TO.N,Board_14-/VCC33*%
X153690088Y-117857466D03*
%TO.P,J1,4,Pin_4*%
%TO.N,Board_14-/GND*%
X154960088Y-120057171D03*
%TD*%
D13*
%TO.P,J3,1,Pin_1*%
%TO.N,Board_13-/GND*%
X131033716Y-102648957D03*
D14*
%TO.P,J3,2,Pin_2*%
%TO.N,Board_13-/P013*%
X133573716Y-102648957D03*
%TO.P,J3,3,Pin_3*%
%TO.N,Board_13-P04*%
X136113716Y-102648957D03*
%TD*%
D16*
%TO.P,U1,P1,VCC*%
%TO.N,Board_15-/VCC33*%
X182947460Y-105348957D03*
%TO.P,U1,P2,GND@1*%
%TO.N,Board_15-/GND*%
X182947460Y-106348957D03*
%TO.P,U1,P3,P0.01(RX)*%
%TO.N,Board_15-unconnected-(U1-P0.01(RX)-PadP3)*%
X182947460Y-107348957D03*
%TO.P,U1,P4,P0.02(TX)*%
%TO.N,Board_15-unconnected-(U1-P0.02(TX)-PadP4)*%
X182947460Y-108348957D03*
%TO.P,U1,P5,P0.03(INT)*%
%TO.N,Board_15-p03*%
X182947460Y-109348957D03*
%TO.P,U1,P6,P0.04(TEST)*%
%TO.N,Board_15-P04*%
X182947460Y-110348957D03*
D17*
%TO.P,U1,P7,P0.09(ENABLE)*%
%TO.N,Board_15-unconnected-(U1-P0.09(ENABLE)-PadP7)*%
X186455460Y-113829957D03*
%TO.P,U1,P8,P0.10(RESET)*%
%TO.N,Board_15-/P010*%
X187455460Y-113829957D03*
%TO.P,U1,P9,P0.13*%
%TO.N,Board_15-/P013*%
X188455460Y-113829957D03*
%TO.P,U1,P10,SWDIO*%
%TO.N,Board_15-Net-(J1-Pin_2)*%
X189455460Y-113829957D03*
%TO.P,U1,P11,SWDCLK*%
%TO.N,Board_15-Net-(J1-Pin_1)*%
X190455460Y-113829957D03*
%TO.P,U1,P12,GND@3*%
%TO.N,Board_15-/GND*%
X196355460Y-113956957D03*
%TO.P,U1,P13,GND@2*%
X197505460Y-113956957D03*
%TD*%
D13*
%TO.P,J4,1,Pin_1*%
%TO.N,Board_5-/VCC33*%
X140333716Y-49147677D03*
%TD*%
D10*
%TO.P,-_13_10_+0,1,1*%
%TO.N,Board_1-/GND*%
X131423716Y-38647037D03*
%TO.P,-_13_10_+0,2,2*%
%TO.N,Board_1-/P013*%
X133963716Y-38647037D03*
%TO.P,-_13_10_+0,3,3*%
%TO.N,Board_1-/P010*%
X136503716Y-38647037D03*
%TO.P,-_13_10_+0,4,4*%
%TO.N,Board_1-/VCC33*%
X139043716Y-38647037D03*
%TD*%
D13*
%TO.P,J5,1,Pin_1*%
%TO.N,Board_14-/GND*%
X158450088Y-121348957D03*
%TD*%
D16*
%TO.P,U1,P1,VCC*%
%TO.N,Board_14-/VCC33*%
X156331088Y-105348957D03*
%TO.P,U1,P2,GND@1*%
%TO.N,Board_14-/GND*%
X156331088Y-106348957D03*
%TO.P,U1,P3,P0.01(RX)*%
%TO.N,Board_14-unconnected-(U1-P0.01(RX)-PadP3)*%
X156331088Y-107348957D03*
%TO.P,U1,P4,P0.02(TX)*%
%TO.N,Board_14-unconnected-(U1-P0.02(TX)-PadP4)*%
X156331088Y-108348957D03*
%TO.P,U1,P5,P0.03(INT)*%
%TO.N,Board_14-p03*%
X156331088Y-109348957D03*
%TO.P,U1,P6,P0.04(TEST)*%
%TO.N,Board_14-P04*%
X156331088Y-110348957D03*
D17*
%TO.P,U1,P7,P0.09(ENABLE)*%
%TO.N,Board_14-unconnected-(U1-P0.09(ENABLE)-PadP7)*%
X159839088Y-113829957D03*
%TO.P,U1,P8,P0.10(RESET)*%
%TO.N,Board_14-/P010*%
X160839088Y-113829957D03*
%TO.P,U1,P9,P0.13*%
%TO.N,Board_14-/P013*%
X161839088Y-113829957D03*
%TO.P,U1,P10,SWDIO*%
%TO.N,Board_14-Net-(J1-Pin_2)*%
X162839088Y-113829957D03*
%TO.P,U1,P11,SWDCLK*%
%TO.N,Board_14-Net-(J1-Pin_1)*%
X163839088Y-113829957D03*
%TO.P,U1,P12,GND@3*%
%TO.N,Board_14-/GND*%
X169739088Y-113956957D03*
%TO.P,U1,P13,GND@2*%
X170889088Y-113956957D03*
%TD*%
D11*
%TO.P,J1,1,Pin_1*%
%TO.N,Board_0-Net-(J1-Pin_1)*%
X97917344Y-33956137D03*
D12*
%TO.P,J1,2,Pin_2*%
%TO.N,Board_0-Net-(J1-Pin_2)*%
X99187344Y-36155842D03*
%TO.P,J1,3,Pin_3*%
%TO.N,Board_0-/VCC33*%
X100457344Y-38355546D03*
%TO.P,J1,4,Pin_4*%
%TO.N,Board_0-/GND*%
X101727344Y-40555251D03*
%TD*%
D13*
%TO.P,J5,1,Pin_1*%
%TO.N,Board_1-/GND*%
X131833716Y-41847037D03*
%TD*%
%TO.P,J4,1,Pin_1*%
%TO.N,Board_12-/VCC33*%
X113717344Y-102148957D03*
%TD*%
D16*
%TO.P,U1,P1,VCC*%
%TO.N,Board_10-/VCC33*%
X156331088Y-78848317D03*
%TO.P,U1,P2,GND@1*%
%TO.N,Board_10-/GND*%
X156331088Y-79848317D03*
%TO.P,U1,P3,P0.01(RX)*%
%TO.N,Board_10-unconnected-(U1-P0.01(RX)-PadP3)*%
X156331088Y-80848317D03*
%TO.P,U1,P4,P0.02(TX)*%
%TO.N,Board_10-unconnected-(U1-P0.02(TX)-PadP4)*%
X156331088Y-81848317D03*
%TO.P,U1,P5,P0.03(INT)*%
%TO.N,Board_10-p03*%
X156331088Y-82848317D03*
%TO.P,U1,P6,P0.04(TEST)*%
%TO.N,Board_10-P04*%
X156331088Y-83848317D03*
D17*
%TO.P,U1,P7,P0.09(ENABLE)*%
%TO.N,Board_10-unconnected-(U1-P0.09(ENABLE)-PadP7)*%
X159839088Y-87329317D03*
%TO.P,U1,P8,P0.10(RESET)*%
%TO.N,Board_10-/P010*%
X160839088Y-87329317D03*
%TO.P,U1,P9,P0.13*%
%TO.N,Board_10-/P013*%
X161839088Y-87329317D03*
%TO.P,U1,P10,SWDIO*%
%TO.N,Board_10-Net-(J1-Pin_2)*%
X162839088Y-87329317D03*
%TO.P,U1,P11,SWDCLK*%
%TO.N,Board_10-Net-(J1-Pin_1)*%
X163839088Y-87329317D03*
%TO.P,U1,P12,GND@3*%
%TO.N,Board_10-/GND*%
X169739088Y-87456317D03*
%TO.P,U1,P13,GND@2*%
X170889088Y-87456317D03*
%TD*%
D18*
%TO.P,R1,1*%
%TO.N,Board_5-P04*%
X128271216Y-61985177D03*
%TO.P,R1,2*%
%TO.N,Board_5-/GND*%
X131196216Y-61985177D03*
%TD*%
D11*
%TO.P,J1,1,Pin_1*%
%TO.N,Board_3-Net-(J1-Pin_1)*%
X177766460Y-33956137D03*
D12*
%TO.P,J1,2,Pin_2*%
%TO.N,Board_3-Net-(J1-Pin_2)*%
X179036460Y-36155842D03*
%TO.P,J1,3,Pin_3*%
%TO.N,Board_3-/VCC33*%
X180306460Y-38355546D03*
%TO.P,J1,4,Pin_4*%
%TO.N,Board_3-/GND*%
X181576460Y-40555251D03*
%TD*%
D15*
%TO.P,TH1,1*%
%TO.N,Board_10-/P013*%
X151480088Y-82148317D03*
%TO.P,TH1,2*%
%TO.N,Board_10-P04*%
X154020088Y-82148317D03*
%TD*%
D16*
%TO.P,U1,P1,VCC*%
%TO.N,Board_7-/VCC33*%
X182947460Y-52347677D03*
%TO.P,U1,P2,GND@1*%
%TO.N,Board_7-/GND*%
X182947460Y-53347677D03*
%TO.P,U1,P3,P0.01(RX)*%
%TO.N,Board_7-unconnected-(U1-P0.01(RX)-PadP3)*%
X182947460Y-54347677D03*
%TO.P,U1,P4,P0.02(TX)*%
%TO.N,Board_7-unconnected-(U1-P0.02(TX)-PadP4)*%
X182947460Y-55347677D03*
%TO.P,U1,P5,P0.03(INT)*%
%TO.N,Board_7-p03*%
X182947460Y-56347677D03*
%TO.P,U1,P6,P0.04(TEST)*%
%TO.N,Board_7-P04*%
X182947460Y-57347677D03*
D17*
%TO.P,U1,P7,P0.09(ENABLE)*%
%TO.N,Board_7-unconnected-(U1-P0.09(ENABLE)-PadP7)*%
X186455460Y-60828677D03*
%TO.P,U1,P8,P0.10(RESET)*%
%TO.N,Board_7-/P010*%
X187455460Y-60828677D03*
%TO.P,U1,P9,P0.13*%
%TO.N,Board_7-/P013*%
X188455460Y-60828677D03*
%TO.P,U1,P10,SWDIO*%
%TO.N,Board_7-Net-(J1-Pin_2)*%
X189455460Y-60828677D03*
%TO.P,U1,P11,SWDCLK*%
%TO.N,Board_7-Net-(J1-Pin_1)*%
X190455460Y-60828677D03*
%TO.P,U1,P12,GND@3*%
%TO.N,Board_7-/GND*%
X196355460Y-60955677D03*
%TO.P,U1,P13,GND@2*%
X197505460Y-60955677D03*
%TD*%
D16*
%TO.P,U1,P1,VCC*%
%TO.N,Board_0-/VCC33*%
X103098344Y-25847037D03*
%TO.P,U1,P2,GND@1*%
%TO.N,Board_0-/GND*%
X103098344Y-26847037D03*
%TO.P,U1,P3,P0.01(RX)*%
%TO.N,Board_0-unconnected-(U1-P0.01(RX)-PadP3)*%
X103098344Y-27847037D03*
%TO.P,U1,P4,P0.02(TX)*%
%TO.N,Board_0-unconnected-(U1-P0.02(TX)-PadP4)*%
X103098344Y-28847037D03*
%TO.P,U1,P5,P0.03(INT)*%
%TO.N,Board_0-p03*%
X103098344Y-29847037D03*
%TO.P,U1,P6,P0.04(TEST)*%
%TO.N,Board_0-P04*%
X103098344Y-30847037D03*
D17*
%TO.P,U1,P7,P0.09(ENABLE)*%
%TO.N,Board_0-unconnected-(U1-P0.09(ENABLE)-PadP7)*%
X106606344Y-34328037D03*
%TO.P,U1,P8,P0.10(RESET)*%
%TO.N,Board_0-/P010*%
X107606344Y-34328037D03*
%TO.P,U1,P9,P0.13*%
%TO.N,Board_0-/P013*%
X108606344Y-34328037D03*
%TO.P,U1,P10,SWDIO*%
%TO.N,Board_0-Net-(J1-Pin_2)*%
X109606344Y-34328037D03*
%TO.P,U1,P11,SWDCLK*%
%TO.N,Board_0-Net-(J1-Pin_1)*%
X110606344Y-34328037D03*
%TO.P,U1,P12,GND@3*%
%TO.N,Board_0-/GND*%
X116506344Y-34455037D03*
%TO.P,U1,P13,GND@2*%
X117656344Y-34455037D03*
%TD*%
D18*
%TO.P,R1,1*%
%TO.N,Board_9-P04*%
X128271216Y-88485817D03*
%TO.P,R1,2*%
%TO.N,Board_9-/GND*%
X131196216Y-88485817D03*
%TD*%
D13*
%TO.P,J3,1,Pin_1*%
%TO.N,Board_14-/GND*%
X157650088Y-102648957D03*
D14*
%TO.P,J3,2,Pin_2*%
%TO.N,Board_14-/P013*%
X160190088Y-102648957D03*
%TO.P,J3,3,Pin_3*%
%TO.N,Board_14-P04*%
X162730088Y-102648957D03*
%TD*%
D16*
%TO.P,U1,P1,VCC*%
%TO.N,Board_9-/VCC33*%
X129714716Y-78848317D03*
%TO.P,U1,P2,GND@1*%
%TO.N,Board_9-/GND*%
X129714716Y-79848317D03*
%TO.P,U1,P3,P0.01(RX)*%
%TO.N,Board_9-unconnected-(U1-P0.01(RX)-PadP3)*%
X129714716Y-80848317D03*
%TO.P,U1,P4,P0.02(TX)*%
%TO.N,Board_9-unconnected-(U1-P0.02(TX)-PadP4)*%
X129714716Y-81848317D03*
%TO.P,U1,P5,P0.03(INT)*%
%TO.N,Board_9-p03*%
X129714716Y-82848317D03*
%TO.P,U1,P6,P0.04(TEST)*%
%TO.N,Board_9-P04*%
X129714716Y-83848317D03*
D17*
%TO.P,U1,P7,P0.09(ENABLE)*%
%TO.N,Board_9-unconnected-(U1-P0.09(ENABLE)-PadP7)*%
X133222716Y-87329317D03*
%TO.P,U1,P8,P0.10(RESET)*%
%TO.N,Board_9-/P010*%
X134222716Y-87329317D03*
%TO.P,U1,P9,P0.13*%
%TO.N,Board_9-/P013*%
X135222716Y-87329317D03*
%TO.P,U1,P10,SWDIO*%
%TO.N,Board_9-Net-(J1-Pin_2)*%
X136222716Y-87329317D03*
%TO.P,U1,P11,SWDCLK*%
%TO.N,Board_9-Net-(J1-Pin_1)*%
X137222716Y-87329317D03*
%TO.P,U1,P12,GND@3*%
%TO.N,Board_9-/GND*%
X143122716Y-87456317D03*
%TO.P,U1,P13,GND@2*%
X144272716Y-87456317D03*
%TD*%
D13*
%TO.P,J5,1,Pin_1*%
%TO.N,Board_3-/GND*%
X185066460Y-41847037D03*
%TD*%
D10*
%TO.P,-_13_10_+0,1,1*%
%TO.N,Board_0-/GND*%
X104807344Y-38647037D03*
%TO.P,-_13_10_+0,2,2*%
%TO.N,Board_0-/P013*%
X107347344Y-38647037D03*
%TO.P,-_13_10_+0,3,3*%
%TO.N,Board_0-/P010*%
X109887344Y-38647037D03*
%TO.P,-_13_10_+0,4,4*%
%TO.N,Board_0-/VCC33*%
X112427344Y-38647037D03*
%TD*%
D13*
%TO.P,J4,1,Pin_1*%
%TO.N,Board_1-/VCC33*%
X140333716Y-22647037D03*
%TD*%
D11*
%TO.P,J1,1,Pin_1*%
%TO.N,Board_7-Net-(J1-Pin_1)*%
X177766460Y-60456777D03*
D12*
%TO.P,J1,2,Pin_2*%
%TO.N,Board_7-Net-(J1-Pin_2)*%
X179036460Y-62656482D03*
%TO.P,J1,3,Pin_3*%
%TO.N,Board_7-/VCC33*%
X180306460Y-64856186D03*
%TO.P,J1,4,Pin_4*%
%TO.N,Board_7-/GND*%
X181576460Y-67055891D03*
%TD*%
D13*
%TO.P,J3,1,Pin_1*%
%TO.N,Board_11-/GND*%
X184266460Y-76148317D03*
D14*
%TO.P,J3,2,Pin_2*%
%TO.N,Board_11-/P013*%
X186806460Y-76148317D03*
%TO.P,J3,3,Pin_3*%
%TO.N,Board_11-P04*%
X189346460Y-76148317D03*
%TD*%
D16*
%TO.P,U1,P1,VCC*%
%TO.N,Board_4-/VCC33*%
X103098344Y-52347677D03*
%TO.P,U1,P2,GND@1*%
%TO.N,Board_4-/GND*%
X103098344Y-53347677D03*
%TO.P,U1,P3,P0.01(RX)*%
%TO.N,Board_4-unconnected-(U1-P0.01(RX)-PadP3)*%
X103098344Y-54347677D03*
%TO.P,U1,P4,P0.02(TX)*%
%TO.N,Board_4-unconnected-(U1-P0.02(TX)-PadP4)*%
X103098344Y-55347677D03*
%TO.P,U1,P5,P0.03(INT)*%
%TO.N,Board_4-p03*%
X103098344Y-56347677D03*
%TO.P,U1,P6,P0.04(TEST)*%
%TO.N,Board_4-P04*%
X103098344Y-57347677D03*
D17*
%TO.P,U1,P7,P0.09(ENABLE)*%
%TO.N,Board_4-unconnected-(U1-P0.09(ENABLE)-PadP7)*%
X106606344Y-60828677D03*
%TO.P,U1,P8,P0.10(RESET)*%
%TO.N,Board_4-/P010*%
X107606344Y-60828677D03*
%TO.P,U1,P9,P0.13*%
%TO.N,Board_4-/P013*%
X108606344Y-60828677D03*
%TO.P,U1,P10,SWDIO*%
%TO.N,Board_4-Net-(J1-Pin_2)*%
X109606344Y-60828677D03*
%TO.P,U1,P11,SWDCLK*%
%TO.N,Board_4-Net-(J1-Pin_1)*%
X110606344Y-60828677D03*
%TO.P,U1,P12,GND@3*%
%TO.N,Board_4-/GND*%
X116506344Y-60955677D03*
%TO.P,U1,P13,GND@2*%
X117656344Y-60955677D03*
%TD*%
D15*
%TO.P,TH1,1*%
%TO.N,Board_0-/P013*%
X98247344Y-29147037D03*
%TO.P,TH1,2*%
%TO.N,Board_0-P04*%
X100787344Y-29147037D03*
%TD*%
D13*
%TO.P,J3,1,Pin_1*%
%TO.N,Board_4-/GND*%
X104417344Y-49647677D03*
D14*
%TO.P,J3,2,Pin_2*%
%TO.N,Board_4-/P013*%
X106957344Y-49647677D03*
%TO.P,J3,3,Pin_3*%
%TO.N,Board_4-P04*%
X109497344Y-49647677D03*
%TD*%
D15*
%TO.P,TH1,1*%
%TO.N,Board_12-/P013*%
X98247344Y-108648957D03*
%TO.P,TH1,2*%
%TO.N,Board_12-P04*%
X100787344Y-108648957D03*
%TD*%
D13*
%TO.P,J4,1,Pin_1*%
%TO.N,Board_14-/VCC33*%
X166950088Y-102148957D03*
%TD*%
D10*
%TO.P,-_13_10_+0,1,1*%
%TO.N,Board_14-/GND*%
X158040088Y-118148957D03*
%TO.P,-_13_10_+0,2,2*%
%TO.N,Board_14-/P013*%
X160580088Y-118148957D03*
%TO.P,-_13_10_+0,3,3*%
%TO.N,Board_14-/P010*%
X163120088Y-118148957D03*
%TO.P,-_13_10_+0,4,4*%
%TO.N,Board_14-/VCC33*%
X165660088Y-118148957D03*
%TD*%
D13*
%TO.P,J3,1,Pin_1*%
%TO.N,Board_12-/GND*%
X104417344Y-102648957D03*
D14*
%TO.P,J3,2,Pin_2*%
%TO.N,Board_12-/P013*%
X106957344Y-102648957D03*
%TO.P,J3,3,Pin_3*%
%TO.N,Board_12-P04*%
X109497344Y-102648957D03*
%TD*%
D15*
%TO.P,TH1,1*%
%TO.N,Board_11-/P013*%
X178096460Y-82148317D03*
%TO.P,TH1,2*%
%TO.N,Board_11-P04*%
X180636460Y-82148317D03*
%TD*%
D10*
%TO.P,-_13_10_+0,1,1*%
%TO.N,Board_7-/GND*%
X184656460Y-65147677D03*
%TO.P,-_13_10_+0,2,2*%
%TO.N,Board_7-/P013*%
X187196460Y-65147677D03*
%TO.P,-_13_10_+0,3,3*%
%TO.N,Board_7-/P010*%
X189736460Y-65147677D03*
%TO.P,-_13_10_+0,4,4*%
%TO.N,Board_7-/VCC33*%
X192276460Y-65147677D03*
%TD*%
%TO.P,-_13_10_+0,1,1*%
%TO.N,Board_4-/GND*%
X104807344Y-65147677D03*
%TO.P,-_13_10_+0,2,2*%
%TO.N,Board_4-/P013*%
X107347344Y-65147677D03*
%TO.P,-_13_10_+0,3,3*%
%TO.N,Board_4-/P010*%
X109887344Y-65147677D03*
%TO.P,-_13_10_+0,4,4*%
%TO.N,Board_4-/VCC33*%
X112427344Y-65147677D03*
%TD*%
%TO.P,-_13_10_+0,1,1*%
%TO.N,Board_3-/GND*%
X184656460Y-38647037D03*
%TO.P,-_13_10_+0,2,2*%
%TO.N,Board_3-/P013*%
X187196460Y-38647037D03*
%TO.P,-_13_10_+0,3,3*%
%TO.N,Board_3-/P010*%
X189736460Y-38647037D03*
%TO.P,-_13_10_+0,4,4*%
%TO.N,Board_3-/VCC33*%
X192276460Y-38647037D03*
%TD*%
D16*
%TO.P,U1,P1,VCC*%
%TO.N,Board_8-/VCC33*%
X103098344Y-78848317D03*
%TO.P,U1,P2,GND@1*%
%TO.N,Board_8-/GND*%
X103098344Y-79848317D03*
%TO.P,U1,P3,P0.01(RX)*%
%TO.N,Board_8-unconnected-(U1-P0.01(RX)-PadP3)*%
X103098344Y-80848317D03*
%TO.P,U1,P4,P0.02(TX)*%
%TO.N,Board_8-unconnected-(U1-P0.02(TX)-PadP4)*%
X103098344Y-81848317D03*
%TO.P,U1,P5,P0.03(INT)*%
%TO.N,Board_8-p03*%
X103098344Y-82848317D03*
%TO.P,U1,P6,P0.04(TEST)*%
%TO.N,Board_8-P04*%
X103098344Y-83848317D03*
D17*
%TO.P,U1,P7,P0.09(ENABLE)*%
%TO.N,Board_8-unconnected-(U1-P0.09(ENABLE)-PadP7)*%
X106606344Y-87329317D03*
%TO.P,U1,P8,P0.10(RESET)*%
%TO.N,Board_8-/P010*%
X107606344Y-87329317D03*
%TO.P,U1,P9,P0.13*%
%TO.N,Board_8-/P013*%
X108606344Y-87329317D03*
%TO.P,U1,P10,SWDIO*%
%TO.N,Board_8-Net-(J1-Pin_2)*%
X109606344Y-87329317D03*
%TO.P,U1,P11,SWDCLK*%
%TO.N,Board_8-Net-(J1-Pin_1)*%
X110606344Y-87329317D03*
%TO.P,U1,P12,GND@3*%
%TO.N,Board_8-/GND*%
X116506344Y-87456317D03*
%TO.P,U1,P13,GND@2*%
X117656344Y-87456317D03*
%TD*%
D13*
%TO.P,J3,1,Pin_1*%
%TO.N,Board_9-/GND*%
X131033716Y-76148317D03*
D14*
%TO.P,J3,2,Pin_2*%
%TO.N,Board_9-/P013*%
X133573716Y-76148317D03*
%TO.P,J3,3,Pin_3*%
%TO.N,Board_9-P04*%
X136113716Y-76148317D03*
%TD*%
D16*
%TO.P,U1,P1,VCC*%
%TO.N,Board_13-/VCC33*%
X129714716Y-105348957D03*
%TO.P,U1,P2,GND@1*%
%TO.N,Board_13-/GND*%
X129714716Y-106348957D03*
%TO.P,U1,P3,P0.01(RX)*%
%TO.N,Board_13-unconnected-(U1-P0.01(RX)-PadP3)*%
X129714716Y-107348957D03*
%TO.P,U1,P4,P0.02(TX)*%
%TO.N,Board_13-unconnected-(U1-P0.02(TX)-PadP4)*%
X129714716Y-108348957D03*
%TO.P,U1,P5,P0.03(INT)*%
%TO.N,Board_13-p03*%
X129714716Y-109348957D03*
%TO.P,U1,P6,P0.04(TEST)*%
%TO.N,Board_13-P04*%
X129714716Y-110348957D03*
D17*
%TO.P,U1,P7,P0.09(ENABLE)*%
%TO.N,Board_13-unconnected-(U1-P0.09(ENABLE)-PadP7)*%
X133222716Y-113829957D03*
%TO.P,U1,P8,P0.10(RESET)*%
%TO.N,Board_13-/P010*%
X134222716Y-113829957D03*
%TO.P,U1,P9,P0.13*%
%TO.N,Board_13-/P013*%
X135222716Y-113829957D03*
%TO.P,U1,P10,SWDIO*%
%TO.N,Board_13-Net-(J1-Pin_2)*%
X136222716Y-113829957D03*
%TO.P,U1,P11,SWDCLK*%
%TO.N,Board_13-Net-(J1-Pin_1)*%
X137222716Y-113829957D03*
%TO.P,U1,P12,GND@3*%
%TO.N,Board_13-/GND*%
X143122716Y-113956957D03*
%TO.P,U1,P13,GND@2*%
X144272716Y-113956957D03*
%TD*%
D10*
%TO.P,-_13_10_+0,1,1*%
%TO.N,Board_6-/GND*%
X158040088Y-65147677D03*
%TO.P,-_13_10_+0,2,2*%
%TO.N,Board_6-/P013*%
X160580088Y-65147677D03*
%TO.P,-_13_10_+0,3,3*%
%TO.N,Board_6-/P010*%
X163120088Y-65147677D03*
%TO.P,-_13_10_+0,4,4*%
%TO.N,Board_6-/VCC33*%
X165660088Y-65147677D03*
%TD*%
D13*
%TO.P,J5,1,Pin_1*%
%TO.N,Board_13-/GND*%
X131833716Y-121348957D03*
%TD*%
%TO.P,J5,1,Pin_1*%
%TO.N,Board_5-/GND*%
X131833716Y-68347677D03*
%TD*%
%TO.P,J3,1,Pin_1*%
%TO.N,Board_2-/GND*%
X157650088Y-23147037D03*
D14*
%TO.P,J3,2,Pin_2*%
%TO.N,Board_2-/P013*%
X160190088Y-23147037D03*
%TO.P,J3,3,Pin_3*%
%TO.N,Board_2-P04*%
X162730088Y-23147037D03*
%TD*%
D13*
%TO.P,J5,1,Pin_1*%
%TO.N,Board_0-/GND*%
X105217344Y-41847037D03*
%TD*%
%TO.P,J3,1,Pin_1*%
%TO.N,Board_5-/GND*%
X131033716Y-49647677D03*
D14*
%TO.P,J3,2,Pin_2*%
%TO.N,Board_5-/P013*%
X133573716Y-49647677D03*
%TO.P,J3,3,Pin_3*%
%TO.N,Board_5-P04*%
X136113716Y-49647677D03*
%TD*%
D13*
%TO.P,J5,1,Pin_1*%
%TO.N,Board_12-/GND*%
X105217344Y-121348957D03*
%TD*%
D18*
%TO.P,R1,1*%
%TO.N,Board_3-P04*%
X181503960Y-35484537D03*
%TO.P,R1,2*%
%TO.N,Board_3-/GND*%
X184428960Y-35484537D03*
%TD*%
D16*
%TO.P,U1,P1,VCC*%
%TO.N,Board_3-/VCC33*%
X182947460Y-25847037D03*
%TO.P,U1,P2,GND@1*%
%TO.N,Board_3-/GND*%
X182947460Y-26847037D03*
%TO.P,U1,P3,P0.01(RX)*%
%TO.N,Board_3-unconnected-(U1-P0.01(RX)-PadP3)*%
X182947460Y-27847037D03*
%TO.P,U1,P4,P0.02(TX)*%
%TO.N,Board_3-unconnected-(U1-P0.02(TX)-PadP4)*%
X182947460Y-28847037D03*
%TO.P,U1,P5,P0.03(INT)*%
%TO.N,Board_3-p03*%
X182947460Y-29847037D03*
%TO.P,U1,P6,P0.04(TEST)*%
%TO.N,Board_3-P04*%
X182947460Y-30847037D03*
D17*
%TO.P,U1,P7,P0.09(ENABLE)*%
%TO.N,Board_3-unconnected-(U1-P0.09(ENABLE)-PadP7)*%
X186455460Y-34328037D03*
%TO.P,U1,P8,P0.10(RESET)*%
%TO.N,Board_3-/P010*%
X187455460Y-34328037D03*
%TO.P,U1,P9,P0.13*%
%TO.N,Board_3-/P013*%
X188455460Y-34328037D03*
%TO.P,U1,P10,SWDIO*%
%TO.N,Board_3-Net-(J1-Pin_2)*%
X189455460Y-34328037D03*
%TO.P,U1,P11,SWDCLK*%
%TO.N,Board_3-Net-(J1-Pin_1)*%
X190455460Y-34328037D03*
%TO.P,U1,P12,GND@3*%
%TO.N,Board_3-/GND*%
X196355460Y-34455037D03*
%TO.P,U1,P13,GND@2*%
X197505460Y-34455037D03*
%TD*%
D13*
%TO.P,J3,1,Pin_1*%
%TO.N,Board_1-/GND*%
X131033716Y-23147037D03*
D14*
%TO.P,J3,2,Pin_2*%
%TO.N,Board_1-/P013*%
X133573716Y-23147037D03*
%TO.P,J3,3,Pin_3*%
%TO.N,Board_1-P04*%
X136113716Y-23147037D03*
%TD*%
D16*
%TO.P,U1,P1,VCC*%
%TO.N,Board_6-/VCC33*%
X156331088Y-52347677D03*
%TO.P,U1,P2,GND@1*%
%TO.N,Board_6-/GND*%
X156331088Y-53347677D03*
%TO.P,U1,P3,P0.01(RX)*%
%TO.N,Board_6-unconnected-(U1-P0.01(RX)-PadP3)*%
X156331088Y-54347677D03*
%TO.P,U1,P4,P0.02(TX)*%
%TO.N,Board_6-unconnected-(U1-P0.02(TX)-PadP4)*%
X156331088Y-55347677D03*
%TO.P,U1,P5,P0.03(INT)*%
%TO.N,Board_6-p03*%
X156331088Y-56347677D03*
%TO.P,U1,P6,P0.04(TEST)*%
%TO.N,Board_6-P04*%
X156331088Y-57347677D03*
D17*
%TO.P,U1,P7,P0.09(ENABLE)*%
%TO.N,Board_6-unconnected-(U1-P0.09(ENABLE)-PadP7)*%
X159839088Y-60828677D03*
%TO.P,U1,P8,P0.10(RESET)*%
%TO.N,Board_6-/P010*%
X160839088Y-60828677D03*
%TO.P,U1,P9,P0.13*%
%TO.N,Board_6-/P013*%
X161839088Y-60828677D03*
%TO.P,U1,P10,SWDIO*%
%TO.N,Board_6-Net-(J1-Pin_2)*%
X162839088Y-60828677D03*
%TO.P,U1,P11,SWDCLK*%
%TO.N,Board_6-Net-(J1-Pin_1)*%
X163839088Y-60828677D03*
%TO.P,U1,P12,GND@3*%
%TO.N,Board_6-/GND*%
X169739088Y-60955677D03*
%TO.P,U1,P13,GND@2*%
X170889088Y-60955677D03*
%TD*%
D16*
%TO.P,U1,P1,VCC*%
%TO.N,Board_1-/VCC33*%
X129714716Y-25847037D03*
%TO.P,U1,P2,GND@1*%
%TO.N,Board_1-/GND*%
X129714716Y-26847037D03*
%TO.P,U1,P3,P0.01(RX)*%
%TO.N,Board_1-unconnected-(U1-P0.01(RX)-PadP3)*%
X129714716Y-27847037D03*
%TO.P,U1,P4,P0.02(TX)*%
%TO.N,Board_1-unconnected-(U1-P0.02(TX)-PadP4)*%
X129714716Y-28847037D03*
%TO.P,U1,P5,P0.03(INT)*%
%TO.N,Board_1-p03*%
X129714716Y-29847037D03*
%TO.P,U1,P6,P0.04(TEST)*%
%TO.N,Board_1-P04*%
X129714716Y-30847037D03*
D17*
%TO.P,U1,P7,P0.09(ENABLE)*%
%TO.N,Board_1-unconnected-(U1-P0.09(ENABLE)-PadP7)*%
X133222716Y-34328037D03*
%TO.P,U1,P8,P0.10(RESET)*%
%TO.N,Board_1-/P010*%
X134222716Y-34328037D03*
%TO.P,U1,P9,P0.13*%
%TO.N,Board_1-/P013*%
X135222716Y-34328037D03*
%TO.P,U1,P10,SWDIO*%
%TO.N,Board_1-Net-(J1-Pin_2)*%
X136222716Y-34328037D03*
%TO.P,U1,P11,SWDCLK*%
%TO.N,Board_1-Net-(J1-Pin_1)*%
X137222716Y-34328037D03*
%TO.P,U1,P12,GND@3*%
%TO.N,Board_1-/GND*%
X143122716Y-34455037D03*
%TO.P,U1,P13,GND@2*%
X144272716Y-34455037D03*
%TD*%
D10*
%TO.P,-_13_10_+0,1,1*%
%TO.N,Board_9-/GND*%
X131423716Y-91648317D03*
%TO.P,-_13_10_+0,2,2*%
%TO.N,Board_9-/P013*%
X133963716Y-91648317D03*
%TO.P,-_13_10_+0,3,3*%
%TO.N,Board_9-/P010*%
X136503716Y-91648317D03*
%TO.P,-_13_10_+0,4,4*%
%TO.N,Board_9-/VCC33*%
X139043716Y-91648317D03*
%TD*%
D18*
%TO.P,R1,1*%
%TO.N,Board_6-P04*%
X154887588Y-61985177D03*
%TO.P,R1,2*%
%TO.N,Board_6-/GND*%
X157812588Y-61985177D03*
%TD*%
D10*
%TO.P,-_13_10_+0,1,1*%
%TO.N,Board_15-/GND*%
X184656460Y-118148957D03*
%TO.P,-_13_10_+0,2,2*%
%TO.N,Board_15-/P013*%
X187196460Y-118148957D03*
%TO.P,-_13_10_+0,3,3*%
%TO.N,Board_15-/P010*%
X189736460Y-118148957D03*
%TO.P,-_13_10_+0,4,4*%
%TO.N,Board_15-/VCC33*%
X192276460Y-118148957D03*
%TD*%
D13*
%TO.P,J4,1,Pin_1*%
%TO.N,Board_4-/VCC33*%
X113717344Y-49147677D03*
%TD*%
%TO.P,J5,1,Pin_1*%
%TO.N,Board_4-/GND*%
X105217344Y-68347677D03*
%TD*%
D11*
%TO.P,J1,1,Pin_1*%
%TO.N,Board_2-Net-(J1-Pin_1)*%
X151150088Y-33956137D03*
D12*
%TO.P,J1,2,Pin_2*%
%TO.N,Board_2-Net-(J1-Pin_2)*%
X152420088Y-36155842D03*
%TO.P,J1,3,Pin_3*%
%TO.N,Board_2-/VCC33*%
X153690088Y-38355546D03*
%TO.P,J1,4,Pin_4*%
%TO.N,Board_2-/GND*%
X154960088Y-40555251D03*
%TD*%
D13*
%TO.P,J5,1,Pin_1*%
%TO.N,Board_9-/GND*%
X131833716Y-94848317D03*
%TD*%
%TO.P,J3,1,Pin_1*%
%TO.N,Board_7-/GND*%
X184266460Y-49647677D03*
D14*
%TO.P,J3,2,Pin_2*%
%TO.N,Board_7-/P013*%
X186806460Y-49647677D03*
%TO.P,J3,3,Pin_3*%
%TO.N,Board_7-P04*%
X189346460Y-49647677D03*
%TD*%
D13*
%TO.P,J4,1,Pin_1*%
%TO.N,Board_11-/VCC33*%
X193566460Y-75648317D03*
%TD*%
%TO.P,J4,1,Pin_1*%
%TO.N,Board_7-/VCC33*%
X193566460Y-49147677D03*
%TD*%
D15*
%TO.P,TH1,1*%
%TO.N,Board_2-/P013*%
X151480088Y-29147037D03*
%TO.P,TH1,2*%
%TO.N,Board_2-P04*%
X154020088Y-29147037D03*
%TD*%
D10*
%TO.P,-_13_10_+0,1,1*%
%TO.N,Board_10-/GND*%
X158040088Y-91648317D03*
%TO.P,-_13_10_+0,2,2*%
%TO.N,Board_10-/P013*%
X160580088Y-91648317D03*
%TO.P,-_13_10_+0,3,3*%
%TO.N,Board_10-/P010*%
X163120088Y-91648317D03*
%TO.P,-_13_10_+0,4,4*%
%TO.N,Board_10-/VCC33*%
X165660088Y-91648317D03*
%TD*%
%TO.P,-_13_10_+0,1,1*%
%TO.N,Board_8-/GND*%
X104807344Y-91648317D03*
%TO.P,-_13_10_+0,2,2*%
%TO.N,Board_8-/P013*%
X107347344Y-91648317D03*
%TO.P,-_13_10_+0,3,3*%
%TO.N,Board_8-/P010*%
X109887344Y-91648317D03*
%TO.P,-_13_10_+0,4,4*%
%TO.N,Board_8-/VCC33*%
X112427344Y-91648317D03*
%TD*%
D18*
%TO.P,R1,1*%
%TO.N,Board_12-P04*%
X101654844Y-114986457D03*
%TO.P,R1,2*%
%TO.N,Board_12-/GND*%
X104579844Y-114986457D03*
%TD*%
D10*
%TO.P,-_13_10_+0,1,1*%
%TO.N,Board_11-/GND*%
X184656460Y-91648317D03*
%TO.P,-_13_10_+0,2,2*%
%TO.N,Board_11-/P013*%
X187196460Y-91648317D03*
%TO.P,-_13_10_+0,3,3*%
%TO.N,Board_11-/P010*%
X189736460Y-91648317D03*
%TO.P,-_13_10_+0,4,4*%
%TO.N,Board_11-/VCC33*%
X192276460Y-91648317D03*
%TD*%
D15*
%TO.P,TH1,1*%
%TO.N,Board_3-/P013*%
X178096460Y-29147037D03*
%TO.P,TH1,2*%
%TO.N,Board_3-P04*%
X180636460Y-29147037D03*
%TD*%
D10*
%TO.P,-_13_10_+0,1,1*%
%TO.N,Board_2-/GND*%
X158040088Y-38647037D03*
%TO.P,-_13_10_+0,2,2*%
%TO.N,Board_2-/P013*%
X160580088Y-38647037D03*
%TO.P,-_13_10_+0,3,3*%
%TO.N,Board_2-/P010*%
X163120088Y-38647037D03*
%TO.P,-_13_10_+0,4,4*%
%TO.N,Board_2-/VCC33*%
X165660088Y-38647037D03*
%TD*%
D13*
%TO.P,J4,1,Pin_1*%
%TO.N,Board_10-/VCC33*%
X166950088Y-75648317D03*
%TD*%
D11*
%TO.P,J1,1,Pin_1*%
%TO.N,Board_9-Net-(J1-Pin_1)*%
X124533716Y-86957417D03*
D12*
%TO.P,J1,2,Pin_2*%
%TO.N,Board_9-Net-(J1-Pin_2)*%
X125803716Y-89157122D03*
%TO.P,J1,3,Pin_3*%
%TO.N,Board_9-/VCC33*%
X127073716Y-91356826D03*
%TO.P,J1,4,Pin_4*%
%TO.N,Board_9-/GND*%
X128343716Y-93556531D03*
%TD*%
D18*
%TO.P,R1,1*%
%TO.N,Board_11-P04*%
X181503960Y-88485817D03*
%TO.P,R1,2*%
%TO.N,Board_11-/GND*%
X184428960Y-88485817D03*
%TD*%
%TO.P,R1,1*%
%TO.N,Board_14-P04*%
X154887588Y-114986457D03*
%TO.P,R1,2*%
%TO.N,Board_14-/GND*%
X157812588Y-114986457D03*
%TD*%
D15*
%TO.P,TH1,1*%
%TO.N,Board_7-/P013*%
X178096460Y-55647677D03*
%TO.P,TH1,2*%
%TO.N,Board_7-P04*%
X180636460Y-55647677D03*
%TD*%
D11*
%TO.P,J1,1,Pin_1*%
%TO.N,Board_11-Net-(J1-Pin_1)*%
X177766460Y-86957417D03*
D12*
%TO.P,J1,2,Pin_2*%
%TO.N,Board_11-Net-(J1-Pin_2)*%
X179036460Y-89157122D03*
%TO.P,J1,3,Pin_3*%
%TO.N,Board_11-/VCC33*%
X180306460Y-91356826D03*
%TO.P,J1,4,Pin_4*%
%TO.N,Board_11-/GND*%
X181576460Y-93556531D03*
%TD*%
D15*
%TO.P,TH1,1*%
%TO.N,Board_1-/P013*%
X124863716Y-29147037D03*
%TO.P,TH1,2*%
%TO.N,Board_1-P04*%
X127403716Y-29147037D03*
%TD*%
D11*
%TO.P,J1,1,Pin_1*%
%TO.N,Board_13-Net-(J1-Pin_1)*%
X124533716Y-113458057D03*
D12*
%TO.P,J1,2,Pin_2*%
%TO.N,Board_13-Net-(J1-Pin_2)*%
X125803716Y-115657762D03*
%TO.P,J1,3,Pin_3*%
%TO.N,Board_13-/VCC33*%
X127073716Y-117857466D03*
%TO.P,J1,4,Pin_4*%
%TO.N,Board_13-/GND*%
X128343716Y-120057171D03*
%TD*%
D13*
%TO.P,J3,1,Pin_1*%
%TO.N,Board_3-/GND*%
X184266460Y-23147037D03*
D14*
%TO.P,J3,2,Pin_2*%
%TO.N,Board_3-/P013*%
X186806460Y-23147037D03*
%TO.P,J3,3,Pin_3*%
%TO.N,Board_3-P04*%
X189346460Y-23147037D03*
%TD*%
D13*
%TO.P,J3,1,Pin_1*%
%TO.N,Board_10-/GND*%
X157650088Y-76148317D03*
D14*
%TO.P,J3,2,Pin_2*%
%TO.N,Board_10-/P013*%
X160190088Y-76148317D03*
%TO.P,J3,3,Pin_3*%
%TO.N,Board_10-P04*%
X162730088Y-76148317D03*
%TD*%
D18*
%TO.P,R1,1*%
%TO.N,Board_0-P04*%
X101654844Y-35484537D03*
%TO.P,R1,2*%
%TO.N,Board_0-/GND*%
X104579844Y-35484537D03*
%TD*%
D13*
%TO.P,J5,1,Pin_1*%
%TO.N,Board_11-/GND*%
X185066460Y-94848317D03*
%TD*%
D18*
%TO.P,R1,1*%
%TO.N,Board_7-P04*%
X181503960Y-61985177D03*
%TO.P,R1,2*%
%TO.N,Board_7-/GND*%
X184428960Y-61985177D03*
%TD*%
D13*
%TO.P,J5,1,Pin_1*%
%TO.N,Board_10-/GND*%
X158450088Y-94848317D03*
%TD*%
%TO.P,J3,1,Pin_1*%
%TO.N,Board_15-/GND*%
X184266460Y-102648957D03*
D14*
%TO.P,J3,2,Pin_2*%
%TO.N,Board_15-/P013*%
X186806460Y-102648957D03*
%TO.P,J3,3,Pin_3*%
%TO.N,Board_15-P04*%
X189346460Y-102648957D03*
%TD*%
D18*
%TO.P,R1,1*%
%TO.N,Board_8-P04*%
X101654844Y-88485817D03*
%TO.P,R1,2*%
%TO.N,Board_8-/GND*%
X104579844Y-88485817D03*
%TD*%
D13*
%TO.P,J4,1,Pin_1*%
%TO.N,Board_15-/VCC33*%
X193566460Y-102148957D03*
%TD*%
%TO.P,J4,1,Pin_1*%
%TO.N,Board_3-/VCC33*%
X193566460Y-22647037D03*
%TD*%
D16*
%TO.P,U1,P1,VCC*%
%TO.N,Board_11-/VCC33*%
X182947460Y-78848317D03*
%TO.P,U1,P2,GND@1*%
%TO.N,Board_11-/GND*%
X182947460Y-79848317D03*
%TO.P,U1,P3,P0.01(RX)*%
%TO.N,Board_11-unconnected-(U1-P0.01(RX)-PadP3)*%
X182947460Y-80848317D03*
%TO.P,U1,P4,P0.02(TX)*%
%TO.N,Board_11-unconnected-(U1-P0.02(TX)-PadP4)*%
X182947460Y-81848317D03*
%TO.P,U1,P5,P0.03(INT)*%
%TO.N,Board_11-p03*%
X182947460Y-82848317D03*
%TO.P,U1,P6,P0.04(TEST)*%
%TO.N,Board_11-P04*%
X182947460Y-83848317D03*
D17*
%TO.P,U1,P7,P0.09(ENABLE)*%
%TO.N,Board_11-unconnected-(U1-P0.09(ENABLE)-PadP7)*%
X186455460Y-87329317D03*
%TO.P,U1,P8,P0.10(RESET)*%
%TO.N,Board_11-/P010*%
X187455460Y-87329317D03*
%TO.P,U1,P9,P0.13*%
%TO.N,Board_11-/P013*%
X188455460Y-87329317D03*
%TO.P,U1,P10,SWDIO*%
%TO.N,Board_11-Net-(J1-Pin_2)*%
X189455460Y-87329317D03*
%TO.P,U1,P11,SWDCLK*%
%TO.N,Board_11-Net-(J1-Pin_1)*%
X190455460Y-87329317D03*
%TO.P,U1,P12,GND@3*%
%TO.N,Board_11-/GND*%
X196355460Y-87456317D03*
%TO.P,U1,P13,GND@2*%
X197505460Y-87456317D03*
%TD*%
D16*
%TO.P,U1,P1,VCC*%
%TO.N,Board_5-/VCC33*%
X129714716Y-52347677D03*
%TO.P,U1,P2,GND@1*%
%TO.N,Board_5-/GND*%
X129714716Y-53347677D03*
%TO.P,U1,P3,P0.01(RX)*%
%TO.N,Board_5-unconnected-(U1-P0.01(RX)-PadP3)*%
X129714716Y-54347677D03*
%TO.P,U1,P4,P0.02(TX)*%
%TO.N,Board_5-unconnected-(U1-P0.02(TX)-PadP4)*%
X129714716Y-55347677D03*
%TO.P,U1,P5,P0.03(INT)*%
%TO.N,Board_5-p03*%
X129714716Y-56347677D03*
%TO.P,U1,P6,P0.04(TEST)*%
%TO.N,Board_5-P04*%
X129714716Y-57347677D03*
D17*
%TO.P,U1,P7,P0.09(ENABLE)*%
%TO.N,Board_5-unconnected-(U1-P0.09(ENABLE)-PadP7)*%
X133222716Y-60828677D03*
%TO.P,U1,P8,P0.10(RESET)*%
%TO.N,Board_5-/P010*%
X134222716Y-60828677D03*
%TO.P,U1,P9,P0.13*%
%TO.N,Board_5-/P013*%
X135222716Y-60828677D03*
%TO.P,U1,P10,SWDIO*%
%TO.N,Board_5-Net-(J1-Pin_2)*%
X136222716Y-60828677D03*
%TO.P,U1,P11,SWDCLK*%
%TO.N,Board_5-Net-(J1-Pin_1)*%
X137222716Y-60828677D03*
%TO.P,U1,P12,GND@3*%
%TO.N,Board_5-/GND*%
X143122716Y-60955677D03*
%TO.P,U1,P13,GND@2*%
X144272716Y-60955677D03*
%TD*%
D13*
%TO.P,J4,1,Pin_1*%
%TO.N,Board_6-/VCC33*%
X166950088Y-49147677D03*
%TD*%
%TO.P,J5,1,Pin_1*%
%TO.N,Board_15-/GND*%
X185066460Y-121348957D03*
%TD*%
%TO.P,J5,1,Pin_1*%
%TO.N,Board_2-/GND*%
X158450088Y-41847037D03*
%TD*%
D15*
%TO.P,TH1,1*%
%TO.N,Board_5-/P013*%
X124863716Y-55647677D03*
%TO.P,TH1,2*%
%TO.N,Board_5-P04*%
X127403716Y-55647677D03*
%TD*%
D11*
%TO.P,J1,1,Pin_1*%
%TO.N,Board_5-Net-(J1-Pin_1)*%
X124533716Y-60456777D03*
D12*
%TO.P,J1,2,Pin_2*%
%TO.N,Board_5-Net-(J1-Pin_2)*%
X125803716Y-62656482D03*
%TO.P,J1,3,Pin_3*%
%TO.N,Board_5-/VCC33*%
X127073716Y-64856186D03*
%TO.P,J1,4,Pin_4*%
%TO.N,Board_5-/GND*%
X128343716Y-67055891D03*
%TD*%
D13*
%TO.P,J5,1,Pin_1*%
%TO.N,Board_7-/GND*%
X185066460Y-68347677D03*
%TD*%
D15*
%TO.P,TH1,1*%
%TO.N,Board_6-/P013*%
X151480088Y-55647677D03*
%TO.P,TH1,2*%
%TO.N,Board_6-P04*%
X154020088Y-55647677D03*
%TD*%
D13*
%TO.P,J3,1,Pin_1*%
%TO.N,Board_6-/GND*%
X157650088Y-49647677D03*
D14*
%TO.P,J3,2,Pin_2*%
%TO.N,Board_6-/P013*%
X160190088Y-49647677D03*
%TO.P,J3,3,Pin_3*%
%TO.N,Board_6-P04*%
X162730088Y-49647677D03*
%TD*%
D16*
%TO.P,U1,P1,VCC*%
%TO.N,Board_2-/VCC33*%
X156331088Y-25847037D03*
%TO.P,U1,P2,GND@1*%
%TO.N,Board_2-/GND*%
X156331088Y-26847037D03*
%TO.P,U1,P3,P0.01(RX)*%
%TO.N,Board_2-unconnected-(U1-P0.01(RX)-PadP3)*%
X156331088Y-27847037D03*
%TO.P,U1,P4,P0.02(TX)*%
%TO.N,Board_2-unconnected-(U1-P0.02(TX)-PadP4)*%
X156331088Y-28847037D03*
%TO.P,U1,P5,P0.03(INT)*%
%TO.N,Board_2-p03*%
X156331088Y-29847037D03*
%TO.P,U1,P6,P0.04(TEST)*%
%TO.N,Board_2-P04*%
X156331088Y-30847037D03*
D17*
%TO.P,U1,P7,P0.09(ENABLE)*%
%TO.N,Board_2-unconnected-(U1-P0.09(ENABLE)-PadP7)*%
X159839088Y-34328037D03*
%TO.P,U1,P8,P0.10(RESET)*%
%TO.N,Board_2-/P010*%
X160839088Y-34328037D03*
%TO.P,U1,P9,P0.13*%
%TO.N,Board_2-/P013*%
X161839088Y-34328037D03*
%TO.P,U1,P10,SWDIO*%
%TO.N,Board_2-Net-(J1-Pin_2)*%
X162839088Y-34328037D03*
%TO.P,U1,P11,SWDCLK*%
%TO.N,Board_2-Net-(J1-Pin_1)*%
X163839088Y-34328037D03*
%TO.P,U1,P12,GND@3*%
%TO.N,Board_2-/GND*%
X169739088Y-34455037D03*
%TO.P,U1,P13,GND@2*%
X170889088Y-34455037D03*
%TD*%
D18*
%TO.P,R1,1*%
%TO.N,Board_13-P04*%
X128271216Y-114986457D03*
%TO.P,R1,2*%
%TO.N,Board_13-/GND*%
X131196216Y-114986457D03*
%TD*%
D16*
%TO.P,U1,P1,VCC*%
%TO.N,Board_12-/VCC33*%
X103098344Y-105348957D03*
%TO.P,U1,P2,GND@1*%
%TO.N,Board_12-/GND*%
X103098344Y-106348957D03*
%TO.P,U1,P3,P0.01(RX)*%
%TO.N,Board_12-unconnected-(U1-P0.01(RX)-PadP3)*%
X103098344Y-107348957D03*
%TO.P,U1,P4,P0.02(TX)*%
%TO.N,Board_12-unconnected-(U1-P0.02(TX)-PadP4)*%
X103098344Y-108348957D03*
%TO.P,U1,P5,P0.03(INT)*%
%TO.N,Board_12-p03*%
X103098344Y-109348957D03*
%TO.P,U1,P6,P0.04(TEST)*%
%TO.N,Board_12-P04*%
X103098344Y-110348957D03*
D17*
%TO.P,U1,P7,P0.09(ENABLE)*%
%TO.N,Board_12-unconnected-(U1-P0.09(ENABLE)-PadP7)*%
X106606344Y-113829957D03*
%TO.P,U1,P8,P0.10(RESET)*%
%TO.N,Board_12-/P010*%
X107606344Y-113829957D03*
%TO.P,U1,P9,P0.13*%
%TO.N,Board_12-/P013*%
X108606344Y-113829957D03*
%TO.P,U1,P10,SWDIO*%
%TO.N,Board_12-Net-(J1-Pin_2)*%
X109606344Y-113829957D03*
%TO.P,U1,P11,SWDCLK*%
%TO.N,Board_12-Net-(J1-Pin_1)*%
X110606344Y-113829957D03*
%TO.P,U1,P12,GND@3*%
%TO.N,Board_12-/GND*%
X116506344Y-113956957D03*
%TO.P,U1,P13,GND@2*%
X117656344Y-113956957D03*
%TD*%
D11*
%TO.P,J1,1,Pin_1*%
%TO.N,Board_1-Net-(J1-Pin_1)*%
X124533716Y-33956137D03*
D12*
%TO.P,J1,2,Pin_2*%
%TO.N,Board_1-Net-(J1-Pin_2)*%
X125803716Y-36155842D03*
%TO.P,J1,3,Pin_3*%
%TO.N,Board_1-/VCC33*%
X127073716Y-38355546D03*
%TO.P,J1,4,Pin_4*%
%TO.N,Board_1-/GND*%
X128343716Y-40555251D03*
%TD*%
D13*
%TO.P,J4,1,Pin_1*%
%TO.N,Board_8-/VCC33*%
X113717344Y-75648317D03*
%TD*%
%TO.P,J5,1,Pin_1*%
%TO.N,Board_8-/GND*%
X105217344Y-94848317D03*
%TD*%
D15*
%TO.P,TH1,1*%
%TO.N,Board_9-/P013*%
X124863716Y-82148317D03*
%TO.P,TH1,2*%
%TO.N,Board_9-P04*%
X127403716Y-82148317D03*
%TD*%
D11*
%TO.P,J1,1,Pin_1*%
%TO.N,Board_15-Net-(J1-Pin_1)*%
X177766460Y-113458057D03*
D12*
%TO.P,J1,2,Pin_2*%
%TO.N,Board_15-Net-(J1-Pin_2)*%
X179036460Y-115657762D03*
%TO.P,J1,3,Pin_3*%
%TO.N,Board_15-/VCC33*%
X180306460Y-117857466D03*
%TO.P,J1,4,Pin_4*%
%TO.N,Board_15-/GND*%
X181576460Y-120057171D03*
%TD*%
D11*
%TO.P,J1,1,Pin_1*%
%TO.N,Board_4-Net-(J1-Pin_1)*%
X97917344Y-60456777D03*
D12*
%TO.P,J1,2,Pin_2*%
%TO.N,Board_4-Net-(J1-Pin_2)*%
X99187344Y-62656482D03*
%TO.P,J1,3,Pin_3*%
%TO.N,Board_4-/VCC33*%
X100457344Y-64856186D03*
%TO.P,J1,4,Pin_4*%
%TO.N,Board_4-/GND*%
X101727344Y-67055891D03*
%TD*%
D18*
%TO.P,R1,1*%
%TO.N,Board_2-P04*%
X154887588Y-35484537D03*
%TO.P,R1,2*%
%TO.N,Board_2-/GND*%
X157812588Y-35484537D03*
%TD*%
D13*
%TO.P,J5,1,Pin_1*%
%TO.N,Board_6-/GND*%
X158450088Y-68347677D03*
%TD*%
%TO.P,J4,1,Pin_1*%
%TO.N,Board_0-/VCC33*%
X113717344Y-22647037D03*
%TD*%
D11*
%TO.P,J1,1,Pin_1*%
%TO.N,Board_12-Net-(J1-Pin_1)*%
X97917344Y-113458057D03*
D12*
%TO.P,J1,2,Pin_2*%
%TO.N,Board_12-Net-(J1-Pin_2)*%
X99187344Y-115657762D03*
%TO.P,J1,3,Pin_3*%
%TO.N,Board_12-/VCC33*%
X100457344Y-117857466D03*
%TO.P,J1,4,Pin_4*%
%TO.N,Board_12-/GND*%
X101727344Y-120057171D03*
%TD*%
D10*
%TO.P,-_13_10_+0,1,1*%
%TO.N,Board_5-/GND*%
X131423716Y-65147677D03*
%TO.P,-_13_10_+0,2,2*%
%TO.N,Board_5-/P013*%
X133963716Y-65147677D03*
%TO.P,-_13_10_+0,3,3*%
%TO.N,Board_5-/P010*%
X136503716Y-65147677D03*
%TO.P,-_13_10_+0,4,4*%
%TO.N,Board_5-/VCC33*%
X139043716Y-65147677D03*
%TD*%
D15*
%TO.P,TH1,1*%
%TO.N,Board_4-/P013*%
X98247344Y-55647677D03*
%TO.P,TH1,2*%
%TO.N,Board_4-P04*%
X100787344Y-55647677D03*
%TD*%
D13*
%TO.P,J3,1,Pin_1*%
%TO.N,Board_8-/GND*%
X104417344Y-76148317D03*
D14*
%TO.P,J3,2,Pin_2*%
%TO.N,Board_8-/P013*%
X106957344Y-76148317D03*
%TO.P,J3,3,Pin_3*%
%TO.N,Board_8-P04*%
X109497344Y-76148317D03*
%TD*%
D18*
%TO.P,R1,1*%
%TO.N,Board_4-P04*%
X101654844Y-61985177D03*
%TO.P,R1,2*%
%TO.N,Board_4-/GND*%
X104579844Y-61985177D03*
%TD*%
D15*
%TO.P,TH1,1*%
%TO.N,Board_14-/P013*%
X151480088Y-108648957D03*
%TO.P,TH1,2*%
%TO.N,Board_14-P04*%
X154020088Y-108648957D03*
%TD*%
D10*
%TO.P,-_13_10_+0,1,1*%
%TO.N,Board_13-/GND*%
X131423716Y-118148957D03*
%TO.P,-_13_10_+0,2,2*%
%TO.N,Board_13-/P013*%
X133963716Y-118148957D03*
%TO.P,-_13_10_+0,3,3*%
%TO.N,Board_13-/P010*%
X136503716Y-118148957D03*
%TO.P,-_13_10_+0,4,4*%
%TO.N,Board_13-/VCC33*%
X139043716Y-118148957D03*
%TD*%
D11*
%TO.P,J1,1,Pin_1*%
%TO.N,Board_8-Net-(J1-Pin_1)*%
X97917344Y-86957417D03*
D12*
%TO.P,J1,2,Pin_2*%
%TO.N,Board_8-Net-(J1-Pin_2)*%
X99187344Y-89157122D03*
%TO.P,J1,3,Pin_3*%
%TO.N,Board_8-/VCC33*%
X100457344Y-91356826D03*
%TO.P,J1,4,Pin_4*%
%TO.N,Board_8-/GND*%
X101727344Y-93556531D03*
%TD*%
D15*
%TO.P,TH1,1*%
%TO.N,Board_15-/P013*%
X178096460Y-108648957D03*
%TO.P,TH1,2*%
%TO.N,Board_15-P04*%
X180636460Y-108648957D03*
%TD*%
D18*
%TO.P,R1,1*%
%TO.N,Board_15-P04*%
X181503960Y-114986457D03*
%TO.P,R1,2*%
%TO.N,Board_15-/GND*%
X184428960Y-114986457D03*
%TD*%
D11*
%TO.P,J1,1,Pin_1*%
%TO.N,Board_6-Net-(J1-Pin_1)*%
X151150088Y-60456777D03*
D12*
%TO.P,J1,2,Pin_2*%
%TO.N,Board_6-Net-(J1-Pin_2)*%
X152420088Y-62656482D03*
%TO.P,J1,3,Pin_3*%
%TO.N,Board_6-/VCC33*%
X153690088Y-64856186D03*
%TO.P,J1,4,Pin_4*%
%TO.N,Board_6-/GND*%
X154960088Y-67055891D03*
%TD*%
D13*
%TO.P,J4,1,Pin_1*%
%TO.N,Board_13-/VCC33*%
X140333716Y-102148957D03*
%TD*%
D18*
%TO.P,R1,1*%
%TO.N,Board_1-P04*%
X128271216Y-35484537D03*
%TO.P,R1,2*%
%TO.N,Board_1-/GND*%
X131196216Y-35484537D03*
%TD*%
%TO.P,R1,1*%
%TO.N,Board_10-P04*%
X154887588Y-88485817D03*
%TO.P,R1,2*%
%TO.N,Board_10-/GND*%
X157812588Y-88485817D03*
%TD*%
D15*
%TO.P,TH1,1*%
%TO.N,Board_8-/P013*%
X98247344Y-82148317D03*
%TO.P,TH1,2*%
%TO.N,Board_8-P04*%
X100787344Y-82148317D03*
%TD*%
D19*
%TO.N,Board_0-/P010*%
X107617344Y-32947037D03*
%TO.N,Board_0-/P013*%
X108606344Y-32998937D03*
%TO.N,Board_0-P04*%
X102675244Y-35157937D03*
%TO.N,Board_1-/P010*%
X134233716Y-32947037D03*
%TO.N,Board_1-/P013*%
X135222716Y-32998937D03*
%TO.N,Board_1-P04*%
X129291616Y-35157937D03*
%TO.N,Board_2-/P010*%
X160850088Y-32947037D03*
%TO.N,Board_2-/P013*%
X161839088Y-32998937D03*
%TO.N,Board_2-P04*%
X155907988Y-35157937D03*
%TO.N,Board_3-/P010*%
X187466460Y-32947037D03*
%TO.N,Board_3-/P013*%
X188455460Y-32998937D03*
%TO.N,Board_3-P04*%
X182524360Y-35157937D03*
%TO.N,Board_4-/P010*%
X107617344Y-59447677D03*
%TO.N,Board_4-/P013*%
X108606344Y-59499577D03*
%TO.N,Board_4-P04*%
X102675244Y-61658577D03*
%TO.N,Board_5-/P010*%
X134233716Y-59447677D03*
%TO.N,Board_5-/P013*%
X135222716Y-59499577D03*
%TO.N,Board_5-P04*%
X129291616Y-61658577D03*
%TO.N,Board_6-/P010*%
X160850088Y-59447677D03*
%TO.N,Board_6-/P013*%
X161839088Y-59499577D03*
%TO.N,Board_6-P04*%
X155907988Y-61658577D03*
%TO.N,Board_7-/P010*%
X187466460Y-59447677D03*
%TO.N,Board_7-/P013*%
X188455460Y-59499577D03*
%TO.N,Board_7-P04*%
X182524360Y-61658577D03*
%TO.N,Board_8-/P010*%
X107617344Y-85948317D03*
%TO.N,Board_8-/P013*%
X108606344Y-86000217D03*
%TO.N,Board_8-P04*%
X102675244Y-88159217D03*
%TO.N,Board_9-/P010*%
X134233716Y-85948317D03*
%TO.N,Board_9-/P013*%
X135222716Y-86000217D03*
%TO.N,Board_9-P04*%
X129291616Y-88159217D03*
%TO.N,Board_10-/P010*%
X160850088Y-85948317D03*
%TO.N,Board_10-/P013*%
X161839088Y-86000217D03*
%TO.N,Board_10-P04*%
X155907988Y-88159217D03*
%TO.N,Board_11-/P010*%
X187466460Y-85948317D03*
%TO.N,Board_11-/P013*%
X188455460Y-86000217D03*
%TO.N,Board_11-P04*%
X182524360Y-88159217D03*
%TO.N,Board_12-/P010*%
X107617344Y-112448957D03*
%TO.N,Board_12-/P013*%
X108606344Y-112500857D03*
%TO.N,Board_12-P04*%
X102675244Y-114659857D03*
%TO.N,Board_13-/P010*%
X134233716Y-112448957D03*
%TO.N,Board_13-/P013*%
X135222716Y-112500857D03*
%TO.N,Board_13-P04*%
X129291616Y-114659857D03*
%TO.N,Board_14-/P010*%
X160850088Y-112448957D03*
%TO.N,Board_14-/P013*%
X161839088Y-112500857D03*
%TO.N,Board_14-P04*%
X155907988Y-114659857D03*
%TO.N,Board_15-/P010*%
X187466460Y-112448957D03*
%TO.N,Board_15-/P013*%
X188455460Y-112500857D03*
%TO.N,Board_15-P04*%
X182524360Y-114659857D03*
%TD*%
D20*
%TO.N,Board_0-/GND*%
X111958344Y-34393437D02*
X104411944Y-26847037D01*
X112463644Y-34898737D02*
X116506344Y-34898737D01*
X102210844Y-25491337D02*
X103452644Y-24249537D01*
X116506344Y-34898737D02*
X116506344Y-35342537D01*
X105217344Y-41847037D02*
X105217344Y-39057037D01*
X104417344Y-23147037D02*
X104417344Y-24249537D01*
X103452644Y-24249537D02*
X104417344Y-24249537D01*
X102788144Y-39942837D02*
X102788144Y-39942737D01*
X104114844Y-41269537D02*
X102788144Y-39942837D01*
X116506344Y-34455037D02*
X116506344Y-34898737D01*
X105217344Y-41847037D02*
X104114844Y-41847037D01*
X104411944Y-26847037D02*
X103098344Y-26847037D01*
X104114844Y-41847037D02*
X104114844Y-41269537D01*
X111958344Y-34393437D02*
X112463644Y-34898737D01*
X110368244Y-35983537D02*
X105078844Y-35983537D01*
X117656344Y-35342537D02*
X116506344Y-35342537D01*
X102788144Y-39942737D02*
X102788144Y-37276237D01*
X102788144Y-37276237D02*
X104579844Y-35484537D01*
X105217344Y-39057037D02*
X104807344Y-38647037D01*
X101727344Y-40555237D02*
X102788144Y-39942737D01*
X105078844Y-35983537D02*
X104579844Y-35484537D01*
X117656344Y-34455037D02*
X117656344Y-35342537D01*
X111958344Y-34393437D02*
X110368244Y-35983537D01*
X103098344Y-26847037D02*
X102210844Y-26847037D01*
X102210844Y-26847037D02*
X102210844Y-25491337D01*
%TO.N,Board_0-/P010*%
X107606344Y-32958037D02*
X107617344Y-32947037D01*
X107606344Y-34328037D02*
X107606344Y-32958037D01*
%TO.N,Board_0-/P013*%
X101247344Y-32147037D02*
X108106344Y-32147037D01*
X108606344Y-32947037D02*
X108606344Y-34328037D01*
X108106344Y-32147037D02*
X108606344Y-32647037D01*
X98247344Y-29147037D02*
X101247344Y-32147037D01*
X108606344Y-32647037D02*
X108606344Y-32947037D01*
X108606344Y-32947037D02*
X108606344Y-32998937D01*
%TO.N,Board_0-/VCC33*%
X103098344Y-25847037D02*
X109414844Y-25847037D01*
X109414844Y-25847037D02*
X112614844Y-22647037D01*
X113717344Y-22647037D02*
X112614844Y-22647037D01*
%TO.N,Board_0-Net-(J1-Pin_1)*%
X110606344Y-34328037D02*
X110606344Y-35215537D01*
X101122844Y-34332337D02*
X100702244Y-34752937D01*
X97917344Y-36613037D02*
X97917344Y-33956137D01*
X100702244Y-36288237D02*
X99669844Y-37320637D01*
X110606344Y-35215537D02*
X110243344Y-35578537D01*
X105080744Y-34332337D02*
X101122844Y-34332337D01*
X100702244Y-34752937D02*
X100702244Y-36288237D01*
X106069544Y-35578537D02*
X105555244Y-35064237D01*
X105555244Y-35064237D02*
X105555244Y-34806837D01*
X99669844Y-37320637D02*
X98624944Y-37320637D01*
X110243344Y-35578537D02*
X106069544Y-35578537D01*
X105555244Y-34806837D02*
X105080744Y-34332337D01*
X98624944Y-37320637D02*
X97917344Y-36613037D01*
%TO.N,Board_0-Net-(J1-Pin_2)*%
X105226744Y-33979837D02*
X100976844Y-33979837D01*
X109606344Y-34328037D02*
X109606344Y-35215537D01*
X100248244Y-35206937D02*
X100248144Y-35207037D01*
X100248244Y-34708437D02*
X100248244Y-35206937D01*
X106213144Y-35215537D02*
X105907744Y-34910137D01*
X100248144Y-35207037D02*
X100248144Y-35543337D01*
X99187344Y-36155837D02*
X100248144Y-35543337D01*
X109606344Y-35215537D02*
X106213144Y-35215537D01*
X100976844Y-33979837D02*
X100248244Y-34708437D01*
X105907744Y-34910137D02*
X105907744Y-34660837D01*
X105907744Y-34660837D02*
X105226744Y-33979837D01*
%TO.N,Board_0-P04*%
X102210844Y-30570537D02*
X100787344Y-29147037D01*
X103098344Y-30847037D02*
X102210844Y-30847037D01*
X102210844Y-30847037D02*
X102210844Y-30570537D01*
X102675244Y-35157937D02*
X101981444Y-35157937D01*
X101981444Y-35157937D02*
X101654844Y-35484537D01*
%TO.N,Board_1-/GND*%
X143122716Y-34898737D02*
X143122716Y-35342537D01*
X139080016Y-34898737D02*
X143122716Y-34898737D01*
X131833716Y-39057037D02*
X131423716Y-38647037D01*
X136984616Y-35983537D02*
X131695216Y-35983537D01*
X130731216Y-41269537D02*
X129404516Y-39942837D01*
X129404516Y-39942837D02*
X129404516Y-39942737D01*
X143122716Y-34455037D02*
X143122716Y-34898737D01*
X131695216Y-35983537D02*
X131196216Y-35484537D01*
X131833716Y-41847037D02*
X130731216Y-41847037D01*
X144272716Y-35342537D02*
X143122716Y-35342537D01*
X129404516Y-37276237D02*
X131196216Y-35484537D01*
X129714716Y-26847037D02*
X128827216Y-26847037D01*
X131033716Y-23147037D02*
X131033716Y-24249537D01*
X130731216Y-41847037D02*
X130731216Y-41269537D01*
X128343716Y-40555237D02*
X129404516Y-39942737D01*
X131028316Y-26847037D02*
X129714716Y-26847037D01*
X138574716Y-34393437D02*
X139080016Y-34898737D01*
X131833716Y-41847037D02*
X131833716Y-39057037D01*
X144272716Y-34455037D02*
X144272716Y-35342537D01*
X130069016Y-24249537D02*
X131033716Y-24249537D01*
X138574716Y-34393437D02*
X136984616Y-35983537D01*
X138574716Y-34393437D02*
X131028316Y-26847037D01*
X128827216Y-26847037D02*
X128827216Y-25491337D01*
X128827216Y-25491337D02*
X130069016Y-24249537D01*
X129404516Y-39942737D02*
X129404516Y-37276237D01*
%TO.N,Board_1-/P010*%
X134222716Y-32958037D02*
X134233716Y-32947037D01*
X134222716Y-34328037D02*
X134222716Y-32958037D01*
%TO.N,Board_1-/P013*%
X127863716Y-32147037D02*
X134722716Y-32147037D01*
X135222716Y-32947037D02*
X135222716Y-34328037D01*
X135222716Y-32947037D02*
X135222716Y-32998937D01*
X134722716Y-32147037D02*
X135222716Y-32647037D01*
X135222716Y-32647037D02*
X135222716Y-32947037D01*
X124863716Y-29147037D02*
X127863716Y-32147037D01*
%TO.N,Board_1-/VCC33*%
X136031216Y-25847037D02*
X139231216Y-22647037D01*
X140333716Y-22647037D02*
X139231216Y-22647037D01*
X129714716Y-25847037D02*
X136031216Y-25847037D01*
%TO.N,Board_1-Net-(J1-Pin_1)*%
X131697116Y-34332337D02*
X127739216Y-34332337D01*
X132171616Y-35064237D02*
X132171616Y-34806837D01*
X124533716Y-36613037D02*
X124533716Y-33956137D01*
X126286216Y-37320637D02*
X125241316Y-37320637D01*
X127318616Y-36288237D02*
X126286216Y-37320637D01*
X136859716Y-35578537D02*
X132685916Y-35578537D01*
X125241316Y-37320637D02*
X124533716Y-36613037D01*
X137222716Y-35215537D02*
X136859716Y-35578537D01*
X127739216Y-34332337D02*
X127318616Y-34752937D01*
X137222716Y-34328037D02*
X137222716Y-35215537D01*
X132171616Y-34806837D02*
X131697116Y-34332337D01*
X132685916Y-35578537D02*
X132171616Y-35064237D01*
X127318616Y-34752937D02*
X127318616Y-36288237D01*
%TO.N,Board_1-Net-(J1-Pin_2)*%
X126864616Y-34708437D02*
X126864616Y-35206937D01*
X136222716Y-35215537D02*
X132829516Y-35215537D01*
X127593216Y-33979837D02*
X126864616Y-34708437D01*
X136222716Y-34328037D02*
X136222716Y-35215537D01*
X126864516Y-35207037D02*
X126864516Y-35543337D01*
X132524116Y-34910137D02*
X132524116Y-34660837D01*
X132829516Y-35215537D02*
X132524116Y-34910137D01*
X132524116Y-34660837D02*
X131843116Y-33979837D01*
X126864616Y-35206937D02*
X126864516Y-35207037D01*
X125803716Y-36155837D02*
X126864516Y-35543337D01*
X131843116Y-33979837D02*
X127593216Y-33979837D01*
%TO.N,Board_1-P04*%
X128827216Y-30570537D02*
X127403716Y-29147037D01*
X128827216Y-30847037D02*
X128827216Y-30570537D01*
X129291616Y-35157937D02*
X128597816Y-35157937D01*
X128597816Y-35157937D02*
X128271216Y-35484537D01*
X129714716Y-30847037D02*
X128827216Y-30847037D01*
%TO.N,Board_2-/GND*%
X157650088Y-23147037D02*
X157650088Y-24249537D01*
X163600988Y-35983537D02*
X158311588Y-35983537D01*
X154960088Y-40555237D02*
X156020888Y-39942737D01*
X165191088Y-34393437D02*
X157644688Y-26847037D01*
X165191088Y-34393437D02*
X165696388Y-34898737D01*
X165191088Y-34393437D02*
X163600988Y-35983537D01*
X158450088Y-41847037D02*
X158450088Y-39057037D01*
X156020888Y-39942837D02*
X156020888Y-39942737D01*
X156020888Y-37276237D02*
X157812588Y-35484537D01*
X156685388Y-24249537D02*
X157650088Y-24249537D01*
X158450088Y-39057037D02*
X158040088Y-38647037D01*
X157347588Y-41847037D02*
X157347588Y-41269537D01*
X156020888Y-39942737D02*
X156020888Y-37276237D01*
X156331088Y-26847037D02*
X155443588Y-26847037D01*
X158450088Y-41847037D02*
X157347588Y-41847037D01*
X155443588Y-25491337D02*
X156685388Y-24249537D01*
X165696388Y-34898737D02*
X169739088Y-34898737D01*
X170889088Y-35342537D02*
X169739088Y-35342537D01*
X169739088Y-34455037D02*
X169739088Y-34898737D01*
X157347588Y-41269537D02*
X156020888Y-39942837D01*
X169739088Y-34898737D02*
X169739088Y-35342537D01*
X158311588Y-35983537D02*
X157812588Y-35484537D01*
X155443588Y-26847037D02*
X155443588Y-25491337D01*
X170889088Y-34455037D02*
X170889088Y-35342537D01*
X157644688Y-26847037D02*
X156331088Y-26847037D01*
%TO.N,Board_2-/P010*%
X160839088Y-32958037D02*
X160850088Y-32947037D01*
X160839088Y-34328037D02*
X160839088Y-32958037D01*
%TO.N,Board_2-/P013*%
X161839088Y-32947037D02*
X161839088Y-34328037D01*
X151480088Y-29147037D02*
X154480088Y-32147037D01*
X161839088Y-32947037D02*
X161839088Y-32998937D01*
X161839088Y-32647037D02*
X161839088Y-32947037D01*
X161339088Y-32147037D02*
X161839088Y-32647037D01*
X154480088Y-32147037D02*
X161339088Y-32147037D01*
%TO.N,Board_2-/VCC33*%
X156331088Y-25847037D02*
X162647588Y-25847037D01*
X166950088Y-22647037D02*
X165847588Y-22647037D01*
X162647588Y-25847037D02*
X165847588Y-22647037D01*
%TO.N,Board_2-Net-(J1-Pin_1)*%
X158787988Y-34806837D02*
X158313488Y-34332337D01*
X158313488Y-34332337D02*
X154355588Y-34332337D01*
X153934988Y-34752937D02*
X153934988Y-36288237D01*
X163476088Y-35578537D02*
X159302288Y-35578537D01*
X153934988Y-36288237D02*
X152902588Y-37320637D01*
X151150088Y-36613037D02*
X151150088Y-33956137D01*
X151857688Y-37320637D02*
X151150088Y-36613037D01*
X163839088Y-34328037D02*
X163839088Y-35215537D01*
X158787988Y-35064237D02*
X158787988Y-34806837D01*
X159302288Y-35578537D02*
X158787988Y-35064237D01*
X154355588Y-34332337D02*
X153934988Y-34752937D01*
X152902588Y-37320637D02*
X151857688Y-37320637D01*
X163839088Y-35215537D02*
X163476088Y-35578537D01*
%TO.N,Board_2-Net-(J1-Pin_2)*%
X162839088Y-34328037D02*
X162839088Y-35215537D01*
X153480888Y-35207037D02*
X153480888Y-35543337D01*
X152420088Y-36155837D02*
X153480888Y-35543337D01*
X162839088Y-35215537D02*
X159445888Y-35215537D01*
X158459488Y-33979837D02*
X154209588Y-33979837D01*
X159140488Y-34660837D02*
X158459488Y-33979837D01*
X153480988Y-35206937D02*
X153480888Y-35207037D01*
X153480988Y-34708437D02*
X153480988Y-35206937D01*
X154209588Y-33979837D02*
X153480988Y-34708437D01*
X159140488Y-34910137D02*
X159140488Y-34660837D01*
X159445888Y-35215537D02*
X159140488Y-34910137D01*
%TO.N,Board_2-P04*%
X155907988Y-35157937D02*
X155214188Y-35157937D01*
X155443588Y-30847037D02*
X155443588Y-30570537D01*
X155214188Y-35157937D02*
X154887588Y-35484537D01*
X155443588Y-30570537D02*
X154020088Y-29147037D01*
X156331088Y-30847037D02*
X155443588Y-30847037D01*
%TO.N,Board_3-/GND*%
X182059960Y-26847037D02*
X182059960Y-25491337D01*
X191807460Y-34393437D02*
X184261060Y-26847037D01*
X185066460Y-41847037D02*
X183963960Y-41847037D01*
X184266460Y-23147037D02*
X184266460Y-24249537D01*
X183963960Y-41269537D02*
X182637260Y-39942837D01*
X196355460Y-34898737D02*
X196355460Y-35342537D01*
X182637260Y-39942737D02*
X182637260Y-37276237D01*
X182637260Y-37276237D02*
X184428960Y-35484537D01*
X184261060Y-26847037D02*
X182947460Y-26847037D01*
X182059960Y-25491337D02*
X183301760Y-24249537D01*
X197505460Y-34455037D02*
X197505460Y-35342537D01*
X184927960Y-35983537D02*
X184428960Y-35484537D01*
X191807460Y-34393437D02*
X190217360Y-35983537D01*
X197505460Y-35342537D02*
X196355460Y-35342537D01*
X183963960Y-41847037D02*
X183963960Y-41269537D01*
X190217360Y-35983537D02*
X184927960Y-35983537D01*
X196355460Y-34455037D02*
X196355460Y-34898737D01*
X182947460Y-26847037D02*
X182059960Y-26847037D01*
X185066460Y-39057037D02*
X184656460Y-38647037D01*
X191807460Y-34393437D02*
X192312760Y-34898737D01*
X192312760Y-34898737D02*
X196355460Y-34898737D01*
X182637260Y-39942837D02*
X182637260Y-39942737D01*
X183301760Y-24249537D02*
X184266460Y-24249537D01*
X185066460Y-41847037D02*
X185066460Y-39057037D01*
X181576460Y-40555237D02*
X182637260Y-39942737D01*
%TO.N,Board_3-/P010*%
X187455460Y-32958037D02*
X187466460Y-32947037D01*
X187455460Y-34328037D02*
X187455460Y-32958037D01*
%TO.N,Board_3-/P013*%
X178096460Y-29147037D02*
X181096460Y-32147037D01*
X181096460Y-32147037D02*
X187955460Y-32147037D01*
X188455460Y-32647037D02*
X188455460Y-32947037D01*
X187955460Y-32147037D02*
X188455460Y-32647037D01*
X188455460Y-32947037D02*
X188455460Y-34328037D01*
X188455460Y-32947037D02*
X188455460Y-32998937D01*
%TO.N,Board_3-/VCC33*%
X189263960Y-25847037D02*
X192463960Y-22647037D01*
X182947460Y-25847037D02*
X189263960Y-25847037D01*
X193566460Y-22647037D02*
X192463960Y-22647037D01*
%TO.N,Board_3-Net-(J1-Pin_1)*%
X177766460Y-36613037D02*
X177766460Y-33956137D01*
X179518960Y-37320637D02*
X178474060Y-37320637D01*
X185918660Y-35578537D02*
X185404360Y-35064237D01*
X184929860Y-34332337D02*
X180971960Y-34332337D01*
X185404360Y-35064237D02*
X185404360Y-34806837D01*
X180971960Y-34332337D02*
X180551360Y-34752937D01*
X180551360Y-34752937D02*
X180551360Y-36288237D01*
X178474060Y-37320637D02*
X177766460Y-36613037D01*
X185404360Y-34806837D02*
X184929860Y-34332337D01*
X180551360Y-36288237D02*
X179518960Y-37320637D01*
X190092460Y-35578537D02*
X185918660Y-35578537D01*
X190455460Y-35215537D02*
X190092460Y-35578537D01*
X190455460Y-34328037D02*
X190455460Y-35215537D01*
%TO.N,Board_3-Net-(J1-Pin_2)*%
X180097260Y-35207037D02*
X180097260Y-35543337D01*
X180097360Y-34708437D02*
X180097360Y-35206937D01*
X185756860Y-34660837D02*
X185075860Y-33979837D01*
X179036460Y-36155837D02*
X180097260Y-35543337D01*
X189455460Y-35215537D02*
X186062260Y-35215537D01*
X186062260Y-35215537D02*
X185756860Y-34910137D01*
X185075860Y-33979837D02*
X180825960Y-33979837D01*
X180825960Y-33979837D02*
X180097360Y-34708437D01*
X189455460Y-34328037D02*
X189455460Y-35215537D01*
X185756860Y-34910137D02*
X185756860Y-34660837D01*
X180097360Y-35206937D02*
X180097260Y-35207037D01*
%TO.N,Board_3-P04*%
X182059960Y-30847037D02*
X182059960Y-30570537D01*
X181830560Y-35157937D02*
X181503960Y-35484537D01*
X182947460Y-30847037D02*
X182059960Y-30847037D01*
X182059960Y-30570537D02*
X180636460Y-29147037D01*
X182524360Y-35157937D02*
X181830560Y-35157937D01*
%TO.N,Board_4-/GND*%
X117656344Y-61843177D02*
X116506344Y-61843177D01*
X102788144Y-66443477D02*
X102788144Y-66443377D01*
X105078844Y-62484177D02*
X104579844Y-61985177D01*
X103452644Y-50750177D02*
X104417344Y-50750177D01*
X110368244Y-62484177D02*
X105078844Y-62484177D01*
X102788144Y-63776877D02*
X104579844Y-61985177D01*
X102788144Y-66443377D02*
X102788144Y-63776877D01*
X103098344Y-53347677D02*
X102210844Y-53347677D01*
X104411944Y-53347677D02*
X103098344Y-53347677D01*
X104417344Y-49647677D02*
X104417344Y-50750177D01*
X105217344Y-68347677D02*
X104114844Y-68347677D01*
X104114844Y-68347677D02*
X104114844Y-67770177D01*
X102210844Y-51991977D02*
X103452644Y-50750177D01*
X105217344Y-68347677D02*
X105217344Y-65557677D01*
X117656344Y-60955677D02*
X117656344Y-61843177D01*
X111958344Y-60894077D02*
X104411944Y-53347677D01*
X104114844Y-67770177D02*
X102788144Y-66443477D01*
X102210844Y-53347677D02*
X102210844Y-51991977D01*
X105217344Y-65557677D02*
X104807344Y-65147677D01*
X111958344Y-60894077D02*
X110368244Y-62484177D01*
X116506344Y-60955677D02*
X116506344Y-61399377D01*
X116506344Y-61399377D02*
X116506344Y-61843177D01*
X101727344Y-67055877D02*
X102788144Y-66443377D01*
X112463644Y-61399377D02*
X116506344Y-61399377D01*
X111958344Y-60894077D02*
X112463644Y-61399377D01*
%TO.N,Board_4-/P010*%
X107606344Y-59458677D02*
X107617344Y-59447677D01*
X107606344Y-60828677D02*
X107606344Y-59458677D01*
%TO.N,Board_4-/P013*%
X101247344Y-58647677D02*
X108106344Y-58647677D01*
X108606344Y-59447677D02*
X108606344Y-60828677D01*
X108106344Y-58647677D02*
X108606344Y-59147677D01*
X108606344Y-59447677D02*
X108606344Y-59499577D01*
X108606344Y-59147677D02*
X108606344Y-59447677D01*
X98247344Y-55647677D02*
X101247344Y-58647677D01*
%TO.N,Board_4-/VCC33*%
X113717344Y-49147677D02*
X112614844Y-49147677D01*
X103098344Y-52347677D02*
X109414844Y-52347677D01*
X109414844Y-52347677D02*
X112614844Y-49147677D01*
%TO.N,Board_4-Net-(J1-Pin_1)*%
X105555244Y-61307477D02*
X105080744Y-60832977D01*
X97917344Y-63113677D02*
X97917344Y-60456777D01*
X99669844Y-63821277D02*
X98624944Y-63821277D01*
X110606344Y-61716177D02*
X110243344Y-62079177D01*
X105080744Y-60832977D02*
X101122844Y-60832977D01*
X110606344Y-60828677D02*
X110606344Y-61716177D01*
X106069544Y-62079177D02*
X105555244Y-61564877D01*
X100702244Y-61253577D02*
X100702244Y-62788877D01*
X110243344Y-62079177D02*
X106069544Y-62079177D01*
X98624944Y-63821277D02*
X97917344Y-63113677D01*
X101122844Y-60832977D02*
X100702244Y-61253577D01*
X100702244Y-62788877D02*
X99669844Y-63821277D01*
X105555244Y-61564877D02*
X105555244Y-61307477D01*
%TO.N,Board_4-Net-(J1-Pin_2)*%
X99187344Y-62656477D02*
X100248144Y-62043977D01*
X100248244Y-61707577D02*
X100248144Y-61707677D01*
X100248144Y-61707677D02*
X100248144Y-62043977D01*
X109606344Y-61716177D02*
X106213144Y-61716177D01*
X105226744Y-60480477D02*
X100976844Y-60480477D01*
X105907744Y-61410777D02*
X105907744Y-61161477D01*
X105907744Y-61161477D02*
X105226744Y-60480477D01*
X100976844Y-60480477D02*
X100248244Y-61209077D01*
X106213144Y-61716177D02*
X105907744Y-61410777D01*
X100248244Y-61209077D02*
X100248244Y-61707577D01*
X109606344Y-60828677D02*
X109606344Y-61716177D01*
%TO.N,Board_4-P04*%
X103098344Y-57347677D02*
X102210844Y-57347677D01*
X102675244Y-61658577D02*
X101981444Y-61658577D01*
X102210844Y-57071177D02*
X100787344Y-55647677D01*
X102210844Y-57347677D02*
X102210844Y-57071177D01*
X101981444Y-61658577D02*
X101654844Y-61985177D01*
%TO.N,Board_5-/GND*%
X131695216Y-62484177D02*
X131196216Y-61985177D01*
X130731216Y-68347677D02*
X130731216Y-67770177D01*
X139080016Y-61399377D02*
X143122716Y-61399377D01*
X128827216Y-51991977D02*
X130069016Y-50750177D01*
X129714716Y-53347677D02*
X128827216Y-53347677D01*
X129404516Y-66443477D02*
X129404516Y-66443377D01*
X128827216Y-53347677D02*
X128827216Y-51991977D01*
X131033716Y-49647677D02*
X131033716Y-50750177D01*
X144272716Y-61843177D02*
X143122716Y-61843177D01*
X130069016Y-50750177D02*
X131033716Y-50750177D01*
X129404516Y-63776877D02*
X131196216Y-61985177D01*
X143122716Y-61399377D02*
X143122716Y-61843177D01*
X136984616Y-62484177D02*
X131695216Y-62484177D01*
X129404516Y-66443377D02*
X129404516Y-63776877D01*
X131833716Y-65557677D02*
X131423716Y-65147677D01*
X130731216Y-67770177D02*
X129404516Y-66443477D01*
X131833716Y-68347677D02*
X130731216Y-68347677D01*
X143122716Y-60955677D02*
X143122716Y-61399377D01*
X138574716Y-60894077D02*
X136984616Y-62484177D01*
X138574716Y-60894077D02*
X131028316Y-53347677D01*
X144272716Y-60955677D02*
X144272716Y-61843177D01*
X138574716Y-60894077D02*
X139080016Y-61399377D01*
X131833716Y-68347677D02*
X131833716Y-65557677D01*
X128343716Y-67055877D02*
X129404516Y-66443377D01*
X131028316Y-53347677D02*
X129714716Y-53347677D01*
%TO.N,Board_5-/P010*%
X134222716Y-60828677D02*
X134222716Y-59458677D01*
X134222716Y-59458677D02*
X134233716Y-59447677D01*
%TO.N,Board_5-/P013*%
X135222716Y-59447677D02*
X135222716Y-60828677D01*
X135222716Y-59147677D02*
X135222716Y-59447677D01*
X135222716Y-59447677D02*
X135222716Y-59499577D01*
X127863716Y-58647677D02*
X134722716Y-58647677D01*
X124863716Y-55647677D02*
X127863716Y-58647677D01*
X134722716Y-58647677D02*
X135222716Y-59147677D01*
%TO.N,Board_5-/VCC33*%
X136031216Y-52347677D02*
X139231216Y-49147677D01*
X140333716Y-49147677D02*
X139231216Y-49147677D01*
X129714716Y-52347677D02*
X136031216Y-52347677D01*
%TO.N,Board_5-Net-(J1-Pin_1)*%
X125241316Y-63821277D02*
X124533716Y-63113677D01*
X124533716Y-63113677D02*
X124533716Y-60456777D01*
X131697116Y-60832977D02*
X127739216Y-60832977D01*
X127739216Y-60832977D02*
X127318616Y-61253577D01*
X132685916Y-62079177D02*
X132171616Y-61564877D01*
X132171616Y-61564877D02*
X132171616Y-61307477D01*
X137222716Y-61716177D02*
X136859716Y-62079177D01*
X127318616Y-62788877D02*
X126286216Y-63821277D01*
X132171616Y-61307477D02*
X131697116Y-60832977D01*
X127318616Y-61253577D02*
X127318616Y-62788877D01*
X136859716Y-62079177D02*
X132685916Y-62079177D01*
X137222716Y-60828677D02*
X137222716Y-61716177D01*
X126286216Y-63821277D02*
X125241316Y-63821277D01*
%TO.N,Board_5-Net-(J1-Pin_2)*%
X127593216Y-60480477D02*
X126864616Y-61209077D01*
X126864616Y-61209077D02*
X126864616Y-61707577D01*
X126864616Y-61707577D02*
X126864516Y-61707677D01*
X132829516Y-61716177D02*
X132524116Y-61410777D01*
X136222716Y-61716177D02*
X132829516Y-61716177D01*
X131843116Y-60480477D02*
X127593216Y-60480477D01*
X126864516Y-61707677D02*
X126864516Y-62043977D01*
X136222716Y-60828677D02*
X136222716Y-61716177D01*
X132524116Y-61410777D02*
X132524116Y-61161477D01*
X125803716Y-62656477D02*
X126864516Y-62043977D01*
X132524116Y-61161477D02*
X131843116Y-60480477D01*
%TO.N,Board_5-P04*%
X129714716Y-57347677D02*
X128827216Y-57347677D01*
X128827216Y-57347677D02*
X128827216Y-57071177D01*
X128597816Y-61658577D02*
X128271216Y-61985177D01*
X129291616Y-61658577D02*
X128597816Y-61658577D01*
X128827216Y-57071177D02*
X127403716Y-55647677D01*
%TO.N,Board_6-/GND*%
X156685388Y-50750177D02*
X157650088Y-50750177D01*
X156020888Y-63776877D02*
X157812588Y-61985177D01*
X155443588Y-51991977D02*
X156685388Y-50750177D01*
X158450088Y-68347677D02*
X157347588Y-68347677D01*
X156020888Y-66443477D02*
X156020888Y-66443377D01*
X165191088Y-60894077D02*
X165696388Y-61399377D01*
X158450088Y-65557677D02*
X158040088Y-65147677D01*
X157347588Y-67770177D02*
X156020888Y-66443477D01*
X170889088Y-61843177D02*
X169739088Y-61843177D01*
X165191088Y-60894077D02*
X157644688Y-53347677D01*
X158311588Y-62484177D02*
X157812588Y-61985177D01*
X157347588Y-68347677D02*
X157347588Y-67770177D01*
X158450088Y-68347677D02*
X158450088Y-65557677D01*
X169739088Y-61399377D02*
X169739088Y-61843177D01*
X157650088Y-49647677D02*
X157650088Y-50750177D01*
X157644688Y-53347677D02*
X156331088Y-53347677D01*
X155443588Y-53347677D02*
X155443588Y-51991977D01*
X170889088Y-60955677D02*
X170889088Y-61843177D01*
X165191088Y-60894077D02*
X163600988Y-62484177D01*
X156331088Y-53347677D02*
X155443588Y-53347677D01*
X169739088Y-60955677D02*
X169739088Y-61399377D01*
X163600988Y-62484177D02*
X158311588Y-62484177D01*
X165696388Y-61399377D02*
X169739088Y-61399377D01*
X156020888Y-66443377D02*
X156020888Y-63776877D01*
X154960088Y-67055877D02*
X156020888Y-66443377D01*
%TO.N,Board_6-/P010*%
X160839088Y-59458677D02*
X160850088Y-59447677D01*
X160839088Y-60828677D02*
X160839088Y-59458677D01*
%TO.N,Board_6-/P013*%
X161839088Y-59147677D02*
X161839088Y-59447677D01*
X161839088Y-59447677D02*
X161839088Y-59499577D01*
X161839088Y-59447677D02*
X161839088Y-60828677D01*
X151480088Y-55647677D02*
X154480088Y-58647677D01*
X161339088Y-58647677D02*
X161839088Y-59147677D01*
X154480088Y-58647677D02*
X161339088Y-58647677D01*
%TO.N,Board_6-/VCC33*%
X162647588Y-52347677D02*
X165847588Y-49147677D01*
X156331088Y-52347677D02*
X162647588Y-52347677D01*
X166950088Y-49147677D02*
X165847588Y-49147677D01*
%TO.N,Board_6-Net-(J1-Pin_1)*%
X152902588Y-63821277D02*
X151857688Y-63821277D01*
X151150088Y-63113677D02*
X151150088Y-60456777D01*
X151857688Y-63821277D02*
X151150088Y-63113677D01*
X153934988Y-61253577D02*
X153934988Y-62788877D01*
X153934988Y-62788877D02*
X152902588Y-63821277D01*
X154355588Y-60832977D02*
X153934988Y-61253577D01*
X163839088Y-60828677D02*
X163839088Y-61716177D01*
X158787988Y-61307477D02*
X158313488Y-60832977D01*
X163476088Y-62079177D02*
X159302288Y-62079177D01*
X158313488Y-60832977D02*
X154355588Y-60832977D01*
X158787988Y-61564877D02*
X158787988Y-61307477D01*
X163839088Y-61716177D02*
X163476088Y-62079177D01*
X159302288Y-62079177D02*
X158787988Y-61564877D01*
%TO.N,Board_6-Net-(J1-Pin_2)*%
X159140488Y-61410777D02*
X159140488Y-61161477D01*
X153480988Y-61209077D02*
X153480988Y-61707577D01*
X153480888Y-61707677D02*
X153480888Y-62043977D01*
X154209588Y-60480477D02*
X153480988Y-61209077D01*
X159140488Y-61161477D02*
X158459488Y-60480477D01*
X153480988Y-61707577D02*
X153480888Y-61707677D01*
X152420088Y-62656477D02*
X153480888Y-62043977D01*
X159445888Y-61716177D02*
X159140488Y-61410777D01*
X162839088Y-60828677D02*
X162839088Y-61716177D01*
X162839088Y-61716177D02*
X159445888Y-61716177D01*
X158459488Y-60480477D02*
X154209588Y-60480477D01*
%TO.N,Board_6-P04*%
X155214188Y-61658577D02*
X154887588Y-61985177D01*
X155443588Y-57347677D02*
X155443588Y-57071177D01*
X156331088Y-57347677D02*
X155443588Y-57347677D01*
X155443588Y-57071177D02*
X154020088Y-55647677D01*
X155907988Y-61658577D02*
X155214188Y-61658577D01*
%TO.N,Board_7-/GND*%
X197505460Y-61843177D02*
X196355460Y-61843177D01*
X184261060Y-53347677D02*
X182947460Y-53347677D01*
X185066460Y-68347677D02*
X185066460Y-65557677D01*
X182637260Y-63776877D02*
X184428960Y-61985177D01*
X182059960Y-51991977D02*
X183301760Y-50750177D01*
X191807460Y-60894077D02*
X192312760Y-61399377D01*
X196355460Y-61399377D02*
X196355460Y-61843177D01*
X183301760Y-50750177D02*
X184266460Y-50750177D01*
X182637260Y-66443377D02*
X182637260Y-63776877D01*
X182637260Y-66443477D02*
X182637260Y-66443377D01*
X196355460Y-60955677D02*
X196355460Y-61399377D01*
X183963960Y-67770177D02*
X182637260Y-66443477D01*
X185066460Y-68347677D02*
X183963960Y-68347677D01*
X197505460Y-60955677D02*
X197505460Y-61843177D01*
X191807460Y-60894077D02*
X184261060Y-53347677D01*
X185066460Y-65557677D02*
X184656460Y-65147677D01*
X190217360Y-62484177D02*
X184927960Y-62484177D01*
X192312760Y-61399377D02*
X196355460Y-61399377D01*
X183963960Y-68347677D02*
X183963960Y-67770177D01*
X191807460Y-60894077D02*
X190217360Y-62484177D01*
X182059960Y-53347677D02*
X182059960Y-51991977D01*
X184927960Y-62484177D02*
X184428960Y-61985177D01*
X184266460Y-49647677D02*
X184266460Y-50750177D01*
X182947460Y-53347677D02*
X182059960Y-53347677D01*
X181576460Y-67055877D02*
X182637260Y-66443377D01*
%TO.N,Board_7-/P010*%
X187455460Y-59458677D02*
X187466460Y-59447677D01*
X187455460Y-60828677D02*
X187455460Y-59458677D01*
%TO.N,Board_7-/P013*%
X188455460Y-59447677D02*
X188455460Y-59499577D01*
X188455460Y-59447677D02*
X188455460Y-60828677D01*
X188455460Y-59147677D02*
X188455460Y-59447677D01*
X181096460Y-58647677D02*
X187955460Y-58647677D01*
X187955460Y-58647677D02*
X188455460Y-59147677D01*
X178096460Y-55647677D02*
X181096460Y-58647677D01*
%TO.N,Board_7-/VCC33*%
X189263960Y-52347677D02*
X192463960Y-49147677D01*
X193566460Y-49147677D02*
X192463960Y-49147677D01*
X182947460Y-52347677D02*
X189263960Y-52347677D01*
%TO.N,Board_7-Net-(J1-Pin_1)*%
X190092460Y-62079177D02*
X185918660Y-62079177D01*
X184929860Y-60832977D02*
X180971960Y-60832977D01*
X185404360Y-61307477D02*
X184929860Y-60832977D01*
X180971960Y-60832977D02*
X180551360Y-61253577D01*
X180551360Y-61253577D02*
X180551360Y-62788877D01*
X185404360Y-61564877D02*
X185404360Y-61307477D01*
X190455460Y-61716177D02*
X190092460Y-62079177D01*
X177766460Y-63113677D02*
X177766460Y-60456777D01*
X178474060Y-63821277D02*
X177766460Y-63113677D01*
X185918660Y-62079177D02*
X185404360Y-61564877D01*
X190455460Y-60828677D02*
X190455460Y-61716177D01*
X180551360Y-62788877D02*
X179518960Y-63821277D01*
X179518960Y-63821277D02*
X178474060Y-63821277D01*
%TO.N,Board_7-Net-(J1-Pin_2)*%
X185756860Y-61410777D02*
X185756860Y-61161477D01*
X180097360Y-61707577D02*
X180097260Y-61707677D01*
X189455460Y-60828677D02*
X189455460Y-61716177D01*
X179036460Y-62656477D02*
X180097260Y-62043977D01*
X185756860Y-61161477D02*
X185075860Y-60480477D01*
X185075860Y-60480477D02*
X180825960Y-60480477D01*
X180097360Y-61209077D02*
X180097360Y-61707577D01*
X180825960Y-60480477D02*
X180097360Y-61209077D01*
X189455460Y-61716177D02*
X186062260Y-61716177D01*
X186062260Y-61716177D02*
X185756860Y-61410777D01*
X180097260Y-61707677D02*
X180097260Y-62043977D01*
%TO.N,Board_7-P04*%
X182947460Y-57347677D02*
X182059960Y-57347677D01*
X182059960Y-57071177D02*
X180636460Y-55647677D01*
X182059960Y-57347677D02*
X182059960Y-57071177D01*
X181830560Y-61658577D02*
X181503960Y-61985177D01*
X182524360Y-61658577D02*
X181830560Y-61658577D01*
%TO.N,Board_8-/GND*%
X111958344Y-87394717D02*
X104411944Y-79848317D01*
X102788144Y-90277517D02*
X104579844Y-88485817D01*
X104417344Y-76148317D02*
X104417344Y-77250817D01*
X117656344Y-87456317D02*
X117656344Y-88343817D01*
X102210844Y-78492617D02*
X103452644Y-77250817D01*
X102210844Y-79848317D02*
X102210844Y-78492617D01*
X105078844Y-88984817D02*
X104579844Y-88485817D01*
X110368244Y-88984817D02*
X105078844Y-88984817D01*
X102788144Y-92944017D02*
X102788144Y-90277517D01*
X111958344Y-87394717D02*
X112463644Y-87900017D01*
X105217344Y-92058317D02*
X104807344Y-91648317D01*
X101727344Y-93556517D02*
X102788144Y-92944017D01*
X112463644Y-87900017D02*
X116506344Y-87900017D01*
X105217344Y-94848317D02*
X104114844Y-94848317D01*
X105217344Y-94848317D02*
X105217344Y-92058317D01*
X116506344Y-87900017D02*
X116506344Y-88343817D01*
X103452644Y-77250817D02*
X104417344Y-77250817D01*
X117656344Y-88343817D02*
X116506344Y-88343817D01*
X111958344Y-87394717D02*
X110368244Y-88984817D01*
X102788144Y-92944117D02*
X102788144Y-92944017D01*
X103098344Y-79848317D02*
X102210844Y-79848317D01*
X116506344Y-87456317D02*
X116506344Y-87900017D01*
X104114844Y-94848317D02*
X104114844Y-94270817D01*
X104114844Y-94270817D02*
X102788144Y-92944117D01*
X104411944Y-79848317D02*
X103098344Y-79848317D01*
%TO.N,Board_8-/P010*%
X107606344Y-85959317D02*
X107617344Y-85948317D01*
X107606344Y-87329317D02*
X107606344Y-85959317D01*
%TO.N,Board_8-/P013*%
X108606344Y-85948317D02*
X108606344Y-87329317D01*
X101247344Y-85148317D02*
X108106344Y-85148317D01*
X98247344Y-82148317D02*
X101247344Y-85148317D01*
X108606344Y-85648317D02*
X108606344Y-85948317D01*
X108606344Y-85948317D02*
X108606344Y-86000217D01*
X108106344Y-85148317D02*
X108606344Y-85648317D01*
%TO.N,Board_8-/VCC33*%
X103098344Y-78848317D02*
X109414844Y-78848317D01*
X109414844Y-78848317D02*
X112614844Y-75648317D01*
X113717344Y-75648317D02*
X112614844Y-75648317D01*
%TO.N,Board_8-Net-(J1-Pin_1)*%
X110606344Y-88216817D02*
X110243344Y-88579817D01*
X100702244Y-87754217D02*
X100702244Y-89289517D01*
X110243344Y-88579817D02*
X106069544Y-88579817D01*
X99669844Y-90321917D02*
X98624944Y-90321917D01*
X110606344Y-87329317D02*
X110606344Y-88216817D01*
X97917344Y-89614317D02*
X97917344Y-86957417D01*
X105555244Y-87808117D02*
X105080744Y-87333617D01*
X106069544Y-88579817D02*
X105555244Y-88065517D01*
X105080744Y-87333617D02*
X101122844Y-87333617D01*
X101122844Y-87333617D02*
X100702244Y-87754217D01*
X100702244Y-89289517D02*
X99669844Y-90321917D01*
X105555244Y-88065517D02*
X105555244Y-87808117D01*
X98624944Y-90321917D02*
X97917344Y-89614317D01*
%TO.N,Board_8-Net-(J1-Pin_2)*%
X109606344Y-88216817D02*
X106213144Y-88216817D01*
X105226744Y-86981117D02*
X100976844Y-86981117D01*
X100248244Y-88208217D02*
X100248144Y-88208317D01*
X105907744Y-87911417D02*
X105907744Y-87662117D01*
X109606344Y-87329317D02*
X109606344Y-88216817D01*
X106213144Y-88216817D02*
X105907744Y-87911417D01*
X105907744Y-87662117D02*
X105226744Y-86981117D01*
X100976844Y-86981117D02*
X100248244Y-87709717D01*
X100248244Y-87709717D02*
X100248244Y-88208217D01*
X100248144Y-88208317D02*
X100248144Y-88544617D01*
X99187344Y-89157117D02*
X100248144Y-88544617D01*
%TO.N,Board_8-P04*%
X102210844Y-83848317D02*
X102210844Y-83571817D01*
X102675244Y-88159217D02*
X101981444Y-88159217D01*
X102210844Y-83571817D02*
X100787344Y-82148317D01*
X101981444Y-88159217D02*
X101654844Y-88485817D01*
X103098344Y-83848317D02*
X102210844Y-83848317D01*
%TO.N,Board_9-/GND*%
X138574716Y-87394717D02*
X131028316Y-79848317D01*
X128343716Y-93556517D02*
X129404516Y-92944017D01*
X143122716Y-87456317D02*
X143122716Y-87900017D01*
X143122716Y-87900017D02*
X143122716Y-88343817D01*
X131833716Y-92058317D02*
X131423716Y-91648317D01*
X138574716Y-87394717D02*
X136984616Y-88984817D01*
X131695216Y-88984817D02*
X131196216Y-88485817D01*
X144272716Y-88343817D02*
X143122716Y-88343817D01*
X129714716Y-79848317D02*
X128827216Y-79848317D01*
X131033716Y-76148317D02*
X131033716Y-77250817D01*
X130731216Y-94270817D02*
X129404516Y-92944117D01*
X130069016Y-77250817D02*
X131033716Y-77250817D01*
X144272716Y-87456317D02*
X144272716Y-88343817D01*
X129404516Y-90277517D02*
X131196216Y-88485817D01*
X138574716Y-87394717D02*
X139080016Y-87900017D01*
X136984616Y-88984817D02*
X131695216Y-88984817D01*
X131028316Y-79848317D02*
X129714716Y-79848317D01*
X130731216Y-94848317D02*
X130731216Y-94270817D01*
X131833716Y-94848317D02*
X130731216Y-94848317D01*
X129404516Y-92944117D02*
X129404516Y-92944017D01*
X139080016Y-87900017D02*
X143122716Y-87900017D01*
X129404516Y-92944017D02*
X129404516Y-90277517D01*
X128827216Y-79848317D02*
X128827216Y-78492617D01*
X128827216Y-78492617D02*
X130069016Y-77250817D01*
X131833716Y-94848317D02*
X131833716Y-92058317D01*
%TO.N,Board_9-/P010*%
X134222716Y-87329317D02*
X134222716Y-85959317D01*
X134222716Y-85959317D02*
X134233716Y-85948317D01*
%TO.N,Board_9-/P013*%
X124863716Y-82148317D02*
X127863716Y-85148317D01*
X135222716Y-85948317D02*
X135222716Y-86000217D01*
X135222716Y-85648317D02*
X135222716Y-85948317D01*
X127863716Y-85148317D02*
X134722716Y-85148317D01*
X135222716Y-85948317D02*
X135222716Y-87329317D01*
X134722716Y-85148317D02*
X135222716Y-85648317D01*
%TO.N,Board_9-/VCC33*%
X129714716Y-78848317D02*
X136031216Y-78848317D01*
X136031216Y-78848317D02*
X139231216Y-75648317D01*
X140333716Y-75648317D02*
X139231216Y-75648317D01*
%TO.N,Board_9-Net-(J1-Pin_1)*%
X132685916Y-88579817D02*
X132171616Y-88065517D01*
X137222716Y-88216817D02*
X136859716Y-88579817D01*
X132171616Y-88065517D02*
X132171616Y-87808117D01*
X125241316Y-90321917D02*
X124533716Y-89614317D01*
X137222716Y-87329317D02*
X137222716Y-88216817D01*
X126286216Y-90321917D02*
X125241316Y-90321917D01*
X124533716Y-89614317D02*
X124533716Y-86957417D01*
X131697116Y-87333617D02*
X127739216Y-87333617D01*
X127739216Y-87333617D02*
X127318616Y-87754217D01*
X136859716Y-88579817D02*
X132685916Y-88579817D01*
X127318616Y-87754217D02*
X127318616Y-89289517D01*
X127318616Y-89289517D02*
X126286216Y-90321917D01*
X132171616Y-87808117D02*
X131697116Y-87333617D01*
%TO.N,Board_9-Net-(J1-Pin_2)*%
X131843116Y-86981117D02*
X127593216Y-86981117D01*
X132524116Y-87911417D02*
X132524116Y-87662117D01*
X136222716Y-87329317D02*
X136222716Y-88216817D01*
X126864616Y-88208217D02*
X126864516Y-88208317D01*
X126864516Y-88208317D02*
X126864516Y-88544617D01*
X125803716Y-89157117D02*
X126864516Y-88544617D01*
X132524116Y-87662117D02*
X131843116Y-86981117D01*
X136222716Y-88216817D02*
X132829516Y-88216817D01*
X127593216Y-86981117D02*
X126864616Y-87709717D01*
X126864616Y-87709717D02*
X126864616Y-88208217D01*
X132829516Y-88216817D02*
X132524116Y-87911417D01*
%TO.N,Board_9-P04*%
X128827216Y-83571817D02*
X127403716Y-82148317D01*
X128597816Y-88159217D02*
X128271216Y-88485817D01*
X129291616Y-88159217D02*
X128597816Y-88159217D01*
X128827216Y-83848317D02*
X128827216Y-83571817D01*
X129714716Y-83848317D02*
X128827216Y-83848317D01*
%TO.N,Board_10-/GND*%
X157347588Y-94270817D02*
X156020888Y-92944117D01*
X156020888Y-92944017D02*
X156020888Y-90277517D01*
X154960088Y-93556517D02*
X156020888Y-92944017D01*
X157347588Y-94848317D02*
X157347588Y-94270817D01*
X157650088Y-76148317D02*
X157650088Y-77250817D01*
X165191088Y-87394717D02*
X157644688Y-79848317D01*
X158450088Y-92058317D02*
X158040088Y-91648317D01*
X165696388Y-87900017D02*
X169739088Y-87900017D01*
X158450088Y-94848317D02*
X157347588Y-94848317D01*
X156020888Y-92944117D02*
X156020888Y-92944017D01*
X155443588Y-79848317D02*
X155443588Y-78492617D01*
X156331088Y-79848317D02*
X155443588Y-79848317D01*
X163600988Y-88984817D02*
X158311588Y-88984817D01*
X165191088Y-87394717D02*
X165696388Y-87900017D01*
X156020888Y-90277517D02*
X157812588Y-88485817D01*
X169739088Y-87456317D02*
X169739088Y-87900017D01*
X155443588Y-78492617D02*
X156685388Y-77250817D01*
X157644688Y-79848317D02*
X156331088Y-79848317D01*
X158311588Y-88984817D02*
X157812588Y-88485817D01*
X170889088Y-88343817D02*
X169739088Y-88343817D01*
X165191088Y-87394717D02*
X163600988Y-88984817D01*
X169739088Y-87900017D02*
X169739088Y-88343817D01*
X170889088Y-87456317D02*
X170889088Y-88343817D01*
X156685388Y-77250817D02*
X157650088Y-77250817D01*
X158450088Y-94848317D02*
X158450088Y-92058317D01*
%TO.N,Board_10-/P010*%
X160839088Y-87329317D02*
X160839088Y-85959317D01*
X160839088Y-85959317D02*
X160850088Y-85948317D01*
%TO.N,Board_10-/P013*%
X161839088Y-85948317D02*
X161839088Y-87329317D01*
X161339088Y-85148317D02*
X161839088Y-85648317D01*
X151480088Y-82148317D02*
X154480088Y-85148317D01*
X161839088Y-85948317D02*
X161839088Y-86000217D01*
X161839088Y-85648317D02*
X161839088Y-85948317D01*
X154480088Y-85148317D02*
X161339088Y-85148317D01*
%TO.N,Board_10-/VCC33*%
X162647588Y-78848317D02*
X165847588Y-75648317D01*
X156331088Y-78848317D02*
X162647588Y-78848317D01*
X166950088Y-75648317D02*
X165847588Y-75648317D01*
%TO.N,Board_10-Net-(J1-Pin_1)*%
X158313488Y-87333617D02*
X154355588Y-87333617D01*
X151150088Y-89614317D02*
X151150088Y-86957417D01*
X163839088Y-88216817D02*
X163476088Y-88579817D01*
X159302288Y-88579817D02*
X158787988Y-88065517D01*
X152902588Y-90321917D02*
X151857688Y-90321917D01*
X158787988Y-87808117D02*
X158313488Y-87333617D01*
X153934988Y-87754217D02*
X153934988Y-89289517D01*
X163476088Y-88579817D02*
X159302288Y-88579817D01*
X151857688Y-90321917D02*
X151150088Y-89614317D01*
X153934988Y-89289517D02*
X152902588Y-90321917D01*
X163839088Y-87329317D02*
X163839088Y-88216817D01*
X158787988Y-88065517D02*
X158787988Y-87808117D01*
X154355588Y-87333617D02*
X153934988Y-87754217D01*
%TO.N,Board_10-Net-(J1-Pin_2)*%
X159140488Y-87662117D02*
X158459488Y-86981117D01*
X152420088Y-89157117D02*
X153480888Y-88544617D01*
X162839088Y-87329317D02*
X162839088Y-88216817D01*
X153480888Y-88208317D02*
X153480888Y-88544617D01*
X159140488Y-87911417D02*
X159140488Y-87662117D01*
X159445888Y-88216817D02*
X159140488Y-87911417D01*
X154209588Y-86981117D02*
X153480988Y-87709717D01*
X158459488Y-86981117D02*
X154209588Y-86981117D01*
X162839088Y-88216817D02*
X159445888Y-88216817D01*
X153480988Y-88208217D02*
X153480888Y-88208317D01*
X153480988Y-87709717D02*
X153480988Y-88208217D01*
%TO.N,Board_10-P04*%
X155443588Y-83848317D02*
X155443588Y-83571817D01*
X155443588Y-83571817D02*
X154020088Y-82148317D01*
X155214188Y-88159217D02*
X154887588Y-88485817D01*
X155907988Y-88159217D02*
X155214188Y-88159217D01*
X156331088Y-83848317D02*
X155443588Y-83848317D01*
%TO.N,Board_11-/GND*%
X182637260Y-90277517D02*
X184428960Y-88485817D01*
X191807460Y-87394717D02*
X184261060Y-79848317D01*
X197505460Y-87456317D02*
X197505460Y-88343817D01*
X190217360Y-88984817D02*
X184927960Y-88984817D01*
X183963960Y-94848317D02*
X183963960Y-94270817D01*
X182059960Y-79848317D02*
X182059960Y-78492617D01*
X191807460Y-87394717D02*
X192312760Y-87900017D01*
X197505460Y-88343817D02*
X196355460Y-88343817D01*
X192312760Y-87900017D02*
X196355460Y-87900017D01*
X182637260Y-92944017D02*
X182637260Y-90277517D01*
X185066460Y-94848317D02*
X185066460Y-92058317D01*
X182947460Y-79848317D02*
X182059960Y-79848317D01*
X191807460Y-87394717D02*
X190217360Y-88984817D01*
X184927960Y-88984817D02*
X184428960Y-88485817D01*
X183301760Y-77250817D02*
X184266460Y-77250817D01*
X181576460Y-93556517D02*
X182637260Y-92944017D01*
X184266460Y-76148317D02*
X184266460Y-77250817D01*
X196355460Y-87900017D02*
X196355460Y-88343817D01*
X182637260Y-92944117D02*
X182637260Y-92944017D01*
X183963960Y-94270817D02*
X182637260Y-92944117D01*
X182059960Y-78492617D02*
X183301760Y-77250817D01*
X185066460Y-92058317D02*
X184656460Y-91648317D01*
X196355460Y-87456317D02*
X196355460Y-87900017D01*
X185066460Y-94848317D02*
X183963960Y-94848317D01*
X184261060Y-79848317D02*
X182947460Y-79848317D01*
%TO.N,Board_11-/P010*%
X187455460Y-85959317D02*
X187466460Y-85948317D01*
X187455460Y-87329317D02*
X187455460Y-85959317D01*
%TO.N,Board_11-/P013*%
X188455460Y-85948317D02*
X188455460Y-87329317D01*
X188455460Y-85648317D02*
X188455460Y-85948317D01*
X188455460Y-85948317D02*
X188455460Y-86000217D01*
X187955460Y-85148317D02*
X188455460Y-85648317D01*
X181096460Y-85148317D02*
X187955460Y-85148317D01*
X178096460Y-82148317D02*
X181096460Y-85148317D01*
%TO.N,Board_11-/VCC33*%
X182947460Y-78848317D02*
X189263960Y-78848317D01*
X193566460Y-75648317D02*
X192463960Y-75648317D01*
X189263960Y-78848317D02*
X192463960Y-75648317D01*
%TO.N,Board_11-Net-(J1-Pin_1)*%
X180971960Y-87333617D02*
X180551360Y-87754217D01*
X177766460Y-89614317D02*
X177766460Y-86957417D01*
X179518960Y-90321917D02*
X178474060Y-90321917D01*
X180551360Y-87754217D02*
X180551360Y-89289517D01*
X190455460Y-87329317D02*
X190455460Y-88216817D01*
X185918660Y-88579817D02*
X185404360Y-88065517D01*
X185404360Y-87808117D02*
X184929860Y-87333617D01*
X178474060Y-90321917D02*
X177766460Y-89614317D01*
X190455460Y-88216817D02*
X190092460Y-88579817D01*
X184929860Y-87333617D02*
X180971960Y-87333617D01*
X180551360Y-89289517D02*
X179518960Y-90321917D01*
X190092460Y-88579817D02*
X185918660Y-88579817D01*
X185404360Y-88065517D02*
X185404360Y-87808117D01*
%TO.N,Board_11-Net-(J1-Pin_2)*%
X189455460Y-88216817D02*
X186062260Y-88216817D01*
X180825960Y-86981117D02*
X180097360Y-87709717D01*
X180097360Y-88208217D02*
X180097260Y-88208317D01*
X185756860Y-87662117D02*
X185075860Y-86981117D01*
X189455460Y-87329317D02*
X189455460Y-88216817D01*
X185756860Y-87911417D02*
X185756860Y-87662117D01*
X180097260Y-88208317D02*
X180097260Y-88544617D01*
X185075860Y-86981117D02*
X180825960Y-86981117D01*
X186062260Y-88216817D02*
X185756860Y-87911417D01*
X180097360Y-87709717D02*
X180097360Y-88208217D01*
X179036460Y-89157117D02*
X180097260Y-88544617D01*
%TO.N,Board_11-P04*%
X182059960Y-83848317D02*
X182059960Y-83571817D01*
X182947460Y-83848317D02*
X182059960Y-83848317D01*
X181830560Y-88159217D02*
X181503960Y-88485817D01*
X182524360Y-88159217D02*
X181830560Y-88159217D01*
X182059960Y-83571817D02*
X180636460Y-82148317D01*
%TO.N,Board_12-/GND*%
X105078844Y-115485457D02*
X104579844Y-114986457D01*
X102788144Y-119444657D02*
X102788144Y-116778157D01*
X102210844Y-104993257D02*
X103452644Y-103751457D01*
X103098344Y-106348957D02*
X102210844Y-106348957D01*
X102788144Y-119444757D02*
X102788144Y-119444657D01*
X117656344Y-114844457D02*
X116506344Y-114844457D01*
X111958344Y-113895357D02*
X110368244Y-115485457D01*
X102210844Y-106348957D02*
X102210844Y-104993257D01*
X111958344Y-113895357D02*
X112463644Y-114400657D01*
X112463644Y-114400657D02*
X116506344Y-114400657D01*
X105217344Y-118558957D02*
X104807344Y-118148957D01*
X103452644Y-103751457D02*
X104417344Y-103751457D01*
X111958344Y-113895357D02*
X104411944Y-106348957D01*
X101727344Y-120057157D02*
X102788144Y-119444657D01*
X104114844Y-121348957D02*
X104114844Y-120771457D01*
X102788144Y-116778157D02*
X104579844Y-114986457D01*
X116506344Y-114400657D02*
X116506344Y-114844457D01*
X105217344Y-121348957D02*
X105217344Y-118558957D01*
X105217344Y-121348957D02*
X104114844Y-121348957D01*
X110368244Y-115485457D02*
X105078844Y-115485457D01*
X104114844Y-120771457D02*
X102788144Y-119444757D01*
X116506344Y-113956957D02*
X116506344Y-114400657D01*
X104411944Y-106348957D02*
X103098344Y-106348957D01*
X117656344Y-113956957D02*
X117656344Y-114844457D01*
X104417344Y-102648957D02*
X104417344Y-103751457D01*
%TO.N,Board_12-/P010*%
X107606344Y-112459957D02*
X107617344Y-112448957D01*
X107606344Y-113829957D02*
X107606344Y-112459957D01*
%TO.N,Board_12-/P013*%
X101247344Y-111648957D02*
X108106344Y-111648957D01*
X98247344Y-108648957D02*
X101247344Y-111648957D01*
X108606344Y-112448957D02*
X108606344Y-112500857D01*
X108606344Y-112448957D02*
X108606344Y-113829957D01*
X108106344Y-111648957D02*
X108606344Y-112148957D01*
X108606344Y-112148957D02*
X108606344Y-112448957D01*
%TO.N,Board_12-/VCC33*%
X103098344Y-105348957D02*
X109414844Y-105348957D01*
X113717344Y-102148957D02*
X112614844Y-102148957D01*
X109414844Y-105348957D02*
X112614844Y-102148957D01*
%TO.N,Board_12-Net-(J1-Pin_1)*%
X110243344Y-115080457D02*
X106069544Y-115080457D01*
X105555244Y-114566157D02*
X105555244Y-114308757D01*
X101122844Y-113834257D02*
X100702244Y-114254857D01*
X99669844Y-116822557D02*
X98624944Y-116822557D01*
X106069544Y-115080457D02*
X105555244Y-114566157D01*
X98624944Y-116822557D02*
X97917344Y-116114957D01*
X105080744Y-113834257D02*
X101122844Y-113834257D01*
X110606344Y-114717457D02*
X110243344Y-115080457D01*
X105555244Y-114308757D02*
X105080744Y-113834257D01*
X97917344Y-116114957D02*
X97917344Y-113458057D01*
X100702244Y-115790157D02*
X99669844Y-116822557D01*
X100702244Y-114254857D02*
X100702244Y-115790157D01*
X110606344Y-113829957D02*
X110606344Y-114717457D01*
%TO.N,Board_12-Net-(J1-Pin_2)*%
X105907744Y-114412057D02*
X105907744Y-114162757D01*
X100976844Y-113481757D02*
X100248244Y-114210357D01*
X109606344Y-114717457D02*
X106213144Y-114717457D01*
X99187344Y-115657757D02*
X100248144Y-115045257D01*
X100248144Y-114708957D02*
X100248144Y-115045257D01*
X109606344Y-113829957D02*
X109606344Y-114717457D01*
X100248244Y-114210357D02*
X100248244Y-114708857D01*
X106213144Y-114717457D02*
X105907744Y-114412057D01*
X105226744Y-113481757D02*
X100976844Y-113481757D01*
X100248244Y-114708857D02*
X100248144Y-114708957D01*
X105907744Y-114162757D02*
X105226744Y-113481757D01*
%TO.N,Board_12-P04*%
X102675244Y-114659857D02*
X101981444Y-114659857D01*
X102210844Y-110348957D02*
X102210844Y-110072457D01*
X101981444Y-114659857D02*
X101654844Y-114986457D01*
X102210844Y-110072457D02*
X100787344Y-108648957D01*
X103098344Y-110348957D02*
X102210844Y-110348957D01*
%TO.N,Board_13-/GND*%
X131833716Y-121348957D02*
X131833716Y-118558957D01*
X128343716Y-120057157D02*
X129404516Y-119444657D01*
X131028316Y-106348957D02*
X129714716Y-106348957D01*
X131033716Y-102648957D02*
X131033716Y-103751457D01*
X138574716Y-113895357D02*
X131028316Y-106348957D01*
X129404516Y-116778157D02*
X131196216Y-114986457D01*
X144272716Y-113956957D02*
X144272716Y-114844457D01*
X138574716Y-113895357D02*
X136984616Y-115485457D01*
X129404516Y-119444757D02*
X129404516Y-119444657D01*
X143122716Y-113956957D02*
X143122716Y-114400657D01*
X129714716Y-106348957D02*
X128827216Y-106348957D01*
X131833716Y-118558957D02*
X131423716Y-118148957D01*
X128827216Y-106348957D02*
X128827216Y-104993257D01*
X130731216Y-121348957D02*
X130731216Y-120771457D01*
X131695216Y-115485457D02*
X131196216Y-114986457D01*
X144272716Y-114844457D02*
X143122716Y-114844457D01*
X136984616Y-115485457D02*
X131695216Y-115485457D01*
X130731216Y-120771457D02*
X129404516Y-119444757D01*
X128827216Y-104993257D02*
X130069016Y-103751457D01*
X139080016Y-114400657D02*
X143122716Y-114400657D01*
X130069016Y-103751457D02*
X131033716Y-103751457D01*
X138574716Y-113895357D02*
X139080016Y-114400657D01*
X129404516Y-119444657D02*
X129404516Y-116778157D01*
X143122716Y-114400657D02*
X143122716Y-114844457D01*
X131833716Y-121348957D02*
X130731216Y-121348957D01*
%TO.N,Board_13-/P010*%
X134222716Y-113829957D02*
X134222716Y-112459957D01*
X134222716Y-112459957D02*
X134233716Y-112448957D01*
%TO.N,Board_13-/P013*%
X134722716Y-111648957D02*
X135222716Y-112148957D01*
X124863716Y-108648957D02*
X127863716Y-111648957D01*
X135222716Y-112148957D02*
X135222716Y-112448957D01*
X135222716Y-112448957D02*
X135222716Y-112500857D01*
X127863716Y-111648957D02*
X134722716Y-111648957D01*
X135222716Y-112448957D02*
X135222716Y-113829957D01*
%TO.N,Board_13-/VCC33*%
X140333716Y-102148957D02*
X139231216Y-102148957D01*
X129714716Y-105348957D02*
X136031216Y-105348957D01*
X136031216Y-105348957D02*
X139231216Y-102148957D01*
%TO.N,Board_13-Net-(J1-Pin_1)*%
X132171616Y-114308757D02*
X131697116Y-113834257D01*
X127318616Y-114254857D02*
X127318616Y-115790157D01*
X136859716Y-115080457D02*
X132685916Y-115080457D01*
X131697116Y-113834257D02*
X127739216Y-113834257D01*
X125241316Y-116822557D02*
X124533716Y-116114957D01*
X124533716Y-116114957D02*
X124533716Y-113458057D01*
X132171616Y-114566157D02*
X132171616Y-114308757D01*
X127318616Y-115790157D02*
X126286216Y-116822557D01*
X126286216Y-116822557D02*
X125241316Y-116822557D01*
X132685916Y-115080457D02*
X132171616Y-114566157D01*
X137222716Y-113829957D02*
X137222716Y-114717457D01*
X127739216Y-113834257D02*
X127318616Y-114254857D01*
X137222716Y-114717457D02*
X136859716Y-115080457D01*
%TO.N,Board_13-Net-(J1-Pin_2)*%
X126864616Y-114708857D02*
X126864516Y-114708957D01*
X132524116Y-114162757D02*
X131843116Y-113481757D01*
X126864516Y-114708957D02*
X126864516Y-115045257D01*
X127593216Y-113481757D02*
X126864616Y-114210357D01*
X136222716Y-113829957D02*
X136222716Y-114717457D01*
X136222716Y-114717457D02*
X132829516Y-114717457D01*
X132829516Y-114717457D02*
X132524116Y-114412057D01*
X125803716Y-115657757D02*
X126864516Y-115045257D01*
X132524116Y-114412057D02*
X132524116Y-114162757D01*
X131843116Y-113481757D02*
X127593216Y-113481757D01*
X126864616Y-114210357D02*
X126864616Y-114708857D01*
%TO.N,Board_13-P04*%
X128827216Y-110072457D02*
X127403716Y-108648957D01*
X128827216Y-110348957D02*
X128827216Y-110072457D01*
X128597816Y-114659857D02*
X128271216Y-114986457D01*
X129714716Y-110348957D02*
X128827216Y-110348957D01*
X129291616Y-114659857D02*
X128597816Y-114659857D01*
%TO.N,Board_14-/GND*%
X157347588Y-121348957D02*
X157347588Y-120771457D01*
X170889088Y-113956957D02*
X170889088Y-114844457D01*
X165191088Y-113895357D02*
X157644688Y-106348957D01*
X158450088Y-118558957D02*
X158040088Y-118148957D01*
X158311588Y-115485457D02*
X157812588Y-114986457D01*
X165191088Y-113895357D02*
X163600988Y-115485457D01*
X157347588Y-120771457D02*
X156020888Y-119444757D01*
X165191088Y-113895357D02*
X165696388Y-114400657D01*
X169739088Y-113956957D02*
X169739088Y-114400657D01*
X155443588Y-106348957D02*
X155443588Y-104993257D01*
X154960088Y-120057157D02*
X156020888Y-119444657D01*
X156020888Y-116778157D02*
X157812588Y-114986457D01*
X165696388Y-114400657D02*
X169739088Y-114400657D01*
X169739088Y-114400657D02*
X169739088Y-114844457D01*
X156020888Y-119444757D02*
X156020888Y-119444657D01*
X158450088Y-121348957D02*
X157347588Y-121348957D01*
X170889088Y-114844457D02*
X169739088Y-114844457D01*
X157644688Y-106348957D02*
X156331088Y-106348957D01*
X158450088Y-121348957D02*
X158450088Y-118558957D01*
X157650088Y-102648957D02*
X157650088Y-103751457D01*
X156020888Y-119444657D02*
X156020888Y-116778157D01*
X156331088Y-106348957D02*
X155443588Y-106348957D01*
X163600988Y-115485457D02*
X158311588Y-115485457D01*
X155443588Y-104993257D02*
X156685388Y-103751457D01*
X156685388Y-103751457D02*
X157650088Y-103751457D01*
%TO.N,Board_14-/P010*%
X160839088Y-113829957D02*
X160839088Y-112459957D01*
X160839088Y-112459957D02*
X160850088Y-112448957D01*
%TO.N,Board_14-/P013*%
X161339088Y-111648957D02*
X161839088Y-112148957D01*
X161839088Y-112448957D02*
X161839088Y-113829957D01*
X151480088Y-108648957D02*
X154480088Y-111648957D01*
X154480088Y-111648957D02*
X161339088Y-111648957D01*
X161839088Y-112148957D02*
X161839088Y-112448957D01*
X161839088Y-112448957D02*
X161839088Y-112500857D01*
%TO.N,Board_14-/VCC33*%
X166950088Y-102148957D02*
X165847588Y-102148957D01*
X156331088Y-105348957D02*
X162647588Y-105348957D01*
X162647588Y-105348957D02*
X165847588Y-102148957D01*
%TO.N,Board_14-Net-(J1-Pin_1)*%
X159302288Y-115080457D02*
X158787988Y-114566157D01*
X151857688Y-116822557D02*
X151150088Y-116114957D01*
X151150088Y-116114957D02*
X151150088Y-113458057D01*
X158313488Y-113834257D02*
X154355588Y-113834257D01*
X152902588Y-116822557D02*
X151857688Y-116822557D01*
X158787988Y-114308757D02*
X158313488Y-113834257D01*
X153934988Y-115790157D02*
X152902588Y-116822557D01*
X163839088Y-114717457D02*
X163476088Y-115080457D01*
X153934988Y-114254857D02*
X153934988Y-115790157D01*
X163839088Y-113829957D02*
X163839088Y-114717457D01*
X163476088Y-115080457D02*
X159302288Y-115080457D01*
X154355588Y-113834257D02*
X153934988Y-114254857D01*
X158787988Y-114566157D02*
X158787988Y-114308757D01*
%TO.N,Board_14-Net-(J1-Pin_2)*%
X152420088Y-115657757D02*
X153480888Y-115045257D01*
X154209588Y-113481757D02*
X153480988Y-114210357D01*
X153480888Y-114708957D02*
X153480888Y-115045257D01*
X162839088Y-113829957D02*
X162839088Y-114717457D01*
X159140488Y-114162757D02*
X158459488Y-113481757D01*
X153480988Y-114708857D02*
X153480888Y-114708957D01*
X158459488Y-113481757D02*
X154209588Y-113481757D01*
X153480988Y-114210357D02*
X153480988Y-114708857D01*
X159445888Y-114717457D02*
X159140488Y-114412057D01*
X162839088Y-114717457D02*
X159445888Y-114717457D01*
X159140488Y-114412057D02*
X159140488Y-114162757D01*
%TO.N,Board_14-P04*%
X155214188Y-114659857D02*
X154887588Y-114986457D01*
X155443588Y-110072457D02*
X154020088Y-108648957D01*
X155443588Y-110348957D02*
X155443588Y-110072457D01*
X156331088Y-110348957D02*
X155443588Y-110348957D01*
X155907988Y-114659857D02*
X155214188Y-114659857D01*
%TO.N,Board_15-/GND*%
X182059960Y-106348957D02*
X182059960Y-104993257D01*
X196355460Y-114400657D02*
X196355460Y-114844457D01*
X192312760Y-114400657D02*
X196355460Y-114400657D01*
X183963960Y-121348957D02*
X183963960Y-120771457D01*
X191807460Y-113895357D02*
X190217360Y-115485457D01*
X184927960Y-115485457D02*
X184428960Y-114986457D01*
X184261060Y-106348957D02*
X182947460Y-106348957D01*
X196355460Y-113956957D02*
X196355460Y-114400657D01*
X185066460Y-121348957D02*
X185066460Y-118558957D01*
X197505460Y-113956957D02*
X197505460Y-114844457D01*
X185066460Y-121348957D02*
X183963960Y-121348957D01*
X182637260Y-119444657D02*
X182637260Y-116778157D01*
X185066460Y-118558957D02*
X184656460Y-118148957D01*
X181576460Y-120057157D02*
X182637260Y-119444657D01*
X191807460Y-113895357D02*
X184261060Y-106348957D01*
X190217360Y-115485457D02*
X184927960Y-115485457D01*
X182637260Y-119444757D02*
X182637260Y-119444657D01*
X183963960Y-120771457D02*
X182637260Y-119444757D01*
X182637260Y-116778157D02*
X184428960Y-114986457D01*
X191807460Y-113895357D02*
X192312760Y-114400657D01*
X182059960Y-104993257D02*
X183301760Y-103751457D01*
X182947460Y-106348957D02*
X182059960Y-106348957D01*
X197505460Y-114844457D02*
X196355460Y-114844457D01*
X183301760Y-103751457D02*
X184266460Y-103751457D01*
X184266460Y-102648957D02*
X184266460Y-103751457D01*
%TO.N,Board_15-/P010*%
X187455460Y-112459957D02*
X187466460Y-112448957D01*
X187455460Y-113829957D02*
X187455460Y-112459957D01*
%TO.N,Board_15-/P013*%
X188455460Y-112448957D02*
X188455460Y-113829957D01*
X188455460Y-112148957D02*
X188455460Y-112448957D01*
X187955460Y-111648957D02*
X188455460Y-112148957D01*
X181096460Y-111648957D02*
X187955460Y-111648957D01*
X178096460Y-108648957D02*
X181096460Y-111648957D01*
X188455460Y-112448957D02*
X188455460Y-112500857D01*
%TO.N,Board_15-/VCC33*%
X182947460Y-105348957D02*
X189263960Y-105348957D01*
X193566460Y-102148957D02*
X192463960Y-102148957D01*
X189263960Y-105348957D02*
X192463960Y-102148957D01*
%TO.N,Board_15-Net-(J1-Pin_1)*%
X184929860Y-113834257D02*
X180971960Y-113834257D01*
X185404360Y-114308757D02*
X184929860Y-113834257D01*
X185404360Y-114566157D02*
X185404360Y-114308757D01*
X180971960Y-113834257D02*
X180551360Y-114254857D01*
X190455460Y-113829957D02*
X190455460Y-114717457D01*
X177766460Y-116114957D02*
X177766460Y-113458057D01*
X180551360Y-114254857D02*
X180551360Y-115790157D01*
X180551360Y-115790157D02*
X179518960Y-116822557D01*
X190092460Y-115080457D02*
X185918660Y-115080457D01*
X179518960Y-116822557D02*
X178474060Y-116822557D01*
X178474060Y-116822557D02*
X177766460Y-116114957D01*
X190455460Y-114717457D02*
X190092460Y-115080457D01*
X185918660Y-115080457D02*
X185404360Y-114566157D01*
%TO.N,Board_15-Net-(J1-Pin_2)*%
X185756860Y-114412057D02*
X185756860Y-114162757D01*
X180097360Y-114708857D02*
X180097260Y-114708957D01*
X185756860Y-114162757D02*
X185075860Y-113481757D01*
X186062260Y-114717457D02*
X185756860Y-114412057D01*
X185075860Y-113481757D02*
X180825960Y-113481757D01*
X179036460Y-115657757D02*
X180097260Y-115045257D01*
X189455460Y-113829957D02*
X189455460Y-114717457D01*
X180097360Y-114210357D02*
X180097360Y-114708857D01*
X180097260Y-114708957D02*
X180097260Y-115045257D01*
X189455460Y-114717457D02*
X186062260Y-114717457D01*
X180825960Y-113481757D02*
X180097360Y-114210357D01*
%TO.N,Board_15-P04*%
X182059960Y-110072457D02*
X180636460Y-108648957D01*
X182947460Y-110348957D02*
X182059960Y-110348957D01*
X182524360Y-114659857D02*
X181830560Y-114659857D01*
X181830560Y-114659857D02*
X181503960Y-114986457D01*
X182059960Y-110348957D02*
X182059960Y-110072457D01*
%TD*%
M02*
