M48
; DRILL file {KiCad 7.0.2-0} date 2023 November 26, Sunday 21:32:08
; FORMAT={-:-/ absolute / inch / decimal}
; #@! TF.CreationDate,2023-11-26T21:32:08-06:00
; #@! TF.GenerationSoftware,Kicad,Pcbnew,7.0.2-0
; #@! TF.FileFunction,NonPlated,1,2,NPTH
FMAT,2
INCH
; #@! TA.AperFunction,NonPlated,NPTH,ComponentDrill
T1C0.0197
%
G90
G05
T1
X4.0984Y-1.7433
X4.0984Y-2.8653
X4.0984Y-3.9874
X4.0985Y-1.9197
X4.0985Y-3.0418
X4.0985Y-4.1639
X4.157Y-1.7441
X4.157Y-2.8662
X4.157Y-3.9883
X4.157Y-1.9174
X4.157Y-3.0394
X4.157Y-4.1615
X4.2156Y-1.7441
X4.2156Y-2.8662
X4.2156Y-3.9883
X4.2156Y-1.9173
X4.2156Y-3.0394
X4.2156Y-4.1615
X4.6265Y-1.1921
X4.6265Y-2.3142
X4.6265Y-3.4363
X4.6265Y-4.5583
X4.6273Y-1.3473
X4.6273Y-2.4693
X4.6273Y-3.5914
X4.6273Y-4.7135
X4.6323Y-1.2437
X4.6323Y-2.3658
X4.6323Y-3.4879
X4.6323Y-4.6099
X4.6325Y-1.2956
X4.6325Y-2.4177
X4.6325Y-3.5398
X4.6325Y-4.6618
X4.8065Y-1.2442
X4.8065Y-1.2963
X4.8065Y-1.3484
X4.8065Y-2.3663
X4.8065Y-2.4184
X4.8065Y-2.4705
X4.8065Y-3.4884
X4.8065Y-3.5405
X4.8065Y-3.5926
X4.8065Y-4.6104
X4.8065Y-4.6625
X4.8065Y-4.7147
X4.8105Y-1.1924
X4.8105Y-2.3145
X4.8105Y-3.4365
X4.8105Y-4.5586
X5.225Y-1.7433
X5.225Y-2.8653
X5.225Y-3.9874
X5.2252Y-1.9197
X5.2252Y-3.0418
X5.2252Y-4.1639
X5.2836Y-1.7441
X5.2836Y-2.8662
X5.2836Y-3.9883
X5.2836Y-1.9174
X5.2836Y-3.0394
X5.2836Y-4.1615
X5.3422Y-1.7441
X5.3422Y-2.8662
X5.3422Y-3.9883
X5.3422Y-1.9173
X5.3422Y-3.0394
X5.3422Y-4.1615
X5.7532Y-1.1921
X5.7532Y-2.3142
X5.7532Y-3.4363
X5.7532Y-4.5583
X5.7539Y-1.3473
X5.7539Y-2.4693
X5.7539Y-3.5914
X5.7539Y-4.7135
X5.7589Y-1.2437
X5.7589Y-2.3658
X5.7589Y-3.4879
X5.7589Y-4.6099
X5.7592Y-1.2956
X5.7592Y-2.4177
X5.7592Y-3.5398
X5.7592Y-4.6618
X5.9331Y-1.2442
X5.9331Y-1.2963
X5.9331Y-1.3484
X5.9331Y-2.3663
X5.9331Y-2.4184
X5.9331Y-2.4705
X5.9331Y-3.4884
X5.9331Y-3.5405
X5.9331Y-3.5926
X5.9331Y-4.6104
X5.9331Y-4.6625
X5.9331Y-4.7147
X5.9371Y-1.1924
X5.9371Y-2.3145
X5.9371Y-3.4365
X5.9371Y-4.5586
X6.3517Y-1.7433
X6.3517Y-2.8653
X6.3517Y-3.9874
X6.3518Y-1.9197
X6.3518Y-3.0418
X6.3518Y-4.1639
X6.4102Y-1.7441
X6.4102Y-2.8662
X6.4102Y-3.9883
X6.4103Y-1.9174
X6.4103Y-3.0394
X6.4103Y-4.1615
X6.4688Y-1.7441
X6.4688Y-2.8662
X6.4688Y-3.9883
X6.4688Y-1.9173
X6.4688Y-3.0394
X6.4688Y-4.1615
X6.8798Y-1.1921
X6.8798Y-2.3142
X6.8798Y-3.4363
X6.8798Y-4.5583
X6.8805Y-1.3473
X6.8805Y-2.4693
X6.8805Y-3.5914
X6.8805Y-4.7135
X6.8856Y-1.2437
X6.8856Y-2.3658
X6.8856Y-3.4879
X6.8856Y-4.6099
X6.8858Y-1.2956
X6.8858Y-2.4177
X6.8858Y-3.5398
X6.8858Y-4.6618
X7.0597Y-1.2442
X7.0597Y-1.2963
X7.0597Y-1.3484
X7.0597Y-2.3663
X7.0597Y-2.4184
X7.0597Y-2.4705
X7.0597Y-3.4884
X7.0597Y-3.5405
X7.0597Y-3.5926
X7.0597Y-4.6104
X7.0597Y-4.6625
X7.0597Y-4.7147
X7.0637Y-1.1924
X7.0637Y-2.3145
X7.0637Y-3.4365
X7.0637Y-4.5586
X7.4783Y-1.7433
X7.4783Y-2.8653
X7.4783Y-3.9874
X7.4784Y-1.9197
X7.4784Y-3.0418
X7.4784Y-4.1639
X7.5368Y-1.7441
X7.5368Y-2.8662
X7.5368Y-3.9883
X7.5369Y-1.9174
X7.5369Y-3.0394
X7.5369Y-4.1615
X7.5955Y-1.7441
X7.5955Y-2.8662
X7.5955Y-3.9883
X7.5955Y-1.9173
X7.5955Y-3.0394
X7.5955Y-4.1615
T0
M30
