<?xml version="1.0" encoding="utf-8"?>
<!DOCTYPE eagle SYSTEM "eagle.dtd">
<eagle version="9.3.2">
<drawing>
<settings>
<setting alwaysvectorfont="no"/>
<setting verticaltext="up"/>
</settings>
<grid distance="0.1" unitdist="inch" unit="inch" style="lines" multiple="1" display="no" altdistance="0.01" altunitdist="inch" altunit="inch"/>
<layers>
<layer number="1" name="Top" color="4" fill="1" visible="no" active="no"/>
<layer number="2" name="Route2" color="1" fill="3" visible="no" active="no"/>
<layer number="3" name="Route3" color="4" fill="3" visible="no" active="no"/>
<layer number="4" name="Route4" color="1" fill="4" visible="no" active="no"/>
<layer number="5" name="Route5" color="4" fill="4" visible="no" active="no"/>
<layer number="6" name="Route6" color="1" fill="8" visible="no" active="no"/>
<layer number="7" name="Route7" color="4" fill="8" visible="no" active="no"/>
<layer number="8" name="Route8" color="1" fill="2" visible="no" active="no"/>
<layer number="9" name="Route9" color="4" fill="2" visible="no" active="no"/>
<layer number="10" name="Route10" color="1" fill="7" visible="no" active="no"/>
<layer number="11" name="Route11" color="4" fill="7" visible="no" active="no"/>
<layer number="12" name="Route12" color="1" fill="5" visible="no" active="no"/>
<layer number="13" name="Route13" color="4" fill="5" visible="no" active="no"/>
<layer number="14" name="Route14" color="1" fill="6" visible="no" active="no"/>
<layer number="15" name="Route15" color="4" fill="6" visible="no" active="no"/>
<layer number="16" name="Bottom" color="1" fill="1" visible="no" active="no"/>
<layer number="17" name="Pads" color="2" fill="1" visible="no" active="no"/>
<layer number="18" name="Vias" color="2" fill="1" visible="no" active="no"/>
<layer number="19" name="Unrouted" color="6" fill="1" visible="no" active="no"/>
<layer number="20" name="Dimension" color="15" fill="1" visible="no" active="no"/>
<layer number="21" name="tPlace" color="7" fill="1" visible="no" active="no"/>
<layer number="22" name="bPlace" color="7" fill="1" visible="no" active="no"/>
<layer number="23" name="tOrigins" color="15" fill="1" visible="no" active="no"/>
<layer number="24" name="bOrigins" color="15" fill="1" visible="no" active="no"/>
<layer number="25" name="tNames" color="7" fill="1" visible="no" active="no"/>
<layer number="26" name="bNames" color="7" fill="1" visible="no" active="no"/>
<layer number="27" name="tValues" color="7" fill="1" visible="no" active="no"/>
<layer number="28" name="bValues" color="7" fill="1" visible="no" active="no"/>
<layer number="29" name="tStop" color="7" fill="3" visible="no" active="no"/>
<layer number="30" name="bStop" color="7" fill="6" visible="no" active="no"/>
<layer number="31" name="tCream" color="7" fill="4" visible="no" active="no"/>
<layer number="32" name="bCream" color="7" fill="5" visible="no" active="no"/>
<layer number="33" name="tFinish" color="6" fill="3" visible="no" active="no"/>
<layer number="34" name="bFinish" color="6" fill="6" visible="no" active="no"/>
<layer number="35" name="tGlue" color="7" fill="4" visible="no" active="no"/>
<layer number="36" name="bGlue" color="7" fill="5" visible="no" active="no"/>
<layer number="37" name="tTest" color="7" fill="1" visible="no" active="no"/>
<layer number="38" name="bTest" color="7" fill="1" visible="no" active="no"/>
<layer number="39" name="tKeepout" color="4" fill="11" visible="no" active="no"/>
<layer number="40" name="bKeepout" color="1" fill="11" visible="no" active="no"/>
<layer number="41" name="tRestrict" color="4" fill="10" visible="no" active="no"/>
<layer number="42" name="bRestrict" color="1" fill="10" visible="no" active="no"/>
<layer number="43" name="vRestrict" color="2" fill="10" visible="no" active="no"/>
<layer number="44" name="Drills" color="7" fill="1" visible="no" active="no"/>
<layer number="45" name="Holes" color="7" fill="1" visible="no" active="no"/>
<layer number="46" name="Milling" color="3" fill="1" visible="no" active="no"/>
<layer number="47" name="Measures" color="7" fill="1" visible="no" active="no"/>
<layer number="48" name="Document" color="7" fill="1" visible="no" active="no"/>
<layer number="49" name="Reference" color="7" fill="1" visible="no" active="no"/>
<layer number="50" name="dxf" color="7" fill="1" visible="no" active="no"/>
<layer number="51" name="tDocu" color="7" fill="1" visible="no" active="no"/>
<layer number="52" name="bDocu" color="7" fill="1" visible="no" active="no"/>
<layer number="53" name="tGND_GNDA" color="7" fill="9" visible="no" active="no"/>
<layer number="54" name="bGND_GNDA" color="1" fill="9" visible="no" active="no"/>
<layer number="56" name="wert" color="7" fill="1" visible="no" active="no"/>
<layer number="57" name="tCAD" color="7" fill="1" visible="no" active="no"/>
<layer number="59" name="tCarbon" color="7" fill="1" visible="no" active="no"/>
<layer number="60" name="bCarbon" color="7" fill="1" visible="no" active="no"/>
<layer number="88" name="SimResults" color="9" fill="1" visible="yes" active="yes"/>
<layer number="89" name="SimProbes" color="9" fill="1" visible="yes" active="yes"/>
<layer number="90" name="Modules" color="5" fill="1" visible="yes" active="yes"/>
<layer number="91" name="Nets" color="2" fill="1" visible="yes" active="yes"/>
<layer number="92" name="Busses" color="1" fill="1" visible="yes" active="yes"/>
<layer number="93" name="Pins" color="2" fill="1" visible="no" active="yes"/>
<layer number="94" name="Symbols" color="4" fill="1" visible="yes" active="yes"/>
<layer number="95" name="Names" color="7" fill="1" visible="yes" active="yes"/>
<layer number="96" name="Values" color="7" fill="1" visible="yes" active="yes"/>
<layer number="97" name="Info" color="7" fill="1" visible="yes" active="yes"/>
<layer number="98" name="Guide" color="6" fill="1" visible="yes" active="yes"/>
<layer number="99" name="SpiceOrder" color="7" fill="1" visible="yes" active="yes"/>
<layer number="100" name="Muster" color="7" fill="1" visible="no" active="no"/>
<layer number="101" name="Patch_Top" color="12" fill="4" visible="yes" active="yes"/>
<layer number="102" name="Vscore" color="7" fill="1" visible="yes" active="yes"/>
<layer number="103" name="fp3" color="7" fill="1" visible="no" active="yes"/>
<layer number="104" name="Name" color="7" fill="1" visible="yes" active="yes"/>
<layer number="105" name="Beschreib" color="9" fill="1" visible="yes" active="yes"/>
<layer number="106" name="BGA-Top" color="4" fill="1" visible="yes" active="yes"/>
<layer number="107" name="BD-Top" color="5" fill="1" visible="yes" active="yes"/>
<layer number="108" name="fp8" color="7" fill="1" visible="no" active="yes"/>
<layer number="109" name="fp9" color="7" fill="1" visible="no" active="yes"/>
<layer number="110" name="fp0" color="7" fill="1" visible="no" active="yes"/>
<layer number="111" name="LPC17xx" color="7" fill="1" visible="yes" active="yes"/>
<layer number="112" name="tSilk" color="7" fill="1" visible="yes" active="yes"/>
<layer number="113" name="IDFDebug" color="7" fill="1" visible="yes" active="yes"/>
<layer number="116" name="Patch_BOT" color="9" fill="4" visible="yes" active="yes"/>
<layer number="121" name="_tsilk" color="7" fill="1" visible="yes" active="yes"/>
<layer number="122" name="_bsilk" color="7" fill="1" visible="yes" active="yes"/>
<layer number="123" name="tTestmark" color="7" fill="1" visible="no" active="yes"/>
<layer number="124" name="bTestmark" color="7" fill="1" visible="no" active="yes"/>
<layer number="125" name="_tNames" color="7" fill="1" visible="yes" active="yes"/>
<layer number="126" name="_bNames" color="7" fill="1" visible="yes" active="yes"/>
<layer number="127" name="_tValues" color="7" fill="1" visible="yes" active="yes"/>
<layer number="128" name="_bValues" color="7" fill="1" visible="yes" active="yes"/>
<layer number="129" name="Mask" color="7" fill="1" visible="yes" active="yes"/>
<layer number="131" name="tAdjust" color="7" fill="1" visible="no" active="yes"/>
<layer number="132" name="bAdjust" color="7" fill="1" visible="no" active="yes"/>
<layer number="144" name="Drill_legend" color="7" fill="1" visible="yes" active="yes"/>
<layer number="150" name="Notes" color="7" fill="1" visible="no" active="yes"/>
<layer number="151" name="HeatSink" color="7" fill="1" visible="yes" active="yes"/>
<layer number="152" name="_bDocu" color="7" fill="1" visible="yes" active="yes"/>
<layer number="153" name="FabDoc1" color="6" fill="1" visible="no" active="no"/>
<layer number="154" name="FabDoc2" color="2" fill="1" visible="no" active="no"/>
<layer number="155" name="FabDoc3" color="7" fill="15" visible="no" active="no"/>
<layer number="199" name="Contour" color="7" fill="1" visible="yes" active="yes"/>
<layer number="200" name="200bmp" color="1" fill="10" visible="yes" active="yes"/>
<layer number="201" name="201bmp" color="2" fill="1" visible="no" active="no"/>
<layer number="202" name="202bmp" color="3" fill="1" visible="no" active="no"/>
<layer number="203" name="203bmp" color="4" fill="10" visible="yes" active="yes"/>
<layer number="204" name="204bmp" color="5" fill="10" visible="yes" active="yes"/>
<layer number="205" name="205bmp" color="6" fill="10" visible="yes" active="yes"/>
<layer number="206" name="206bmp" color="7" fill="10" visible="yes" active="yes"/>
<layer number="207" name="207bmp" color="8" fill="10" visible="yes" active="yes"/>
<layer number="208" name="208bmp" color="9" fill="10" visible="yes" active="yes"/>
<layer number="209" name="209bmp" color="7" fill="1" visible="no" active="yes"/>
<layer number="210" name="210bmp" color="7" fill="1" visible="no" active="yes"/>
<layer number="211" name="211bmp" color="7" fill="1" visible="yes" active="yes"/>
<layer number="212" name="212bmp" color="7" fill="1" visible="yes" active="yes"/>
<layer number="213" name="213bmp" color="7" fill="1" visible="yes" active="yes"/>
<layer number="214" name="214bmp" color="7" fill="1" visible="yes" active="yes"/>
<layer number="215" name="215bmp" color="7" fill="1" visible="yes" active="yes"/>
<layer number="216" name="216bmp" color="7" fill="1" visible="yes" active="yes"/>
<layer number="217" name="217bmp" color="18" fill="1" visible="no" active="no"/>
<layer number="218" name="218bmp" color="19" fill="1" visible="no" active="no"/>
<layer number="219" name="219bmp" color="20" fill="1" visible="no" active="no"/>
<layer number="220" name="220bmp" color="21" fill="1" visible="no" active="no"/>
<layer number="221" name="221bmp" color="22" fill="1" visible="no" active="no"/>
<layer number="222" name="222bmp" color="23" fill="1" visible="no" active="no"/>
<layer number="223" name="223bmp" color="24" fill="1" visible="no" active="no"/>
<layer number="224" name="224bmp" color="25" fill="1" visible="no" active="no"/>
<layer number="225" name="225bmp" color="7" fill="1" visible="yes" active="yes"/>
<layer number="226" name="226bmp" color="7" fill="1" visible="yes" active="yes"/>
<layer number="227" name="227bmp" color="7" fill="1" visible="yes" active="yes"/>
<layer number="228" name="228bmp" color="7" fill="1" visible="yes" active="yes"/>
<layer number="229" name="229bmp" color="7" fill="1" visible="yes" active="yes"/>
<layer number="230" name="230bmp" color="7" fill="1" visible="yes" active="yes"/>
<layer number="231" name="231bmp" color="7" fill="1" visible="yes" active="yes"/>
<layer number="248" name="Housing" color="7" fill="1" visible="yes" active="yes"/>
<layer number="249" name="Edge" color="7" fill="1" visible="yes" active="yes"/>
<layer number="250" name="Descript" color="7" fill="1" visible="no" active="no"/>
<layer number="251" name="SMDround" color="7" fill="1" visible="no" active="no"/>
<layer number="254" name="cooling" color="7" fill="1" visible="yes" active="yes"/>
<layer number="255" name="routoute" color="7" fill="1" visible="yes" active="yes"/>
</layers>
<schematic xreflabel="%F%N/%S.%C%R" xrefpart="/%S.%C%R">
<libraries>
<library name="esp8266modules">
<packages>
<package name="ESP12E-SMD">
<description>ESP8266 Module 12E</description>
<wire x1="7.9" y1="14.2" x2="7.9" y2="6.9" width="0.127" layer="21"/>
<wire x1="-8.1" y1="6.9" x2="-8.1" y2="14.2" width="0.127" layer="21"/>
<wire x1="-8.1" y1="14.2" x2="7.9" y2="14.2" width="0.127" layer="21"/>
<wire x1="-4.9" y1="8.6" x2="-4.9" y2="13.5" width="0.6096" layer="21"/>
<wire x1="-4.9" y1="13.5" x2="-4" y2="13.5" width="0.6096" layer="21"/>
<wire x1="-4" y1="13.5" x2="-4" y2="9.8" width="0.6096" layer="21"/>
<wire x1="-4" y1="9.8" x2="-3" y2="9.8" width="0.6096" layer="21"/>
<wire x1="-3" y1="9.8" x2="-3" y2="13.4" width="0.6096" layer="21"/>
<wire x1="-3" y1="13.4" x2="-1.8" y2="13.4" width="0.6096" layer="21"/>
<wire x1="-1.8" y1="13.4" x2="-1.8" y2="9.8" width="0.6096" layer="21"/>
<wire x1="-1.8" y1="9.8" x2="-0.6" y2="9.8" width="0.6096" layer="21"/>
<wire x1="-0.6" y1="9.8" x2="-0.6" y2="13.4" width="0.6096" layer="21"/>
<wire x1="-0.6" y1="13.4" x2="0.5" y2="13.4" width="0.6096" layer="21"/>
<wire x1="0.5" y1="13.4" x2="0.5" y2="9.9" width="0.6096" layer="21"/>
<wire x1="0.5" y1="9.9" x2="1.6" y2="9.9" width="0.6096" layer="21"/>
<wire x1="1.6" y1="9.9" x2="1.6" y2="13.4" width="0.6096" layer="21"/>
<wire x1="1.6" y1="13.4" x2="5.6" y2="13.4" width="0.6096" layer="21"/>
<wire x1="-4.9" y1="8.5" x2="-4.9" y2="7.9" width="0.6096" layer="21"/>
<wire x1="-4.9" y1="7.9" x2="1.6" y2="7.9" width="0.6096" layer="21"/>
<text x="0" y="3" size="1.4224" layer="21" align="bottom-center">ESP - 12E</text>
<text x="-7.7" y="-11.9" size="1.4224" layer="27">&gt;Value</text>
<text x="-7.7" y="15.1" size="1.4224" layer="25">&gt;Name</text>
<smd name="RESET" x="-8.3" y="5.8" dx="3" dy="1.2" layer="1"/>
<smd name="ADC" x="-8.3" y="3.8" dx="3" dy="1.2" layer="1"/>
<smd name="CH_PD" x="-8.3" y="1.8" dx="3" dy="1.2" layer="1"/>
<smd name="GPIO16" x="-8.3" y="-0.2" dx="3" dy="1.2" layer="1"/>
<smd name="GPIO14" x="-8.3" y="-2.2" dx="3" dy="1.2" layer="1"/>
<smd name="GPIO12" x="-8.3" y="-4.2" dx="3" dy="1.2" layer="1"/>
<smd name="GPIO13" x="-8.3" y="-6.2" dx="3" dy="1.2" layer="1"/>
<smd name="VCC" x="-8.3" y="-8.2" dx="3" dy="1.2" layer="1"/>
<smd name="TXD0" x="8.1" y="5.8" dx="3" dy="1.2" layer="1"/>
<smd name="RXD0" x="8.1" y="3.8" dx="3" dy="1.2" layer="1"/>
<smd name="GPIO4" x="8.1" y="-0.2" dx="3" dy="1.2" layer="1"/>
<smd name="GPIO5" x="8.1" y="1.8" dx="3" dy="1.2" layer="1"/>
<smd name="GPIO0" x="8.1" y="-2.2" dx="3" dy="1.2" layer="1"/>
<smd name="GPIO2" x="8.1" y="-4.2" dx="3" dy="1.2" layer="1"/>
<smd name="GPIO15" x="8.1" y="-6.2" dx="3" dy="1.2" layer="1"/>
<smd name="GND" x="8.1" y="-8.2" dx="3" dy="1.2" layer="1"/>
<smd name="MOSI" x="3.2" y="-10.3" dx="3" dy="1.2" layer="1" rot="R90"/>
<smd name="GPIO10" x="1.2" y="-10.3" dx="3" dy="1.2" layer="1" rot="R90"/>
<smd name="GPIO9" x="-0.8" y="-10.3" dx="3" dy="1.2" layer="1" rot="R90"/>
<smd name="MISO" x="-2.8" y="-10.3" dx="3" dy="1.2" layer="1" rot="R90"/>
<smd name="CS0" x="-4.8" y="-10.3" dx="3" dy="1.2" layer="1" rot="R90"/>
<smd name="SCLK" x="5.2" y="-10.3" dx="3" dy="1.2" layer="1" rot="R90"/>
<wire x1="-5.8" y1="-9.8" x2="-8.1" y2="-9.8" width="0.127" layer="21"/>
<wire x1="7.9" y1="-9.8" x2="6.2" y2="-9.8" width="0.127" layer="21"/>
</package>
</packages>
<symbols>
<symbol name="ESP12E">
<description>ESP8266-12E Module</description>
<wire x1="-12.7" y1="10.16" x2="-12.7" y2="-22.86" width="0.254" layer="94"/>
<wire x1="-12.7" y1="-22.86" x2="10.16" y2="-22.86" width="0.254" layer="94"/>
<wire x1="10.16" y1="-22.86" x2="10.16" y2="10.16" width="0.254" layer="94"/>
<wire x1="10.16" y1="10.16" x2="-12.7" y2="10.16" width="0.254" layer="94"/>
<pin name="RESET" x="-17.78" y="7.62" visible="pin" length="middle"/>
<pin name="ADC" x="-17.78" y="5.08" visible="pin" length="middle"/>
<pin name="CH_PD" x="-17.78" y="2.54" visible="pin" length="middle"/>
<pin name="GPIO16" x="-17.78" y="0" visible="pin" length="middle"/>
<pin name="GPIO14" x="-17.78" y="-2.54" visible="pin" length="middle"/>
<pin name="GPIO12" x="-17.78" y="-5.08" visible="pin" length="middle"/>
<pin name="GPIO13" x="-17.78" y="-7.62" visible="pin" length="middle"/>
<pin name="VCC" x="-17.78" y="-10.16" visible="pin" length="middle"/>
<pin name="GND" x="15.24" y="-10.16" visible="pin" length="middle" rot="R180"/>
<pin name="GPIO15" x="15.24" y="-7.62" visible="pin" length="middle" rot="R180"/>
<pin name="GPIO2" x="15.24" y="-5.08" visible="pin" length="middle" rot="R180"/>
<pin name="GPIO0" x="15.24" y="-2.54" visible="pin" length="middle" rot="R180"/>
<pin name="GPIO4" x="15.24" y="0" visible="pin" length="middle" rot="R180"/>
<pin name="GPIO5" x="15.24" y="2.54" visible="pin" length="middle" rot="R180"/>
<pin name="RX" x="15.24" y="5.08" visible="pin" length="middle" rot="R180"/>
<pin name="TX" x="15.24" y="7.62" visible="pin" length="middle" rot="R180"/>
<text x="-12.7" y="10.16" size="1.778" layer="95">&gt;Name</text>
<text x="7.62" y="-25.4" size="1.778" layer="96">&gt;Value</text>
<pin name="CS0" x="-7.62" y="-27.94" visible="pin" length="middle" rot="R90"/>
<pin name="MISO" x="-5.08" y="-27.94" visible="pin" length="middle" rot="R90"/>
<pin name="*GPIO9" x="-2.54" y="-27.94" visible="pin" length="middle" rot="R90"/>
<pin name="*GPIO10" x="0" y="-27.94" visible="pin" length="middle" rot="R90"/>
<pin name="MOSI" x="2.54" y="-27.94" visible="pin" length="middle" rot="R90"/>
<pin name="SCLK" x="5.08" y="-27.94" visible="pin" length="middle" rot="R90"/>
<text x="12.7" y="-20.32" size="1.27" layer="97">* Can only be used on the ESP12-D
(Untested. Info from esp8266 wiki)</text>
</symbol>
</symbols>
<devicesets>
<deviceset name="ESP12E" prefix="U" uservalue="yes">
<description>ESP12E Module</description>
<gates>
<gate name="G$1" symbol="ESP12E" x="0" y="0"/>
</gates>
<devices>
<device name="SMD" package="ESP12E-SMD">
<connects>
<connect gate="G$1" pin="*GPIO10" pad="GPIO10"/>
<connect gate="G$1" pin="*GPIO9" pad="GPIO9"/>
<connect gate="G$1" pin="ADC" pad="ADC"/>
<connect gate="G$1" pin="CH_PD" pad="CH_PD"/>
<connect gate="G$1" pin="CS0" pad="CS0"/>
<connect gate="G$1" pin="GND" pad="GND"/>
<connect gate="G$1" pin="GPIO0" pad="GPIO0"/>
<connect gate="G$1" pin="GPIO12" pad="GPIO12"/>
<connect gate="G$1" pin="GPIO13" pad="GPIO13"/>
<connect gate="G$1" pin="GPIO14" pad="GPIO14"/>
<connect gate="G$1" pin="GPIO15" pad="GPIO15"/>
<connect gate="G$1" pin="GPIO16" pad="GPIO16"/>
<connect gate="G$1" pin="GPIO2" pad="GPIO2"/>
<connect gate="G$1" pin="GPIO4" pad="GPIO4"/>
<connect gate="G$1" pin="GPIO5" pad="GPIO5"/>
<connect gate="G$1" pin="MISO" pad="MISO"/>
<connect gate="G$1" pin="MOSI" pad="MOSI"/>
<connect gate="G$1" pin="RESET" pad="RESET"/>
<connect gate="G$1" pin="RX" pad="RXD0"/>
<connect gate="G$1" pin="SCLK" pad="SCLK"/>
<connect gate="G$1" pin="TX" pad="TXD0"/>
<connect gate="G$1" pin="VCC" pad="VCC"/>
</connects>
<technologies>
<technology name=""/>
</technologies>
</device>
</devices>
</deviceset>
</devicesets>
</library>
<library name="supply1" urn="urn:adsk.eagle:library:371">
<description>&lt;b&gt;Supply Symbols&lt;/b&gt;&lt;p&gt;
 GND, VCC, 0V, +5V, -5V, etc.&lt;p&gt;
 Please keep in mind, that these devices are necessary for the
 automatic wiring of the supply signals.&lt;p&gt;
 The pin name defined in the symbol is identical to the net which is to be wired automatically.&lt;p&gt;
 In this library the device names are the same as the pin names of the symbols, therefore the correct signal names appear next to the supply symbols in the schematic.&lt;p&gt;
 &lt;author&gt;Created by librarian@cadsoft.de&lt;/author&gt;</description>
<packages>
</packages>
<symbols>
<symbol name="VCC" urn="urn:adsk.eagle:symbol:26928/1" library_version="1">
<wire x1="1.27" y1="-1.905" x2="0" y2="0" width="0.254" layer="94"/>
<wire x1="0" y1="0" x2="-1.27" y2="-1.905" width="0.254" layer="94"/>
<text x="-2.54" y="-2.54" size="1.778" layer="96" rot="R90">&gt;VALUE</text>
<pin name="VCC" x="0" y="-2.54" visible="off" length="short" direction="sup" rot="R90"/>
</symbol>
</symbols>
<devicesets>
<deviceset name="VCC" urn="urn:adsk.eagle:component:26957/1" prefix="P+" library_version="1">
<description>&lt;b&gt;SUPPLY SYMBOL&lt;/b&gt;</description>
<gates>
<gate name="VCC" symbol="VCC" x="0" y="0"/>
</gates>
<devices>
<device name="">
<technologies>
<technology name=""/>
</technologies>
</device>
</devices>
</deviceset>
</devicesets>
</library>
<library name="ngspice-simulation" urn="urn:adsk.eagle:library:527439">
<description>SPICE compatible library parts</description>
<packages>
</packages>
<symbols>
<symbol name="0" urn="urn:adsk.eagle:symbol:527455/1" library_version="18">
<description>Simulation ground symbol (spice node 0)</description>
<wire x1="-2.54" y1="0" x2="2.54" y2="0" width="0.1524" layer="94"/>
<wire x1="2.54" y1="0" x2="0" y2="-2.54" width="0.1524" layer="94"/>
<wire x1="0" y1="-2.54" x2="-2.54" y2="0" width="0.1524" layer="94"/>
<pin name="0" x="0" y="0" visible="off" length="point" direction="sup"/>
</symbol>
</symbols>
<devicesets>
<deviceset name="GND" urn="urn:adsk.eagle:component:527478/1" prefix="X_" library_version="18">
<description>Simulation ground symbol (spice node 0)</description>
<gates>
<gate name="G$1" symbol="0" x="0" y="0"/>
</gates>
<devices>
<device name="">
<technologies>
<technology name="">
<attribute name="SPICEGROUND" value=""/>
<attribute name="_EXTERNAL_" value=""/>
</technology>
</technologies>
</device>
</devices>
</deviceset>
</devicesets>
</library>
<library name="ams1117-3.3v">
<description>&lt;1A LOW DROPOUT VOLTAGE REGULATOR, SOT-223&lt;/b&gt;&lt;p&gt;
&lt;author&gt;Created by SamacSys&lt;/author&gt;</description>
<packages>
<package name="SOT229P700X180-4N">
<description>&lt;b&gt;3 Lead SOT-223 Plastic Package&lt;/b&gt;&lt;br&gt;
</description>
<smd name="1" x="-3.35" y="2.29" dx="1.3" dy="0.95" layer="1"/>
<smd name="2" x="-3.35" y="0" dx="1.3" dy="0.95" layer="1"/>
<smd name="3" x="-3.35" y="-2.29" dx="1.3" dy="0.95" layer="1"/>
<smd name="4" x="3.35" y="0" dx="3.25" dy="1.3" layer="1" rot="R90"/>
<text x="0" y="0" size="1.27" layer="25" align="center">&gt;NAME</text>
<text x="0" y="0" size="1.27" layer="27" align="center">&gt;VALUE</text>
<wire x1="-4.25" y1="3.605" x2="4.25" y2="3.605" width="0.05" layer="51"/>
<wire x1="4.25" y1="3.605" x2="4.25" y2="-3.605" width="0.05" layer="51"/>
<wire x1="4.25" y1="-3.605" x2="-4.25" y2="-3.605" width="0.05" layer="51"/>
<wire x1="-4.25" y1="-3.605" x2="-4.25" y2="3.605" width="0.05" layer="51"/>
<wire x1="-1.752" y1="3.252" x2="1.752" y2="3.252" width="0.1" layer="51"/>
<wire x1="1.752" y1="3.252" x2="1.752" y2="-3.252" width="0.1" layer="51"/>
<wire x1="1.752" y1="-3.252" x2="-1.752" y2="-3.252" width="0.1" layer="51"/>
<wire x1="-1.752" y1="-3.252" x2="-1.752" y2="3.252" width="0.1" layer="51"/>
<wire x1="-1.752" y1="0.962" x2="0.538" y2="3.252" width="0.1" layer="51"/>
<wire x1="-1.752" y1="3.252" x2="1.752" y2="3.252" width="0.2" layer="21"/>
<wire x1="1.752" y1="3.252" x2="1.752" y2="-3.252" width="0.2" layer="21"/>
<wire x1="1.752" y1="-3.252" x2="-1.752" y2="-3.252" width="0.2" layer="21"/>
<wire x1="-1.752" y1="-3.252" x2="-1.752" y2="3.252" width="0.2" layer="21"/>
<wire x1="-4" y1="3.115" x2="-2.7" y2="3.115" width="0.2" layer="21"/>
</package>
</packages>
<symbols>
<symbol name="AMS1117-3.3V">
<wire x1="5.08" y1="2.54" x2="45.72" y2="2.54" width="0.254" layer="94"/>
<wire x1="45.72" y1="-7.62" x2="45.72" y2="2.54" width="0.254" layer="94"/>
<wire x1="45.72" y1="-7.62" x2="5.08" y2="-7.62" width="0.254" layer="94"/>
<wire x1="5.08" y1="2.54" x2="5.08" y2="-7.62" width="0.254" layer="94"/>
<text x="46.99" y="7.62" size="1.778" layer="95" align="center-left">&gt;NAME</text>
<text x="46.99" y="5.08" size="1.778" layer="96" align="center-left">&gt;VALUE</text>
<pin name="GROUND/ADJUST" x="0" y="0" length="middle"/>
<pin name="VOUT" x="0" y="-2.54" length="middle"/>
<pin name="VIN" x="0" y="-5.08" length="middle"/>
<pin name="TAB_(OUTPUT)" x="50.8" y="-2.54" length="middle" rot="R180"/>
</symbol>
</symbols>
<devicesets>
<deviceset name="AMS1117-3.3V" prefix="IC">
<description>&lt;b&gt;1A LOW DROPOUT VOLTAGE REGULATOR, SOT-223&lt;/b&gt;&lt;p&gt;
Source: &lt;a href="http://www.advanced-monolithic.com/pdf/ds1117.pdf"&gt; Datasheet &lt;/a&gt;</description>
<gates>
<gate name="G$1" symbol="AMS1117-3.3V" x="0" y="0"/>
</gates>
<devices>
<device name="" package="SOT229P700X180-4N">
<connects>
<connect gate="G$1" pin="GROUND/ADJUST" pad="1"/>
<connect gate="G$1" pin="TAB_(OUTPUT)" pad="4"/>
<connect gate="G$1" pin="VIN" pad="3"/>
<connect gate="G$1" pin="VOUT" pad="2"/>
</connects>
<technologies>
<technology name="">
<attribute name="DESCRIPTION" value="1A LOW DROPOUT VOLTAGE REGULATOR, SOT-223" constant="no"/>
<attribute name="HEIGHT" value="1.8mm" constant="no"/>
<attribute name="MANUFACTURER_NAME" value="Advanced Monolithic Systems" constant="no"/>
<attribute name="MANUFACTURER_PART_NUMBER" value="ams1117-3.3v" constant="no"/>
<attribute name="MOUSER_PART_NUMBER" value="" constant="no"/>
<attribute name="MOUSER_PRICE-STOCK" value="" constant="no"/>
<attribute name="RS_PART_NUMBER" value="" constant="no"/>
<attribute name="RS_PRICE-STOCK" value="" constant="no"/>
</technology>
</technologies>
</device>
</devices>
</deviceset>
</devicesets>
</library>
<library name="con-lstb" urn="urn:adsk.eagle:library:162">
<description>&lt;b&gt;Pin Headers&lt;/b&gt;&lt;p&gt;
Naming:&lt;p&gt;
MA = male&lt;p&gt;
# contacts - # rows&lt;p&gt;
W = angled&lt;p&gt;
&lt;author&gt;Created by librarian@cadsoft.de&lt;/author&gt;</description>
<packages>
<package name="MA05-1" urn="urn:adsk.eagle:footprint:8283/1" library_version="1">
<description>&lt;b&gt;PIN HEADER&lt;/b&gt;</description>
<wire x1="-5.715" y1="1.27" x2="-4.445" y2="1.27" width="0.1524" layer="21"/>
<wire x1="-4.445" y1="1.27" x2="-3.81" y2="0.635" width="0.1524" layer="21"/>
<wire x1="-3.81" y1="-0.635" x2="-4.445" y2="-1.27" width="0.1524" layer="21"/>
<wire x1="-3.81" y1="0.635" x2="-3.175" y2="1.27" width="0.1524" layer="21"/>
<wire x1="-3.175" y1="1.27" x2="-1.905" y2="1.27" width="0.1524" layer="21"/>
<wire x1="-1.905" y1="1.27" x2="-1.27" y2="0.635" width="0.1524" layer="21"/>
<wire x1="-1.27" y1="-0.635" x2="-1.905" y2="-1.27" width="0.1524" layer="21"/>
<wire x1="-1.905" y1="-1.27" x2="-3.175" y2="-1.27" width="0.1524" layer="21"/>
<wire x1="-3.175" y1="-1.27" x2="-3.81" y2="-0.635" width="0.1524" layer="21"/>
<wire x1="-6.35" y1="0.635" x2="-6.35" y2="-0.635" width="0.1524" layer="21"/>
<wire x1="-5.715" y1="1.27" x2="-6.35" y2="0.635" width="0.1524" layer="21"/>
<wire x1="-6.35" y1="-0.635" x2="-5.715" y2="-1.27" width="0.1524" layer="21"/>
<wire x1="-4.445" y1="-1.27" x2="-5.715" y2="-1.27" width="0.1524" layer="21"/>
<wire x1="-1.27" y1="0.635" x2="-0.635" y2="1.27" width="0.1524" layer="21"/>
<wire x1="-0.635" y1="1.27" x2="0.635" y2="1.27" width="0.1524" layer="21"/>
<wire x1="0.635" y1="1.27" x2="1.27" y2="0.635" width="0.1524" layer="21"/>
<wire x1="1.27" y1="-0.635" x2="0.635" y2="-1.27" width="0.1524" layer="21"/>
<wire x1="0.635" y1="-1.27" x2="-0.635" y2="-1.27" width="0.1524" layer="21"/>
<wire x1="-0.635" y1="-1.27" x2="-1.27" y2="-0.635" width="0.1524" layer="21"/>
<wire x1="1.905" y1="1.27" x2="3.175" y2="1.27" width="0.1524" layer="21"/>
<wire x1="3.175" y1="1.27" x2="3.81" y2="0.635" width="0.1524" layer="21"/>
<wire x1="3.81" y1="-0.635" x2="3.175" y2="-1.27" width="0.1524" layer="21"/>
<wire x1="3.81" y1="0.635" x2="4.445" y2="1.27" width="0.1524" layer="21"/>
<wire x1="4.445" y1="1.27" x2="5.715" y2="1.27" width="0.1524" layer="21"/>
<wire x1="5.715" y1="1.27" x2="6.35" y2="0.635" width="0.1524" layer="21"/>
<wire x1="6.35" y1="0.635" x2="6.35" y2="-0.635" width="0.1524" layer="21"/>
<wire x1="6.35" y1="-0.635" x2="5.715" y2="-1.27" width="0.1524" layer="21"/>
<wire x1="5.715" y1="-1.27" x2="4.445" y2="-1.27" width="0.1524" layer="21"/>
<wire x1="4.445" y1="-1.27" x2="3.81" y2="-0.635" width="0.1524" layer="21"/>
<wire x1="1.905" y1="1.27" x2="1.27" y2="0.635" width="0.1524" layer="21"/>
<wire x1="1.27" y1="-0.635" x2="1.905" y2="-1.27" width="0.1524" layer="21"/>
<wire x1="3.175" y1="-1.27" x2="1.905" y2="-1.27" width="0.1524" layer="21"/>
<pad name="1" x="-5.08" y="0" drill="1.016" shape="long" rot="R90"/>
<pad name="2" x="-2.54" y="0" drill="1.016" shape="long" rot="R90"/>
<pad name="3" x="0" y="0" drill="1.016" shape="long" rot="R90"/>
<pad name="4" x="2.54" y="0" drill="1.016" shape="long" rot="R90"/>
<pad name="5" x="5.08" y="0" drill="1.016" shape="long" rot="R90"/>
<text x="-6.35" y="1.651" size="1.27" layer="25" ratio="10">&gt;NAME</text>
<text x="-5.715" y="-2.921" size="1.27" layer="21" ratio="10">1</text>
<text x="4.445" y="1.651" size="1.27" layer="21" ratio="10">5</text>
<text x="-2.54" y="-2.921" size="1.27" layer="27" ratio="10">&gt;VALUE</text>
<rectangle x1="-2.794" y1="-0.254" x2="-2.286" y2="0.254" layer="51"/>
<rectangle x1="-5.334" y1="-0.254" x2="-4.826" y2="0.254" layer="51"/>
<rectangle x1="-0.254" y1="-0.254" x2="0.254" y2="0.254" layer="51"/>
<rectangle x1="4.826" y1="-0.254" x2="5.334" y2="0.254" layer="51"/>
<rectangle x1="2.286" y1="-0.254" x2="2.794" y2="0.254" layer="51"/>
</package>
<package name="MA03-1" urn="urn:adsk.eagle:footprint:8281/1" library_version="1">
<description>&lt;b&gt;PIN HEADER&lt;/b&gt;</description>
<wire x1="-3.175" y1="1.27" x2="-1.905" y2="1.27" width="0.1524" layer="21"/>
<wire x1="-1.905" y1="1.27" x2="-1.27" y2="0.635" width="0.1524" layer="21"/>
<wire x1="-1.27" y1="-0.635" x2="-1.905" y2="-1.27" width="0.1524" layer="21"/>
<wire x1="-1.27" y1="0.635" x2="-0.635" y2="1.27" width="0.1524" layer="21"/>
<wire x1="-0.635" y1="1.27" x2="0.635" y2="1.27" width="0.1524" layer="21"/>
<wire x1="0.635" y1="1.27" x2="1.27" y2="0.635" width="0.1524" layer="21"/>
<wire x1="1.27" y1="-0.635" x2="0.635" y2="-1.27" width="0.1524" layer="21"/>
<wire x1="0.635" y1="-1.27" x2="-0.635" y2="-1.27" width="0.1524" layer="21"/>
<wire x1="-0.635" y1="-1.27" x2="-1.27" y2="-0.635" width="0.1524" layer="21"/>
<wire x1="-3.81" y1="0.635" x2="-3.81" y2="-0.635" width="0.1524" layer="21"/>
<wire x1="-3.175" y1="1.27" x2="-3.81" y2="0.635" width="0.1524" layer="21"/>
<wire x1="-3.81" y1="-0.635" x2="-3.175" y2="-1.27" width="0.1524" layer="21"/>
<wire x1="-1.905" y1="-1.27" x2="-3.175" y2="-1.27" width="0.1524" layer="21"/>
<wire x1="1.27" y1="0.635" x2="1.905" y2="1.27" width="0.1524" layer="21"/>
<wire x1="1.905" y1="1.27" x2="3.175" y2="1.27" width="0.1524" layer="21"/>
<wire x1="3.175" y1="1.27" x2="3.81" y2="0.635" width="0.1524" layer="21"/>
<wire x1="3.81" y1="-0.635" x2="3.175" y2="-1.27" width="0.1524" layer="21"/>
<wire x1="3.175" y1="-1.27" x2="1.905" y2="-1.27" width="0.1524" layer="21"/>
<wire x1="1.905" y1="-1.27" x2="1.27" y2="-0.635" width="0.1524" layer="21"/>
<wire x1="3.81" y1="0.635" x2="3.81" y2="-0.635" width="0.1524" layer="21"/>
<pad name="1" x="-2.54" y="0" drill="1.016" shape="long" rot="R90"/>
<pad name="2" x="0" y="0" drill="1.016" shape="long" rot="R90"/>
<pad name="3" x="2.54" y="0" drill="1.016" shape="long" rot="R90"/>
<text x="-3.81" y="1.651" size="1.27" layer="25" ratio="10">&gt;NAME</text>
<text x="-5.08" y="-0.635" size="1.27" layer="21" ratio="10">1</text>
<text x="-3.81" y="-2.921" size="1.27" layer="27" ratio="10">&gt;VALUE</text>
<rectangle x1="-0.254" y1="-0.254" x2="0.254" y2="0.254" layer="51"/>
<rectangle x1="-2.794" y1="-0.254" x2="-2.286" y2="0.254" layer="51"/>
<rectangle x1="2.286" y1="-0.254" x2="2.794" y2="0.254" layer="51"/>
</package>
<package name="MA03-2" urn="urn:adsk.eagle:footprint:8265/1" library_version="1">
<description>&lt;b&gt;PIN HEADER&lt;/b&gt;</description>
<wire x1="-3.175" y1="2.54" x2="-1.905" y2="2.54" width="0.1524" layer="21"/>
<wire x1="-1.905" y1="2.54" x2="-1.27" y2="1.905" width="0.1524" layer="21"/>
<wire x1="-1.27" y1="1.905" x2="-0.635" y2="2.54" width="0.1524" layer="21"/>
<wire x1="-0.635" y1="2.54" x2="0.635" y2="2.54" width="0.1524" layer="21"/>
<wire x1="0.635" y1="2.54" x2="1.27" y2="1.905" width="0.1524" layer="21"/>
<wire x1="-3.175" y1="2.54" x2="-3.81" y2="1.905" width="0.1524" layer="21"/>
<wire x1="1.27" y1="1.905" x2="1.905" y2="2.54" width="0.1524" layer="21"/>
<wire x1="1.905" y1="2.54" x2="3.175" y2="2.54" width="0.1524" layer="21"/>
<wire x1="3.175" y1="2.54" x2="3.81" y2="1.905" width="0.1524" layer="21"/>
<wire x1="3.81" y1="1.905" x2="3.81" y2="-1.905" width="0.1524" layer="21"/>
<wire x1="-1.27" y1="-1.905" x2="-1.905" y2="-2.54" width="0.1524" layer="21"/>
<wire x1="1.27" y1="-1.905" x2="0.635" y2="-2.54" width="0.1524" layer="21"/>
<wire x1="0.635" y1="-2.54" x2="-0.635" y2="-2.54" width="0.1524" layer="21"/>
<wire x1="-0.635" y1="-2.54" x2="-1.27" y2="-1.905" width="0.1524" layer="21"/>
<wire x1="-3.81" y1="1.905" x2="-3.81" y2="-1.905" width="0.1524" layer="21"/>
<wire x1="-3.81" y1="-1.905" x2="-3.175" y2="-2.54" width="0.1524" layer="21"/>
<wire x1="-1.905" y1="-2.54" x2="-3.175" y2="-2.54" width="0.1524" layer="21"/>
<wire x1="3.81" y1="-1.905" x2="3.175" y2="-2.54" width="0.1524" layer="21"/>
<wire x1="3.175" y1="-2.54" x2="1.905" y2="-2.54" width="0.1524" layer="21"/>
<wire x1="1.905" y1="-2.54" x2="1.27" y2="-1.905" width="0.1524" layer="21"/>
<pad name="1" x="-2.54" y="-1.27" drill="1.016"/>
<pad name="3" x="0" y="-1.27" drill="1.016" shape="octagon"/>
<pad name="5" x="2.54" y="-1.27" drill="1.016" shape="octagon"/>
<pad name="2" x="-2.54" y="1.27" drill="1.016" shape="octagon"/>
<pad name="4" x="0" y="1.27" drill="1.016" shape="octagon"/>
<pad name="6" x="2.54" y="1.27" drill="1.016" shape="octagon"/>
<text x="-3.175" y="-4.191" size="1.27" layer="21" ratio="10">1</text>
<text x="-3.81" y="2.921" size="1.27" layer="25" ratio="10">&gt;NAME</text>
<text x="4.064" y="0.635" size="1.27" layer="21" ratio="10">6</text>
<text x="-1.27" y="-4.191" size="1.27" layer="27" ratio="10">&gt;VALUE</text>
<rectangle x1="-0.254" y1="-1.524" x2="0.254" y2="-1.016" layer="51"/>
<rectangle x1="-2.794" y1="-1.524" x2="-2.286" y2="-1.016" layer="51"/>
<rectangle x1="2.286" y1="-1.524" x2="2.794" y2="-1.016" layer="51"/>
<rectangle x1="-2.794" y1="1.016" x2="-2.286" y2="1.524" layer="51"/>
<rectangle x1="-0.254" y1="1.016" x2="0.254" y2="1.524" layer="51"/>
<rectangle x1="2.286" y1="1.016" x2="2.794" y2="1.524" layer="51"/>
</package>
<package name="MA04-1" urn="urn:adsk.eagle:footprint:8285/1" library_version="1">
<description>&lt;b&gt;PIN HEADER&lt;/b&gt;</description>
<wire x1="-4.445" y1="1.27" x2="-3.175" y2="1.27" width="0.1524" layer="21"/>
<wire x1="-3.175" y1="1.27" x2="-2.54" y2="0.635" width="0.1524" layer="21"/>
<wire x1="-2.54" y1="-0.635" x2="-3.175" y2="-1.27" width="0.1524" layer="21"/>
<wire x1="-2.54" y1="0.635" x2="-1.905" y2="1.27" width="0.1524" layer="21"/>
<wire x1="-1.905" y1="1.27" x2="-0.635" y2="1.27" width="0.1524" layer="21"/>
<wire x1="-0.635" y1="1.27" x2="0" y2="0.635" width="0.1524" layer="21"/>
<wire x1="0" y1="-0.635" x2="-0.635" y2="-1.27" width="0.1524" layer="21"/>
<wire x1="-0.635" y1="-1.27" x2="-1.905" y2="-1.27" width="0.1524" layer="21"/>
<wire x1="-1.905" y1="-1.27" x2="-2.54" y2="-0.635" width="0.1524" layer="21"/>
<wire x1="-5.08" y1="0.635" x2="-5.08" y2="-0.635" width="0.1524" layer="21"/>
<wire x1="-4.445" y1="1.27" x2="-5.08" y2="0.635" width="0.1524" layer="21"/>
<wire x1="-5.08" y1="-0.635" x2="-4.445" y2="-1.27" width="0.1524" layer="21"/>
<wire x1="-3.175" y1="-1.27" x2="-4.445" y2="-1.27" width="0.1524" layer="21"/>
<wire x1="0" y1="0.635" x2="0.635" y2="1.27" width="0.1524" layer="21"/>
<wire x1="0.635" y1="1.27" x2="1.905" y2="1.27" width="0.1524" layer="21"/>
<wire x1="1.905" y1="1.27" x2="2.54" y2="0.635" width="0.1524" layer="21"/>
<wire x1="2.54" y1="-0.635" x2="1.905" y2="-1.27" width="0.1524" layer="21"/>
<wire x1="1.905" y1="-1.27" x2="0.635" y2="-1.27" width="0.1524" layer="21"/>
<wire x1="0.635" y1="-1.27" x2="0" y2="-0.635" width="0.1524" layer="21"/>
<wire x1="3.175" y1="1.27" x2="4.445" y2="1.27" width="0.1524" layer="21"/>
<wire x1="4.445" y1="1.27" x2="5.08" y2="0.635" width="0.1524" layer="21"/>
<wire x1="5.08" y1="0.635" x2="5.08" y2="-0.635" width="0.1524" layer="21"/>
<wire x1="5.08" y1="-0.635" x2="4.445" y2="-1.27" width="0.1524" layer="21"/>
<wire x1="3.175" y1="1.27" x2="2.54" y2="0.635" width="0.1524" layer="21"/>
<wire x1="2.54" y1="-0.635" x2="3.175" y2="-1.27" width="0.1524" layer="21"/>
<wire x1="4.445" y1="-1.27" x2="3.175" y2="-1.27" width="0.1524" layer="21"/>
<pad name="1" x="-3.81" y="0" drill="1.016" shape="long" rot="R90"/>
<pad name="2" x="-1.27" y="0" drill="1.016" shape="long" rot="R90"/>
<pad name="3" x="1.27" y="0" drill="1.016" shape="long" rot="R90"/>
<pad name="4" x="3.81" y="0" drill="1.016" shape="long" rot="R90"/>
<text x="-5.08" y="1.651" size="1.27" layer="25" ratio="10">&gt;NAME</text>
<text x="-6.223" y="-0.635" size="1.27" layer="21" ratio="10">1</text>
<text x="0.635" y="1.651" size="1.27" layer="27" ratio="10">&gt;VALUE</text>
<text x="5.334" y="-0.635" size="1.27" layer="21" ratio="10">4</text>
<rectangle x1="-1.524" y1="-0.254" x2="-1.016" y2="0.254" layer="51"/>
<rectangle x1="-4.064" y1="-0.254" x2="-3.556" y2="0.254" layer="51"/>
<rectangle x1="1.016" y1="-0.254" x2="1.524" y2="0.254" layer="51"/>
<rectangle x1="3.556" y1="-0.254" x2="4.064" y2="0.254" layer="51"/>
</package>
</packages>
<packages3d>
<package3d name="MA05-1" urn="urn:adsk.eagle:package:8332/1" type="box" library_version="1">
<description>PIN HEADER</description>
<packageinstances>
<packageinstance name="MA05-1"/>
</packageinstances>
</package3d>
<package3d name="MA03-1" urn="urn:adsk.eagle:package:8339/1" type="box" library_version="1">
<description>PIN HEADER</description>
<packageinstances>
<packageinstance name="MA03-1"/>
</packageinstances>
</package3d>
<package3d name="MA03-2" urn="urn:adsk.eagle:package:8334/1" type="box" library_version="1">
<description>PIN HEADER</description>
<packageinstances>
<packageinstance name="MA03-2"/>
</packageinstances>
</package3d>
<package3d name="MA04-1" urn="urn:adsk.eagle:package:8337/1" type="box" library_version="1">
<description>PIN HEADER</description>
<packageinstances>
<packageinstance name="MA04-1"/>
</packageinstances>
</package3d>
</packages3d>
<symbols>
<symbol name="MA05-1" urn="urn:adsk.eagle:symbol:8282/1" library_version="1">
<wire x1="3.81" y1="-7.62" x2="-1.27" y2="-7.62" width="0.4064" layer="94"/>
<wire x1="1.27" y1="0" x2="2.54" y2="0" width="0.6096" layer="94"/>
<wire x1="1.27" y1="-2.54" x2="2.54" y2="-2.54" width="0.6096" layer="94"/>
<wire x1="1.27" y1="-5.08" x2="2.54" y2="-5.08" width="0.6096" layer="94"/>
<wire x1="-1.27" y1="7.62" x2="-1.27" y2="-7.62" width="0.4064" layer="94"/>
<wire x1="3.81" y1="-7.62" x2="3.81" y2="7.62" width="0.4064" layer="94"/>
<wire x1="-1.27" y1="7.62" x2="3.81" y2="7.62" width="0.4064" layer="94"/>
<wire x1="1.27" y1="5.08" x2="2.54" y2="5.08" width="0.6096" layer="94"/>
<wire x1="1.27" y1="2.54" x2="2.54" y2="2.54" width="0.6096" layer="94"/>
<text x="-1.27" y="-10.16" size="1.778" layer="96">&gt;VALUE</text>
<text x="-1.27" y="8.382" size="1.778" layer="95">&gt;NAME</text>
<pin name="1" x="7.62" y="-5.08" visible="pad" length="middle" direction="pas" swaplevel="1" rot="R180"/>
<pin name="2" x="7.62" y="-2.54" visible="pad" length="middle" direction="pas" swaplevel="1" rot="R180"/>
<pin name="3" x="7.62" y="0" visible="pad" length="middle" direction="pas" swaplevel="1" rot="R180"/>
<pin name="4" x="7.62" y="2.54" visible="pad" length="middle" direction="pas" swaplevel="1" rot="R180"/>
<pin name="5" x="7.62" y="5.08" visible="pad" length="middle" direction="pas" swaplevel="1" rot="R180"/>
</symbol>
<symbol name="MA03-1" urn="urn:adsk.eagle:symbol:8280/1" library_version="1">
<wire x1="3.81" y1="-5.08" x2="-1.27" y2="-5.08" width="0.4064" layer="94"/>
<wire x1="1.27" y1="2.54" x2="2.54" y2="2.54" width="0.6096" layer="94"/>
<wire x1="1.27" y1="0" x2="2.54" y2="0" width="0.6096" layer="94"/>
<wire x1="1.27" y1="-2.54" x2="2.54" y2="-2.54" width="0.6096" layer="94"/>
<wire x1="-1.27" y1="5.08" x2="-1.27" y2="-5.08" width="0.4064" layer="94"/>
<wire x1="3.81" y1="-5.08" x2="3.81" y2="5.08" width="0.4064" layer="94"/>
<wire x1="-1.27" y1="5.08" x2="3.81" y2="5.08" width="0.4064" layer="94"/>
<text x="-1.27" y="-7.62" size="1.778" layer="96">&gt;VALUE</text>
<text x="-1.27" y="5.842" size="1.778" layer="95">&gt;NAME</text>
<pin name="1" x="7.62" y="-2.54" visible="pad" length="middle" direction="pas" swaplevel="1" rot="R180"/>
<pin name="2" x="7.62" y="0" visible="pad" length="middle" direction="pas" swaplevel="1" rot="R180"/>
<pin name="3" x="7.62" y="2.54" visible="pad" length="middle" direction="pas" swaplevel="1" rot="R180"/>
</symbol>
<symbol name="MA03-2" urn="urn:adsk.eagle:symbol:8264/1" library_version="1">
<wire x1="3.81" y1="-5.08" x2="-3.81" y2="-5.08" width="0.4064" layer="94"/>
<wire x1="-3.81" y1="5.08" x2="-3.81" y2="-5.08" width="0.4064" layer="94"/>
<wire x1="3.81" y1="-5.08" x2="3.81" y2="5.08" width="0.4064" layer="94"/>
<wire x1="-3.81" y1="5.08" x2="3.81" y2="5.08" width="0.4064" layer="94"/>
<wire x1="1.27" y1="2.54" x2="2.54" y2="2.54" width="0.6096" layer="94"/>
<wire x1="1.27" y1="0" x2="2.54" y2="0" width="0.6096" layer="94"/>
<wire x1="1.27" y1="-2.54" x2="2.54" y2="-2.54" width="0.6096" layer="94"/>
<wire x1="-2.54" y1="2.54" x2="-1.27" y2="2.54" width="0.6096" layer="94"/>
<wire x1="-2.54" y1="0" x2="-1.27" y2="0" width="0.6096" layer="94"/>
<wire x1="-2.54" y1="-2.54" x2="-1.27" y2="-2.54" width="0.6096" layer="94"/>
<text x="-3.81" y="-7.62" size="1.778" layer="96">&gt;VALUE</text>
<text x="-3.81" y="5.842" size="1.778" layer="95">&gt;NAME</text>
<pin name="1" x="7.62" y="-2.54" visible="pad" length="middle" direction="pas" swaplevel="1" rot="R180"/>
<pin name="3" x="7.62" y="0" visible="pad" length="middle" direction="pas" swaplevel="1" rot="R180"/>
<pin name="5" x="7.62" y="2.54" visible="pad" length="middle" direction="pas" swaplevel="1" rot="R180"/>
<pin name="2" x="-7.62" y="-2.54" visible="pad" length="middle" direction="pas" swaplevel="1"/>
<pin name="4" x="-7.62" y="0" visible="pad" length="middle" direction="pas" swaplevel="1"/>
<pin name="6" x="-7.62" y="2.54" visible="pad" length="middle" direction="pas" swaplevel="1"/>
</symbol>
<symbol name="MA04-1" urn="urn:adsk.eagle:symbol:8284/1" library_version="1">
<wire x1="3.81" y1="-7.62" x2="-1.27" y2="-7.62" width="0.4064" layer="94"/>
<wire x1="1.27" y1="0" x2="2.54" y2="0" width="0.6096" layer="94"/>
<wire x1="1.27" y1="-2.54" x2="2.54" y2="-2.54" width="0.6096" layer="94"/>
<wire x1="1.27" y1="-5.08" x2="2.54" y2="-5.08" width="0.6096" layer="94"/>
<wire x1="-1.27" y1="5.08" x2="-1.27" y2="-7.62" width="0.4064" layer="94"/>
<wire x1="3.81" y1="-7.62" x2="3.81" y2="5.08" width="0.4064" layer="94"/>
<wire x1="-1.27" y1="5.08" x2="3.81" y2="5.08" width="0.4064" layer="94"/>
<wire x1="1.27" y1="2.54" x2="2.54" y2="2.54" width="0.6096" layer="94"/>
<text x="-1.27" y="-10.16" size="1.778" layer="96">&gt;VALUE</text>
<text x="-1.27" y="5.842" size="1.778" layer="95">&gt;NAME</text>
<pin name="1" x="7.62" y="-5.08" visible="pad" length="middle" direction="pas" swaplevel="1" rot="R180"/>
<pin name="2" x="7.62" y="-2.54" visible="pad" length="middle" direction="pas" swaplevel="1" rot="R180"/>
<pin name="3" x="7.62" y="0" visible="pad" length="middle" direction="pas" swaplevel="1" rot="R180"/>
<pin name="4" x="7.62" y="2.54" visible="pad" length="middle" direction="pas" swaplevel="1" rot="R180"/>
</symbol>
</symbols>
<devicesets>
<deviceset name="MA05-1" urn="urn:adsk.eagle:component:8379/1" prefix="SV" uservalue="yes" library_version="1">
<description>&lt;b&gt;PIN HEADER&lt;/b&gt;</description>
<gates>
<gate name="G$1" symbol="MA05-1" x="0" y="0"/>
</gates>
<devices>
<device name="" package="MA05-1">
<connects>
<connect gate="G$1" pin="1" pad="1"/>
<connect gate="G$1" pin="2" pad="2"/>
<connect gate="G$1" pin="3" pad="3"/>
<connect gate="G$1" pin="4" pad="4"/>
<connect gate="G$1" pin="5" pad="5"/>
</connects>
<package3dinstances>
<package3dinstance package3d_urn="urn:adsk.eagle:package:8332/1"/>
</package3dinstances>
<technologies>
<technology name="">
<attribute name="MF" value="" constant="no"/>
<attribute name="MPN" value="" constant="no"/>
<attribute name="OC_FARNELL" value="unknown" constant="no"/>
<attribute name="OC_NEWARK" value="unknown" constant="no"/>
</technology>
</technologies>
</device>
</devices>
</deviceset>
<deviceset name="MA03-1" urn="urn:adsk.eagle:component:8376/1" prefix="SV" uservalue="yes" library_version="1">
<description>&lt;b&gt;PIN HEADER&lt;/b&gt;</description>
<gates>
<gate name="G$1" symbol="MA03-1" x="0" y="0"/>
</gates>
<devices>
<device name="" package="MA03-1">
<connects>
<connect gate="G$1" pin="1" pad="1"/>
<connect gate="G$1" pin="2" pad="2"/>
<connect gate="G$1" pin="3" pad="3"/>
</connects>
<package3dinstances>
<package3dinstance package3d_urn="urn:adsk.eagle:package:8339/1"/>
</package3dinstances>
<technologies>
<technology name="">
<attribute name="MF" value="" constant="no"/>
<attribute name="MPN" value="" constant="no"/>
<attribute name="OC_FARNELL" value="unknown" constant="no"/>
<attribute name="OC_NEWARK" value="unknown" constant="no"/>
</technology>
</technologies>
</device>
</devices>
</deviceset>
<deviceset name="MA03-2" urn="urn:adsk.eagle:component:8382/1" prefix="SV" uservalue="yes" library_version="1">
<description>&lt;b&gt;PIN HEADER&lt;/b&gt;</description>
<gates>
<gate name="1" symbol="MA03-2" x="0" y="0"/>
</gates>
<devices>
<device name="" package="MA03-2">
<connects>
<connect gate="1" pin="1" pad="1"/>
<connect gate="1" pin="2" pad="2"/>
<connect gate="1" pin="3" pad="3"/>
<connect gate="1" pin="4" pad="4"/>
<connect gate="1" pin="5" pad="5"/>
<connect gate="1" pin="6" pad="6"/>
</connects>
<package3dinstances>
<package3dinstance package3d_urn="urn:adsk.eagle:package:8334/1"/>
</package3dinstances>
<technologies>
<technology name="">
<attribute name="MF" value="" constant="no"/>
<attribute name="MPN" value="" constant="no"/>
<attribute name="OC_FARNELL" value="unknown" constant="no"/>
<attribute name="OC_NEWARK" value="unknown" constant="no"/>
</technology>
</technologies>
</device>
</devices>
</deviceset>
<deviceset name="MA04-1" urn="urn:adsk.eagle:component:8375/1" prefix="SV" uservalue="yes" library_version="1">
<description>&lt;b&gt;PIN HEADER&lt;/b&gt;</description>
<gates>
<gate name="1" symbol="MA04-1" x="0" y="0"/>
</gates>
<devices>
<device name="" package="MA04-1">
<connects>
<connect gate="1" pin="1" pad="1"/>
<connect gate="1" pin="2" pad="2"/>
<connect gate="1" pin="3" pad="3"/>
<connect gate="1" pin="4" pad="4"/>
</connects>
<package3dinstances>
<package3dinstance package3d_urn="urn:adsk.eagle:package:8337/1"/>
</package3dinstances>
<technologies>
<technology name="">
<attribute name="MF" value="" constant="no"/>
<attribute name="MPN" value="" constant="no"/>
<attribute name="OC_FARNELL" value="unknown" constant="no"/>
<attribute name="OC_NEWARK" value="unknown" constant="no"/>
</technology>
</technologies>
</device>
</devices>
</deviceset>
</devicesets>
</library>
<library name="pinhead" urn="urn:adsk.eagle:library:325">
<description>&lt;b&gt;Pin Header Connectors&lt;/b&gt;&lt;p&gt;
&lt;author&gt;Created by librarian@cadsoft.de&lt;/author&gt;</description>
<packages>
<package name="1X02" urn="urn:adsk.eagle:footprint:22309/1" library_version="3">
<description>&lt;b&gt;PIN HEADER&lt;/b&gt;</description>
<wire x1="-1.905" y1="1.27" x2="-0.635" y2="1.27" width="0.1524" layer="21"/>
<wire x1="-0.635" y1="1.27" x2="0" y2="0.635" width="0.1524" layer="21"/>
<wire x1="0" y1="0.635" x2="0" y2="-0.635" width="0.1524" layer="21"/>
<wire x1="0" y1="-0.635" x2="-0.635" y2="-1.27" width="0.1524" layer="21"/>
<wire x1="-2.54" y1="0.635" x2="-2.54" y2="-0.635" width="0.1524" layer="21"/>
<wire x1="-1.905" y1="1.27" x2="-2.54" y2="0.635" width="0.1524" layer="21"/>
<wire x1="-2.54" y1="-0.635" x2="-1.905" y2="-1.27" width="0.1524" layer="21"/>
<wire x1="-0.635" y1="-1.27" x2="-1.905" y2="-1.27" width="0.1524" layer="21"/>
<wire x1="0" y1="0.635" x2="0.635" y2="1.27" width="0.1524" layer="21"/>
<wire x1="0.635" y1="1.27" x2="1.905" y2="1.27" width="0.1524" layer="21"/>
<wire x1="1.905" y1="1.27" x2="2.54" y2="0.635" width="0.1524" layer="21"/>
<wire x1="2.54" y1="0.635" x2="2.54" y2="-0.635" width="0.1524" layer="21"/>
<wire x1="2.54" y1="-0.635" x2="1.905" y2="-1.27" width="0.1524" layer="21"/>
<wire x1="1.905" y1="-1.27" x2="0.635" y2="-1.27" width="0.1524" layer="21"/>
<wire x1="0.635" y1="-1.27" x2="0" y2="-0.635" width="0.1524" layer="21"/>
<pad name="1" x="-1.27" y="0" drill="1.016" shape="long" rot="R90"/>
<pad name="2" x="1.27" y="0" drill="1.016" shape="long" rot="R90"/>
<text x="-2.6162" y="1.8288" size="1.27" layer="25" ratio="10">&gt;NAME</text>
<text x="-2.54" y="-3.175" size="1.27" layer="27">&gt;VALUE</text>
<rectangle x1="-1.524" y1="-0.254" x2="-1.016" y2="0.254" layer="51"/>
<rectangle x1="1.016" y1="-0.254" x2="1.524" y2="0.254" layer="51"/>
</package>
<package name="1X02/90" urn="urn:adsk.eagle:footprint:22310/1" library_version="3">
<description>&lt;b&gt;PIN HEADER&lt;/b&gt;</description>
<wire x1="-2.54" y1="-1.905" x2="0" y2="-1.905" width="0.1524" layer="21"/>
<wire x1="0" y1="-1.905" x2="0" y2="0.635" width="0.1524" layer="21"/>
<wire x1="0" y1="0.635" x2="-2.54" y2="0.635" width="0.1524" layer="21"/>
<wire x1="-2.54" y1="0.635" x2="-2.54" y2="-1.905" width="0.1524" layer="21"/>
<wire x1="-1.27" y1="6.985" x2="-1.27" y2="1.27" width="0.762" layer="21"/>
<wire x1="0" y1="-1.905" x2="2.54" y2="-1.905" width="0.1524" layer="21"/>
<wire x1="2.54" y1="-1.905" x2="2.54" y2="0.635" width="0.1524" layer="21"/>
<wire x1="2.54" y1="0.635" x2="0" y2="0.635" width="0.1524" layer="21"/>
<wire x1="1.27" y1="6.985" x2="1.27" y2="1.27" width="0.762" layer="21"/>
<pad name="1" x="-1.27" y="-3.81" drill="1.016" shape="long" rot="R90"/>
<pad name="2" x="1.27" y="-3.81" drill="1.016" shape="long" rot="R90"/>
<text x="-3.175" y="-3.81" size="1.27" layer="25" ratio="10" rot="R90">&gt;NAME</text>
<text x="4.445" y="-3.81" size="1.27" layer="27" rot="R90">&gt;VALUE</text>
<rectangle x1="-1.651" y1="0.635" x2="-0.889" y2="1.143" layer="21"/>
<rectangle x1="0.889" y1="0.635" x2="1.651" y2="1.143" layer="21"/>
<rectangle x1="-1.651" y1="-2.921" x2="-0.889" y2="-1.905" layer="21"/>
<rectangle x1="0.889" y1="-2.921" x2="1.651" y2="-1.905" layer="21"/>
</package>
</packages>
<packages3d>
<package3d name="1X02" urn="urn:adsk.eagle:package:22435/2" type="model" library_version="3">
<description>PIN HEADER</description>
<packageinstances>
<packageinstance name="1X02"/>
</packageinstances>
</package3d>
<package3d name="1X02/90" urn="urn:adsk.eagle:package:22437/2" type="model" library_version="3">
<description>PIN HEADER</description>
<packageinstances>
<packageinstance name="1X02/90"/>
</packageinstances>
</package3d>
</packages3d>
<symbols>
<symbol name="PINHD2" urn="urn:adsk.eagle:symbol:22308/1" library_version="3">
<wire x1="-6.35" y1="-2.54" x2="1.27" y2="-2.54" width="0.4064" layer="94"/>
<wire x1="1.27" y1="-2.54" x2="1.27" y2="5.08" width="0.4064" layer="94"/>
<wire x1="1.27" y1="5.08" x2="-6.35" y2="5.08" width="0.4064" layer="94"/>
<wire x1="-6.35" y1="5.08" x2="-6.35" y2="-2.54" width="0.4064" layer="94"/>
<text x="-6.35" y="5.715" size="1.778" layer="95">&gt;NAME</text>
<text x="-6.35" y="-5.08" size="1.778" layer="96">&gt;VALUE</text>
<pin name="1" x="-2.54" y="2.54" visible="pad" length="short" direction="pas" function="dot"/>
<pin name="2" x="-2.54" y="0" visible="pad" length="short" direction="pas" function="dot"/>
</symbol>
</symbols>
<devicesets>
<deviceset name="PINHD-1X2" urn="urn:adsk.eagle:component:22516/3" prefix="JP" uservalue="yes" library_version="3">
<description>&lt;b&gt;PIN HEADER&lt;/b&gt;</description>
<gates>
<gate name="G$1" symbol="PINHD2" x="0" y="0"/>
</gates>
<devices>
<device name="" package="1X02">
<connects>
<connect gate="G$1" pin="1" pad="1"/>
<connect gate="G$1" pin="2" pad="2"/>
</connects>
<package3dinstances>
<package3dinstance package3d_urn="urn:adsk.eagle:package:22435/2"/>
</package3dinstances>
<technologies>
<technology name=""/>
</technologies>
</device>
<device name="/90" package="1X02/90">
<connects>
<connect gate="G$1" pin="1" pad="1"/>
<connect gate="G$1" pin="2" pad="2"/>
</connects>
<package3dinstances>
<package3dinstance package3d_urn="urn:adsk.eagle:package:22437/2"/>
</package3dinstances>
<technologies>
<technology name=""/>
</technologies>
</device>
</devices>
</deviceset>
</devicesets>
</library>
<library name="wirepad" urn="urn:adsk.eagle:library:412">
<description>&lt;b&gt;Single Pads&lt;/b&gt;&lt;p&gt;
&lt;author&gt;Created by librarian@cadsoft.de&lt;/author&gt;</description>
<packages>
<package name="3,17/1,1" urn="urn:adsk.eagle:footprint:30814/1" library_version="1">
<description>&lt;b&gt;THROUGH-HOLE PAD&lt;/b&gt;</description>
<wire x1="1.524" y1="-1.016" x2="1.524" y2="-1.524" width="0.1524" layer="21"/>
<wire x1="1.524" y1="-1.524" x2="1.016" y2="-1.524" width="0.1524" layer="21"/>
<wire x1="-1.016" y1="-1.524" x2="-1.524" y2="-1.524" width="0.1524" layer="21"/>
<wire x1="-1.524" y1="-1.524" x2="-1.524" y2="-1.016" width="0.1524" layer="21"/>
<wire x1="-1.524" y1="1.016" x2="-1.524" y2="1.524" width="0.1524" layer="21"/>
<wire x1="-1.524" y1="1.524" x2="-1.016" y2="1.524" width="0.1524" layer="21"/>
<wire x1="1.016" y1="1.524" x2="1.524" y2="1.524" width="0.1524" layer="21"/>
<wire x1="1.524" y1="1.524" x2="1.524" y2="1.016" width="0.1524" layer="21"/>
<circle x="0" y="0" radius="1.27" width="0.1524" layer="51"/>
<pad name="1" x="0" y="0" drill="1.1176" diameter="3.175" shape="octagon"/>
<text x="-1.524" y="1.905" size="1.27" layer="25" ratio="10">&gt;NAME</text>
<text x="0" y="1.2" size="0.0254" layer="27">&gt;VALUE</text>
</package>
<package name="1,6/0,8" urn="urn:adsk.eagle:footprint:30809/1" library_version="1">
<description>&lt;b&gt;THROUGH-HOLE PAD&lt;/b&gt;</description>
<wire x1="-0.762" y1="0.762" x2="-0.508" y2="0.762" width="0.1524" layer="21"/>
<wire x1="-0.762" y1="0.762" x2="-0.762" y2="0.508" width="0.1524" layer="21"/>
<wire x1="0.762" y1="0.762" x2="0.762" y2="0.508" width="0.1524" layer="21"/>
<wire x1="0.762" y1="0.762" x2="0.508" y2="0.762" width="0.1524" layer="21"/>
<wire x1="0.762" y1="-0.508" x2="0.762" y2="-0.762" width="0.1524" layer="21"/>
<wire x1="0.762" y1="-0.762" x2="0.508" y2="-0.762" width="0.1524" layer="21"/>
<wire x1="-0.508" y1="-0.762" x2="-0.762" y2="-0.762" width="0.1524" layer="21"/>
<wire x1="-0.762" y1="-0.762" x2="-0.762" y2="-0.508" width="0.1524" layer="21"/>
<circle x="0" y="0" radius="0.635" width="0.1524" layer="51"/>
<pad name="1" x="0" y="0" drill="0.8128" diameter="1.6002" shape="octagon"/>
<text x="-0.762" y="1.016" size="1.27" layer="25" ratio="10">&gt;NAME</text>
<text x="0" y="0.6" size="0.0254" layer="27">&gt;VALUE</text>
</package>
<package name="1,6/0,9" urn="urn:adsk.eagle:footprint:30812/1" library_version="1">
<description>&lt;b&gt;THROUGH-HOLE PAD&lt;/b&gt;</description>
<wire x1="-0.508" y1="0.762" x2="-0.762" y2="0.762" width="0.1524" layer="21"/>
<wire x1="-0.762" y1="0.762" x2="-0.762" y2="0.508" width="0.1524" layer="21"/>
<wire x1="-0.762" y1="-0.508" x2="-0.762" y2="-0.762" width="0.1524" layer="21"/>
<wire x1="-0.762" y1="-0.762" x2="-0.508" y2="-0.762" width="0.1524" layer="21"/>
<wire x1="0.508" y1="-0.762" x2="0.762" y2="-0.762" width="0.1524" layer="21"/>
<wire x1="0.762" y1="-0.762" x2="0.762" y2="-0.508" width="0.1524" layer="21"/>
<wire x1="0.762" y1="0.508" x2="0.762" y2="0.762" width="0.1524" layer="21"/>
<wire x1="0.762" y1="0.762" x2="0.508" y2="0.762" width="0.1524" layer="21"/>
<circle x="0" y="0" radius="0.635" width="0.1524" layer="51"/>
<pad name="1" x="0" y="0" drill="0.9144" diameter="1.6002" shape="octagon"/>
<text x="-0.762" y="1.016" size="1.27" layer="25" ratio="10">&gt;NAME</text>
<text x="0" y="0.6" size="0.0254" layer="27">&gt;VALUE</text>
</package>
<package name="2,15/1,0" urn="urn:adsk.eagle:footprint:30813/1" library_version="1">
<description>&lt;b&gt;THROUGH-HOLE PAD&lt;/b&gt;</description>
<wire x1="1.143" y1="-1.143" x2="1.143" y2="-0.635" width="0.1524" layer="21"/>
<wire x1="1.143" y1="-1.143" x2="0.635" y2="-1.143" width="0.1524" layer="21"/>
<wire x1="1.143" y1="0.635" x2="1.143" y2="1.143" width="0.1524" layer="21"/>
<wire x1="1.143" y1="1.143" x2="0.635" y2="1.143" width="0.1524" layer="21"/>
<wire x1="-0.635" y1="1.143" x2="-1.143" y2="1.143" width="0.1524" layer="21"/>
<wire x1="-1.143" y1="1.143" x2="-1.143" y2="0.635" width="0.1524" layer="21"/>
<wire x1="-1.143" y1="-0.635" x2="-1.143" y2="-1.143" width="0.1524" layer="21"/>
<wire x1="-1.143" y1="-1.143" x2="-0.635" y2="-1.143" width="0.1524" layer="21"/>
<circle x="0" y="0" radius="1.016" width="0.1524" layer="51"/>
<pad name="1" x="0" y="0" drill="1.016" diameter="2.159" shape="octagon"/>
<text x="-1.143" y="1.397" size="1.27" layer="25" ratio="10">&gt;NAME</text>
<text x="0" y="1" size="0.0254" layer="27">&gt;VALUE</text>
</package>
<package name="2,54/0,8" urn="urn:adsk.eagle:footprint:30820/1" library_version="1">
<description>&lt;b&gt;THROUGH-HOLE PAD&lt;/b&gt;</description>
<wire x1="-1.27" y1="1.27" x2="-0.762" y2="1.27" width="0.1524" layer="21"/>
<wire x1="-1.27" y1="1.27" x2="-1.27" y2="0.762" width="0.1524" layer="21"/>
<wire x1="1.27" y1="1.27" x2="1.27" y2="0.762" width="0.1524" layer="21"/>
<wire x1="1.27" y1="1.27" x2="0.762" y2="1.27" width="0.1524" layer="21"/>
<wire x1="1.27" y1="-0.762" x2="1.27" y2="-1.27" width="0.1524" layer="21"/>
<wire x1="1.27" y1="-1.27" x2="0.762" y2="-1.27" width="0.1524" layer="21"/>
<wire x1="-0.762" y1="-1.27" x2="-1.27" y2="-1.27" width="0.1524" layer="21"/>
<wire x1="-1.27" y1="-1.27" x2="-1.27" y2="-0.762" width="0.1524" layer="21"/>
<circle x="0" y="0" radius="0.635" width="0.1524" layer="51"/>
<pad name="1" x="0" y="0" drill="0.8128" diameter="2.54" shape="octagon"/>
<text x="-1.27" y="1.524" size="1.27" layer="25" ratio="10">&gt;NAME</text>
<text x="0" y="0.6" size="0.0254" layer="27">&gt;VALUE</text>
</package>
<package name="2,54/0,9" urn="urn:adsk.eagle:footprint:30821/1" library_version="1">
<description>&lt;b&gt;THROUGH-HOLE PAD&lt;/b&gt;</description>
<wire x1="-1.27" y1="1.27" x2="-0.762" y2="1.27" width="0.1524" layer="21"/>
<wire x1="-1.27" y1="1.27" x2="-1.27" y2="0.762" width="0.1524" layer="21"/>
<wire x1="1.27" y1="1.27" x2="1.27" y2="0.762" width="0.1524" layer="21"/>
<wire x1="1.27" y1="1.27" x2="0.762" y2="1.27" width="0.1524" layer="21"/>
<wire x1="1.27" y1="-0.762" x2="1.27" y2="-1.27" width="0.1524" layer="21"/>
<wire x1="1.27" y1="-1.27" x2="0.762" y2="-1.27" width="0.1524" layer="21"/>
<wire x1="-0.762" y1="-1.27" x2="-1.27" y2="-1.27" width="0.1524" layer="21"/>
<wire x1="-1.27" y1="-1.27" x2="-1.27" y2="-0.762" width="0.1524" layer="21"/>
<circle x="0" y="0" radius="0.635" width="0.1524" layer="51"/>
<pad name="1" x="0" y="0" drill="0.9144" diameter="2.54" shape="octagon"/>
<text x="-1.27" y="1.524" size="1.27" layer="25" ratio="10">&gt;NAME</text>
<text x="0" y="0.6" size="0.0254" layer="27">&gt;VALUE</text>
</package>
<package name="2,54/1,0" urn="urn:adsk.eagle:footprint:30810/1" library_version="1">
<description>&lt;b&gt;THROUGH-HOLE PAD&lt;/b&gt;</description>
<wire x1="1.27" y1="1.27" x2="1.27" y2="0.762" width="0.1524" layer="21"/>
<wire x1="1.27" y1="1.27" x2="0.762" y2="1.27" width="0.1524" layer="21"/>
<wire x1="-1.27" y1="1.27" x2="-0.762" y2="1.27" width="0.1524" layer="21"/>
<wire x1="-1.27" y1="1.27" x2="-1.27" y2="0.762" width="0.1524" layer="21"/>
<wire x1="-1.27" y1="-1.27" x2="-1.27" y2="-0.762" width="0.1524" layer="21"/>
<wire x1="-1.27" y1="-1.27" x2="-0.762" y2="-1.27" width="0.1524" layer="21"/>
<wire x1="0.762" y1="-1.27" x2="1.27" y2="-1.27" width="0.1524" layer="21"/>
<wire x1="1.27" y1="-1.27" x2="1.27" y2="-0.762" width="0.1524" layer="21"/>
<circle x="0" y="0" radius="1.016" width="0.1524" layer="51"/>
<pad name="1" x="0" y="0" drill="1.016" diameter="2.54" shape="octagon"/>
<text x="-1.27" y="1.524" size="1.27" layer="25" ratio="10">&gt;NAME</text>
<text x="0" y="1" size="0.0254" layer="27">&gt;VALUE</text>
</package>
<package name="2,54/1,1" urn="urn:adsk.eagle:footprint:30818/1" library_version="1">
<description>&lt;b&gt;THROUGH-HOLE PAD&lt;/b&gt;</description>
<wire x1="1.27" y1="1.27" x2="1.27" y2="0.762" width="0.1524" layer="21"/>
<wire x1="1.27" y1="1.27" x2="0.762" y2="1.27" width="0.1524" layer="21"/>
<wire x1="-1.27" y1="1.27" x2="-1.27" y2="0.762" width="0.1524" layer="21"/>
<wire x1="-1.27" y1="1.27" x2="-0.762" y2="1.27" width="0.1524" layer="21"/>
<wire x1="-1.27" y1="-1.27" x2="-1.27" y2="-0.762" width="0.1524" layer="21"/>
<wire x1="-1.27" y1="-1.27" x2="-0.762" y2="-1.27" width="0.1524" layer="21"/>
<wire x1="1.27" y1="-1.27" x2="0.762" y2="-1.27" width="0.1524" layer="21"/>
<wire x1="1.27" y1="-1.27" x2="1.27" y2="-0.762" width="0.1524" layer="21"/>
<circle x="0" y="0" radius="1.016" width="0.1524" layer="51"/>
<pad name="1" x="0" y="0" drill="1.1176" diameter="2.54" shape="octagon"/>
<text x="-1.27" y="1.524" size="1.27" layer="25" ratio="10">&gt;NAME</text>
<text x="0" y="1" size="0.0254" layer="27">&gt;VALUE</text>
</package>
<package name="3,17/1,2" urn="urn:adsk.eagle:footprint:30824/1" library_version="1">
<description>&lt;b&gt;THROUGH-HOLE PAD&lt;/b&gt;</description>
<wire x1="1.524" y1="-1.016" x2="1.524" y2="-1.524" width="0.1524" layer="21"/>
<wire x1="1.524" y1="-1.524" x2="1.016" y2="-1.524" width="0.1524" layer="21"/>
<wire x1="-1.016" y1="-1.524" x2="-1.524" y2="-1.524" width="0.1524" layer="21"/>
<wire x1="-1.524" y1="-1.524" x2="-1.524" y2="-1.016" width="0.1524" layer="21"/>
<wire x1="-1.524" y1="1.016" x2="-1.524" y2="1.524" width="0.1524" layer="21"/>
<wire x1="-1.524" y1="1.524" x2="-1.016" y2="1.524" width="0.1524" layer="21"/>
<wire x1="1.016" y1="1.524" x2="1.524" y2="1.524" width="0.1524" layer="21"/>
<wire x1="1.524" y1="1.524" x2="1.524" y2="1.016" width="0.1524" layer="21"/>
<circle x="0" y="0" radius="1.27" width="0.1524" layer="51"/>
<pad name="1" x="0" y="0" drill="1.1938" diameter="3.175" shape="octagon"/>
<text x="-1.524" y="1.905" size="1.27" layer="25" ratio="10">&gt;NAME</text>
<text x="0" y="1.2" size="0.0254" layer="27">&gt;VALUE</text>
</package>
<package name="3,17/1,3" urn="urn:adsk.eagle:footprint:30815/1" library_version="1">
<description>&lt;b&gt;THROUGH-HOLE PAD&lt;/b&gt;</description>
<wire x1="1.524" y1="-1.016" x2="1.524" y2="-1.524" width="0.1524" layer="21"/>
<wire x1="1.524" y1="-1.524" x2="1.016" y2="-1.524" width="0.1524" layer="21"/>
<wire x1="-1.016" y1="-1.524" x2="-1.524" y2="-1.524" width="0.1524" layer="21"/>
<wire x1="-1.524" y1="-1.524" x2="-1.524" y2="-1.016" width="0.1524" layer="21"/>
<wire x1="-1.524" y1="1.016" x2="-1.524" y2="1.524" width="0.1524" layer="21"/>
<wire x1="-1.524" y1="1.524" x2="-1.016" y2="1.524" width="0.1524" layer="21"/>
<wire x1="1.016" y1="1.524" x2="1.524" y2="1.524" width="0.1524" layer="21"/>
<wire x1="1.524" y1="1.524" x2="1.524" y2="1.016" width="0.1524" layer="21"/>
<circle x="0" y="0" radius="1.27" width="0.1524" layer="51"/>
<pad name="1" x="0" y="0" drill="1.3208" diameter="3.175" shape="octagon"/>
<text x="-1.524" y="1.905" size="1.27" layer="25" ratio="10">&gt;NAME</text>
<text x="0" y="1.2" size="0.0254" layer="27">&gt;VALUE</text>
</package>
<package name="3,81/1,1" urn="urn:adsk.eagle:footprint:30811/1" library_version="1">
<description>&lt;b&gt;THROUGH-HOLE PAD&lt;/b&gt;</description>
<wire x1="1.905" y1="-1.27" x2="1.905" y2="-1.905" width="0.1524" layer="21"/>
<wire x1="1.905" y1="-1.905" x2="1.27" y2="-1.905" width="0.1524" layer="21"/>
<wire x1="-1.27" y1="-1.905" x2="-1.905" y2="-1.905" width="0.1524" layer="21"/>
<wire x1="-1.905" y1="-1.905" x2="-1.905" y2="-1.27" width="0.1524" layer="21"/>
<wire x1="-1.905" y1="1.27" x2="-1.905" y2="1.905" width="0.1524" layer="21"/>
<wire x1="-1.905" y1="1.905" x2="-1.27" y2="1.905" width="0.1524" layer="21"/>
<wire x1="1.27" y1="1.905" x2="1.905" y2="1.905" width="0.1524" layer="21"/>
<wire x1="1.905" y1="1.905" x2="1.905" y2="1.27" width="0.1524" layer="21"/>
<circle x="0" y="0" radius="1.27" width="0.1524" layer="51"/>
<pad name="1" x="0" y="0" drill="1.1176" diameter="3.81" shape="octagon"/>
<text x="-1.905" y="2.286" size="1.27" layer="25" ratio="10">&gt;NAME</text>
<text x="0" y="1.2" size="0.0254" layer="27">&gt;VALUE</text>
</package>
<package name="3,81/1,3" urn="urn:adsk.eagle:footprint:30816/1" library_version="1">
<description>&lt;b&gt;THROUGH-HOLE PAD&lt;/b&gt;</description>
<wire x1="1.905" y1="-1.27" x2="1.905" y2="-1.905" width="0.1524" layer="21"/>
<wire x1="1.905" y1="-1.905" x2="1.27" y2="-1.905" width="0.1524" layer="21"/>
<wire x1="-1.27" y1="-1.905" x2="-1.905" y2="-1.905" width="0.1524" layer="21"/>
<wire x1="-1.905" y1="-1.905" x2="-1.905" y2="-1.27" width="0.1524" layer="21"/>
<wire x1="-1.905" y1="1.27" x2="-1.905" y2="1.905" width="0.1524" layer="21"/>
<wire x1="-1.905" y1="1.905" x2="-1.27" y2="1.905" width="0.1524" layer="21"/>
<wire x1="1.27" y1="1.905" x2="1.905" y2="1.905" width="0.1524" layer="21"/>
<wire x1="1.905" y1="1.905" x2="1.905" y2="1.27" width="0.1524" layer="21"/>
<circle x="0" y="0" radius="1.27" width="0.1524" layer="51"/>
<pad name="1" x="0" y="0" drill="1.3208" diameter="3.81" shape="octagon"/>
<text x="-1.905" y="2.286" size="1.27" layer="25" ratio="10">&gt;NAME</text>
<text x="0" y="1.2" size="0.0254" layer="27">&gt;VALUE</text>
</package>
<package name="3,81/1,4" urn="urn:adsk.eagle:footprint:30817/1" library_version="1">
<description>&lt;b&gt;THROUGH-HOLE PAD&lt;/b&gt;</description>
<wire x1="1.905" y1="-1.27" x2="1.905" y2="-1.905" width="0.1524" layer="21"/>
<wire x1="1.905" y1="-1.905" x2="1.27" y2="-1.905" width="0.1524" layer="21"/>
<wire x1="-1.27" y1="-1.905" x2="-1.905" y2="-1.905" width="0.1524" layer="21"/>
<wire x1="-1.905" y1="-1.905" x2="-1.905" y2="-1.27" width="0.1524" layer="21"/>
<wire x1="-1.905" y1="1.27" x2="-1.905" y2="1.905" width="0.1524" layer="21"/>
<wire x1="-1.905" y1="1.905" x2="-1.27" y2="1.905" width="0.1524" layer="21"/>
<wire x1="1.27" y1="1.905" x2="1.905" y2="1.905" width="0.1524" layer="21"/>
<wire x1="1.905" y1="1.905" x2="1.905" y2="1.27" width="0.1524" layer="21"/>
<circle x="0" y="0" radius="1.27" width="0.1524" layer="51"/>
<pad name="1" x="0" y="0" drill="1.397" diameter="3.81" shape="octagon"/>
<text x="-1.905" y="2.286" size="1.27" layer="25" ratio="10">&gt;NAME</text>
<text x="0" y="1.2" size="0.0254" layer="27">&gt;VALUE</text>
</package>
<package name="4,16O1,6" urn="urn:adsk.eagle:footprint:30825/1" library_version="1">
<description>&lt;b&gt;THROUGH-HOLE PAD&lt;/b&gt;</description>
<pad name="1" x="0" y="0" drill="1.6002" diameter="4.1656" shape="octagon"/>
<text x="0" y="0" size="0.0254" layer="27">&gt;VALUE</text>
<text x="-2.1" y="2.2" size="1.27" layer="25">&gt;NAME</text>
</package>
<package name="5-1,8" urn="urn:adsk.eagle:footprint:30826/1" library_version="1">
<description>&lt;b&gt;THROUGH-HOLE PAD&lt;/b&gt;</description>
<wire x1="1.1684" y1="2.794" x2="-1.1684" y2="2.794" width="0.1524" layer="21"/>
<wire x1="-1.1684" y1="-2.794" x2="-1.1684" y2="2.794" width="0.1524" layer="21"/>
<wire x1="-1.1684" y1="-2.794" x2="1.1684" y2="-2.794" width="0.1524" layer="21"/>
<wire x1="1.1684" y1="2.794" x2="1.1684" y2="-2.794" width="0.1524" layer="21"/>
<smd name="1" x="0" y="0" dx="1.8288" dy="5.08" layer="1"/>
<text x="-1.524" y="-2.54" size="1.27" layer="25" ratio="10" rot="R90">&gt;NAME</text>
<text x="-0.1" y="2.8" size="0.0254" layer="27">&gt;VALUE</text>
</package>
<package name="5-2,5" urn="urn:adsk.eagle:footprint:30827/1" library_version="1">
<description>&lt;b&gt;THROUGH-HOLE PAD&lt;/b&gt;</description>
<wire x1="1.524" y1="2.794" x2="-1.524" y2="2.794" width="0.1524" layer="21"/>
<wire x1="-1.524" y1="-2.794" x2="-1.524" y2="2.794" width="0.1524" layer="21"/>
<wire x1="-1.524" y1="-2.794" x2="1.524" y2="-2.794" width="0.1524" layer="21"/>
<wire x1="1.524" y1="2.794" x2="1.524" y2="-2.794" width="0.1524" layer="21"/>
<smd name="1" x="0" y="0" dx="2.54" dy="5.08" layer="1"/>
<text x="-1.778" y="-2.54" size="1.27" layer="25" ratio="10" rot="R90">&gt;NAME</text>
<text x="-0.1" y="2.8" size="0.0254" layer="27">&gt;VALUE</text>
</package>
<package name="SMD1,27-2,54" urn="urn:adsk.eagle:footprint:30822/1" library_version="1">
<description>&lt;b&gt;SMD PAD&lt;/b&gt;</description>
<smd name="1" x="0" y="0" dx="1.27" dy="2.54" layer="1"/>
<text x="0" y="0" size="0.0254" layer="27">&gt;VALUE</text>
<text x="-0.8" y="-2.4" size="1.27" layer="25" rot="R90">&gt;NAME</text>
</package>
<package name="SMD2,54-5,08" urn="urn:adsk.eagle:footprint:30823/1" library_version="1">
<description>&lt;b&gt;SMD PAD&lt;/b&gt;</description>
<smd name="1" x="0" y="0" dx="2.54" dy="5.08" layer="1"/>
<text x="0" y="0" size="0.0254" layer="27">&gt;VALUE</text>
<text x="-1.5" y="-2.5" size="1.27" layer="25" rot="R90">&gt;NAME</text>
</package>
</packages>
<packages3d>
<package3d name="3,17/1,1" urn="urn:adsk.eagle:package:30832/1" type="box" library_version="1">
<description>THROUGH-HOLE PAD</description>
<packageinstances>
<packageinstance name="3,17/1,1"/>
</packageinstances>
</package3d>
<package3d name="1,6/0,8" urn="urn:adsk.eagle:package:30830/1" type="box" library_version="1">
<description>THROUGH-HOLE PAD</description>
<packageinstances>
<packageinstance name="1,6/0,8"/>
</packageinstances>
</package3d>
<package3d name="1,6/0,9" urn="urn:adsk.eagle:package:30840/1" type="box" library_version="1">
<description>THROUGH-HOLE PAD</description>
<packageinstances>
<packageinstance name="1,6/0,9"/>
</packageinstances>
</package3d>
<package3d name="2,15/1,0" urn="urn:adsk.eagle:package:30831/1" type="box" library_version="1">
<description>THROUGH-HOLE PAD</description>
<packageinstances>
<packageinstance name="2,15/1,0"/>
</packageinstances>
</package3d>
<package3d name="2,54/0,8" urn="urn:adsk.eagle:package:30838/1" type="box" library_version="1">
<description>THROUGH-HOLE PAD</description>
<packageinstances>
<packageinstance name="2,54/0,8"/>
</packageinstances>
</package3d>
<package3d name="2,54/0,9" urn="urn:adsk.eagle:package:30847/1" type="box" library_version="1">
<description>THROUGH-HOLE PAD</description>
<packageinstances>
<packageinstance name="2,54/0,9"/>
</packageinstances>
</package3d>
<package3d name="2,54/1,0" urn="urn:adsk.eagle:package:30828/1" type="box" library_version="1">
<description>THROUGH-HOLE PAD</description>
<packageinstances>
<packageinstance name="2,54/1,0"/>
</packageinstances>
</package3d>
<package3d name="2,54/1,1" urn="urn:adsk.eagle:package:30836/1" type="box" library_version="1">
<description>THROUGH-HOLE PAD</description>
<packageinstances>
<packageinstance name="2,54/1,1"/>
</packageinstances>
</package3d>
<package3d name="3,17/1,2" urn="urn:adsk.eagle:package:30842/1" type="box" library_version="1">
<description>THROUGH-HOLE PAD</description>
<packageinstances>
<packageinstance name="3,17/1,2"/>
</packageinstances>
</package3d>
<package3d name="3,17/1,3" urn="urn:adsk.eagle:package:30833/1" type="box" library_version="1">
<description>THROUGH-HOLE PAD</description>
<packageinstances>
<packageinstance name="3,17/1,3"/>
</packageinstances>
</package3d>
<package3d name="3,81/1,1" urn="urn:adsk.eagle:package:30829/1" type="box" library_version="1">
<description>THROUGH-HOLE PAD</description>
<packageinstances>
<packageinstance name="3,81/1,1"/>
</packageinstances>
</package3d>
<package3d name="3,81/1,3" urn="urn:adsk.eagle:package:30834/1" type="box" library_version="1">
<description>THROUGH-HOLE PAD</description>
<packageinstances>
<packageinstance name="3,81/1,3"/>
</packageinstances>
</package3d>
<package3d name="3,81/1,4" urn="urn:adsk.eagle:package:30835/1" type="box" library_version="1">
<description>THROUGH-HOLE PAD</description>
<packageinstances>
<packageinstance name="3,81/1,4"/>
</packageinstances>
</package3d>
<package3d name="4,16O1,6" urn="urn:adsk.eagle:package:30843/1" type="box" library_version="1">
<description>THROUGH-HOLE PAD</description>
<packageinstances>
<packageinstance name="4,16O1,6"/>
</packageinstances>
</package3d>
<package3d name="5-1,8" urn="urn:adsk.eagle:package:30844/1" type="box" library_version="1">
<description>THROUGH-HOLE PAD</description>
<packageinstances>
<packageinstance name="5-1,8"/>
</packageinstances>
</package3d>
<package3d name="5-2,5" urn="urn:adsk.eagle:package:30845/1" type="box" library_version="1">
<description>THROUGH-HOLE PAD</description>
<packageinstances>
<packageinstance name="5-2,5"/>
</packageinstances>
</package3d>
<package3d name="SMD1,27-2,54" urn="urn:adsk.eagle:package:30839/1" type="box" library_version="1">
<description>SMD PAD</description>
<packageinstances>
<packageinstance name="SMD1,27-2,54"/>
</packageinstances>
</package3d>
<package3d name="SMD2,54-5,08" urn="urn:adsk.eagle:package:30841/1" type="box" library_version="1">
<description>SMD PAD</description>
<packageinstances>
<packageinstance name="SMD2,54-5,08"/>
</packageinstances>
</package3d>
</packages3d>
<symbols>
<symbol name="PAD" urn="urn:adsk.eagle:symbol:30808/1" library_version="1">
<wire x1="-1.016" y1="1.016" x2="1.016" y2="-1.016" width="0.254" layer="94"/>
<wire x1="-1.016" y1="-1.016" x2="1.016" y2="1.016" width="0.254" layer="94"/>
<text x="-1.143" y="1.8542" size="1.778" layer="95">&gt;NAME</text>
<text x="-1.143" y="-3.302" size="1.778" layer="96">&gt;VALUE</text>
<pin name="P" x="2.54" y="0" visible="off" length="short" direction="pas" rot="R180"/>
</symbol>
</symbols>
<devicesets>
<deviceset name="WIREPAD" urn="urn:adsk.eagle:component:30861/1" prefix="PAD" library_version="1">
<description>&lt;b&gt;Wire PAD&lt;/b&gt; connect wire on PCB</description>
<gates>
<gate name="G$1" symbol="PAD" x="0" y="0"/>
</gates>
<devices>
<device name="1,6/0,8" package="1,6/0,8">
<connects>
<connect gate="G$1" pin="P" pad="1"/>
</connects>
<package3dinstances>
<package3dinstance package3d_urn="urn:adsk.eagle:package:30830/1"/>
</package3dinstances>
<technologies>
<technology name=""/>
</technologies>
</device>
<device name="1,6/0,9" package="1,6/0,9">
<connects>
<connect gate="G$1" pin="P" pad="1"/>
</connects>
<package3dinstances>
<package3dinstance package3d_urn="urn:adsk.eagle:package:30840/1"/>
</package3dinstances>
<technologies>
<technology name=""/>
</technologies>
</device>
<device name="2,15/1,0" package="2,15/1,0">
<connects>
<connect gate="G$1" pin="P" pad="1"/>
</connects>
<package3dinstances>
<package3dinstance package3d_urn="urn:adsk.eagle:package:30831/1"/>
</package3dinstances>
<technologies>
<technology name=""/>
</technologies>
</device>
<device name="2,54/0,8" package="2,54/0,8">
<connects>
<connect gate="G$1" pin="P" pad="1"/>
</connects>
<package3dinstances>
<package3dinstance package3d_urn="urn:adsk.eagle:package:30838/1"/>
</package3dinstances>
<technologies>
<technology name=""/>
</technologies>
</device>
<device name="2,54/0,9" package="2,54/0,9">
<connects>
<connect gate="G$1" pin="P" pad="1"/>
</connects>
<package3dinstances>
<package3dinstance package3d_urn="urn:adsk.eagle:package:30847/1"/>
</package3dinstances>
<technologies>
<technology name=""/>
</technologies>
</device>
<device name="2,54/1,0" package="2,54/1,0">
<connects>
<connect gate="G$1" pin="P" pad="1"/>
</connects>
<package3dinstances>
<package3dinstance package3d_urn="urn:adsk.eagle:package:30828/1"/>
</package3dinstances>
<technologies>
<technology name=""/>
</technologies>
</device>
<device name="2,54/1,1" package="2,54/1,1">
<connects>
<connect gate="G$1" pin="P" pad="1"/>
</connects>
<package3dinstances>
<package3dinstance package3d_urn="urn:adsk.eagle:package:30836/1"/>
</package3dinstances>
<technologies>
<technology name=""/>
</technologies>
</device>
<device name="3,17/1,1" package="3,17/1,1">
<connects>
<connect gate="G$1" pin="P" pad="1"/>
</connects>
<package3dinstances>
<package3dinstance package3d_urn="urn:adsk.eagle:package:30832/1"/>
</package3dinstances>
<technologies>
<technology name=""/>
</technologies>
</device>
<device name="3,17/1,2" package="3,17/1,2">
<connects>
<connect gate="G$1" pin="P" pad="1"/>
</connects>
<package3dinstances>
<package3dinstance package3d_urn="urn:adsk.eagle:package:30842/1"/>
</package3dinstances>
<technologies>
<technology name=""/>
</technologies>
</device>
<device name="3,17/1,3" package="3,17/1,3">
<connects>
<connect gate="G$1" pin="P" pad="1"/>
</connects>
<package3dinstances>
<package3dinstance package3d_urn="urn:adsk.eagle:package:30833/1"/>
</package3dinstances>
<technologies>
<technology name=""/>
</technologies>
</device>
<device name="3,81/1,1" package="3,81/1,1">
<connects>
<connect gate="G$1" pin="P" pad="1"/>
</connects>
<package3dinstances>
<package3dinstance package3d_urn="urn:adsk.eagle:package:30829/1"/>
</package3dinstances>
<technologies>
<technology name=""/>
</technologies>
</device>
<device name="3,81/1,3" package="3,81/1,3">
<connects>
<connect gate="G$1" pin="P" pad="1"/>
</connects>
<package3dinstances>
<package3dinstance package3d_urn="urn:adsk.eagle:package:30834/1"/>
</package3dinstances>
<technologies>
<technology name=""/>
</technologies>
</device>
<device name="3,81/1,4" package="3,81/1,4">
<connects>
<connect gate="G$1" pin="P" pad="1"/>
</connects>
<package3dinstances>
<package3dinstance package3d_urn="urn:adsk.eagle:package:30835/1"/>
</package3dinstances>
<technologies>
<technology name=""/>
</technologies>
</device>
<device name="4,16O1,6" package="4,16O1,6">
<connects>
<connect gate="G$1" pin="P" pad="1"/>
</connects>
<package3dinstances>
<package3dinstance package3d_urn="urn:adsk.eagle:package:30843/1"/>
</package3dinstances>
<technologies>
<technology name=""/>
</technologies>
</device>
<device name="SMD5-1,8" package="5-1,8">
<connects>
<connect gate="G$1" pin="P" pad="1"/>
</connects>
<package3dinstances>
<package3dinstance package3d_urn="urn:adsk.eagle:package:30844/1"/>
</package3dinstances>
<technologies>
<technology name=""/>
</technologies>
</device>
<device name="SMD5-2,5" package="5-2,5">
<connects>
<connect gate="G$1" pin="P" pad="1"/>
</connects>
<package3dinstances>
<package3dinstance package3d_urn="urn:adsk.eagle:package:30845/1"/>
</package3dinstances>
<technologies>
<technology name=""/>
</technologies>
</device>
<device name="SMD1,27-254" package="SMD1,27-2,54">
<connects>
<connect gate="G$1" pin="P" pad="1"/>
</connects>
<package3dinstances>
<package3dinstance package3d_urn="urn:adsk.eagle:package:30839/1"/>
</package3dinstances>
<technologies>
<technology name=""/>
</technologies>
</device>
<device name="SMD2,54-5,08" package="SMD2,54-5,08">
<connects>
<connect gate="G$1" pin="P" pad="1"/>
</connects>
<package3dinstances>
<package3dinstance package3d_urn="urn:adsk.eagle:package:30841/1"/>
</package3dinstances>
<technologies>
<technology name=""/>
</technologies>
</device>
</devices>
</deviceset>
</devicesets>
</library>
</libraries>
<attributes>
</attributes>
<variantdefs>
</variantdefs>
<classes>
<class number="0" name="default" width="0" drill="0">
</class>
</classes>
<parts>
<part name="U1" library="esp8266modules" deviceset="ESP12E" device="SMD"/>
<part name="P+1" library="supply1" library_urn="urn:adsk.eagle:library:371" deviceset="VCC" device=""/>
<part name="X_1" library="ngspice-simulation" library_urn="urn:adsk.eagle:library:527439" deviceset="GND" device=""/>
<part name="IC1" library="ams1117-3.3v" deviceset="AMS1117-3.3V" device=""/>
<part name="G0/RX/TX/-/+" library="con-lstb" library_urn="urn:adsk.eagle:library:162" deviceset="MA05-1" device="" package3d_urn="urn:adsk.eagle:package:8332/1"/>
<part name="JP1" library="pinhead" library_urn="urn:adsk.eagle:library:325" deviceset="PINHD-1X2" device="" package3d_urn="urn:adsk.eagle:package:22435/2"/>
<part name="SV1" library="con-lstb" library_urn="urn:adsk.eagle:library:162" deviceset="MA03-1" device="" package3d_urn="urn:adsk.eagle:package:8339/1"/>
<part name="PAD4" library="wirepad" library_urn="urn:adsk.eagle:library:412" deviceset="WIREPAD" device="SMD5-2,5" package3d_urn="urn:adsk.eagle:package:30845/1"/>
<part name="PAD1" library="wirepad" library_urn="urn:adsk.eagle:library:412" deviceset="WIREPAD" device="SMD5-2,5" package3d_urn="urn:adsk.eagle:package:30845/1"/>
<part name="SV2" library="con-lstb" library_urn="urn:adsk.eagle:library:162" deviceset="MA03-2" device="" package3d_urn="urn:adsk.eagle:package:8334/1"/>
<part name="PAD2" library="wirepad" library_urn="urn:adsk.eagle:library:412" deviceset="WIREPAD" device="SMD5-2,5" package3d_urn="urn:adsk.eagle:package:30845/1"/>
<part name="PAD3" library="wirepad" library_urn="urn:adsk.eagle:library:412" deviceset="WIREPAD" device="SMD5-2,5" package3d_urn="urn:adsk.eagle:package:30845/1"/>
<part name="LSM9DS1" library="con-lstb" library_urn="urn:adsk.eagle:library:162" deviceset="MA04-1" device="" package3d_urn="urn:adsk.eagle:package:8337/1"/>
</parts>
<sheets>
<sheet>
<plain>
</plain>
<instances>
<instance part="U1" gate="G$1" x="78.74" y="78.74" smashed="yes">
<attribute name="NAME" x="66.04" y="88.9" size="1.778" layer="95"/>
<attribute name="VALUE" x="86.36" y="53.34" size="1.778" layer="96"/>
</instance>
<instance part="P+1" gate="VCC" x="-2.54" y="101.6" smashed="yes">
<attribute name="VALUE" x="-5.08" y="99.06" size="1.778" layer="96" rot="R90"/>
</instance>
<instance part="X_1" gate="G$1" x="0" y="0" smashed="yes"/>
<instance part="IC1" gate="G$1" x="-83.82" y="73.66" smashed="yes">
<attribute name="NAME" x="-36.83" y="81.28" size="1.778" layer="95" align="center-left"/>
<attribute name="VALUE" x="-36.83" y="78.74" size="1.778" layer="96" align="center-left"/>
</instance>
<instance part="G0/RX/TX/-/+" gate="G$1" x="63.5" y="144.78" smashed="yes">
<attribute name="VALUE" x="62.23" y="134.62" size="1.778" layer="96"/>
<attribute name="NAME" x="62.23" y="153.162" size="1.778" layer="95"/>
</instance>
<instance part="JP1" gate="G$1" x="-104.14" y="71.12" smashed="yes">
<attribute name="NAME" x="-110.49" y="76.835" size="1.778" layer="95"/>
<attribute name="VALUE" x="-110.49" y="66.04" size="1.778" layer="96"/>
</instance>
<instance part="SV1" gate="G$1" x="-78.74" y="106.68" smashed="yes">
<attribute name="VALUE" x="-80.01" y="99.06" size="1.778" layer="96"/>
<attribute name="NAME" x="-80.01" y="112.522" size="1.778" layer="95"/>
</instance>
<instance part="PAD4" gate="G$1" x="-53.34" y="99.06" smashed="yes">
<attribute name="NAME" x="-54.483" y="100.9142" size="1.778" layer="95"/>
<attribute name="VALUE" x="-54.483" y="95.758" size="1.778" layer="96"/>
</instance>
<instance part="PAD1" gate="G$1" x="-53.34" y="114.3" smashed="yes">
<attribute name="NAME" x="-54.483" y="116.1542" size="1.778" layer="95"/>
<attribute name="VALUE" x="-54.483" y="110.998" size="1.778" layer="96"/>
</instance>
<instance part="SV2" gate="1" x="134.62" y="142.24" smashed="yes" rot="R180">
<attribute name="VALUE" x="138.43" y="149.86" size="1.778" layer="96" rot="R180"/>
<attribute name="NAME" x="138.43" y="136.398" size="1.778" layer="95" rot="R180"/>
</instance>
<instance part="PAD2" gate="G$1" x="-53.34" y="124.46" smashed="yes">
<attribute name="NAME" x="-54.483" y="126.3142" size="1.778" layer="95"/>
<attribute name="VALUE" x="-54.483" y="121.158" size="1.778" layer="96"/>
</instance>
<instance part="PAD3" gate="G$1" x="-53.34" y="91.44" smashed="yes">
<attribute name="NAME" x="-54.483" y="93.2942" size="1.778" layer="95"/>
<attribute name="VALUE" x="-54.483" y="88.138" size="1.778" layer="96"/>
</instance>
<instance part="LSM9DS1" gate="1" x="12.7" y="76.2" smashed="yes">
<attribute name="VALUE" x="11.43" y="66.04" size="1.778" layer="96"/>
<attribute name="NAME" x="11.43" y="82.042" size="1.778" layer="95"/>
</instance>
</instances>
<busses>
</busses>
<nets>
<net name="VCC" class="0">
<segment>
<pinref part="P+1" gate="VCC" pin="VCC"/>
<wire x1="-2.54" y1="99.06" x2="-2.54" y2="96.52" width="0.1524" layer="91"/>
</segment>
<segment>
<pinref part="IC1" gate="G$1" pin="VIN"/>
<label x="-88.9" y="68.58" size="1.778" layer="95"/>
<pinref part="JP1" gate="G$1" pin="2"/>
<wire x1="-106.68" y1="71.12" x2="-93.98" y2="71.12" width="0.1524" layer="91"/>
<wire x1="-93.98" y1="71.12" x2="-93.98" y2="68.58" width="0.1524" layer="91"/>
<wire x1="-93.98" y1="68.58" x2="-83.82" y2="68.58" width="0.1524" layer="91"/>
</segment>
<segment>
<pinref part="G0/RX/TX/-/+" gate="G$1" pin="5"/>
<wire x1="71.12" y1="149.86" x2="73.66" y2="149.86" width="0.1524" layer="91"/>
<label x="73.66" y="149.86" size="1.778" layer="95"/>
</segment>
</net>
<net name="GND" class="0">
<segment>
<pinref part="X_1" gate="G$1" pin="0"/>
<wire x1="0" y1="0" x2="0" y2="2.54" width="0.1524" layer="91"/>
<label x="0" y="5.08" size="1.778" layer="95"/>
</segment>
<segment>
<pinref part="U1" gate="G$1" pin="GPIO15"/>
<pinref part="U1" gate="G$1" pin="GND"/>
<wire x1="93.98" y1="71.12" x2="93.98" y2="68.58" width="0.1524" layer="91"/>
<wire x1="93.98" y1="68.58" x2="96.52" y2="68.58" width="0.1524" layer="91"/>
<junction x="93.98" y="68.58"/>
<label x="96.52" y="68.58" size="1.778" layer="95"/>
</segment>
<segment>
<pinref part="IC1" gate="G$1" pin="GROUND/ADJUST"/>
<label x="-88.9" y="73.66" size="1.778" layer="95"/>
<pinref part="JP1" gate="G$1" pin="1"/>
<wire x1="-106.68" y1="73.66" x2="-83.82" y2="73.66" width="0.1524" layer="91"/>
</segment>
<segment>
<pinref part="G0/RX/TX/-/+" gate="G$1" pin="4"/>
<wire x1="71.12" y1="147.32" x2="73.66" y2="147.32" width="0.1524" layer="91"/>
<label x="73.66" y="147.32" size="1.778" layer="95"/>
</segment>
<segment>
<wire x1="142.24" y1="139.7" x2="162.56" y2="139.7" width="0.1524" layer="91"/>
<label x="162.56" y="139.7" size="1.778" layer="95"/>
<pinref part="SV2" gate="1" pin="6"/>
</segment>
<segment>
<pinref part="LSM9DS1" gate="1" pin="4"/>
<wire x1="20.32" y1="78.74" x2="22.86" y2="78.74" width="0.1524" layer="91"/>
<label x="22.86" y="78.74" size="1.778" layer="95"/>
</segment>
</net>
<net name="VCC33" class="0">
<segment>
<pinref part="U1" gate="G$1" pin="VCC"/>
<wire x1="60.96" y1="68.58" x2="58.42" y2="68.58" width="0.1524" layer="91"/>
<label x="50.8" y="68.58" size="1.778" layer="95"/>
<pinref part="U1" gate="G$1" pin="CH_PD"/>
<wire x1="60.96" y1="81.28" x2="58.42" y2="81.28" width="0.1524" layer="91"/>
<wire x1="58.42" y1="81.28" x2="58.42" y2="68.58" width="0.1524" layer="91"/>
</segment>
<segment>
<pinref part="IC1" gate="G$1" pin="VOUT"/>
<wire x1="-83.82" y1="71.12" x2="-86.36" y2="71.12" width="0.1524" layer="91"/>
<label x="-88.9" y="71.12" size="1.778" layer="95"/>
</segment>
<segment>
<label x="114.3" y="144.78" size="1.778" layer="95"/>
<pinref part="SV2" gate="1" pin="1"/>
<wire x1="127" y1="144.78" x2="121.92" y2="144.78" width="0.1524" layer="91"/>
</segment>
<segment>
<wire x1="177.8" y1="76.2" x2="180.34" y2="76.2" width="0.1524" layer="91"/>
</segment>
<segment>
<pinref part="LSM9DS1" gate="1" pin="3"/>
<wire x1="20.32" y1="76.2" x2="22.86" y2="76.2" width="0.1524" layer="91"/>
<label x="22.86" y="76.2" size="1.778" layer="95"/>
</segment>
</net>
<net name="TX" class="0">
<segment>
<pinref part="G0/RX/TX/-/+" gate="G$1" pin="3"/>
<wire x1="71.12" y1="144.78" x2="73.66" y2="144.78" width="0.1524" layer="91"/>
<label x="73.66" y="144.78" size="1.778" layer="95"/>
</segment>
<segment>
<pinref part="U1" gate="G$1" pin="TX"/>
<wire x1="93.98" y1="86.36" x2="96.52" y2="86.36" width="0.1524" layer="91"/>
<label x="96.52" y="86.36" size="1.778" layer="95"/>
</segment>
</net>
<net name="RX" class="0">
<segment>
<pinref part="G0/RX/TX/-/+" gate="G$1" pin="2"/>
<wire x1="71.12" y1="142.24" x2="73.66" y2="142.24" width="0.1524" layer="91"/>
<label x="73.66" y="142.24" size="1.778" layer="95"/>
</segment>
<segment>
<pinref part="U1" gate="G$1" pin="RX"/>
<wire x1="93.98" y1="83.82" x2="96.52" y2="83.82" width="0.1524" layer="91"/>
<label x="96.52" y="83.82" size="1.778" layer="95"/>
</segment>
</net>
<net name="GPIO0" class="0">
<segment>
<pinref part="G0/RX/TX/-/+" gate="G$1" pin="1"/>
<wire x1="71.12" y1="139.7" x2="73.66" y2="139.7" width="0.1524" layer="91"/>
<label x="73.66" y="139.7" size="1.778" layer="95"/>
</segment>
<segment>
<pinref part="U1" gate="G$1" pin="GPIO0"/>
<wire x1="93.98" y1="76.2" x2="96.52" y2="76.2" width="0.1524" layer="91"/>
<label x="96.52" y="76.2" size="1.778" layer="95"/>
</segment>
</net>
<net name="SDA" class="0">
<segment>
<label x="116.84" y="142.24" size="1.778" layer="95"/>
<pinref part="SV2" gate="1" pin="3"/>
<wire x1="127" y1="142.24" x2="121.92" y2="142.24" width="0.1524" layer="91"/>
</segment>
<segment>
<pinref part="U1" gate="G$1" pin="GPIO4"/>
<wire x1="93.98" y1="78.74" x2="96.52" y2="78.74" width="0.1524" layer="91"/>
<label x="96.52" y="78.74" size="1.778" layer="95"/>
</segment>
<segment>
<pinref part="LSM9DS1" gate="1" pin="2"/>
<wire x1="20.32" y1="73.66" x2="22.86" y2="73.66" width="0.1524" layer="91"/>
<label x="22.86" y="73.66" size="1.778" layer="95"/>
</segment>
</net>
<net name="SCL" class="0">
<segment>
<label x="116.84" y="139.7" size="1.778" layer="95"/>
<pinref part="SV2" gate="1" pin="5"/>
<wire x1="127" y1="139.7" x2="121.92" y2="139.7" width="0.1524" layer="91"/>
</segment>
<segment>
<pinref part="U1" gate="G$1" pin="GPIO5"/>
<wire x1="93.98" y1="81.28" x2="96.52" y2="81.28" width="0.1524" layer="91"/>
<label x="96.52" y="81.28" size="1.778" layer="95"/>
</segment>
<segment>
<pinref part="LSM9DS1" gate="1" pin="1"/>
<wire x1="20.32" y1="71.12" x2="22.86" y2="71.12" width="0.1524" layer="91"/>
<label x="22.86" y="71.12" size="1.778" layer="95"/>
</segment>
</net>
<net name="N$1" class="0">
<segment>
<pinref part="PAD1" gate="G$1" pin="P"/>
<pinref part="SV1" gate="G$1" pin="3"/>
<wire x1="-50.8" y1="114.3" x2="-50.8" y2="109.22" width="0.1524" layer="91"/>
<wire x1="-50.8" y1="109.22" x2="-71.12" y2="109.22" width="0.1524" layer="91"/>
<pinref part="PAD2" gate="G$1" pin="P"/>
<wire x1="-50.8" y1="124.46" x2="-50.8" y2="114.3" width="0.1524" layer="91"/>
<junction x="-50.8" y="114.3"/>
</segment>
</net>
<net name="N$2" class="0">
<segment>
<pinref part="SV1" gate="G$1" pin="1"/>
<pinref part="PAD4" gate="G$1" pin="P"/>
<wire x1="-71.12" y1="104.14" x2="-71.12" y2="99.06" width="0.1524" layer="91"/>
<wire x1="-71.12" y1="99.06" x2="-50.8" y2="99.06" width="0.1524" layer="91"/>
<pinref part="PAD3" gate="G$1" pin="P"/>
<wire x1="-50.8" y1="99.06" x2="-50.8" y2="91.44" width="0.1524" layer="91"/>
<junction x="-50.8" y="99.06"/>
</segment>
</net>
</nets>
</sheet>
</sheets>
</schematic>
</drawing>
<compatibility>
<note version="6.3" minversion="6.2.2" severity="warning">
Since Version 6.2.2 text objects can contain more than one line,
which will not be processed correctly with this version.
</note>
<note version="8.2" severity="warning">
Since Version 8.2, EAGLE supports online libraries. The ids
of those online libraries will not be understood (or retained)
with this version.
</note>
<note version="8.3" severity="warning">
Since Version 8.3, EAGLE supports URNs for individual library
assets (packages, symbols, and devices). The URNs of those assets
will not be understood (or retained) with this version.
</note>
<note version="8.3" severity="warning">
Since Version 8.3, EAGLE supports the association of 3D packages
with devices in libraries, schematics, and board files. Those 3D
packages will not be understood (or retained) with this version.
</note>
</compatibility>
</eagle>
