<?xml version="1.0" encoding="utf-8"?>
<!DOCTYPE eagle SYSTEM "eagle.dtd">
<eagle version="9.3.2">
<drawing>
<settings>
<setting alwaysvectorfont="no"/>
<setting verticaltext="up"/>
</settings>
<grid distance="0.1" unitdist="inch" unit="inch" style="lines" multiple="1" display="no" altdistance="0.01" altunitdist="inch" altunit="inch"/>
<layers>
<layer number="1" name="Top" color="4" fill="1" visible="no" active="no"/>
<layer number="16" name="Bottom" color="1" fill="1" visible="no" active="no"/>
<layer number="17" name="Pads" color="2" fill="1" visible="no" active="no"/>
<layer number="18" name="Vias" color="2" fill="1" visible="no" active="no"/>
<layer number="19" name="Unrouted" color="6" fill="1" visible="no" active="no"/>
<layer number="20" name="Dimension" color="15" fill="1" visible="no" active="no"/>
<layer number="21" name="tPlace" color="7" fill="1" visible="no" active="no"/>
<layer number="22" name="bPlace" color="7" fill="1" visible="no" active="no"/>
<layer number="23" name="tOrigins" color="15" fill="1" visible="no" active="no"/>
<layer number="24" name="bOrigins" color="15" fill="1" visible="no" active="no"/>
<layer number="25" name="tNames" color="7" fill="1" visible="no" active="no"/>
<layer number="26" name="bNames" color="7" fill="1" visible="no" active="no"/>
<layer number="27" name="tValues" color="7" fill="1" visible="no" active="no"/>
<layer number="28" name="bValues" color="7" fill="1" visible="no" active="no"/>
<layer number="29" name="tStop" color="7" fill="3" visible="no" active="no"/>
<layer number="30" name="bStop" color="7" fill="6" visible="no" active="no"/>
<layer number="31" name="tCream" color="7" fill="4" visible="no" active="no"/>
<layer number="32" name="bCream" color="7" fill="5" visible="no" active="no"/>
<layer number="33" name="tFinish" color="6" fill="3" visible="no" active="no"/>
<layer number="34" name="bFinish" color="6" fill="6" visible="no" active="no"/>
<layer number="35" name="tGlue" color="7" fill="4" visible="no" active="no"/>
<layer number="36" name="bGlue" color="7" fill="5" visible="no" active="no"/>
<layer number="37" name="tTest" color="7" fill="1" visible="no" active="no"/>
<layer number="38" name="bTest" color="7" fill="1" visible="no" active="no"/>
<layer number="39" name="tKeepout" color="4" fill="11" visible="no" active="no"/>
<layer number="40" name="bKeepout" color="1" fill="11" visible="no" active="no"/>
<layer number="41" name="tRestrict" color="4" fill="10" visible="no" active="no"/>
<layer number="42" name="bRestrict" color="1" fill="10" visible="no" active="no"/>
<layer number="43" name="vRestrict" color="2" fill="10" visible="no" active="no"/>
<layer number="44" name="Drills" color="7" fill="1" visible="no" active="no"/>
<layer number="45" name="Holes" color="7" fill="1" visible="no" active="no"/>
<layer number="46" name="Milling" color="3" fill="1" visible="no" active="no"/>
<layer number="47" name="Measures" color="7" fill="1" visible="no" active="no"/>
<layer number="48" name="Document" color="7" fill="1" visible="no" active="no"/>
<layer number="49" name="Reference" color="7" fill="1" visible="no" active="no"/>
<layer number="50" name="dxf" color="7" fill="1" visible="no" active="no"/>
<layer number="51" name="tDocu" color="7" fill="1" visible="no" active="no"/>
<layer number="52" name="bDocu" color="7" fill="1" visible="no" active="no"/>
<layer number="53" name="tGND_GNDA" color="7" fill="9" visible="no" active="no"/>
<layer number="54" name="bGND_GNDA" color="1" fill="9" visible="no" active="no"/>
<layer number="56" name="wert" color="7" fill="1" visible="no" active="no"/>
<layer number="57" name="tCAD" color="7" fill="1" visible="no" active="no"/>
<layer number="59" name="tCarbon" color="7" fill="1" visible="no" active="no"/>
<layer number="60" name="bCarbon" color="7" fill="1" visible="no" active="no"/>
<layer number="88" name="SimResults" color="9" fill="1" visible="yes" active="yes"/>
<layer number="89" name="SimProbes" color="9" fill="1" visible="yes" active="yes"/>
<layer number="90" name="Modules" color="5" fill="1" visible="yes" active="yes"/>
<layer number="91" name="Nets" color="2" fill="1" visible="yes" active="yes"/>
<layer number="92" name="Busses" color="1" fill="1" visible="yes" active="yes"/>
<layer number="93" name="Pins" color="2" fill="1" visible="no" active="yes"/>
<layer number="94" name="Symbols" color="4" fill="1" visible="yes" active="yes"/>
<layer number="95" name="Names" color="7" fill="1" visible="yes" active="yes"/>
<layer number="96" name="Values" color="7" fill="1" visible="yes" active="yes"/>
<layer number="97" name="Info" color="7" fill="1" visible="yes" active="yes"/>
<layer number="98" name="Guide" color="6" fill="1" visible="yes" active="yes"/>
<layer number="99" name="SpiceOrder" color="7" fill="1" visible="no" active="yes"/>
<layer number="100" name="Muster" color="7" fill="1" visible="no" active="no"/>
<layer number="101" name="Patch_Top" color="12" fill="4" visible="yes" active="yes"/>
<layer number="102" name="Vscore" color="7" fill="1" visible="yes" active="yes"/>
<layer number="103" name="fp3" color="7" fill="1" visible="no" active="yes"/>
<layer number="104" name="Name" color="7" fill="1" visible="yes" active="yes"/>
<layer number="105" name="Beschreib" color="9" fill="1" visible="yes" active="yes"/>
<layer number="106" name="BGA-Top" color="4" fill="1" visible="yes" active="yes"/>
<layer number="107" name="BD-Top" color="5" fill="1" visible="yes" active="yes"/>
<layer number="108" name="fp8" color="7" fill="1" visible="no" active="yes"/>
<layer number="109" name="fp9" color="7" fill="1" visible="no" active="yes"/>
<layer number="110" name="fp0" color="7" fill="1" visible="no" active="yes"/>
<layer number="111" name="LPC17xx" color="7" fill="1" visible="yes" active="yes"/>
<layer number="112" name="tSilk" color="7" fill="1" visible="yes" active="yes"/>
<layer number="113" name="IDFDebug" color="4" fill="1" visible="no" active="no"/>
<layer number="116" name="Patch_BOT" color="9" fill="4" visible="yes" active="yes"/>
<layer number="118" name="Rect_Pads" color="7" fill="1" visible="no" active="no"/>
<layer number="121" name="_tsilk" color="7" fill="1" visible="yes" active="yes"/>
<layer number="122" name="_bsilk" color="7" fill="1" visible="yes" active="yes"/>
<layer number="123" name="tTestmark" color="7" fill="1" visible="no" active="yes"/>
<layer number="124" name="bTestmark" color="7" fill="1" visible="no" active="yes"/>
<layer number="125" name="_tNames" color="7" fill="1" visible="yes" active="yes"/>
<layer number="126" name="_bNames" color="7" fill="1" visible="yes" active="yes"/>
<layer number="127" name="_tValues" color="7" fill="1" visible="yes" active="yes"/>
<layer number="128" name="_bValues" color="7" fill="1" visible="yes" active="yes"/>
<layer number="129" name="Mask" color="7" fill="1" visible="no" active="no"/>
<layer number="131" name="tAdjust" color="7" fill="1" visible="no" active="yes"/>
<layer number="132" name="bAdjust" color="7" fill="1" visible="no" active="yes"/>
<layer number="144" name="Drill_legend" color="7" fill="1" visible="yes" active="yes"/>
<layer number="150" name="Notes" color="7" fill="1" visible="no" active="yes"/>
<layer number="151" name="HeatSink" color="7" fill="1" visible="yes" active="yes"/>
<layer number="152" name="_bDocu" color="7" fill="1" visible="yes" active="yes"/>
<layer number="153" name="FabDoc1" color="6" fill="1" visible="no" active="no"/>
<layer number="154" name="FabDoc2" color="2" fill="1" visible="no" active="no"/>
<layer number="155" name="FabDoc3" color="7" fill="15" visible="no" active="no"/>
<layer number="199" name="Contour" color="7" fill="1" visible="yes" active="yes"/>
<layer number="200" name="200bmp" color="1" fill="10" visible="yes" active="yes"/>
<layer number="201" name="201bmp" color="2" fill="1" visible="no" active="no"/>
<layer number="202" name="202bmp" color="3" fill="1" visible="no" active="no"/>
<layer number="203" name="203bmp" color="4" fill="10" visible="yes" active="yes"/>
<layer number="204" name="204bmp" color="5" fill="10" visible="yes" active="yes"/>
<layer number="205" name="205bmp" color="6" fill="10" visible="yes" active="yes"/>
<layer number="206" name="206bmp" color="7" fill="10" visible="yes" active="yes"/>
<layer number="207" name="207bmp" color="8" fill="10" visible="yes" active="yes"/>
<layer number="208" name="208bmp" color="9" fill="10" visible="yes" active="yes"/>
<layer number="209" name="209bmp" color="7" fill="1" visible="no" active="yes"/>
<layer number="210" name="210bmp" color="7" fill="1" visible="no" active="yes"/>
<layer number="211" name="211bmp" color="7" fill="1" visible="yes" active="yes"/>
<layer number="212" name="212bmp" color="7" fill="1" visible="yes" active="yes"/>
<layer number="213" name="213bmp" color="7" fill="1" visible="yes" active="yes"/>
<layer number="214" name="214bmp" color="7" fill="1" visible="yes" active="yes"/>
<layer number="215" name="215bmp" color="7" fill="1" visible="yes" active="yes"/>
<layer number="216" name="216bmp" color="7" fill="1" visible="yes" active="yes"/>
<layer number="217" name="217bmp" color="18" fill="1" visible="no" active="no"/>
<layer number="218" name="218bmp" color="19" fill="1" visible="no" active="no"/>
<layer number="219" name="219bmp" color="20" fill="1" visible="no" active="no"/>
<layer number="220" name="220bmp" color="21" fill="1" visible="no" active="no"/>
<layer number="221" name="221bmp" color="22" fill="1" visible="no" active="no"/>
<layer number="222" name="222bmp" color="23" fill="1" visible="no" active="no"/>
<layer number="223" name="223bmp" color="24" fill="1" visible="no" active="no"/>
<layer number="224" name="224bmp" color="25" fill="1" visible="no" active="no"/>
<layer number="225" name="225bmp" color="7" fill="1" visible="no" active="no"/>
<layer number="226" name="226bmp" color="7" fill="1" visible="no" active="no"/>
<layer number="227" name="227bmp" color="7" fill="1" visible="no" active="no"/>
<layer number="228" name="228bmp" color="7" fill="1" visible="no" active="no"/>
<layer number="229" name="229bmp" color="7" fill="1" visible="no" active="no"/>
<layer number="230" name="230bmp" color="7" fill="1" visible="no" active="no"/>
<layer number="231" name="231bmp" color="7" fill="1" visible="no" active="no"/>
<layer number="248" name="Housing" color="7" fill="1" visible="yes" active="yes"/>
<layer number="249" name="Edge" color="7" fill="1" visible="yes" active="yes"/>
<layer number="250" name="Descript" color="7" fill="1" visible="no" active="no"/>
<layer number="251" name="SMDround" color="7" fill="1" visible="no" active="no"/>
<layer number="254" name="cooling" color="7" fill="1" visible="yes" active="yes"/>
<layer number="255" name="routoute" color="7" fill="1" visible="no" active="no"/>
</layers>
<schematic xreflabel="%F%N/%S.%C%R" xrefpart="/%S.%C%R">
<libraries>
<library name="ams1117-3.3v">
<description>&lt;1A LOW DROPOUT VOLTAGE REGULATOR, SOT-223&lt;/b&gt;&lt;p&gt;
&lt;author&gt;Created by SamacSys&lt;/author&gt;</description>
<packages>
<package name="SOT229P700X180-4N">
<description>&lt;b&gt;3 Lead SOT-223 Plastic Package&lt;/b&gt;&lt;br&gt;
</description>
<smd name="1" x="-3.35" y="2.29" dx="1.3" dy="0.95" layer="1"/>
<smd name="2" x="-3.35" y="0" dx="1.3" dy="0.95" layer="1"/>
<smd name="3" x="-3.35" y="-2.29" dx="1.3" dy="0.95" layer="1"/>
<smd name="4" x="3.35" y="0" dx="3.25" dy="1.3" layer="1" rot="R90"/>
<text x="0" y="0" size="1.27" layer="25" align="center">&gt;NAME</text>
<text x="0" y="0" size="1.27" layer="27" align="center">&gt;VALUE</text>
<wire x1="-4.25" y1="3.605" x2="4.25" y2="3.605" width="0.05" layer="51"/>
<wire x1="4.25" y1="3.605" x2="4.25" y2="-3.605" width="0.05" layer="51"/>
<wire x1="4.25" y1="-3.605" x2="-4.25" y2="-3.605" width="0.05" layer="51"/>
<wire x1="-4.25" y1="-3.605" x2="-4.25" y2="3.605" width="0.05" layer="51"/>
<wire x1="-1.752" y1="3.252" x2="1.752" y2="3.252" width="0.1" layer="51"/>
<wire x1="1.752" y1="3.252" x2="1.752" y2="-3.252" width="0.1" layer="51"/>
<wire x1="1.752" y1="-3.252" x2="-1.752" y2="-3.252" width="0.1" layer="51"/>
<wire x1="-1.752" y1="-3.252" x2="-1.752" y2="3.252" width="0.1" layer="51"/>
<wire x1="-1.752" y1="0.962" x2="0.538" y2="3.252" width="0.1" layer="51"/>
<wire x1="-1.752" y1="3.252" x2="1.752" y2="3.252" width="0.2" layer="21"/>
<wire x1="1.752" y1="3.252" x2="1.752" y2="-3.252" width="0.2" layer="21"/>
<wire x1="1.752" y1="-3.252" x2="-1.752" y2="-3.252" width="0.2" layer="21"/>
<wire x1="-1.752" y1="-3.252" x2="-1.752" y2="3.252" width="0.2" layer="21"/>
<wire x1="-4" y1="3.115" x2="-2.7" y2="3.115" width="0.2" layer="21"/>
</package>
</packages>
<symbols>
<symbol name="AMS1117-3.3V">
<wire x1="5.08" y1="2.54" x2="45.72" y2="2.54" width="0.254" layer="94"/>
<wire x1="45.72" y1="-7.62" x2="45.72" y2="2.54" width="0.254" layer="94"/>
<wire x1="45.72" y1="-7.62" x2="5.08" y2="-7.62" width="0.254" layer="94"/>
<wire x1="5.08" y1="2.54" x2="5.08" y2="-7.62" width="0.254" layer="94"/>
<text x="46.99" y="7.62" size="1.778" layer="95" align="center-left">&gt;NAME</text>
<text x="46.99" y="5.08" size="1.778" layer="96" align="center-left">&gt;VALUE</text>
<pin name="GROUND/ADJUST" x="0" y="0" length="middle"/>
<pin name="VOUT" x="0" y="-2.54" length="middle"/>
<pin name="VIN" x="0" y="-5.08" length="middle"/>
<pin name="TAB_(OUTPUT)" x="50.8" y="-2.54" length="middle" rot="R180"/>
</symbol>
</symbols>
<devicesets>
<deviceset name="AMS1117-3.3V" prefix="IC">
<description>&lt;b&gt;1A LOW DROPOUT VOLTAGE REGULATOR, SOT-223&lt;/b&gt;&lt;p&gt;
Source: &lt;a href="http://www.advanced-monolithic.com/pdf/ds1117.pdf"&gt; Datasheet &lt;/a&gt;</description>
<gates>
<gate name="G$1" symbol="AMS1117-3.3V" x="0" y="0"/>
</gates>
<devices>
<device name="" package="SOT229P700X180-4N">
<connects>
<connect gate="G$1" pin="GROUND/ADJUST" pad="1"/>
<connect gate="G$1" pin="TAB_(OUTPUT)" pad="4"/>
<connect gate="G$1" pin="VIN" pad="3"/>
<connect gate="G$1" pin="VOUT" pad="2"/>
</connects>
<technologies>
<technology name="">
<attribute name="DESCRIPTION" value="1A LOW DROPOUT VOLTAGE REGULATOR, SOT-223" constant="no"/>
<attribute name="HEIGHT" value="1.8mm" constant="no"/>
<attribute name="MANUFACTURER_NAME" value="Advanced Monolithic Systems" constant="no"/>
<attribute name="MANUFACTURER_PART_NUMBER" value="ams1117-3.3v" constant="no"/>
<attribute name="MOUSER_PART_NUMBER" value="" constant="no"/>
<attribute name="MOUSER_PRICE-STOCK" value="" constant="no"/>
<attribute name="RS_PART_NUMBER" value="" constant="no"/>
<attribute name="RS_PRICE-STOCK" value="" constant="no"/>
</technology>
</technologies>
</device>
</devices>
</deviceset>
</devicesets>
</library>
<library name="esp8266modules">
<packages>
<package name="ESP07-16PIN">
<description>ESP8266 Module ESP-07 - 16 pins</description>
<wire x1="-7.9" y1="12.4" x2="-7.9" y2="6.4" width="0.127" layer="21"/>
<wire x1="-7.9" y1="6.4" x2="-7.9" y2="-9.6" width="0.127" layer="21"/>
<wire x1="-7.9" y1="-9.6" x2="8.1" y2="-9.6" width="0.127" layer="21"/>
<wire x1="8.1" y1="-9.6" x2="8.1" y2="6.4" width="0.127" layer="21"/>
<wire x1="8.1" y1="6.4" x2="8.1" y2="10.4" width="0.127" layer="21"/>
<wire x1="8.1" y1="10.4" x2="8.1" y2="12.4" width="0.127" layer="21"/>
<wire x1="8.1" y1="12.4" x2="6.1" y2="12.4" width="0.127" layer="21"/>
<wire x1="6.1" y1="12.4" x2="-7.9" y2="12.4" width="0.127" layer="21"/>
<wire x1="6.1" y1="12.4" x2="6.1" y2="10.4" width="0.127" layer="21"/>
<wire x1="6.1" y1="10.4" x2="8.1" y2="10.4" width="0.127" layer="21"/>
<circle x="7.1" y="11.4" radius="0.806225" width="0.127" layer="21"/>
<circle x="7.1" y="11.4" radius="0.1" width="0.127" layer="21"/>
<smd name="TX" x="8.2" y="5.8" dx="2.5" dy="1" layer="1" roundness="17"/>
<smd name="RX" x="8.2" y="3.8" dx="2.5" dy="1" layer="1"/>
<smd name="GPIO4" x="8.2" y="1.8" dx="2.5" dy="1" layer="1"/>
<smd name="GPIO5" x="8.2" y="-0.2" dx="2.5" dy="1" layer="1"/>
<smd name="GPIO0" x="8.2" y="-2.2" dx="2.5" dy="1" layer="1"/>
<smd name="GPIO2" x="8.2" y="-4.2" dx="2.5" dy="1" layer="1"/>
<smd name="GPIO15" x="8.2" y="-6.2" dx="2.5" dy="1" layer="1"/>
<smd name="REST" x="-8.2" y="5.8" dx="2.5" dy="1" layer="1"/>
<smd name="ADC" x="-8.2" y="3.8" dx="2.5" dy="1" layer="1"/>
<smd name="CH_PD" x="-8.2" y="1.8" dx="2.5" dy="1" layer="1"/>
<smd name="GPIO16" x="-8.2" y="-0.2" dx="2.5" dy="1" layer="1"/>
<smd name="GPIO14" x="-8.2" y="-2.2" dx="2.5" dy="1" layer="1"/>
<smd name="GPIO12" x="-8.2" y="-4.2" dx="2.5" dy="1" layer="1"/>
<smd name="GPIO13" x="-8.2" y="-6.2" dx="2.5" dy="1" layer="1"/>
<text x="-3.8" y="8.7" size="1.016" layer="21">ESP-07</text>
<rectangle x1="-7" y1="8" x2="-4" y2="11" layer="21"/>
<rectangle x1="2" y1="8" x2="5" y2="11" layer="21"/>
<text x="-8" y="13" size="1.27" layer="25">&gt;Name</text>
<text x="-8" y="-11.1" size="1.27" layer="27">&gt;Value</text>
<smd name="VCC" x="-8.2" y="-8.105" dx="2.5" dy="1" layer="1"/>
<smd name="GND" x="8.2" y="-8.105" dx="2.5" dy="1" layer="1"/>
</package>
</packages>
<symbols>
<symbol name="ESP07-16PIN">
<description>ESP8266 Module ESP-07 - 16 pins</description>
<wire x1="-12.7" y1="10.16" x2="-12.7" y2="-12.7" width="0.254" layer="94"/>
<wire x1="-12.7" y1="-12.7" x2="10.16" y2="-12.7" width="0.254" layer="94"/>
<wire x1="10.16" y1="-12.7" x2="10.16" y2="10.16" width="0.254" layer="94"/>
<wire x1="10.16" y1="10.16" x2="-12.7" y2="10.16" width="0.254" layer="94"/>
<pin name="RESET" x="-17.78" y="7.62" visible="pin" length="middle"/>
<pin name="ADC" x="-17.78" y="5.08" visible="pin" length="middle"/>
<pin name="CH_PD" x="-17.78" y="2.54" visible="pin" length="middle"/>
<pin name="GPIO16" x="-17.78" y="0" visible="pin" length="middle"/>
<pin name="GPIO14" x="-17.78" y="-2.54" visible="pin" length="middle"/>
<pin name="GPIO12" x="-17.78" y="-5.08" visible="pin" length="middle"/>
<pin name="GPIO13" x="-17.78" y="-7.62" visible="pin" length="middle"/>
<pin name="VCC" x="-17.78" y="-10.16" visible="pin" length="middle"/>
<pin name="GND" x="15.24" y="-10.16" visible="pin" length="middle" rot="R180"/>
<pin name="GPIO15" x="15.24" y="-7.62" visible="pin" length="middle" rot="R180"/>
<pin name="GPIO2" x="15.24" y="-5.08" visible="pin" length="middle" rot="R180"/>
<pin name="GPIO0" x="15.24" y="-2.54" visible="pin" length="middle" rot="R180"/>
<pin name="GPIO5" x="15.24" y="0" visible="pin" length="middle" rot="R180"/>
<pin name="GPIO4" x="15.24" y="2.54" visible="pin" length="middle" rot="R180"/>
<pin name="RX" x="15.24" y="5.08" visible="pin" length="middle" rot="R180"/>
<pin name="TX" x="15.24" y="7.62" visible="pin" length="middle" rot="R180"/>
<text x="-12.7" y="10.16" size="1.778" layer="95">&gt;Name</text>
<text x="-12.7" y="-15.24" size="1.778" layer="96">&gt;Value</text>
</symbol>
</symbols>
<devicesets>
<deviceset name="ESP07-16PIN">
<description>ESP8266 Wifi module 07 - 16 pins</description>
<gates>
<gate name="G$1" symbol="ESP07-16PIN" x="0" y="0"/>
</gates>
<devices>
<device name="" package="ESP07-16PIN">
<connects>
<connect gate="G$1" pin="ADC" pad="ADC"/>
<connect gate="G$1" pin="CH_PD" pad="CH_PD"/>
<connect gate="G$1" pin="GND" pad="GND"/>
<connect gate="G$1" pin="GPIO0" pad="GPIO0"/>
<connect gate="G$1" pin="GPIO12" pad="GPIO12"/>
<connect gate="G$1" pin="GPIO13" pad="GPIO13"/>
<connect gate="G$1" pin="GPIO14" pad="GPIO14"/>
<connect gate="G$1" pin="GPIO15" pad="GPIO15"/>
<connect gate="G$1" pin="GPIO16" pad="GPIO16"/>
<connect gate="G$1" pin="GPIO2" pad="GPIO2"/>
<connect gate="G$1" pin="GPIO4" pad="GPIO4"/>
<connect gate="G$1" pin="GPIO5" pad="GPIO5"/>
<connect gate="G$1" pin="RESET" pad="REST"/>
<connect gate="G$1" pin="RX" pad="RX"/>
<connect gate="G$1" pin="TX" pad="TX"/>
<connect gate="G$1" pin="VCC" pad="VCC"/>
</connects>
<technologies>
<technology name="">
<attribute name="DIMENSIONS" value="22.0 x 16.0 mm" constant="no"/>
<attribute name="PINS" value="16"/>
<attribute name="PITCH" value="0.078&quot; / 2 mm" constant="no"/>
</technology>
</technologies>
</device>
</devices>
</deviceset>
</devicesets>
</library>
<library name="supply1" urn="urn:adsk.eagle:library:371">
<description>&lt;b&gt;Supply Symbols&lt;/b&gt;&lt;p&gt;
 GND, VCC, 0V, +5V, -5V, etc.&lt;p&gt;
 Please keep in mind, that these devices are necessary for the
 automatic wiring of the supply signals.&lt;p&gt;
 The pin name defined in the symbol is identical to the net which is to be wired automatically.&lt;p&gt;
 In this library the device names are the same as the pin names of the symbols, therefore the correct signal names appear next to the supply symbols in the schematic.&lt;p&gt;
 &lt;author&gt;Created by librarian@cadsoft.de&lt;/author&gt;</description>
<packages>
</packages>
<symbols>
<symbol name="GND" urn="urn:adsk.eagle:symbol:26925/1" library_version="1">
<wire x1="-1.905" y1="0" x2="1.905" y2="0" width="0.254" layer="94"/>
<text x="-2.54" y="-2.54" size="1.778" layer="96">&gt;VALUE</text>
<pin name="GND" x="0" y="2.54" visible="off" length="short" direction="sup" rot="R270"/>
</symbol>
<symbol name="VCC" urn="urn:adsk.eagle:symbol:26928/1" library_version="1">
<wire x1="1.27" y1="-1.905" x2="0" y2="0" width="0.254" layer="94"/>
<wire x1="0" y1="0" x2="-1.27" y2="-1.905" width="0.254" layer="94"/>
<text x="-2.54" y="-2.54" size="1.778" layer="96" rot="R90">&gt;VALUE</text>
<pin name="VCC" x="0" y="-2.54" visible="off" length="short" direction="sup" rot="R90"/>
</symbol>
</symbols>
<devicesets>
<deviceset name="GND" urn="urn:adsk.eagle:component:26954/1" prefix="GND" library_version="1">
<description>&lt;b&gt;SUPPLY SYMBOL&lt;/b&gt;</description>
<gates>
<gate name="1" symbol="GND" x="0" y="0"/>
</gates>
<devices>
<device name="">
<technologies>
<technology name=""/>
</technologies>
</device>
</devices>
</deviceset>
<deviceset name="VCC" urn="urn:adsk.eagle:component:26957/1" prefix="P+" library_version="1">
<description>&lt;b&gt;SUPPLY SYMBOL&lt;/b&gt;</description>
<gates>
<gate name="VCC" symbol="VCC" x="0" y="0"/>
</gates>
<devices>
<device name="">
<technologies>
<technology name=""/>
</technologies>
</device>
</devices>
</deviceset>
</devicesets>
</library>
<library name="linear" urn="urn:adsk.eagle:library:262">
<description>&lt;b&gt;Linear Devices&lt;/b&gt;&lt;p&gt;
Operational amplifiers,  comparators, voltage regulators, ADCs, DACs, etc.&lt;p&gt;
&lt;author&gt;Created by librarian@cadsoft.de&lt;/author&gt;</description>
<packages>
<package name="SOT23" urn="urn:adsk.eagle:footprint:16354/1" library_version="4">
<description>&lt;b&gt;SMALL OUTLINE TRANSISTOR&lt;/b&gt;&lt;p&gt;
reflow soldering</description>
<wire x1="-1.973" y1="1.983" x2="1.973" y2="1.983" width="0.0508" layer="39"/>
<wire x1="1.973" y1="-1.983" x2="-1.973" y2="-1.983" width="0.0508" layer="39"/>
<wire x1="-1.973" y1="-1.983" x2="-1.973" y2="1.983" width="0.0508" layer="39"/>
<wire x1="1.973" y1="1.983" x2="1.973" y2="-1.983" width="0.0508" layer="39"/>
<wire x1="1.422" y1="0.66" x2="1.422" y2="-0.66" width="0.1524" layer="51"/>
<wire x1="1.422" y1="-0.66" x2="-1.422" y2="-0.66" width="0.1524" layer="51"/>
<wire x1="-1.422" y1="-0.66" x2="-1.422" y2="0.66" width="0.1524" layer="51"/>
<wire x1="-1.422" y1="0.66" x2="1.422" y2="0.66" width="0.1524" layer="51"/>
<wire x1="-1.422" y1="-0.152" x2="-1.422" y2="0.66" width="0.1524" layer="21"/>
<wire x1="-1.422" y1="0.66" x2="-0.864" y2="0.66" width="0.1524" layer="21"/>
<wire x1="0.864" y1="0.66" x2="1.422" y2="0.66" width="0.1524" layer="21"/>
<wire x1="1.422" y1="0.66" x2="1.422" y2="-0.152" width="0.1524" layer="21"/>
<smd name="3" x="0" y="1.1" dx="1" dy="1.4" layer="1"/>
<smd name="2" x="0.95" y="-1.1" dx="1" dy="1.4" layer="1"/>
<smd name="1" x="-0.95" y="-1.1" dx="1" dy="1.4" layer="1"/>
<text x="-1.905" y="1.905" size="1.27" layer="25">&gt;NAME</text>
<text x="-1.905" y="-3.175" size="1.27" layer="27">&gt;VALUE</text>
<rectangle x1="-0.2286" y1="0.7112" x2="0.2286" y2="1.2954" layer="51"/>
<rectangle x1="0.7112" y1="-1.2954" x2="1.1684" y2="-0.7112" layer="51"/>
<rectangle x1="-1.1684" y1="-1.2954" x2="-0.7112" y2="-0.7112" layer="51"/>
<rectangle x1="-0.5001" y1="-0.3" x2="0.5001" y2="0.3" layer="35"/>
</package>
</packages>
<packages3d>
<package3d name="SOT23" urn="urn:adsk.eagle:package:16489/2" type="model" library_version="4">
<description>SMALL OUTLINE TRANSISTOR
reflow soldering</description>
<packageinstances>
<packageinstance name="SOT23"/>
</packageinstances>
</package3d>
</packages3d>
<symbols>
<symbol name="LM50" urn="urn:adsk.eagle:symbol:16353/1" library_version="4">
<wire x1="-7.62" y1="2.54" x2="7.62" y2="2.54" width="0.254" layer="94"/>
<wire x1="7.62" y1="2.54" x2="7.62" y2="-5.08" width="0.254" layer="94"/>
<wire x1="7.62" y1="-5.08" x2="-7.62" y2="-5.08" width="0.254" layer="94"/>
<wire x1="-7.62" y1="-5.08" x2="-7.62" y2="2.54" width="0.254" layer="94"/>
<text x="-2.286" y="-4.064" size="1.524" layer="95">GND</text>
<text x="-7.62" y="3.81" size="1.778" layer="95">&gt;NAME</text>
<text x="2.54" y="-7.62" size="1.778" layer="96">&gt;VALUE</text>
<pin name="+VS" x="-10.16" y="0" length="short" direction="in"/>
<pin name="VO" x="10.16" y="0" length="short" direction="in" rot="R180"/>
<pin name="GND" x="0" y="-7.62" visible="pad" length="short" direction="pwr" rot="R90"/>
</symbol>
</symbols>
<devicesets>
<deviceset name="LM50" urn="urn:adsk.eagle:component:16823/2" prefix="IC" library_version="4">
<description>&lt;b&gt;SOT-23 Single-Supply Centigrade Temperature Sensor&lt;/b&gt;&lt;p&gt;
Vout = (10mV/°C x Temp °C) +5mmmV&lt;br&gt;

Source: http://cache.national.com/ds/LM/LM50.pdf</description>
<gates>
<gate name="G$1" symbol="LM50" x="0" y="0"/>
</gates>
<devices>
<device name="" package="SOT23">
<connects>
<connect gate="G$1" pin="+VS" pad="1"/>
<connect gate="G$1" pin="GND" pad="3"/>
<connect gate="G$1" pin="VO" pad="2"/>
</connects>
<package3dinstances>
<package3dinstance package3d_urn="urn:adsk.eagle:package:16489/2"/>
</package3dinstances>
<technologies>
<technology name=""/>
</technologies>
</device>
</devices>
</deviceset>
</devicesets>
</library>
<library name="wirepad" urn="urn:adsk.eagle:library:412">
<description>&lt;b&gt;Single Pads&lt;/b&gt;&lt;p&gt;
&lt;author&gt;Created by librarian@cadsoft.de&lt;/author&gt;</description>
<packages>
<package name="SMD1,27-2,54" urn="urn:adsk.eagle:footprint:30822/1" library_version="1">
<description>&lt;b&gt;SMD PAD&lt;/b&gt;</description>
<smd name="1" x="0" y="0" dx="1.27" dy="2.54" layer="1"/>
<text x="0" y="0" size="0.0254" layer="27">&gt;VALUE</text>
<text x="-0.8" y="-2.4" size="1.27" layer="25" rot="R90">&gt;NAME</text>
</package>
</packages>
<packages3d>
<package3d name="SMD1,27-2,54" urn="urn:adsk.eagle:package:30839/1" type="box" library_version="1">
<description>SMD PAD</description>
<packageinstances>
<packageinstance name="SMD1,27-2,54"/>
</packageinstances>
</package3d>
</packages3d>
<symbols>
<symbol name="PAD" urn="urn:adsk.eagle:symbol:30808/1" library_version="1">
<wire x1="-1.016" y1="1.016" x2="1.016" y2="-1.016" width="0.254" layer="94"/>
<wire x1="-1.016" y1="-1.016" x2="1.016" y2="1.016" width="0.254" layer="94"/>
<text x="-1.143" y="1.8542" size="1.778" layer="95">&gt;NAME</text>
<text x="-1.143" y="-3.302" size="1.778" layer="96">&gt;VALUE</text>
<pin name="P" x="2.54" y="0" visible="off" length="short" direction="pas" rot="R180"/>
</symbol>
</symbols>
<devicesets>
<deviceset name="SMD2" urn="urn:adsk.eagle:component:30857/1" prefix="PAD" uservalue="yes" library_version="1">
<description>&lt;b&gt;SMD PAD&lt;/b&gt;</description>
<gates>
<gate name="1" symbol="PAD" x="0" y="0"/>
</gates>
<devices>
<device name="" package="SMD1,27-2,54">
<connects>
<connect gate="1" pin="P" pad="1"/>
</connects>
<package3dinstances>
<package3dinstance package3d_urn="urn:adsk.eagle:package:30839/1"/>
</package3dinstances>
<technologies>
<technology name=""/>
</technologies>
</device>
</devices>
</deviceset>
</devicesets>
</library>
<library name="SparkFun-Switches">
<description>&lt;h3&gt;SparkFun Switches, Buttons, Encoders&lt;/h3&gt;
In this library you'll find switches, buttons, joysticks, and anything that moves to create or disrupt an electrical connection.
&lt;br&gt;
&lt;br&gt;
We've spent an enormous amount of time creating and checking these footprints and parts, but it is &lt;b&gt; the end user's responsibility&lt;/b&gt; to ensure correctness and suitablity for a given componet or application. 
&lt;br&gt;
&lt;br&gt;If you enjoy using this library, please buy one of our products at &lt;a href=" www.sparkfun.com"&gt;SparkFun.com&lt;/a&gt;.
&lt;br&gt;
&lt;br&gt;
&lt;b&gt;Licensing:&lt;/b&gt; Creative Commons ShareAlike 4.0 International - https://creativecommons.org/licenses/by-sa/4.0/ 
&lt;br&gt;
&lt;br&gt;
You are welcome to use this library for commercial purposes. For attribution, we ask that when you begin to sell your device using our footprint, you email us with a link to the product being sold. We want bragging rights that we helped (in a very small part) to create your 8th world wonder. We would like the opportunity to feature your device on our homepage.</description>
<packages>
<package name="TACTILE_SWITCH_PTH_6.0MM">
<description>&lt;h3&gt;Momentary Switch (Pushbutton) - SPST - PTH, 6.0mm Square&lt;/h3&gt;
&lt;p&gt;Normally-open (NO) SPST momentary switches (buttons, pushbuttons).&lt;/p&gt;
&lt;p&gt;&lt;a href="https://www.omron.com/ecb/products/pdf/en-b3f.pdf"&gt;Datasheet&lt;/a&gt; (B3F-1000)&lt;/p&gt;</description>
<wire x1="3.048" y1="1.016" x2="3.048" y2="2.54" width="0.2032" layer="51"/>
<wire x1="3.048" y1="2.54" x2="2.54" y2="3.048" width="0.2032" layer="51"/>
<wire x1="2.54" y1="-3.048" x2="3.048" y2="-2.54" width="0.2032" layer="51"/>
<wire x1="3.048" y1="-2.54" x2="3.048" y2="-1.016" width="0.2032" layer="51"/>
<wire x1="-2.54" y1="3.048" x2="-3.048" y2="2.54" width="0.2032" layer="51"/>
<wire x1="-3.048" y1="2.54" x2="-3.048" y2="1.016" width="0.2032" layer="51"/>
<wire x1="-2.54" y1="-3.048" x2="-3.048" y2="-2.54" width="0.2032" layer="51"/>
<wire x1="-3.048" y1="-2.54" x2="-3.048" y2="-1.016" width="0.2032" layer="51"/>
<wire x1="2.54" y1="-3.048" x2="2.159" y2="-3.048" width="0.2032" layer="51"/>
<wire x1="-2.54" y1="-3.048" x2="-2.159" y2="-3.048" width="0.2032" layer="51"/>
<wire x1="-2.54" y1="3.048" x2="-2.159" y2="3.048" width="0.2032" layer="51"/>
<wire x1="2.54" y1="3.048" x2="2.159" y2="3.048" width="0.2032" layer="51"/>
<wire x1="2.159" y1="3.048" x2="-2.159" y2="3.048" width="0.2032" layer="21"/>
<wire x1="-2.159" y1="-3.048" x2="2.159" y2="-3.048" width="0.2032" layer="21"/>
<wire x1="3.048" y1="0.998" x2="3.048" y2="-1.016" width="0.2032" layer="21"/>
<wire x1="-3.048" y1="1.028" x2="-3.048" y2="-1.016" width="0.2032" layer="21"/>
<wire x1="-2.54" y1="1.27" x2="-2.54" y2="0.508" width="0.2032" layer="51"/>
<wire x1="-2.54" y1="-0.508" x2="-2.54" y2="-1.27" width="0.2032" layer="51"/>
<wire x1="-2.54" y1="0.508" x2="-2.159" y2="-0.381" width="0.2032" layer="51"/>
<circle x="0" y="0" radius="1.778" width="0.2032" layer="21"/>
<pad name="1" x="-3.2512" y="2.2606" drill="1.016" diameter="1.8796"/>
<pad name="2" x="3.2512" y="2.2606" drill="1.016" diameter="1.8796"/>
<pad name="3" x="-3.2512" y="-2.2606" drill="1.016" diameter="1.8796"/>
<pad name="4" x="3.2512" y="-2.2606" drill="1.016" diameter="1.8796"/>
<text x="0" y="3.302" size="0.6096" layer="25" font="vector" ratio="20" align="bottom-center">&gt;Name</text>
<text x="0" y="-3.175" size="0.6096" layer="27" font="vector" ratio="20" align="top-center">&gt;Value</text>
</package>
<package name="TACTILE_SWITCH_SMD_4.5MM">
<description>&lt;h3&gt;Momentary Switch (Pushbutton) - SPST - SMD, 4.5mm Square&lt;/h3&gt;
&lt;p&gt;Normally-open (NO) SPST momentary switches (buttons, pushbuttons).&lt;/p&gt;
&lt;p&gt;&lt;a href="http://spec_sheets.e-switch.com/specs/P010338.pdf"&gt;Dimensional Drawing&lt;/a&gt;&lt;/p&gt;</description>
<wire x1="1.905" y1="1.27" x2="1.905" y2="0.445" width="0.127" layer="51"/>
<wire x1="1.905" y1="0.445" x2="2.16" y2="-0.01" width="0.127" layer="51"/>
<wire x1="1.905" y1="-0.23" x2="1.905" y2="-1.115" width="0.127" layer="51"/>
<wire x1="-2.25" y1="2.25" x2="2.25" y2="2.25" width="0.127" layer="51"/>
<wire x1="2.25" y1="2.25" x2="2.25" y2="-2.25" width="0.127" layer="51"/>
<wire x1="2.25" y1="-2.25" x2="-2.25" y2="-2.25" width="0.127" layer="51"/>
<wire x1="-2.25" y1="-2.25" x2="-2.25" y2="2.25" width="0.127" layer="51"/>
<wire x1="-2.2" y1="0.8" x2="-2.2" y2="-0.8" width="0.2032" layer="21"/>
<wire x1="1.3" y1="2.2" x2="-1.3" y2="2.2" width="0.2032" layer="21"/>
<wire x1="2.2" y1="-0.8" x2="2.2" y2="0.8" width="0.2032" layer="21"/>
<wire x1="-1.3" y1="-2.2" x2="1.3" y2="-2.2" width="0.2032" layer="21"/>
<wire x1="2.2" y1="0.8" x2="1.8" y2="0.8" width="0.2032" layer="21"/>
<wire x1="2.2" y1="-0.8" x2="1.8" y2="-0.8" width="0.2032" layer="21"/>
<wire x1="-1.8" y1="0.8" x2="-2.2" y2="0.8" width="0.2032" layer="21"/>
<wire x1="-1.8" y1="-0.8" x2="-2.2" y2="-0.8" width="0.2032" layer="21"/>
<circle x="0" y="0" radius="1.27" width="0.2032" layer="21"/>
<smd name="1" x="2.225" y="1.75" dx="1.1" dy="0.7" layer="1" rot="R90"/>
<smd name="2" x="2.225" y="-1.75" dx="1.1" dy="0.7" layer="1" rot="R90"/>
<smd name="3" x="-2.225" y="-1.75" dx="1.1" dy="0.7" layer="1" rot="R90"/>
<smd name="4" x="-2.225" y="1.75" dx="1.1" dy="0.7" layer="1" rot="R90"/>
<text x="0" y="2.413" size="0.6096" layer="25" font="vector" ratio="20" align="bottom-center">&gt;Name</text>
<text x="0" y="-2.413" size="0.6096" layer="27" font="vector" ratio="20" align="top-center">&gt;Value</text>
</package>
<package name="TACTILE_SWITCH_PTH_12MM">
<description>&lt;h3&gt;Momentary Switch (Pushbutton) - SPST - PTH, 12mm Square&lt;/h3&gt;
&lt;p&gt;Normally-open (NO) SPST momentary switches (buttons, pushbuttons).&lt;/p&gt;
&lt;p&gt;&lt;a href="https://www.omron.com/ecb/products/pdf/en-b3f.pdf"&gt;Datasheet&lt;/a&gt; (B3F-5050)&lt;/p&gt;</description>
<wire x1="5" y1="-1.3" x2="5" y2="-0.7" width="0.2032" layer="51"/>
<wire x1="5" y1="-0.7" x2="4.5" y2="-0.2" width="0.2032" layer="51"/>
<wire x1="5" y1="0.2" x2="5" y2="1" width="0.2032" layer="51"/>
<wire x1="-6" y1="4" x2="-6" y2="5" width="0.2032" layer="21"/>
<wire x1="-5" y1="6" x2="5" y2="6" width="0.2032" layer="21"/>
<wire x1="6" y1="5" x2="6" y2="4" width="0.2032" layer="21"/>
<wire x1="6" y1="1" x2="6" y2="-1" width="0.2032" layer="21"/>
<wire x1="6" y1="-4" x2="6" y2="-5" width="0.2032" layer="21"/>
<wire x1="5" y1="-6" x2="-5" y2="-6" width="0.2032" layer="21"/>
<wire x1="-6" y1="-5" x2="-6" y2="-4" width="0.2032" layer="21"/>
<wire x1="-6" y1="-1" x2="-6" y2="1" width="0.2032" layer="21"/>
<wire x1="-6" y1="5" x2="-5" y2="6" width="0.2032" layer="21" curve="-90"/>
<wire x1="5" y1="6" x2="6" y2="5" width="0.2032" layer="21" curve="-90"/>
<wire x1="6" y1="-5" x2="5" y2="-6" width="0.2032" layer="21" curve="-90"/>
<wire x1="-5" y1="-6" x2="-6" y2="-5" width="0.2032" layer="21" curve="-90"/>
<circle x="0" y="0" radius="3.5" width="0.2032" layer="21"/>
<circle x="-4.5" y="4.5" radius="0.3" width="0.7" layer="21"/>
<circle x="4.5" y="4.5" radius="0.3" width="0.7" layer="21"/>
<circle x="4.5" y="-4.5" radius="0.3" width="0.7" layer="21"/>
<circle x="-4.5" y="-4.5" radius="0.3" width="0.7" layer="21"/>
<pad name="4" x="-6.25" y="2.5" drill="1.2" diameter="2.159"/>
<pad name="2" x="-6.25" y="-2.5" drill="1.2" diameter="2.159"/>
<pad name="1" x="6.25" y="-2.5" drill="1.2" diameter="2.159"/>
<pad name="3" x="6.25" y="2.5" drill="1.2" diameter="2.159"/>
<text x="0" y="6.223" size="0.6096" layer="25" font="vector" ratio="20" align="bottom-center">&gt;Name</text>
<text x="0" y="-6.223" size="0.6096" layer="27" font="vector" ratio="20" align="top-center">&gt;Value</text>
</package>
<package name="TACTILE_SWITCH_SMD_6.0X3.5MM">
<description>&lt;h3&gt;Momentary Switch (Pushbutton) - SPST - SMD, 6.0 x 3.5 mm&lt;/h3&gt;
&lt;p&gt;Normally-open (NO) SPST momentary switches (buttons, pushbuttons).&lt;/p&gt;
&lt;p&gt;&lt;a href="https://www.sparkfun.com/datasheets/Components/1101.pdf"&gt;Datasheet&lt;/a&gt;&lt;/p&gt;</description>
<wire x1="-3" y1="1.1" x2="-3" y2="-1.1" width="0.127" layer="51"/>
<wire x1="3" y1="1.1" x2="3" y2="-1.1" width="0.127" layer="51"/>
<wire x1="-2.75" y1="1.75" x2="-3" y2="1.5" width="0.2032" layer="21" curve="90"/>
<wire x1="-2.75" y1="1.75" x2="2.75" y2="1.75" width="0.2032" layer="21"/>
<wire x1="2.75" y1="1.75" x2="3" y2="1.5" width="0.2032" layer="21" curve="-90"/>
<wire x1="3" y1="-1.5" x2="2.75" y2="-1.75" width="0.2032" layer="21" curve="-90"/>
<wire x1="2.75" y1="-1.75" x2="-2.75" y2="-1.75" width="0.2032" layer="21"/>
<wire x1="-3" y1="-1.5" x2="-2.75" y2="-1.75" width="0.2032" layer="21" curve="90"/>
<wire x1="-3" y1="-1.5" x2="-3" y2="-1.1" width="0.2032" layer="21"/>
<wire x1="-3" y1="1.1" x2="-3" y2="1.5" width="0.2032" layer="21"/>
<wire x1="3" y1="1.1" x2="3" y2="1.5" width="0.2032" layer="21"/>
<wire x1="3" y1="-1.5" x2="3" y2="-1.1" width="0.2032" layer="21"/>
<wire x1="-1.5" y1="0.75" x2="1.5" y2="0.75" width="0.2032" layer="21"/>
<wire x1="1.5" y1="-0.75" x2="-1.5" y2="-0.75" width="0.2032" layer="21"/>
<wire x1="-1.5" y1="-0.75" x2="-1.5" y2="0.75" width="0.2032" layer="21"/>
<wire x1="1.5" y1="-0.75" x2="1.5" y2="0.75" width="0.2032" layer="21"/>
<wire x1="-2" y1="0" x2="-1" y2="0" width="0.127" layer="51"/>
<wire x1="-1" y1="0" x2="0.1" y2="0.5" width="0.127" layer="51"/>
<wire x1="0.3" y1="0" x2="2" y2="0" width="0.127" layer="51"/>
<smd name="1" x="-3.15" y="0" dx="2.3" dy="1.6" layer="1" rot="R180"/>
<smd name="2" x="3.15" y="0" dx="2.3" dy="1.6" layer="1" rot="R180"/>
<text x="0" y="1.905" size="0.6096" layer="25" font="vector" ratio="20" align="bottom-center">&gt;Name</text>
<text x="0" y="-1.905" size="0.6096" layer="27" font="vector" ratio="20" align="top-center">&gt;Value</text>
</package>
<package name="TACTILE_SWITCH_SMD_6.2MM_TALL">
<description>&lt;h3&gt;Momentary Switch (Pushbutton) - SPST - SMD, 6.2mm Square&lt;/h3&gt;
&lt;p&gt;Normally-open (NO) SPST momentary switches (buttons, pushbuttons).&lt;/p&gt;
&lt;p&gt;&lt;a href="http://www.apem.com/files/apem/brochures/ADTS6-ADTSM-KTSC6.pdf"&gt;Datasheet&lt;/a&gt; (ADTSM63NVTR)&lt;/p&gt;</description>
<wire x1="-3" y1="-3" x2="3" y2="-3" width="0.2032" layer="21"/>
<wire x1="3" y1="-3" x2="3" y2="3" width="0.2032" layer="21"/>
<wire x1="3" y1="3" x2="-3" y2="3" width="0.2032" layer="21"/>
<wire x1="-3" y1="3" x2="-3" y2="-3" width="0.2032" layer="21"/>
<circle x="0" y="0" radius="1.75" width="0.2032" layer="21"/>
<smd name="A1" x="-3.975" y="-2.25" dx="1.3" dy="1.55" layer="1" rot="R90"/>
<smd name="A2" x="3.975" y="-2.25" dx="1.3" dy="1.55" layer="1" rot="R90"/>
<smd name="B1" x="-3.975" y="2.25" dx="1.3" dy="1.55" layer="1" rot="R90"/>
<smd name="B2" x="3.975" y="2.25" dx="1.3" dy="1.55" layer="1" rot="R90"/>
<text x="0" y="3.175" size="0.6096" layer="25" font="vector" ratio="20" align="bottom-center">&gt;Name</text>
<text x="0" y="-3.175" size="0.6096" layer="27" font="vector" ratio="20" align="top-center">&gt;Value</text>
</package>
<package name="TACTILE_SWITCH_PTH_RIGHT_ANGLE_KIT">
<description>&lt;h3&gt;Momentary Switch (Pushbutton) - SPST - PTH, Right-angle&lt;/h3&gt;
&lt;p&gt;Normally-open (NO) SPST momentary switches (buttons, pushbuttons).&lt;/p&gt;
&lt;p&gt;&lt;a href="http://cdn.sparkfun.com/datasheets/Components/Switches/SW016.JPG"&gt;Dimensional Drawing&lt;/a&gt;&lt;/p&gt;</description>
<wire x1="1.5" y1="-3.8" x2="-1.5" y2="-3.8" width="0.127" layer="51"/>
<wire x1="-3.65" y1="-2" x2="-3.65" y2="3.5" width="0.127" layer="51"/>
<wire x1="-3.65" y1="3.5" x2="-3" y2="3.5" width="0.127" layer="51"/>
<wire x1="3" y1="3.5" x2="3.65" y2="3.5" width="0.127" layer="51"/>
<wire x1="3.65" y1="3.5" x2="3.65" y2="-2" width="0.127" layer="51"/>
<wire x1="-3" y1="2" x2="3" y2="2" width="0.127" layer="51"/>
<wire x1="-3" y1="2" x2="-3" y2="3.5" width="0.127" layer="51"/>
<wire x1="3" y1="2" x2="3" y2="3.5" width="0.127" layer="51"/>
<wire x1="-3.65" y1="-2" x2="-1.5" y2="-2" width="0.127" layer="51"/>
<wire x1="-1.5" y1="-2" x2="1.5" y2="-2" width="0.127" layer="51"/>
<wire x1="1.5" y1="-2" x2="3.65" y2="-2" width="0.127" layer="51"/>
<wire x1="1.5" y1="-2" x2="1.5" y2="-3.8" width="0.127" layer="51"/>
<wire x1="-1.5" y1="-2" x2="-1.5" y2="-3.8" width="0.127" layer="51"/>
<wire x1="-3.777" y1="1" x2="-3.777" y2="-2.127" width="0.2032" layer="21"/>
<wire x1="-3.777" y1="-2.127" x2="3.777" y2="-2.127" width="0.2032" layer="21"/>
<wire x1="3.777" y1="-2.127" x2="3.777" y2="1" width="0.2032" layer="21"/>
<wire x1="2" y1="2.127" x2="-2" y2="2.127" width="0.2032" layer="21"/>
<pad name="ANCHOR1" x="-3.5" y="2.5" drill="1.2" diameter="2.2" stop="no"/>
<pad name="ANCHOR2" x="3.5" y="2.5" drill="1.2" diameter="2.2" stop="no"/>
<pad name="1" x="-2.5" y="0" drill="0.8" diameter="1.7" stop="no"/>
<pad name="2" x="2.5" y="0" drill="0.8" diameter="1.7" stop="no"/>
<circle x="2.5" y="0" radius="0.4445" width="0" layer="29"/>
<circle x="-2.5" y="0" radius="0.4445" width="0" layer="29"/>
<circle x="-3.5" y="2.5" radius="0.635" width="0" layer="29"/>
<circle x="3.5" y="2.5" radius="0.635" width="0" layer="29"/>
<circle x="-3.5" y="2.5" radius="1.143" width="0" layer="30"/>
<circle x="2.5" y="0" radius="0.889" width="0" layer="30"/>
<circle x="-2.5" y="0" radius="0.889" width="0" layer="30"/>
<circle x="3.5" y="2.5" radius="1.143" width="0" layer="30"/>
<text x="0" y="2.286" size="0.6096" layer="25" font="vector" ratio="20" align="bottom-center">&gt;Name</text>
<text x="0" y="-2.286" size="0.6096" layer="27" font="vector" ratio="20" align="top-center">&gt;Value</text>
</package>
<package name="TACTILE_SWITCH_SMD_12MM">
<description>&lt;h3&gt;Momentary Switch (Pushbutton) - SPST - SMD, 12mm Square&lt;/h3&gt;
&lt;p&gt;Normally-open (NO) SPST momentary switches (buttons, pushbuttons).&lt;/p&gt;
&lt;p&gt;&lt;a href="https://cdn.sparkfun.com/datasheets/Components/Switches/N301102.pdf"&gt;Datasheet&lt;/a&gt;&lt;/p&gt;</description>
<wire x1="5" y1="-1.3" x2="5" y2="-0.7" width="0.2032" layer="51"/>
<wire x1="5" y1="-0.7" x2="4.5" y2="-0.2" width="0.2032" layer="51"/>
<wire x1="5" y1="0.2" x2="5" y2="1" width="0.2032" layer="51"/>
<wire x1="-6" y1="4" x2="-6" y2="5" width="0.2032" layer="21"/>
<wire x1="-5" y1="6" x2="5" y2="6" width="0.2032" layer="21"/>
<wire x1="6" y1="5" x2="6" y2="4" width="0.2032" layer="21"/>
<wire x1="6" y1="1" x2="6" y2="-1" width="0.2032" layer="21"/>
<wire x1="6" y1="-4" x2="6" y2="-5" width="0.2032" layer="21"/>
<wire x1="5" y1="-6" x2="-5" y2="-6" width="0.2032" layer="21"/>
<wire x1="-6" y1="-5" x2="-6" y2="-4" width="0.2032" layer="21"/>
<wire x1="-6" y1="-1" x2="-6" y2="1" width="0.2032" layer="21"/>
<circle x="0" y="0" radius="3.5" width="0.2032" layer="21"/>
<circle x="-4.5" y="4.5" radius="0.3" width="0.7" layer="21"/>
<circle x="4.5" y="4.5" radius="0.3" width="0.7" layer="21"/>
<circle x="4.5" y="-4.5" radius="0.3" width="0.7" layer="21"/>
<circle x="-4.5" y="-4.5" radius="0.3" width="0.7" layer="21"/>
<smd name="4" x="-6.975" y="2.5" dx="1.6" dy="1.55" layer="1"/>
<smd name="2" x="-6.975" y="-2.5" dx="1.6" dy="1.55" layer="1"/>
<smd name="1" x="6.975" y="-2.5" dx="1.6" dy="1.55" layer="1"/>
<smd name="3" x="6.975" y="2.5" dx="1.6" dy="1.55" layer="1"/>
<wire x1="-6" y1="-5" x2="-5" y2="-6" width="0.2032" layer="21"/>
<wire x1="6" y1="-5" x2="5" y2="-6" width="0.2032" layer="21"/>
<wire x1="6" y1="5" x2="5" y2="6" width="0.2032" layer="21"/>
<wire x1="-5" y1="6" x2="-6" y2="5" width="0.2032" layer="21"/>
<text x="0" y="6.223" size="0.6096" layer="25" font="vector" ratio="20" align="bottom-center">&gt;Name</text>
<text x="0" y="-6.223" size="0.6096" layer="27" font="vector" ratio="20" align="top-center">&gt;Value</text>
</package>
<package name="TACTILE_SWITCH_PTH_6.0MM_KIT">
<description>&lt;h3&gt;Momentary Switch (Pushbutton) - SPST - PTH, 6.0mm Square&lt;/h3&gt;
&lt;p&gt;Normally-open (NO) SPST momentary switches (buttons, pushbuttons).&lt;/p&gt;
&lt;p&gt;&lt;b&gt;Warning:&lt;/b&gt; This is the KIT version of this package. This package has a smaller diameter top stop mask, which doesn't cover the diameter of the pad. This means only the bottom side of the pads' copper will be exposed. You'll only be able to solder to the bottom side.&lt;/p&gt;
&lt;p&gt;&lt;a href="https://www.omron.com/ecb/products/pdf/en-b3f.pdf"&gt;Datasheet&lt;/a&gt; (B3F-1000)&lt;/p&gt;</description>
<wire x1="3.048" y1="1.016" x2="3.048" y2="2.54" width="0.2032" layer="51"/>
<wire x1="3.048" y1="2.54" x2="2.54" y2="3.048" width="0.2032" layer="51"/>
<wire x1="2.54" y1="-3.048" x2="3.048" y2="-2.54" width="0.2032" layer="51"/>
<wire x1="3.048" y1="-2.54" x2="3.048" y2="-1.016" width="0.2032" layer="51"/>
<wire x1="-2.54" y1="3.048" x2="-3.048" y2="2.54" width="0.2032" layer="51"/>
<wire x1="-3.048" y1="2.54" x2="-3.048" y2="1.016" width="0.2032" layer="51"/>
<wire x1="-2.54" y1="-3.048" x2="-3.048" y2="-2.54" width="0.2032" layer="51"/>
<wire x1="-3.048" y1="-2.54" x2="-3.048" y2="-1.016" width="0.2032" layer="51"/>
<wire x1="2.54" y1="-3.048" x2="2.159" y2="-3.048" width="0.2032" layer="51"/>
<wire x1="-2.54" y1="-3.048" x2="-2.159" y2="-3.048" width="0.2032" layer="51"/>
<wire x1="-2.54" y1="3.048" x2="-2.159" y2="3.048" width="0.2032" layer="51"/>
<wire x1="2.54" y1="3.048" x2="2.159" y2="3.048" width="0.2032" layer="51"/>
<wire x1="2.159" y1="3.048" x2="-2.159" y2="3.048" width="0.2032" layer="21"/>
<wire x1="-2.159" y1="-3.048" x2="2.159" y2="-3.048" width="0.2032" layer="21"/>
<wire x1="3.048" y1="0.998" x2="3.048" y2="-1.016" width="0.2032" layer="21"/>
<wire x1="-3.048" y1="1.028" x2="-3.048" y2="-1.016" width="0.2032" layer="21"/>
<wire x1="-2.54" y1="1.27" x2="-2.54" y2="0.508" width="0.2032" layer="51"/>
<wire x1="-2.54" y1="-0.508" x2="-2.54" y2="-1.27" width="0.2032" layer="51"/>
<wire x1="-2.54" y1="0.508" x2="-2.159" y2="-0.381" width="0.2032" layer="51"/>
<circle x="0" y="0" radius="1.778" width="0.2032" layer="21"/>
<pad name="1" x="-3.2512" y="2.2606" drill="1.016" diameter="1.8796" stop="no"/>
<pad name="2" x="3.2512" y="2.2606" drill="1.016" diameter="1.8796" stop="no"/>
<pad name="3" x="-3.2512" y="-2.2606" drill="1.016" diameter="1.8796" stop="no"/>
<pad name="4" x="3.2512" y="-2.2606" drill="1.016" diameter="1.8796" stop="no"/>
<polygon width="0.127" layer="30">
<vertex x="-3.2664" y="3.142"/>
<vertex x="-3.2589" y="3.1445" curve="89.986886"/>
<vertex x="-4.1326" y="2.286"/>
<vertex x="-4.1351" y="2.2657" curve="90.00652"/>
<vertex x="-3.2563" y="1.392"/>
<vertex x="-3.2487" y="1.3869" curve="90.006616"/>
<vertex x="-2.3826" y="2.2403"/>
<vertex x="-2.3775" y="2.2683" curve="89.98711"/>
</polygon>
<polygon width="0.127" layer="29">
<vertex x="-3.2462" y="2.7026"/>
<vertex x="-3.2589" y="2.7051" curve="90.026544"/>
<vertex x="-3.6881" y="2.2733"/>
<vertex x="-3.6881" y="2.2632" curve="89.974074"/>
<vertex x="-3.2562" y="1.8213"/>
<vertex x="-3.2259" y="1.8186" curve="90.051271"/>
<vertex x="-2.8093" y="2.2658"/>
<vertex x="-2.8093" y="2.2606" curve="90.012964"/>
</polygon>
<polygon width="0.127" layer="30">
<vertex x="3.2411" y="3.1395"/>
<vertex x="3.2486" y="3.142" curve="89.986886"/>
<vertex x="2.3749" y="2.2835"/>
<vertex x="2.3724" y="2.2632" curve="90.00652"/>
<vertex x="3.2512" y="1.3895"/>
<vertex x="3.2588" y="1.3844" curve="90.006616"/>
<vertex x="4.1249" y="2.2378"/>
<vertex x="4.13" y="2.2658" curve="89.98711"/>
</polygon>
<polygon width="0.127" layer="29">
<vertex x="3.2613" y="2.7001"/>
<vertex x="3.2486" y="2.7026" curve="90.026544"/>
<vertex x="2.8194" y="2.2708"/>
<vertex x="2.8194" y="2.2607" curve="89.974074"/>
<vertex x="3.2513" y="1.8188"/>
<vertex x="3.2816" y="1.8161" curve="90.051271"/>
<vertex x="3.6982" y="2.2633"/>
<vertex x="3.6982" y="2.2581" curve="90.012964"/>
</polygon>
<polygon width="0.127" layer="30">
<vertex x="-3.2613" y="-1.3868"/>
<vertex x="-3.2538" y="-1.3843" curve="89.986886"/>
<vertex x="-4.1275" y="-2.2428"/>
<vertex x="-4.13" y="-2.2631" curve="90.00652"/>
<vertex x="-3.2512" y="-3.1368"/>
<vertex x="-3.2436" y="-3.1419" curve="90.006616"/>
<vertex x="-2.3775" y="-2.2885"/>
<vertex x="-2.3724" y="-2.2605" curve="89.98711"/>
</polygon>
<polygon width="0.127" layer="29">
<vertex x="-3.2411" y="-1.8262"/>
<vertex x="-3.2538" y="-1.8237" curve="90.026544"/>
<vertex x="-3.683" y="-2.2555"/>
<vertex x="-3.683" y="-2.2656" curve="89.974074"/>
<vertex x="-3.2511" y="-2.7075"/>
<vertex x="-3.2208" y="-2.7102" curve="90.051271"/>
<vertex x="-2.8042" y="-2.263"/>
<vertex x="-2.8042" y="-2.2682" curve="90.012964"/>
</polygon>
<polygon width="0.127" layer="30">
<vertex x="3.2411" y="-1.3843"/>
<vertex x="3.2486" y="-1.3818" curve="89.986886"/>
<vertex x="2.3749" y="-2.2403"/>
<vertex x="2.3724" y="-2.2606" curve="90.00652"/>
<vertex x="3.2512" y="-3.1343"/>
<vertex x="3.2588" y="-3.1394" curve="90.006616"/>
<vertex x="4.1249" y="-2.286"/>
<vertex x="4.13" y="-2.258" curve="89.98711"/>
</polygon>
<polygon width="0.127" layer="29">
<vertex x="3.2613" y="-1.8237"/>
<vertex x="3.2486" y="-1.8212" curve="90.026544"/>
<vertex x="2.8194" y="-2.253"/>
<vertex x="2.8194" y="-2.2631" curve="89.974074"/>
<vertex x="3.2513" y="-2.705"/>
<vertex x="3.2816" y="-2.7077" curve="90.051271"/>
<vertex x="3.6982" y="-2.2605"/>
<vertex x="3.6982" y="-2.2657" curve="90.012964"/>
</polygon>
<text x="0" y="3.175" size="0.6096" layer="25" font="vector" ratio="20" align="bottom-center">&gt;Name</text>
<text x="0" y="-3.175" size="0.6096" layer="27" font="vector" ratio="20" align="top-center">&gt;Value</text>
</package>
<package name="TACTILE_SWITCH_SMD_5.2MM">
<description>&lt;h3&gt;Momentary Switch (Pushbutton) - SPST - SMD, 5.2mm Square&lt;/h3&gt;
&lt;p&gt;Normally-open (NO) SPST momentary switches (buttons, pushbuttons).&lt;/p&gt;
&lt;p&gt;&lt;a href="https://www.sparkfun.com/datasheets/Components/Buttons/SMD-Button.pdf"&gt;Dimensional Drawing&lt;/a&gt;&lt;/p&gt;</description>
<wire x1="-1.54" y1="-2.54" x2="-2.54" y2="-1.54" width="0.2032" layer="51"/>
<wire x1="-2.54" y1="-1.24" x2="-2.54" y2="1.27" width="0.2032" layer="21"/>
<wire x1="-2.54" y1="1.54" x2="-1.54" y2="2.54" width="0.2032" layer="51"/>
<wire x1="-1.54" y1="2.54" x2="1.54" y2="2.54" width="0.2032" layer="21"/>
<wire x1="1.54" y1="2.54" x2="2.54" y2="1.54" width="0.2032" layer="51"/>
<wire x1="2.54" y1="1.24" x2="2.54" y2="-1.24" width="0.2032" layer="21"/>
<wire x1="2.54" y1="-1.54" x2="1.54" y2="-2.54" width="0.2032" layer="51"/>
<wire x1="1.54" y1="-2.54" x2="-1.54" y2="-2.54" width="0.2032" layer="21"/>
<wire x1="1.905" y1="1.27" x2="1.905" y2="0.445" width="0.127" layer="51"/>
<wire x1="1.905" y1="0.445" x2="2.16" y2="-0.01" width="0.127" layer="51"/>
<wire x1="1.905" y1="-0.23" x2="1.905" y2="-1.115" width="0.127" layer="51"/>
<circle x="0" y="0" radius="1.27" width="0.2032" layer="21"/>
<smd name="1" x="-2.794" y="1.905" dx="0.762" dy="1.524" layer="1" rot="R90"/>
<smd name="2" x="2.794" y="1.905" dx="0.762" dy="1.524" layer="1" rot="R90"/>
<smd name="3" x="-2.794" y="-1.905" dx="0.762" dy="1.524" layer="1" rot="R90"/>
<smd name="4" x="2.794" y="-1.905" dx="0.762" dy="1.524" layer="1" rot="R90"/>
<text x="0" y="2.667" size="0.6096" layer="25" font="vector" ratio="20" align="bottom-center">&gt;Name</text>
<text x="0" y="-2.667" size="0.6096" layer="27" font="vector" ratio="20" align="top-center">&gt;Value</text>
</package>
<package name="TACTILE_SWITCH_SMD_RIGHT_ANGLE">
<description>&lt;h3&gt;Momentary Switch (Pushbutton) - SPST - SMD, Right-angle&lt;/h3&gt;
&lt;p&gt;Normally-open (NO) SPST momentary switches (buttons, pushbuttons).&lt;/p&gt;</description>
<hole x="0" y="0.9" drill="0.7"/>
<hole x="0" y="-0.9" drill="0.7"/>
<smd name="1" x="-1.95" y="0" dx="2" dy="1.1" layer="1" rot="R90"/>
<smd name="2" x="1.95" y="0" dx="2" dy="1.1" layer="1" rot="R90"/>
<wire x1="-2" y1="1.2" x2="-2" y2="1.5" width="0.2032" layer="21"/>
<wire x1="-2" y1="1.5" x2="2" y2="1.5" width="0.2032" layer="21"/>
<wire x1="2" y1="1.5" x2="2" y2="1.2" width="0.2032" layer="21"/>
<wire x1="-2" y1="-1.2" x2="-2" y2="-1.5" width="0.2032" layer="21"/>
<wire x1="-2" y1="-1.5" x2="-0.7" y2="-1.5" width="0.2032" layer="21"/>
<wire x1="-0.7" y1="-1.5" x2="0.7" y2="-1.5" width="0.2032" layer="21"/>
<wire x1="0.7" y1="-1.5" x2="2" y2="-1.5" width="0.2032" layer="21"/>
<wire x1="2" y1="-1.5" x2="2" y2="-1.2" width="0.2032" layer="21"/>
<wire x1="-0.7" y1="-2.1" x2="0.7" y2="-2.1" width="0.2032" layer="21"/>
<wire x1="0.7" y1="-2.1" x2="0.7" y2="-1.5" width="0.2032" layer="21"/>
<wire x1="-0.7" y1="-2.1" x2="-0.7" y2="-1.5" width="0.2032" layer="21"/>
<text x="0" y="1.651" size="0.6096" layer="25" font="vector" ratio="20" align="bottom-center">&gt;Name</text>
<text x="0" y="-2.286" size="0.6096" layer="27" font="vector" ratio="20" align="top-center">&gt;Value</text>
</package>
<package name="TACTILE_SWITCH_SMD_4.6X2.8MM">
<description>&lt;h3&gt;Momentary Switch (Pushbutton) - SPST - SMD, 4.6 x 2.8mm&lt;/h3&gt;
&lt;p&gt;Normally-open (NO) SPST momentary switches (buttons, pushbuttons).&lt;/p&gt;
&lt;p&gt;&lt;a href="http://www.ck-components.com/media/1479/kmr2.pdf"&gt;Datasheet&lt;/a&gt;&lt;/p&gt;</description>
<smd name="3" x="2.05" y="0.8" dx="0.9" dy="1" layer="1"/>
<smd name="2" x="2.05" y="-0.8" dx="0.9" dy="1" layer="1"/>
<smd name="1" x="-2.05" y="-0.8" dx="0.9" dy="1" layer="1"/>
<smd name="4" x="-2.05" y="0.8" dx="0.9" dy="1" layer="1"/>
<wire x1="-2.1" y1="1.4" x2="-2.1" y2="-1.4" width="0.127" layer="51"/>
<wire x1="2.1" y1="-1.4" x2="2.1" y2="1.4" width="0.127" layer="51"/>
<wire x1="-2.1" y1="1.4" x2="2.1" y2="1.4" width="0.127" layer="51"/>
<wire x1="-2.1" y1="-1.4" x2="2.1" y2="-1.4" width="0.127" layer="51"/>
<circle x="0" y="0" radius="0.805" width="0.127" layer="21"/>
<wire x1="1.338" y1="-1.4" x2="-1.338" y2="-1.4" width="0.2032" layer="21"/>
<wire x1="-1.338" y1="1.4" x2="1.338" y2="1.4" width="0.2032" layer="21"/>
<wire x1="-2.1" y1="0.13" x2="-2.1" y2="-0.13" width="0.2032" layer="21"/>
<wire x1="2.1" y1="-0.13" x2="2.1" y2="0.13" width="0.2032" layer="21"/>
<rectangle x1="-2.3" y1="0.5" x2="-2.1" y2="1.1" layer="51"/>
<rectangle x1="-2.3" y1="-1.1" x2="-2.1" y2="-0.5" layer="51"/>
<rectangle x1="2.1" y1="-1.1" x2="2.3" y2="-0.5" layer="51" rot="R180"/>
<rectangle x1="2.1" y1="0.5" x2="2.3" y2="1.1" layer="51" rot="R180"/>
<text x="0" y="1.524" size="0.6096" layer="25" font="vector" ratio="20" align="bottom-center">&gt;Name</text>
<text x="0" y="-1.524" size="0.6096" layer="27" font="vector" ratio="20" align="top-center">&gt;Value</text>
</package>
<package name="TACTILE_SWITCH_PTH_RIGHT_ANGLE">
<description>&lt;h3&gt;Momentary Switch (Pushbutton) - SPST - PTH, Right-angle&lt;/h3&gt;
&lt;p&gt;Normally-open (NO) SPST momentary switches (buttons, pushbuttons).&lt;/p&gt;
&lt;p&gt;&lt;a href="http://cdn.sparkfun.com/datasheets/Components/Switches/SW016.JPG"&gt;Dimensional Drawing&lt;/a&gt;&lt;/p&gt;</description>
<wire x1="1.5" y1="-3.8" x2="-1.5" y2="-3.8" width="0.127" layer="51"/>
<wire x1="-3.65" y1="-2" x2="-3.65" y2="3.5" width="0.127" layer="51"/>
<wire x1="-3.65" y1="3.5" x2="-3" y2="3.5" width="0.127" layer="51"/>
<wire x1="3" y1="3.5" x2="3.65" y2="3.5" width="0.127" layer="51"/>
<wire x1="3.65" y1="3.5" x2="3.65" y2="-2" width="0.127" layer="51"/>
<wire x1="-3" y1="2" x2="3" y2="2" width="0.127" layer="51"/>
<wire x1="-3" y1="2" x2="-3" y2="3.5" width="0.127" layer="51"/>
<wire x1="3" y1="2" x2="3" y2="3.5" width="0.127" layer="51"/>
<wire x1="-3.65" y1="-2" x2="-1.5" y2="-2" width="0.127" layer="51"/>
<wire x1="-1.5" y1="-2" x2="1.5" y2="-2" width="0.127" layer="51"/>
<wire x1="1.5" y1="-2" x2="3.65" y2="-2" width="0.127" layer="51"/>
<wire x1="1.5" y1="-2" x2="1.5" y2="-3.8" width="0.127" layer="51"/>
<wire x1="-1.5" y1="-2" x2="-1.5" y2="-3.8" width="0.127" layer="51"/>
<wire x1="-3.777" y1="1" x2="-3.777" y2="-2.445003125" width="0.2032" layer="21"/>
<wire x1="-3.777" y1="-2.445003125" x2="3.777" y2="-2.445003125" width="0.2032" layer="21"/>
<wire x1="3.777" y1="-2.445003125" x2="3.777" y2="1" width="0.2032" layer="21"/>
<wire x1="2" y1="2.127" x2="-2" y2="2.127" width="0.2032" layer="21"/>
<pad name="ANCHOR1" x="-3.7032" y="2.5" drill="1.2" diameter="2.2"/>
<pad name="ANCHOR2" x="3.7032" y="2.5" drill="1.2" diameter="2.2"/>
<pad name="1" x="-2.5" y="0" drill="0.8" diameter="1.7" stop="no"/>
<pad name="2" x="2.5" y="0" drill="0.8" diameter="1.7" stop="no"/>
<circle x="2.5" y="0" radius="0.4445" width="0" layer="29"/>
<circle x="-2.5" y="0" radius="0.4445" width="0" layer="29"/>
<circle x="2.5" y="0" radius="0.889" width="0" layer="30"/>
<circle x="-2.5" y="0" radius="0.889" width="0" layer="30"/>
<text x="0" y="2.286" size="0.6096" layer="25" font="vector" ratio="20" align="bottom-center">&gt;Name</text>
<text x="0" y="-2.286" size="0.6096" layer="27" font="vector" ratio="20" align="top-center">&gt;Value</text>
<wire x1="-0.635" y1="-2.445003125" x2="0.635" y2="-2.445003125" width="0.4064" layer="51"/>
<wire x1="3.777" y1="1.905" x2="3.777" y2="3.683" width="0.4064" layer="51"/>
<wire x1="-3.777" y1="1.905" x2="-3.777" y2="3.683" width="0.4064" layer="51"/>
<text x="-1.27" y="-0.254" size="0.8128" layer="51" font="vector" ratio="15">Foot</text>
<wire x1="0" y1="-0.635" x2="0" y2="-1.651" width="0.127" layer="51"/>
<wire x1="0" y1="-1.651" x2="-0.127" y2="-1.27" width="0.127" layer="51"/>
<wire x1="-0.127" y1="-1.27" x2="0.127" y2="-1.27" width="0.127" layer="51"/>
<wire x1="0.127" y1="-1.27" x2="0" y2="-1.651" width="0.127" layer="51"/>
<wire x1="1.905" y1="3.683" x2="2.921" y2="3.683" width="0.127" layer="51"/>
<wire x1="2.921" y1="3.683" x2="2.54" y2="3.556" width="0.127" layer="51"/>
<wire x1="2.54" y1="3.556" x2="2.54" y2="3.81" width="0.127" layer="51"/>
<wire x1="2.54" y1="3.81" x2="2.921" y2="3.683" width="0.127" layer="51"/>
<wire x1="-1.905" y1="3.683" x2="-2.921" y2="3.683" width="0.127" layer="51"/>
<wire x1="-2.921" y1="3.683" x2="-2.54" y2="3.81" width="0.127" layer="51"/>
<wire x1="-2.54" y1="3.81" x2="-2.54" y2="3.556" width="0.127" layer="51"/>
<wire x1="-2.54" y1="3.556" x2="-2.921" y2="3.683" width="0.127" layer="51"/>
<text x="-1.27" y="3.302" size="0.8128" layer="51" font="vector" ratio="15">Feet</text>
</package>
</packages>
<symbols>
<symbol name="SWITCH-MOMENTARY-2">
<description>&lt;h3&gt;Momentary Switch (Pushbutton) - SPST&lt;/h3&gt;
&lt;p&gt;Normally-open (NO) SPST momentary switches (buttons, pushbuttons).&lt;/p&gt;</description>
<wire x1="1.905" y1="0" x2="2.54" y2="0" width="0.254" layer="94"/>
<wire x1="-2.54" y1="0" x2="1.905" y2="1.27" width="0.254" layer="94"/>
<circle x="-2.54" y="0" radius="0.127" width="0.4064" layer="94"/>
<circle x="2.54" y="0" radius="0.127" width="0.4064" layer="94"/>
<text x="0" y="1.524" size="1.778" layer="95" font="vector" align="bottom-center">&gt;NAME</text>
<text x="0" y="-0.508" size="1.778" layer="96" font="vector" align="top-center">&gt;VALUE</text>
<pin name="1" x="-5.08" y="0" visible="off" length="short" direction="pas" swaplevel="2"/>
<pin name="2" x="5.08" y="0" visible="off" length="short" direction="pas" swaplevel="1" rot="R180"/>
</symbol>
</symbols>
<devicesets>
<deviceset name="MOMENTARY-SWITCH-SPST" prefix="S">
<description>&lt;h3&gt;Momentary Switch (Pushbutton) - SPST&lt;/h3&gt;
&lt;p&gt;Normally-open (NO) SPST momentary switches (buttons, pushbuttons).&lt;/p&gt;
&lt;h4&gt;Variants&lt;/h4&gt;
&lt;h5&gt;PTH-12MM - 12mm square, through-hole&lt;/h5&gt;
&lt;ul&gt;&lt;li&gt;&lt;a href="https://www.sparkfun.com/products/9190"&gt;Momentary Pushbutton Switch - 12mm Square&lt;/a&gt; (COM-09190)&lt;/li&gt;&lt;/ul&gt;
&lt;h5&gt;PTH-6.0MM, PTH-6.0MM-KIT - 6.0mm square, through-hole&lt;/h5&gt;
&lt;ul&gt;&lt;li&gt;&lt;a href="https://www.sparkfun.com/products/97"&gt;Mini Pushbutton Switch&lt;/a&gt; (COM-00097)&lt;/li&gt;
&lt;li&gt;KIT package intended for soldering kit's - only one side of pads' copper is exposed.&lt;/li&gt;&lt;/ul&gt;
&lt;h5&gt;PTH-RIGHT-ANGLE-KIT - Right-angle, through-hole&lt;/h5&gt;
&lt;ul&gt;&lt;li&gt;&lt;a href="https://www.sparkfun.com/products/10791"&gt;Right Angle Tactile Button&lt;/a&gt; - Used on &lt;a href="https://www.sparkfun.com/products/11734"&gt;
SparkFun BigTime Watch Kit&lt;/a&gt;&lt;/li&gt;&lt;/ul&gt;
&lt;h5&gt;SMD-12MM - 12mm square, surface-mount&lt;/h5&gt;
&lt;ul&gt;&lt;li&gt;&lt;a href="https://www.sparkfun.com/products/12993"&gt;Tactile Button - SMD (12mm)&lt;/a&gt; (COM-12993)&lt;/li&gt;
&lt;li&gt;Used on &lt;a href="https://www.sparkfun.com/products/11888"&gt;SparkFun PicoBoard&lt;/a&gt;&lt;/li&gt;&lt;/ul&gt;
&lt;h5&gt;SMD-4.5MM - 4.5mm Square Trackball Switch&lt;/h5&gt;
&lt;ul&gt;&lt;li&gt;Used on &lt;a href="https://www.sparkfun.com/products/13169"&gt;SparkFun Blackberry Trackballer Breakout&lt;/a&gt;&lt;/li&gt;&lt;/ul&gt;
&lt;h5&gt;SMD-4.6MMX2.8MM -  4.60mm x 2.80mm, surface mount&lt;/h5&gt;
&lt;ul&gt;&lt;li&gt;Used on &lt;a href="https://www.sparkfun.com/products/13664"&gt;SparkFun SAMD21 Mini Breakout&lt;/a&gt;&lt;/li&gt;&lt;/ul&gt;
&lt;h5&gt;SMD-5.2MM, SMD-5.2-REDUNDANT - 5.2mm square, surface-mount&lt;/h5&gt;
&lt;ul&gt;&lt;li&gt;&lt;a href="https://www.sparkfun.com/products/8720"&gt;Mini Pushbutton Switch - SMD&lt;/a&gt; (COM-08720)&lt;/li&gt;
&lt;li&gt;Used on &lt;a href="https://www.sparkfun.com/products/11114"&gt;Arduino Pro Mini&lt;/a&gt;&lt;/li&gt;
&lt;li&gt;REDUNDANT package connects both switch circuits together&lt;/li&gt;&lt;/ul&gt;
&lt;h5&gt;SMD-6.0X3.5MM - 6.0 x 3.5mm, surface mount&lt;/h5&gt;
&lt;ul&gt;&lt;li&gt;&lt;a href="https://www.sparkfun.com/products/8229"&gt;Momentary Reset Switch SMD&lt;/a&gt; (COM-08229)&lt;/li&gt;&lt;/ul&gt;
&lt;h5&gt;SMD-6.2MM-TALL - 6.2mm square, surface mount&lt;/h5&gt;
&lt;ul&gt;&lt;li&gt;&lt;a href="https://www.sparkfun.com/products/12992"&gt;Tactile Button - SMD (6mm)&lt;/a&gt;&lt;/li&gt;
&lt;li&gt;Used on &lt;a href="https://www.sparkfun.com/products/12651"&gt;SparkFun Digital Sandbox&lt;/a&gt;&lt;/li&gt;&lt;/ul&gt;
&lt;h5&gt;SMD-RIGHT-ANGLE - Right-angle, surface mount&lt;/h5&gt;
&lt;ul&gt;&lt;li&gt;Used on &lt;a href="https://www.sparkfun.com/products/13036"&gt;SparkFun Block for Intel® Edison - Arduino&lt;/a&gt;&lt;/li&gt;&lt;/ul&gt;</description>
<gates>
<gate name="G$1" symbol="SWITCH-MOMENTARY-2" x="0" y="0"/>
</gates>
<devices>
<device name="-PTH-6.0MM" package="TACTILE_SWITCH_PTH_6.0MM">
<connects>
<connect gate="G$1" pin="1" pad="1"/>
<connect gate="G$1" pin="2" pad="3"/>
</connects>
<technologies>
<technology name="">
<attribute name="PROD_ID" value=" SWCH-08441"/>
<attribute name="SF_SKU" value="COM-00097"/>
</technology>
</technologies>
</device>
<device name="-SMD-4.5MM" package="TACTILE_SWITCH_SMD_4.5MM">
<connects>
<connect gate="G$1" pin="1" pad="2 3"/>
<connect gate="G$1" pin="2" pad="1 4"/>
</connects>
<technologies>
<technology name="">
<attribute name="PROD_ID" value="SWCH-09213"/>
</technology>
</technologies>
</device>
<device name="-PTH-12MM" package="TACTILE_SWITCH_PTH_12MM">
<connects>
<connect gate="G$1" pin="1" pad="1"/>
<connect gate="G$1" pin="2" pad="3"/>
</connects>
<technologies>
<technology name="">
<attribute name="PROD_ID" value="SWCH-09185"/>
<attribute name="SF_SKU" value="COM-09190"/>
</technology>
</technologies>
</device>
<device name="-SMD-6.0X3.5MM" package="TACTILE_SWITCH_SMD_6.0X3.5MM">
<connects>
<connect gate="G$1" pin="1" pad="1"/>
<connect gate="G$1" pin="2" pad="2"/>
</connects>
<technologies>
<technology name="">
<attribute name="PROD_ID" value="SWCH-00815"/>
<attribute name="SF_SKU" value="COM-08229"/>
</technology>
</technologies>
</device>
<device name="-SMD-6.2MM-TALL" package="TACTILE_SWITCH_SMD_6.2MM_TALL">
<connects>
<connect gate="G$1" pin="1" pad="A2"/>
<connect gate="G$1" pin="2" pad="B2"/>
</connects>
<technologies>
<technology name="">
<attribute name="PROD_ID" value="SWCH-11966"/>
<attribute name="SF_SKU" value="COM-12992"/>
</technology>
</technologies>
</device>
<device name="-PTH-RIGHT-ANGLE-KIT" package="TACTILE_SWITCH_PTH_RIGHT_ANGLE_KIT">
<connects>
<connect gate="G$1" pin="1" pad="1"/>
<connect gate="G$1" pin="2" pad="2"/>
</connects>
<technologies>
<technology name="">
<attribute name="PROD_ID" value="CONN-10672"/>
<attribute name="SF_SKU" value="COM-10791"/>
</technology>
</technologies>
</device>
<device name="-SMD-12MM" package="TACTILE_SWITCH_SMD_12MM">
<connects>
<connect gate="G$1" pin="1" pad="1"/>
<connect gate="G$1" pin="2" pad="3"/>
</connects>
<technologies>
<technology name="">
<attribute name="PROD_ID" value="SWCH-11967"/>
<attribute name="SF_SKU" value="COM-12993"/>
</technology>
</technologies>
</device>
<device name="-PTH-6.0MM-KIT" package="TACTILE_SWITCH_PTH_6.0MM_KIT">
<connects>
<connect gate="G$1" pin="1" pad="1"/>
<connect gate="G$1" pin="2" pad="3"/>
</connects>
<technologies>
<technology name="">
<attribute name="PROD_ID" value="SWCH-08441"/>
<attribute name="SF_SKU" value="COM-00097 "/>
</technology>
</technologies>
</device>
<device name="-SMD-5.2MM" package="TACTILE_SWITCH_SMD_5.2MM">
<connects>
<connect gate="G$1" pin="1" pad="1"/>
<connect gate="G$1" pin="2" pad="3"/>
</connects>
<technologies>
<technology name="">
<attribute name="PROD_ID" value="SWCH-08247"/>
<attribute name="SF_SKU" value="COM-08720"/>
</technology>
</technologies>
</device>
<device name="-SMD-5.2-REDUNDANT" package="TACTILE_SWITCH_SMD_5.2MM">
<connects>
<connect gate="G$1" pin="1" pad="1 2"/>
<connect gate="G$1" pin="2" pad="3 4"/>
</connects>
<technologies>
<technology name="">
<attribute name="PROD_ID" value="SWCH-08247"/>
<attribute name="SF_SKU" value="COM-08720"/>
</technology>
</technologies>
</device>
<device name="-SMD-RIGHT-ANGLE" package="TACTILE_SWITCH_SMD_RIGHT_ANGLE">
<connects>
<connect gate="G$1" pin="1" pad="1"/>
<connect gate="G$1" pin="2" pad="2"/>
</connects>
<technologies>
<technology name="">
<attribute name="PROD_ID" value="COMP-12265" constant="no"/>
</technology>
</technologies>
</device>
<device name="-SMD-4.6X2.8MM" package="TACTILE_SWITCH_SMD_4.6X2.8MM">
<connects>
<connect gate="G$1" pin="1" pad="1 2"/>
<connect gate="G$1" pin="2" pad="3 4"/>
</connects>
<technologies>
<technology name="">
<attribute name="PROD_ID" value="SWCH-13065"/>
</technology>
</technologies>
</device>
<device name="-PTH-RIGHT-ANGLE" package="TACTILE_SWITCH_PTH_RIGHT_ANGLE">
<connects>
<connect gate="G$1" pin="1" pad="1"/>
<connect gate="G$1" pin="2" pad="2"/>
</connects>
<technologies>
<technology name="">
<attribute name="PROD_ID" value="CONN-10672" constant="no"/>
<attribute name="SF_SKU" value="COM-10791" constant="no"/>
</technology>
</technologies>
</device>
<device name="-SMD-5.2-TALL-REDUNDANT" package="TACTILE_SWITCH_SMD_5.2MM">
<connects>
<connect gate="G$1" pin="1" pad="1 2"/>
<connect gate="G$1" pin="2" pad="3 4"/>
</connects>
<technologies>
<technology name="">
<attribute name="PROD_ID" value="SWCH-14139"/>
</technology>
</technologies>
</device>
<device name="-SMD-5.2MM-TALL" package="TACTILE_SWITCH_SMD_5.2MM">
<connects>
<connect gate="G$1" pin="1" pad="1"/>
<connect gate="G$1" pin="2" pad="3"/>
</connects>
<technologies>
<technology name="">
<attribute name="PROD_ID" value="SWCH-14139"/>
</technology>
</technologies>
</device>
</devices>
</deviceset>
</devicesets>
</library>
<library name="adafruit">
<packages>
<package name="SOT23-W">
<description>&lt;b&gt;SOT23&lt;/b&gt; - Wave soldering</description>
<wire x1="1.5724" y1="0.6604" x2="1.5724" y2="-0.6604" width="0.1524" layer="51"/>
<wire x1="1.5724" y1="-0.6604" x2="-1.5724" y2="-0.6604" width="0.1524" layer="51"/>
<wire x1="-1.5724" y1="-0.6604" x2="-1.5724" y2="0.6604" width="0.1524" layer="51"/>
<wire x1="-1.5724" y1="0.6604" x2="1.5724" y2="0.6604" width="0.1524" layer="51"/>
<wire x1="-1.5724" y1="-0.3984" x2="-1.5724" y2="0.6604" width="0.1524" layer="21"/>
<wire x1="1.5724" y1="0.6604" x2="1.5724" y2="-0.3984" width="0.1524" layer="21"/>
<wire x1="0.2954" y1="-0.6604" x2="-0.3094" y2="-0.6604" width="0.1524" layer="21"/>
<smd name="3" x="0" y="1.3" dx="2.8" dy="1.4" layer="1"/>
<smd name="2" x="1.1" y="-1.3" dx="1.2" dy="1.4" layer="1"/>
<smd name="1" x="-1.1" y="-1.3" dx="1.2" dy="1.4" layer="1"/>
<text x="2.032" y="0.254" size="0.4064" layer="25">&gt;NAME</text>
<text x="2.032" y="-0.508" size="0.4064" layer="27">&gt;VALUE</text>
<rectangle x1="-0.2286" y1="0.7112" x2="0.2286" y2="1.2954" layer="51"/>
<rectangle x1="0.7112" y1="-1.2954" x2="1.1684" y2="-0.7112" layer="51"/>
<rectangle x1="-1.1684" y1="-1.2954" x2="-0.7112" y2="-0.7112" layer="51"/>
</package>
<package name="SOT23">
<description>&lt;b&gt;SOT-23&lt;/b&gt;</description>
<wire x1="1.4224" y1="0.6604" x2="1.4224" y2="-0.6604" width="0.1524" layer="51"/>
<wire x1="1.4224" y1="-0.6604" x2="-1.4224" y2="-0.6604" width="0.1524" layer="51"/>
<wire x1="-1.4224" y1="-0.6604" x2="-1.4224" y2="0.6604" width="0.1524" layer="51"/>
<wire x1="-1.4224" y1="0.6604" x2="1.4224" y2="0.6604" width="0.1524" layer="51"/>
<smd name="3" x="0" y="1.1" dx="1" dy="1.4" layer="1"/>
<smd name="2" x="0.95" y="-1.1" dx="1" dy="1.4" layer="1"/>
<smd name="1" x="-0.95" y="-1.1" dx="1" dy="1.4" layer="1"/>
<text x="-1.905" y="1.905" size="1.27" layer="25">&gt;NAME</text>
<text x="-1.905" y="-3.175" size="1.27" layer="27">&gt;VALUE</text>
<rectangle x1="-0.2286" y1="0.7112" x2="0.2286" y2="1.2954" layer="51"/>
<rectangle x1="0.7112" y1="-1.2954" x2="1.1684" y2="-0.7112" layer="51"/>
<rectangle x1="-1.1684" y1="-1.2954" x2="-0.7112" y2="-0.7112" layer="51"/>
</package>
<package name="TO220V">
<description>&lt;b&gt;TO 200 vertical&lt;/b&gt;</description>
<wire x1="5.08" y1="-1.143" x2="4.953" y2="-4.064" width="0.127" layer="21"/>
<wire x1="4.699" y1="-4.318" x2="4.953" y2="-4.064" width="0.127" layer="21"/>
<wire x1="4.699" y1="-4.318" x2="-4.699" y2="-4.318" width="0.127" layer="21"/>
<wire x1="-4.953" y1="-4.064" x2="-4.699" y2="-4.318" width="0.127" layer="21"/>
<wire x1="-4.953" y1="-4.064" x2="-5.08" y2="-1.143" width="0.127" layer="21"/>
<circle x="-4.4958" y="-3.7084" radius="0.254" width="0.127" layer="21"/>
<pad name="1" x="-2.54" y="-2.54" drill="1.016" shape="long" rot="R90"/>
<pad name="2" x="0" y="-2.54" drill="1.016" shape="long" rot="R90"/>
<pad name="3" x="2.54" y="-2.54" drill="1.016" shape="long" rot="R90"/>
<text x="-5.08" y="-6.0452" size="1.27" layer="25" ratio="10">&gt;NAME</text>
<text x="-5.08" y="-7.62" size="1.27" layer="27" ratio="10">&gt;VALUE</text>
<text x="-3.175" y="-3.175" size="1.27" layer="51" ratio="10">1</text>
<text x="-0.635" y="-3.175" size="1.27" layer="51" ratio="10">2</text>
<text x="1.905" y="-3.175" size="1.27" layer="51" ratio="10">3</text>
<rectangle x1="-5.334" y1="-0.762" x2="5.334" y2="0" layer="21"/>
<rectangle x1="-5.334" y1="-1.27" x2="-3.429" y2="-0.762" layer="21"/>
<rectangle x1="-1.651" y1="-1.27" x2="-0.889" y2="-0.762" layer="21"/>
<rectangle x1="-3.429" y1="-1.27" x2="-1.651" y2="-0.762" layer="51"/>
<rectangle x1="0.889" y1="-1.27" x2="1.651" y2="-0.762" layer="21"/>
<rectangle x1="3.429" y1="-1.27" x2="5.334" y2="-0.762" layer="21"/>
<rectangle x1="-0.889" y1="-1.27" x2="0.889" y2="-0.762" layer="51"/>
<rectangle x1="1.651" y1="-1.27" x2="3.429" y2="-0.762" layer="51"/>
</package>
</packages>
<symbols>
<symbol name="MOSFET-N">
<wire x1="0.762" y1="0.762" x2="0.762" y2="0" width="0.254" layer="94"/>
<wire x1="0.762" y1="0" x2="0.762" y2="-0.762" width="0.254" layer="94"/>
<wire x1="0.762" y1="3.175" x2="0.762" y2="2.54" width="0.254" layer="94"/>
<wire x1="0.762" y1="2.54" x2="0.762" y2="1.905" width="0.254" layer="94"/>
<wire x1="0.762" y1="0" x2="2.54" y2="0" width="0.1524" layer="94"/>
<wire x1="2.54" y1="0" x2="2.54" y2="-2.54" width="0.1524" layer="94"/>
<wire x1="0.762" y1="-1.905" x2="0.762" y2="-2.54" width="0.254" layer="94"/>
<wire x1="0.762" y1="-2.54" x2="0.762" y2="-3.175" width="0.254" layer="94"/>
<wire x1="0" y1="2.54" x2="0" y2="-2.54" width="0.254" layer="94"/>
<wire x1="2.54" y1="-2.54" x2="0.762" y2="-2.54" width="0.1524" layer="94"/>
<wire x1="3.81" y1="2.54" x2="3.81" y2="0.508" width="0.1524" layer="94"/>
<wire x1="3.81" y1="0.508" x2="3.81" y2="-2.54" width="0.1524" layer="94"/>
<wire x1="2.54" y1="-2.54" x2="3.81" y2="-2.54" width="0.1524" layer="94"/>
<wire x1="0.762" y1="2.54" x2="3.81" y2="2.54" width="0.1524" layer="94"/>
<wire x1="4.572" y1="0.762" x2="4.318" y2="0.508" width="0.1524" layer="94"/>
<wire x1="4.318" y1="0.508" x2="3.81" y2="0.508" width="0.1524" layer="94"/>
<wire x1="3.81" y1="0.508" x2="3.302" y2="0.508" width="0.1524" layer="94"/>
<wire x1="3.302" y1="0.508" x2="3.048" y2="0.254" width="0.1524" layer="94"/>
<circle x="2.54" y="-2.54" radius="0.3592" width="0" layer="94"/>
<circle x="2.54" y="2.54" radius="0.3592" width="0" layer="94"/>
<text x="5.08" y="0.635" size="1.27" layer="95">&gt;NAME</text>
<text x="5.08" y="-1.27" size="1.27" layer="96">&gt;VALUE</text>
<text x="3.175" y="3.175" size="0.8128" layer="93">D</text>
<text x="3.175" y="-3.81" size="0.8128" layer="93">S</text>
<text x="-1.27" y="-1.905" size="0.8128" layer="93">G</text>
<pin name="G" x="-2.54" y="-2.54" visible="pad" length="short"/>
<pin name="S" x="2.54" y="-5.08" visible="pad" length="short" rot="R90"/>
<pin name="D" x="2.54" y="5.08" visible="pad" length="short" rot="R270"/>
<polygon width="0.1524" layer="94">
<vertex x="3.81" y="0.508"/>
<vertex x="3.302" y="-0.254"/>
<vertex x="4.318" y="-0.254"/>
</polygon>
<polygon width="0.1524" layer="94">
<vertex x="1.016" y="0"/>
<vertex x="2.032" y="0.762"/>
<vertex x="2.032" y="-0.762"/>
</polygon>
</symbol>
</symbols>
<devicesets>
<deviceset name="MOSFET-N" prefix="Q" uservalue="yes">
<description>&lt;b&gt;N-Channel Mosfet&lt;/b&gt;
&lt;ul&gt;
&lt;li&gt;2N7002E - 60V 260mA SOT23 [Digikey: 2N7002ET1GOSTR-ND] - &lt;b&gt;REEL&lt;/b&gt;&lt;/li&gt;
&lt;li&gt;BSH103 - 30V 850mA SOT23 [Digikey: 568-5013-1-ND]&lt;/li&gt;
&lt;/ul&gt;</description>
<gates>
<gate name="G$1" symbol="MOSFET-N" x="-2.54" y="0"/>
</gates>
<devices>
<device name="WAVE" package="SOT23-W">
<connects>
<connect gate="G$1" pin="D" pad="3"/>
<connect gate="G$1" pin="G" pad="1"/>
<connect gate="G$1" pin="S" pad="2"/>
</connects>
<technologies>
<technology name=""/>
</technologies>
</device>
<device name="REFLOW" package="SOT23">
<connects>
<connect gate="G$1" pin="D" pad="3"/>
<connect gate="G$1" pin="G" pad="1"/>
<connect gate="G$1" pin="S" pad="2"/>
</connects>
<technologies>
<technology name=""/>
</technologies>
</device>
<device name="GDS_TO220V" package="TO220V">
<connects>
<connect gate="G$1" pin="D" pad="2"/>
<connect gate="G$1" pin="G" pad="1"/>
<connect gate="G$1" pin="S" pad="3"/>
</connects>
<technologies>
<technology name=""/>
</technologies>
</device>
</devices>
</deviceset>
</devicesets>
</library>
</libraries>
<attributes>
</attributes>
<variantdefs>
</variantdefs>
<classes>
<class number="0" name="default" width="0" drill="0">
</class>
</classes>
<parts>
<part name="IC1" library="ams1117-3.3v" deviceset="AMS1117-3.3V" device=""/>
<part name="GND1" library="supply1" library_urn="urn:adsk.eagle:library:371" deviceset="GND" device=""/>
<part name="P+1" library="supply1" library_urn="urn:adsk.eagle:library:371" deviceset="VCC" device=""/>
<part name="IC2" library="linear" library_urn="urn:adsk.eagle:library:262" deviceset="LM50" device="" package3d_urn="urn:adsk.eagle:package:16489/2"/>
<part name="VCC" library="wirepad" library_urn="urn:adsk.eagle:library:412" deviceset="SMD2" device="" package3d_urn="urn:adsk.eagle:package:30839/1"/>
<part name="GND" library="wirepad" library_urn="urn:adsk.eagle:library:412" deviceset="SMD2" device="" package3d_urn="urn:adsk.eagle:package:30839/1"/>
<part name="LED+" library="wirepad" library_urn="urn:adsk.eagle:library:412" deviceset="SMD2" device="" package3d_urn="urn:adsk.eagle:package:30839/1"/>
<part name="LED-" library="wirepad" library_urn="urn:adsk.eagle:library:412" deviceset="SMD2" device="" package3d_urn="urn:adsk.eagle:package:30839/1"/>
<part name="TX" library="wirepad" library_urn="urn:adsk.eagle:library:412" deviceset="SMD2" device="" package3d_urn="urn:adsk.eagle:package:30839/1"/>
<part name="RX" library="wirepad" library_urn="urn:adsk.eagle:library:412" deviceset="SMD2" device="" package3d_urn="urn:adsk.eagle:package:30839/1"/>
<part name="GPIO0" library="wirepad" library_urn="urn:adsk.eagle:library:412" deviceset="SMD2" device="" package3d_urn="urn:adsk.eagle:package:30839/1"/>
<part name="REL1" library="wirepad" library_urn="urn:adsk.eagle:library:412" deviceset="SMD2" device="" package3d_urn="urn:adsk.eagle:package:30839/1"/>
<part name="REL2" library="wirepad" library_urn="urn:adsk.eagle:library:412" deviceset="SMD2" device="" package3d_urn="urn:adsk.eagle:package:30839/1"/>
<part name="Iñ" library="wirepad" library_urn="urn:adsk.eagle:library:412" deviceset="SMD2" device="" package3d_urn="urn:adsk.eagle:package:30839/1"/>
<part name="OUTñ" library="wirepad" library_urn="urn:adsk.eagle:library:412" deviceset="SMD2" device="" package3d_urn="urn:adsk.eagle:package:30839/1"/>
<part name="U$2" library="esp8266modules" deviceset="ESP07-16PIN" device=""/>
<part name="S1" library="SparkFun-Switches" deviceset="MOMENTARY-SWITCH-SPST" device="-SMD-6.0X3.5MM"/>
<part name="Q1" library="adafruit" deviceset="MOSFET-N" device="REFLOW"/>
</parts>
<sheets>
<sheet>
<plain>
</plain>
<instances>
<instance part="IC1" gate="G$1" x="86.36" y="35.56" smashed="yes">
<attribute name="NAME" x="133.35" y="43.18" size="1.778" layer="95" align="center-left"/>
<attribute name="VALUE" x="133.35" y="40.64" size="1.778" layer="96" align="center-left"/>
</instance>
<instance part="GND1" gate="1" x="0" y="12.7" smashed="yes">
<attribute name="VALUE" x="-2.54" y="10.16" size="1.778" layer="96"/>
</instance>
<instance part="P+1" gate="VCC" x="93.98" y="10.16" smashed="yes">
<attribute name="VALUE" x="91.44" y="7.62" size="1.778" layer="96" rot="R90"/>
</instance>
<instance part="IC2" gate="G$1" x="10.16" y="81.28" smashed="yes">
<attribute name="NAME" x="2.54" y="85.09" size="1.778" layer="95"/>
<attribute name="VALUE" x="12.7" y="73.66" size="1.778" layer="96"/>
</instance>
<instance part="VCC" gate="1" x="101.6" y="5.08" smashed="yes">
<attribute name="NAME" x="100.457" y="6.9342" size="1.778" layer="95"/>
<attribute name="VALUE" x="100.457" y="1.778" size="1.778" layer="96"/>
</instance>
<instance part="GND" gate="1" x="0" y="22.86" smashed="yes">
<attribute name="NAME" x="-1.143" y="24.7142" size="1.778" layer="95"/>
<attribute name="VALUE" x="-1.143" y="19.558" size="1.778" layer="96"/>
</instance>
<instance part="LED+" gate="1" x="93.98" y="81.28" smashed="yes">
<attribute name="NAME" x="92.837" y="83.1342" size="1.778" layer="95"/>
<attribute name="VALUE" x="92.837" y="77.978" size="1.778" layer="96"/>
</instance>
<instance part="LED-" gate="1" x="91.44" y="93.98" smashed="yes">
<attribute name="NAME" x="90.297" y="95.8342" size="1.778" layer="95"/>
<attribute name="VALUE" x="90.297" y="90.678" size="1.778" layer="96"/>
</instance>
<instance part="TX" gate="1" x="71.12" y="2.54" smashed="yes">
<attribute name="NAME" x="69.977" y="4.3942" size="1.778" layer="95"/>
<attribute name="VALUE" x="69.977" y="-0.762" size="1.778" layer="96"/>
</instance>
<instance part="RX" gate="1" x="71.12" y="-2.54" smashed="yes">
<attribute name="NAME" x="69.977" y="-0.6858" size="1.778" layer="95"/>
<attribute name="VALUE" x="69.977" y="-5.842" size="1.778" layer="96"/>
</instance>
<instance part="GPIO0" gate="1" x="71.12" y="-7.62" smashed="yes">
<attribute name="NAME" x="69.977" y="-5.7658" size="1.778" layer="95"/>
<attribute name="VALUE" x="69.977" y="-10.922" size="1.778" layer="96"/>
</instance>
<instance part="REL1" gate="1" x="154.94" y="91.44" smashed="yes">
<attribute name="NAME" x="153.797" y="93.2942" size="1.778" layer="95"/>
<attribute name="VALUE" x="153.797" y="88.138" size="1.778" layer="96"/>
</instance>
<instance part="REL2" gate="1" x="154.94" y="83.82" smashed="yes">
<attribute name="NAME" x="153.797" y="85.6742" size="1.778" layer="95"/>
<attribute name="VALUE" x="153.797" y="80.518" size="1.778" layer="96"/>
</instance>
<instance part="Iñ" gate="1" x="170.18" y="91.44" smashed="yes">
<attribute name="NAME" x="169.037" y="93.2942" size="1.778" layer="95"/>
<attribute name="VALUE" x="169.037" y="88.138" size="1.778" layer="96"/>
</instance>
<instance part="OUTñ" gate="1" x="170.18" y="83.82" smashed="yes">
<attribute name="NAME" x="169.037" y="85.6742" size="1.778" layer="95"/>
<attribute name="VALUE" x="169.037" y="80.518" size="1.778" layer="96"/>
</instance>
<instance part="U$2" gate="G$1" x="-15.24" y="-43.18" smashed="yes">
<attribute name="NAME" x="-27.94" y="-33.02" size="1.778" layer="95"/>
<attribute name="VALUE" x="-27.94" y="-58.42" size="1.778" layer="96"/>
</instance>
<instance part="S1" gate="G$1" x="22.86" y="-76.2" smashed="yes">
<attribute name="NAME" x="22.86" y="-74.676" size="1.778" layer="95" font="vector" align="bottom-center"/>
<attribute name="VALUE" x="22.86" y="-76.708" size="1.778" layer="96" font="vector" align="top-center"/>
</instance>
<instance part="Q1" gate="G$1" x="63.5" y="-73.66" smashed="yes">
<attribute name="NAME" x="68.58" y="-73.025" size="1.27" layer="95"/>
<attribute name="VALUE" x="68.58" y="-74.93" size="1.27" layer="96"/>
</instance>
</instances>
<busses>
</busses>
<nets>
<net name="VCC" class="0">
<segment>
<pinref part="IC1" gate="G$1" pin="VIN"/>
<wire x1="86.36" y1="30.48" x2="86.36" y2="15.24" width="0.1524" layer="91"/>
<wire x1="86.36" y1="15.24" x2="83.82" y2="15.24" width="0.1524" layer="91"/>
<pinref part="P+1" gate="VCC" pin="VCC"/>
<wire x1="83.82" y1="15.24" x2="83.82" y2="10.16" width="0.1524" layer="91"/>
<wire x1="83.82" y1="10.16" x2="83.82" y2="7.62" width="0.1524" layer="91"/>
<wire x1="83.82" y1="7.62" x2="93.98" y2="7.62" width="0.1524" layer="91"/>
<junction x="83.82" y="10.16"/>
<wire x1="68.58" y1="10.16" x2="83.82" y2="10.16" width="0.1524" layer="91"/>
<wire x1="68.58" y1="81.28" x2="68.58" y2="10.16" width="0.1524" layer="91"/>
<wire x1="86.36" y1="83.82" x2="86.36" y2="81.28" width="0.1524" layer="91"/>
<wire x1="86.36" y1="81.28" x2="68.58" y2="81.28" width="0.1524" layer="91"/>
<pinref part="VCC" gate="1" pin="P"/>
<wire x1="93.98" y1="7.62" x2="104.14" y2="5.08" width="0.1524" layer="91"/>
<junction x="93.98" y="7.62"/>
<pinref part="LED+" gate="1" pin="P"/>
<wire x1="96.52" y1="81.28" x2="86.36" y2="83.82" width="0.1524" layer="91"/>
</segment>
</net>
<net name="GND" class="0">
<segment>
<pinref part="GND1" gate="1" pin="GND"/>
<wire x1="0" y1="15.24" x2="10.16" y2="15.24" width="0.1524" layer="91"/>
<wire x1="10.16" y1="15.24" x2="63.5" y2="15.24" width="0.1524" layer="91"/>
<wire x1="63.5" y1="15.24" x2="81.28" y2="15.24" width="0.1524" layer="91"/>
<wire x1="81.28" y1="15.24" x2="81.28" y2="35.56" width="0.1524" layer="91"/>
<pinref part="IC1" gate="G$1" pin="GROUND/ADJUST"/>
<wire x1="81.28" y1="35.56" x2="86.36" y2="35.56" width="0.1524" layer="91"/>
<wire x1="10.16" y1="60.96" x2="10.16" y2="15.24" width="0.1524" layer="91"/>
<junction x="10.16" y="15.24"/>
<wire x1="10.16" y1="15.24" x2="7.62" y2="15.24" width="0.1524" layer="91"/>
<pinref part="IC2" gate="G$1" pin="VO"/>
<wire x1="20.32" y1="81.28" x2="20.32" y2="60.96" width="0.1524" layer="91"/>
<wire x1="20.32" y1="60.96" x2="10.16" y2="60.96" width="0.1524" layer="91"/>
<junction x="63.5" y="15.24"/>
<pinref part="GND" gate="1" pin="P"/>
<wire x1="0" y1="15.24" x2="2.54" y2="22.86" width="0.1524" layer="91"/>
<junction x="0" y="15.24"/>
<wire x1="63.5" y1="15.24" x2="63.5" y2="-53.34" width="0.1524" layer="91"/>
<pinref part="Q1" gate="G$1" pin="S"/>
<wire x1="66.04" y1="-78.74" x2="76.2" y2="-78.74" width="0.1524" layer="91"/>
<wire x1="76.2" y1="-78.74" x2="76.2" y2="-66.04" width="0.1524" layer="91"/>
<wire x1="76.2" y1="-66.04" x2="63.5" y2="-53.34" width="0.1524" layer="91"/>
</segment>
</net>
<net name="N$1" class="0">
<segment>
<wire x1="15.24" y1="48.26" x2="12.7" y2="48.26" width="0.1524" layer="91"/>
<wire x1="12.7" y1="48.26" x2="12.7" y2="63.5" width="0.1524" layer="91"/>
<pinref part="IC2" gate="G$1" pin="+VS"/>
<wire x1="0" y1="81.28" x2="0" y2="63.5" width="0.1524" layer="91"/>
<wire x1="0" y1="63.5" x2="12.7" y2="63.5" width="0.1524" layer="91"/>
<wire x1="15.24" y1="20.32" x2="15.24" y2="48.26" width="0.1524" layer="91"/>
<wire x1="15.24" y1="20.32" x2="12.7" y2="20.32" width="0.1524" layer="91"/>
<wire x1="12.7" y1="20.32" x2="12.7" y2="-22.86" width="0.1524" layer="91"/>
<wire x1="12.7" y1="-22.86" x2="7.62" y2="-22.86" width="0.1524" layer="91"/>
<pinref part="U$2" gate="G$1" pin="GPIO14"/>
<wire x1="-33.02" y1="-45.72" x2="-38.1" y2="-45.72" width="0.1524" layer="91"/>
<wire x1="-38.1" y1="-45.72" x2="-38.1" y2="-25.4" width="0.1524" layer="91"/>
<wire x1="-38.1" y1="-25.4" x2="7.62" y2="-25.4" width="0.1524" layer="91"/>
<wire x1="7.62" y1="-25.4" x2="7.62" y2="-22.86" width="0.1524" layer="91"/>
</segment>
</net>
<net name="N$4" class="0">
<segment>
<wire x1="33.02" y1="71.12" x2="33.02" y2="66.04" width="0.1524" layer="91"/>
<wire x1="33.02" y1="66.04" x2="106.68" y2="66.04" width="0.1524" layer="91"/>
<wire x1="106.68" y1="66.04" x2="106.68" y2="86.36" width="0.1524" layer="91"/>
<wire x1="106.68" y1="86.36" x2="104.14" y2="86.36" width="0.1524" layer="91"/>
</segment>
</net>
<net name="N$3" class="0">
<segment>
<pinref part="IC2" gate="G$1" pin="GND"/>
<wire x1="10.16" y1="73.66" x2="22.86" y2="73.66" width="0.1524" layer="91"/>
<wire x1="22.86" y1="73.66" x2="22.86" y2="101.6" width="0.1524" layer="91"/>
<wire x1="22.86" y1="101.6" x2="86.36" y2="101.6" width="0.1524" layer="91"/>
<wire x1="86.36" y1="101.6" x2="86.36" y2="93.98" width="0.1524" layer="91"/>
<pinref part="LED-" gate="1" pin="P"/>
<wire x1="93.98" y1="93.98" x2="86.36" y2="93.98" width="0.1524" layer="91"/>
</segment>
</net>
<net name="N$7" class="0">
<segment>
<pinref part="IC1" gate="G$1" pin="VOUT"/>
<wire x1="50.8" y1="33.02" x2="86.36" y2="33.02" width="0.1524" layer="91"/>
<wire x1="50.8" y1="33.02" x2="50.8" y2="-63.5" width="0.1524" layer="91"/>
<wire x1="50.8" y1="-63.5" x2="-10.16" y2="-63.5" width="0.1524" layer="91"/>
<pinref part="U$2" gate="G$1" pin="VCC"/>
<wire x1="-10.16" y1="-63.5" x2="-38.1" y2="-63.5" width="0.1524" layer="91"/>
<wire x1="-33.02" y1="-53.34" x2="-38.1" y2="-53.34" width="0.1524" layer="91"/>
<wire x1="-38.1" y1="-53.34" x2="-40.64" y2="-53.34" width="0.1524" layer="91"/>
<wire x1="-40.64" y1="-53.34" x2="-40.64" y2="-40.64" width="0.1524" layer="91"/>
<pinref part="U$2" gate="G$1" pin="CH_PD"/>
<wire x1="-40.64" y1="-40.64" x2="-33.02" y2="-40.64" width="0.1524" layer="91"/>
<wire x1="-38.1" y1="-63.5" x2="-38.1" y2="-53.34" width="0.1524" layer="91"/>
<junction x="-38.1" y="-53.34"/>
<pinref part="S1" gate="G$1" pin="1"/>
<wire x1="-10.16" y1="-63.5" x2="2.54" y2="-76.2" width="0.1524" layer="91"/>
<wire x1="2.54" y1="-76.2" x2="17.78" y2="-76.2" width="0.1524" layer="91"/>
<junction x="-10.16" y="-63.5"/>
</segment>
</net>
<net name="N$2" class="0">
<segment>
<pinref part="TX" gate="1" pin="P"/>
<wire x1="15.24" y1="-45.72" x2="93.98" y2="-45.72" width="0.1524" layer="91"/>
<wire x1="93.98" y1="-45.72" x2="93.98" y2="5.08" width="0.1524" layer="91"/>
<wire x1="93.98" y1="5.08" x2="73.66" y2="2.54" width="0.1524" layer="91"/>
<wire x1="15.24" y1="-45.72" x2="15.24" y2="-35.56" width="0.1524" layer="91"/>
<pinref part="U$2" gate="G$1" pin="TX"/>
<wire x1="15.24" y1="-35.56" x2="0" y2="-35.56" width="0.1524" layer="91"/>
</segment>
</net>
<net name="N$5" class="0">
<segment>
<pinref part="RX" gate="1" pin="P"/>
<wire x1="50.8" y1="-43.18" x2="91.44" y2="-43.18" width="0.1524" layer="91"/>
<wire x1="91.44" y1="-43.18" x2="91.44" y2="-2.54" width="0.1524" layer="91"/>
<wire x1="91.44" y1="-2.54" x2="73.66" y2="-2.54" width="0.1524" layer="91"/>
<pinref part="U$2" gate="G$1" pin="RX"/>
<wire x1="0" y1="-38.1" x2="50.8" y2="-38.1" width="0.1524" layer="91"/>
<wire x1="50.8" y1="-38.1" x2="50.8" y2="-43.18" width="0.1524" layer="91"/>
</segment>
</net>
<net name="GPIO0" class="0">
<segment>
<pinref part="GPIO0" gate="1" pin="P"/>
<wire x1="73.66" y1="-22.86" x2="73.66" y2="-7.62" width="0.1524" layer="91"/>
<pinref part="U$2" gate="G$1" pin="GPIO0"/>
<wire x1="0" y1="-45.72" x2="10.16" y2="-45.72" width="0.1524" layer="91"/>
<wire x1="10.16" y1="-45.72" x2="10.16" y2="-30.48" width="0.1524" layer="91"/>
<wire x1="10.16" y1="-30.48" x2="40.64" y2="-30.48" width="0.1524" layer="91"/>
<wire x1="40.64" y1="-30.48" x2="40.64" y2="-22.86" width="0.1524" layer="91"/>
<wire x1="40.64" y1="-22.86" x2="73.66" y2="-22.86" width="0.1524" layer="91"/>
</segment>
</net>
<net name="N$6" class="0">
<segment>
<pinref part="Iñ" gate="1" pin="P"/>
<pinref part="REL1" gate="1" pin="P"/>
<wire x1="172.72" y1="91.44" x2="157.48" y2="91.44" width="0.1524" layer="91"/>
</segment>
</net>
<net name="N$8" class="0">
<segment>
<pinref part="OUTñ" gate="1" pin="P"/>
<pinref part="REL2" gate="1" pin="P"/>
<wire x1="172.72" y1="83.82" x2="157.48" y2="83.82" width="0.1524" layer="91"/>
</segment>
</net>
<net name="N$9" class="0">
<segment>
<pinref part="U$2" gate="G$1" pin="GPIO5"/>
<wire x1="0" y1="-43.18" x2="5.08" y2="-43.18" width="0.1524" layer="91"/>
<wire x1="5.08" y1="-43.18" x2="5.08" y2="-68.58" width="0.1524" layer="91"/>
<wire x1="5.08" y1="-68.58" x2="7.62" y2="-71.12" width="0.1524" layer="91"/>
<wire x1="7.62" y1="-71.12" x2="38.1" y2="-71.12" width="0.1524" layer="91"/>
<pinref part="Q1" gate="G$1" pin="G"/>
<wire x1="38.1" y1="-71.12" x2="58.42" y2="-71.12" width="0.1524" layer="91"/>
<wire x1="58.42" y1="-71.12" x2="60.96" y2="-73.66" width="0.1524" layer="91"/>
<wire x1="60.96" y1="-73.66" x2="60.96" y2="-76.2" width="0.1524" layer="91"/>
<pinref part="S1" gate="G$1" pin="2"/>
<wire x1="27.94" y1="-76.2" x2="33.02" y2="-76.2" width="0.1524" layer="91"/>
<wire x1="33.02" y1="-76.2" x2="38.1" y2="-71.12" width="0.1524" layer="91"/>
<junction x="38.1" y="-71.12"/>
</segment>
</net>
<net name="N$10" class="0">
<segment>
<pinref part="U$2" gate="G$1" pin="GPIO15"/>
<pinref part="U$2" gate="G$1" pin="GND"/>
<wire x1="0" y1="-53.34" x2="0" y2="-50.8" width="0.1524" layer="91"/>
<wire x1="0" y1="-53.34" x2="53.34" y2="-53.34" width="0.1524" layer="91"/>
<junction x="0" y="-53.34"/>
<pinref part="Q1" gate="G$1" pin="D"/>
<wire x1="53.34" y1="-53.34" x2="53.34" y2="-55.88" width="0.1524" layer="91"/>
<wire x1="53.34" y1="-55.88" x2="66.04" y2="-68.58" width="0.1524" layer="91"/>
</segment>
</net>
</nets>
</sheet>
</sheets>
</schematic>
</drawing>
<compatibility>
<note version="8.2" severity="warning">
Since Version 8.2, EAGLE supports online libraries. The ids
of those online libraries will not be understood (or retained)
with this version.
</note>
<note version="8.3" severity="warning">
Since Version 8.3, EAGLE supports URNs for individual library
assets (packages, symbols, and devices). The URNs of those assets
will not be understood (or retained) with this version.
</note>
<note version="8.3" severity="warning">
Since Version 8.3, EAGLE supports the association of 3D packages
with devices in libraries, schematics, and board files. Those 3D
packages will not be understood (or retained) with this version.
</note>
</compatibility>
</eagle>
