(.../Documents/EAGLE/ulps/pcb-gcode.ulp)
(Copyright 2005 - 2012 by John Johnson)
(See readme.txt for licensing terms.)
(This file generated from the board:)
(.../Documents/EAGLE/projects/bulb/bulb.brd)
(Current profile is .../EAGLE/ulps/profiles/generic.pp  )
(This file generated 10/11/19 21:01)
(Settings from pcb-machine.h)
(spindle on time = 0.0000)
(tool change at 0.0000 0.0000 30.0000 )
(feed rate xy = F0.00  )
(feed rate z  = F0.00  )
(Z Axis Settings)
(  High     Up        Down     Drill)
(3.0000 	2.0000 	-0.0700 	-1.6700 )
(Settings from pcb-defaults.h)
(isolate min = 0.0254)
(isolate max = 1.0000)
(isolate step = 0.1000)
(Generated top outlines, top drill, top stencil, )
(Unit of measure: mm)
(Metric Mode)
G21
(Absolute Coordinates)
G90
S24000
G00 Z3.0000 
G00 X0.0000 Y0.0000 
M03
S10000
G04 P0.000000
G00 Z2.0000 
G00 X10.7570 Y8.0740 
G01 Z-0.0700 F360.00 
G01 X12.0070 Y8.0740 F360.00 
G01 X12.0070 Y7.1740 
G01 X10.7570 Y7.1740 
G01 X10.7570 Y8.0740 
G01 X12.0070 Y8.0740 
G00 Z2.0000 
G00 X10.7570 Y5.7840 
G01 Z-0.0700 F360.00 
G01 X12.0070 Y5.7840 F360.00 
G01 X12.0070 Y4.8840 
G01 X10.7570 Y4.8840 
G01 X10.7570 Y5.7840 
G01 X12.0070 Y5.7840 
G00 Z2.0000 
G00 X10.7570 Y3.4940 
G01 Z-0.0700 F360.00 
G01 X12.0070 Y3.4940 F360.00 
G01 X12.0070 Y2.5940 
G01 X10.7570 Y2.5940 
G01 X10.7570 Y3.4940 
G01 X12.0070 Y3.4940 
G00 Z2.0000 
G00 X17.4570 Y3.7340 
G01 Z-0.0700 F360.00 
G01 X17.4570 Y6.9340 F360.00 
G01 X18.7070 Y6.9340 
G01 X18.7070 Y3.7340 
G01 X17.4570 Y3.7340 
G01 X17.4570 Y6.9340 
G00 Z2.0000 
G00 Z3.0000 
M05
M02
