<?xml version="1.0" encoding="utf-8"?>
<!DOCTYPE eagle SYSTEM "eagle.dtd">
<eagle version="9.3.2">
<drawing>
<settings>
<setting alwaysvectorfont="no"/>
<setting verticaltext="up"/>
</settings>
<grid distance="0.2" unitdist="mm" unit="mm" style="lines" multiple="1" display="yes" altdistance="5" altunitdist="mil" altunit="mil"/>
<layers>
<layer number="1" name="Top" color="4" fill="1" visible="yes" active="yes"/>
<layer number="16" name="Bottom" color="1" fill="1" visible="yes" active="yes"/>
<layer number="17" name="Pads" color="2" fill="1" visible="yes" active="yes"/>
<layer number="18" name="Vias" color="2" fill="1" visible="yes" active="yes"/>
<layer number="19" name="Unrouted" color="6" fill="1" visible="yes" active="yes"/>
<layer number="20" name="Dimension" color="24" fill="1" visible="yes" active="yes"/>
<layer number="21" name="tPlace" color="7" fill="1" visible="yes" active="yes"/>
<layer number="22" name="bPlace" color="7" fill="1" visible="yes" active="yes"/>
<layer number="23" name="tOrigins" color="15" fill="1" visible="yes" active="yes"/>
<layer number="24" name="bOrigins" color="15" fill="1" visible="yes" active="yes"/>
<layer number="25" name="tNames" color="7" fill="1" visible="yes" active="yes"/>
<layer number="26" name="bNames" color="7" fill="1" visible="yes" active="yes"/>
<layer number="27" name="tValues" color="7" fill="1" visible="yes" active="yes"/>
<layer number="28" name="bValues" color="7" fill="1" visible="yes" active="yes"/>
<layer number="29" name="tStop" color="7" fill="3" visible="no" active="yes"/>
<layer number="30" name="bStop" color="7" fill="6" visible="no" active="yes"/>
<layer number="31" name="tCream" color="7" fill="4" visible="no" active="yes"/>
<layer number="32" name="bCream" color="7" fill="5" visible="no" active="yes"/>
<layer number="33" name="tFinish" color="6" fill="3" visible="no" active="yes"/>
<layer number="34" name="bFinish" color="6" fill="6" visible="no" active="yes"/>
<layer number="35" name="tGlue" color="7" fill="4" visible="no" active="yes"/>
<layer number="36" name="bGlue" color="7" fill="5" visible="no" active="yes"/>
<layer number="37" name="tTest" color="7" fill="1" visible="no" active="yes"/>
<layer number="38" name="bTest" color="7" fill="1" visible="no" active="yes"/>
<layer number="39" name="tKeepout" color="4" fill="11" visible="yes" active="yes"/>
<layer number="40" name="bKeepout" color="1" fill="11" visible="yes" active="yes"/>
<layer number="41" name="tRestrict" color="4" fill="10" visible="yes" active="yes"/>
<layer number="42" name="bRestrict" color="1" fill="10" visible="yes" active="yes"/>
<layer number="43" name="vRestrict" color="2" fill="10" visible="yes" active="yes"/>
<layer number="44" name="Drills" color="7" fill="1" visible="no" active="yes"/>
<layer number="45" name="Holes" color="7" fill="1" visible="yes" active="yes"/>
<layer number="46" name="Milling" color="3" fill="1" visible="yes" active="yes"/>
<layer number="47" name="Measures" color="7" fill="1" visible="no" active="yes"/>
<layer number="48" name="Document" color="7" fill="1" visible="yes" active="yes"/>
<layer number="49" name="Reference" color="7" fill="1" visible="yes" active="yes"/>
<layer number="50" name="dxf" color="7" fill="1" visible="no" active="no"/>
<layer number="51" name="tDocu" color="7" fill="1" visible="yes" active="yes"/>
<layer number="52" name="bDocu" color="7" fill="1" visible="yes" active="yes"/>
<layer number="53" name="tGND_GNDA" color="7" fill="9" visible="no" active="no"/>
<layer number="54" name="bGND_GNDA" color="1" fill="9" visible="no" active="no"/>
<layer number="56" name="wert" color="7" fill="1" visible="no" active="no"/>
<layer number="57" name="tCAD" color="7" fill="1" visible="no" active="no"/>
<layer number="88" name="SimResults" color="9" fill="1" visible="no" active="no"/>
<layer number="89" name="SimProbes" color="9" fill="1" visible="no" active="no"/>
<layer number="90" name="Modules" color="5" fill="1" visible="no" active="no"/>
<layer number="91" name="Nets" color="2" fill="1" visible="no" active="no"/>
<layer number="92" name="Busses" color="1" fill="1" visible="no" active="no"/>
<layer number="93" name="Pins" color="2" fill="1" visible="no" active="no"/>
<layer number="94" name="Symbols" color="4" fill="1" visible="no" active="no"/>
<layer number="95" name="Names" color="7" fill="1" visible="no" active="no"/>
<layer number="96" name="Values" color="7" fill="1" visible="no" active="no"/>
<layer number="97" name="Info" color="7" fill="1" visible="no" active="no"/>
<layer number="98" name="Guide" color="6" fill="1" visible="no" active="no"/>
<layer number="100" name="Muster" color="7" fill="1" visible="no" active="no"/>
<layer number="101" name="Patch_Top" color="12" fill="4" visible="yes" active="yes"/>
<layer number="102" name="Vscore" color="7" fill="1" visible="yes" active="yes"/>
<layer number="103" name="fp3" color="7" fill="1" visible="no" active="yes"/>
<layer number="104" name="Name" color="7" fill="1" visible="yes" active="yes"/>
<layer number="105" name="Beschreib" color="9" fill="1" visible="yes" active="yes"/>
<layer number="106" name="BGA-Top" color="4" fill="1" visible="yes" active="yes"/>
<layer number="107" name="BD-Top" color="5" fill="1" visible="yes" active="yes"/>
<layer number="108" name="fp8" color="7" fill="1" visible="no" active="yes"/>
<layer number="109" name="fp9" color="7" fill="1" visible="no" active="yes"/>
<layer number="110" name="fp0" color="7" fill="1" visible="no" active="yes"/>
<layer number="111" name="LPC17xx" color="7" fill="1" visible="yes" active="yes"/>
<layer number="112" name="tSilk" color="7" fill="1" visible="yes" active="yes"/>
<layer number="116" name="Patch_BOT" color="9" fill="4" visible="yes" active="yes"/>
<layer number="121" name="_tsilk" color="7" fill="1" visible="yes" active="yes"/>
<layer number="122" name="_bsilk" color="7" fill="1" visible="yes" active="yes"/>
<layer number="123" name="tTestmark" color="7" fill="1" visible="no" active="yes"/>
<layer number="124" name="bTestmark" color="7" fill="1" visible="no" active="yes"/>
<layer number="125" name="_tNames" color="7" fill="1" visible="yes" active="yes"/>
<layer number="126" name="_bNames" color="7" fill="1" visible="yes" active="yes"/>
<layer number="127" name="_tValues" color="7" fill="1" visible="yes" active="yes"/>
<layer number="128" name="_bValues" color="7" fill="1" visible="yes" active="yes"/>
<layer number="131" name="tAdjust" color="7" fill="1" visible="no" active="yes"/>
<layer number="132" name="bAdjust" color="7" fill="1" visible="no" active="yes"/>
<layer number="144" name="Drill_legend" color="7" fill="1" visible="yes" active="yes"/>
<layer number="150" name="Notes" color="7" fill="1" visible="no" active="yes"/>
<layer number="151" name="HeatSink" color="7" fill="1" visible="yes" active="yes"/>
<layer number="152" name="_bDocu" color="7" fill="1" visible="yes" active="yes"/>
<layer number="153" name="FabDoc1" color="6" fill="1" visible="no" active="no"/>
<layer number="154" name="FabDoc2" color="2" fill="1" visible="no" active="no"/>
<layer number="155" name="FabDoc3" color="7" fill="15" visible="no" active="no"/>
<layer number="199" name="Contour" color="7" fill="1" visible="yes" active="yes"/>
<layer number="200" name="200bmp" color="1" fill="10" visible="yes" active="yes"/>
<layer number="201" name="201bmp" color="2" fill="1" visible="no" active="no"/>
<layer number="202" name="202bmp" color="3" fill="1" visible="no" active="no"/>
<layer number="203" name="203bmp" color="4" fill="10" visible="yes" active="yes"/>
<layer number="204" name="204bmp" color="5" fill="10" visible="yes" active="yes"/>
<layer number="205" name="205bmp" color="6" fill="10" visible="yes" active="yes"/>
<layer number="206" name="206bmp" color="7" fill="10" visible="yes" active="yes"/>
<layer number="207" name="207bmp" color="8" fill="10" visible="yes" active="yes"/>
<layer number="208" name="208bmp" color="9" fill="10" visible="yes" active="yes"/>
<layer number="209" name="209bmp" color="7" fill="1" visible="no" active="yes"/>
<layer number="210" name="210bmp" color="7" fill="1" visible="no" active="yes"/>
<layer number="211" name="211bmp" color="7" fill="1" visible="yes" active="yes"/>
<layer number="212" name="212bmp" color="7" fill="1" visible="yes" active="yes"/>
<layer number="213" name="213bmp" color="7" fill="1" visible="yes" active="yes"/>
<layer number="214" name="214bmp" color="7" fill="1" visible="yes" active="yes"/>
<layer number="215" name="215bmp" color="7" fill="1" visible="yes" active="yes"/>
<layer number="216" name="216bmp" color="7" fill="1" visible="yes" active="yes"/>
<layer number="217" name="217bmp" color="18" fill="1" visible="no" active="no"/>
<layer number="218" name="218bmp" color="19" fill="1" visible="no" active="no"/>
<layer number="219" name="219bmp" color="20" fill="1" visible="no" active="no"/>
<layer number="220" name="220bmp" color="21" fill="1" visible="no" active="no"/>
<layer number="221" name="221bmp" color="22" fill="1" visible="no" active="no"/>
<layer number="222" name="222bmp" color="23" fill="1" visible="no" active="no"/>
<layer number="223" name="223bmp" color="24" fill="1" visible="no" active="no"/>
<layer number="224" name="224bmp" color="25" fill="1" visible="no" active="no"/>
<layer number="248" name="Housing" color="7" fill="1" visible="yes" active="yes"/>
<layer number="249" name="Edge" color="7" fill="1" visible="yes" active="yes"/>
<layer number="250" name="Descript" color="7" fill="1" visible="no" active="no"/>
<layer number="251" name="SMDround" color="7" fill="1" visible="no" active="no"/>
<layer number="254" name="cooling" color="7" fill="1" visible="yes" active="yes"/>
</layers>
<board>
<plain>
<wire x1="-0.5" y1="-0.5" x2="19" y2="-0.5" width="0.2" layer="20"/>
<wire x1="19" y1="-0.5" x2="19" y2="21" width="0.2" layer="20"/>
<wire x1="19" y1="21" x2="-0.5" y2="21" width="0.2" layer="20"/>
<wire x1="-0.5" y1="21" x2="-0.5" y2="-0.5" width="0.2" layer="20"/>
</plain>
<libraries>
<library name="ams1117-3.3v">
<description>&lt;1A LOW DROPOUT VOLTAGE REGULATOR, SOT-223&lt;/b&gt;&lt;p&gt;
&lt;author&gt;Created by SamacSys&lt;/author&gt;</description>
<packages>
<package name="SOT229P700X180-4N">
<description>&lt;b&gt;3 Lead SOT-223 Plastic Package&lt;/b&gt;&lt;br&gt;
</description>
<smd name="1" x="-3.35" y="2.29" dx="1.3" dy="0.95" layer="1"/>
<smd name="2" x="-3.35" y="0" dx="1.3" dy="0.95" layer="1"/>
<smd name="3" x="-3.35" y="-2.29" dx="1.3" dy="0.95" layer="1"/>
<smd name="4" x="3.35" y="0" dx="3.25" dy="1.3" layer="1" rot="R90"/>
<text x="0" y="0" size="1.27" layer="25" align="center">&gt;NAME</text>
<text x="0" y="0" size="1.27" layer="27" align="center">&gt;VALUE</text>
<wire x1="-4.25" y1="3.605" x2="4.25" y2="3.605" width="0.05" layer="51"/>
<wire x1="4.25" y1="3.605" x2="4.25" y2="-3.605" width="0.05" layer="51"/>
<wire x1="4.25" y1="-3.605" x2="-4.25" y2="-3.605" width="0.05" layer="51"/>
<wire x1="-4.25" y1="-3.605" x2="-4.25" y2="3.605" width="0.05" layer="51"/>
<wire x1="-1.752" y1="3.252" x2="1.752" y2="3.252" width="0.1" layer="51"/>
<wire x1="1.752" y1="3.252" x2="1.752" y2="-3.252" width="0.1" layer="51"/>
<wire x1="1.752" y1="-3.252" x2="-1.752" y2="-3.252" width="0.1" layer="51"/>
<wire x1="-1.752" y1="-3.252" x2="-1.752" y2="3.252" width="0.1" layer="51"/>
<wire x1="-1.752" y1="0.962" x2="0.538" y2="3.252" width="0.1" layer="51"/>
<wire x1="-1.752" y1="3.252" x2="1.752" y2="3.252" width="0.2" layer="21"/>
<wire x1="1.752" y1="3.252" x2="1.752" y2="-3.252" width="0.2" layer="21"/>
<wire x1="1.752" y1="-3.252" x2="-1.752" y2="-3.252" width="0.2" layer="21"/>
<wire x1="-1.752" y1="-3.252" x2="-1.752" y2="3.252" width="0.2" layer="21"/>
<wire x1="-4" y1="3.115" x2="-2.7" y2="3.115" width="0.2" layer="21"/>
</package>
</packages>
</library>
<library name="linear" urn="urn:adsk.eagle:library:262">
<description>&lt;b&gt;Linear Devices&lt;/b&gt;&lt;p&gt;
Operational amplifiers,  comparators, voltage regulators, ADCs, DACs, etc.&lt;p&gt;
&lt;author&gt;Created by librarian@cadsoft.de&lt;/author&gt;</description>
<packages>
<package name="SOT23" urn="urn:adsk.eagle:footprint:16354/1" library_version="4">
<description>&lt;b&gt;SMALL OUTLINE TRANSISTOR&lt;/b&gt;&lt;p&gt;
reflow soldering</description>
<wire x1="-1.973" y1="1.983" x2="1.973" y2="1.983" width="0.0508" layer="39"/>
<wire x1="1.973" y1="-1.983" x2="-1.973" y2="-1.983" width="0.0508" layer="39"/>
<wire x1="-1.973" y1="-1.983" x2="-1.973" y2="1.983" width="0.0508" layer="39"/>
<wire x1="1.973" y1="1.983" x2="1.973" y2="-1.983" width="0.0508" layer="39"/>
<wire x1="1.422" y1="0.66" x2="1.422" y2="-0.66" width="0.1524" layer="51"/>
<wire x1="1.422" y1="-0.66" x2="-1.422" y2="-0.66" width="0.1524" layer="51"/>
<wire x1="-1.422" y1="-0.66" x2="-1.422" y2="0.66" width="0.1524" layer="51"/>
<wire x1="-1.422" y1="0.66" x2="1.422" y2="0.66" width="0.1524" layer="51"/>
<wire x1="-1.422" y1="-0.152" x2="-1.422" y2="0.66" width="0.1524" layer="21"/>
<wire x1="-1.422" y1="0.66" x2="-0.864" y2="0.66" width="0.1524" layer="21"/>
<wire x1="0.864" y1="0.66" x2="1.422" y2="0.66" width="0.1524" layer="21"/>
<wire x1="1.422" y1="0.66" x2="1.422" y2="-0.152" width="0.1524" layer="21"/>
<smd name="3" x="0" y="1.1" dx="1" dy="1.4" layer="1"/>
<smd name="2" x="0.95" y="-1.1" dx="1" dy="1.4" layer="1"/>
<smd name="1" x="-0.95" y="-1.1" dx="1" dy="1.4" layer="1"/>
<text x="-1.905" y="1.905" size="1.27" layer="25">&gt;NAME</text>
<text x="-1.905" y="-3.175" size="1.27" layer="27">&gt;VALUE</text>
<rectangle x1="-0.2286" y1="0.7112" x2="0.2286" y2="1.2954" layer="51"/>
<rectangle x1="0.7112" y1="-1.2954" x2="1.1684" y2="-0.7112" layer="51"/>
<rectangle x1="-1.1684" y1="-1.2954" x2="-0.7112" y2="-0.7112" layer="51"/>
<rectangle x1="-0.5001" y1="-0.3" x2="0.5001" y2="0.3" layer="35"/>
</package>
</packages>
<packages3d>
<package3d name="SOT23" urn="urn:adsk.eagle:package:16489/2" type="model" library_version="4">
<description>SMALL OUTLINE TRANSISTOR
reflow soldering</description>
<packageinstances>
<packageinstance name="SOT23"/>
</packageinstances>
</package3d>
</packages3d>
</library>
<library name="wirepad" urn="urn:adsk.eagle:library:412">
<description>&lt;b&gt;Single Pads&lt;/b&gt;&lt;p&gt;
&lt;author&gt;Created by librarian@cadsoft.de&lt;/author&gt;</description>
<packages>
<package name="SMD1,27-2,54" urn="urn:adsk.eagle:footprint:30822/1" library_version="1">
<description>&lt;b&gt;SMD PAD&lt;/b&gt;</description>
<smd name="1" x="0" y="0" dx="1.27" dy="2.54" layer="1"/>
<text x="0" y="0" size="0.0254" layer="27">&gt;VALUE</text>
<text x="-0.8" y="-2.4" size="1.27" layer="25" rot="R90">&gt;NAME</text>
</package>
</packages>
<packages3d>
<package3d name="SMD1,27-2,54" urn="urn:adsk.eagle:package:30839/1" type="box" library_version="1">
<description>SMD PAD</description>
<packageinstances>
<packageinstance name="SMD1,27-2,54"/>
</packageinstances>
</package3d>
</packages3d>
</library>
<library name="esp8266modules">
<packages>
<package name="ESP07-14PIN">
<description>ESP8266 Module ESP-07 - 14 pins</description>
<wire x1="-7.9" y1="12.4" x2="-7.9" y2="7.3" width="0.127" layer="21"/>
<wire x1="-7.9" y1="7.3" x2="-7.9" y2="-7.6" width="0.127" layer="21"/>
<wire x1="-7.9" y1="-7.6" x2="8.1" y2="-7.6" width="0.127" layer="21"/>
<wire x1="8.1" y1="-7.6" x2="8.1" y2="7.3" width="0.127" layer="21"/>
<wire x1="8.1" y1="7.3" x2="8.1" y2="10.4" width="0.127" layer="21"/>
<wire x1="8.1" y1="10.4" x2="8.1" y2="12.4" width="0.127" layer="21"/>
<wire x1="8.1" y1="12.4" x2="6.1" y2="12.4" width="0.127" layer="21"/>
<wire x1="6.1" y1="12.4" x2="-7.9" y2="12.4" width="0.127" layer="21"/>
<wire x1="6.1" y1="12.4" x2="6.1" y2="10.4" width="0.127" layer="21"/>
<wire x1="6.1" y1="10.4" x2="8.1" y2="10.4" width="0.127" layer="21"/>
<circle x="7.1" y="11.4" radius="0.806225" width="0.127" layer="21"/>
<circle x="7.1" y="11.4" radius="0.1" width="0.127" layer="21"/>
<smd name="ANT" x="8.2" y="6.8" dx="2.5" dy="1" layer="1" roundness="17"/>
<smd name="CH_PD" x="8.2" y="4.8" dx="2.5" dy="1" layer="1"/>
<smd name="GPIO16" x="8.2" y="2.8" dx="2.5" dy="1" layer="1"/>
<smd name="RX" x="8.2" y="0.8" dx="2.5" dy="1" layer="1"/>
<smd name="TX" x="8.2" y="-1.2" dx="2.5" dy="1" layer="1"/>
<smd name="NC" x="8.2" y="-3.2" dx="2.5" dy="1" layer="1"/>
<smd name="GND" x="8.2" y="-5.2" dx="2.5" dy="1" layer="1"/>
<smd name="VCC" x="-8.2" y="6.8" dx="2.5" dy="1" layer="1"/>
<smd name="GPIO14" x="-8.2" y="4.8" dx="2.5" dy="1" layer="1"/>
<smd name="GPIO12" x="-8.2" y="2.8" dx="2.5" dy="1" layer="1"/>
<smd name="GPIO13" x="-8.2" y="0.8" dx="2.5" dy="1" layer="1"/>
<smd name="GPIO15" x="-8.2" y="-1.2" dx="2.5" dy="1" layer="1"/>
<smd name="GPIO2" x="-8.2" y="-3.2" dx="2.5" dy="1" layer="1"/>
<smd name="GPIO0" x="-8.2" y="-5.2" dx="2.5" dy="1" layer="1"/>
<text x="-3.8" y="8.7" size="1.016" layer="21">ESP-07</text>
<rectangle x1="-7" y1="8" x2="-4" y2="11" layer="21"/>
<rectangle x1="2" y1="8" x2="5" y2="11" layer="21"/>
<text x="-8" y="13" size="1.27" layer="25">&gt;Name</text>
<text x="-8" y="-9" size="1.27" layer="27">&gt;Value</text>
</package>
</packages>
</library>
</libraries>
<attributes>
</attributes>
<variantdefs>
</variantdefs>
<classes>
<class number="0" name="default" width="0" drill="0">
</class>
</classes>
<designrules name="default *">
<description language="de">&lt;b&gt;EAGLE Design Rules&lt;/b&gt;
&lt;p&gt;
Die Standard-Design-Rules sind so gewählt, dass sie für 
die meisten Anwendungen passen. Sollte ihre Platine 
besondere Anforderungen haben, treffen Sie die erforderlichen
Einstellungen hier und speichern die Design Rules unter 
einem neuen Namen ab.</description>
<description language="en">&lt;b&gt;EAGLE Design Rules&lt;/b&gt;
&lt;p&gt;
The default Design Rules have been set to cover
a wide range of applications. Your particular design
may have different requirements, so please make the
necessary adjustments and save your customized
design rules under a new name.</description>
<param name="layerSetup" value="(1*16)"/>
<param name="mtCopper" value="0.035mm 0.035mm 0.035mm 0.035mm 0.035mm 0.035mm 0.035mm 0.035mm 0.035mm 0.035mm 0.035mm 0.035mm 0.035mm 0.035mm 0.035mm 0.035mm"/>
<param name="mtIsolate" value="1.5mm 0.15mm 0.2mm 0.15mm 0.2mm 0.15mm 0.2mm 0.15mm 0.2mm 0.15mm 0.2mm 0.15mm 0.2mm 0.15mm 0.2mm"/>
<param name="mdWireWire" value="6mil"/>
<param name="mdWirePad" value="6mil"/>
<param name="mdWireVia" value="6mil"/>
<param name="mdPadPad" value="6mil"/>
<param name="mdPadVia" value="6mil"/>
<param name="mdViaVia" value="6mil"/>
<param name="mdSmdPad" value="12mil"/>
<param name="mdSmdVia" value="12mil"/>
<param name="mdSmdSmd" value="12mil"/>
<param name="mdViaViaSameLayer" value="6mil"/>
<param name="mnLayersViaInSmd" value="2"/>
<param name="mdCopperDimension" value="40mil"/>
<param name="mdDrill" value="6mil"/>
<param name="mdSmdStop" value="0mil"/>
<param name="msWidth" value="20mil"/>
<param name="msDrill" value="0.35mm"/>
<param name="msMicroVia" value="9.99mm"/>
<param name="msBlindViaRatio" value="0.5"/>
<param name="rvPadTop" value="0.25"/>
<param name="rvPadInner" value="0.25"/>
<param name="rvPadBottom" value="0.25"/>
<param name="rvViaOuter" value="0.25"/>
<param name="rvViaInner" value="0.25"/>
<param name="rvMicroViaOuter" value="0.25"/>
<param name="rvMicroViaInner" value="0.25"/>
<param name="rlMinPadTop" value="10mil"/>
<param name="rlMaxPadTop" value="20mil"/>
<param name="rlMinPadInner" value="10mil"/>
<param name="rlMaxPadInner" value="20mil"/>
<param name="rlMinPadBottom" value="10mil"/>
<param name="rlMaxPadBottom" value="20mil"/>
<param name="rlMinViaOuter" value="8mil"/>
<param name="rlMaxViaOuter" value="20mil"/>
<param name="rlMinViaInner" value="8mil"/>
<param name="rlMaxViaInner" value="20mil"/>
<param name="rlMinMicroViaOuter" value="4mil"/>
<param name="rlMaxMicroViaOuter" value="20mil"/>
<param name="rlMinMicroViaInner" value="4mil"/>
<param name="rlMaxMicroViaInner" value="20mil"/>
<param name="psTop" value="-1"/>
<param name="psBottom" value="-1"/>
<param name="psFirst" value="-1"/>
<param name="psElongationLong" value="100"/>
<param name="psElongationOffset" value="100"/>
<param name="mvStopFrame" value="1"/>
<param name="mvCreamFrame" value="0"/>
<param name="mlMinStopFrame" value="4mil"/>
<param name="mlMaxStopFrame" value="4mil"/>
<param name="mlMinCreamFrame" value="0mil"/>
<param name="mlMaxCreamFrame" value="0mil"/>
<param name="mlViaStopLimit" value="0mil"/>
<param name="srRoundness" value="0"/>
<param name="srMinRoundness" value="0mil"/>
<param name="srMaxRoundness" value="0mil"/>
<param name="slThermalIsolate" value="10mil"/>
<param name="slThermalsForVias" value="0"/>
<param name="dpMaxLengthDifference" value="10mm"/>
<param name="dpGapFactor" value="2.5"/>
<param name="checkAngle" value="0"/>
<param name="checkFont" value="1"/>
<param name="checkRestrict" value="1"/>
<param name="checkStop" value="0"/>
<param name="checkValues" value="0"/>
<param name="checkNames" value="1"/>
<param name="checkWireStubs" value="1"/>
<param name="checkPolygonWidth" value="0"/>
<param name="useDiameter" value="13"/>
<param name="maxErrors" value="50"/>
</designrules>
<autorouter>
<pass name="Default">
<param name="RoutingGrid" value="22mil"/>
<param name="AutoGrid" value="1"/>
<param name="Efforts" value="2"/>
<param name="TopRouterVariant" value="1"/>
<param name="tpViaShape" value="round"/>
<param name="PrefDir.1" value="a"/>
<param name="PrefDir.2" value="0"/>
<param name="PrefDir.3" value="0"/>
<param name="PrefDir.4" value="0"/>
<param name="PrefDir.5" value="0"/>
<param name="PrefDir.6" value="0"/>
<param name="PrefDir.7" value="0"/>
<param name="PrefDir.8" value="0"/>
<param name="PrefDir.9" value="0"/>
<param name="PrefDir.10" value="0"/>
<param name="PrefDir.11" value="0"/>
<param name="PrefDir.12" value="0"/>
<param name="PrefDir.13" value="0"/>
<param name="PrefDir.14" value="0"/>
<param name="PrefDir.15" value="0"/>
<param name="PrefDir.16" value="a"/>
<param name="cfVia" value="90"/>
<param name="cfNonPref" value="5"/>
<param name="cfChangeDir" value="2"/>
<param name="cfOrthStep" value="2"/>
<param name="cfDiagStep" value="3"/>
<param name="cfExtdStep" value="0"/>
<param name="cfBonusStep" value="1"/>
<param name="cfMalusStep" value="1"/>
<param name="cfPadImpact" value="4"/>
<param name="cfSmdImpact" value="4"/>
<param name="cfBusImpact" value="0"/>
<param name="cfHugging" value="3"/>
<param name="cfAvoid" value="4"/>
<param name="cfPolygon" value="10"/>
<param name="cfBase.1" value="0"/>
<param name="cfBase.2" value="1"/>
<param name="cfBase.3" value="1"/>
<param name="cfBase.4" value="1"/>
<param name="cfBase.5" value="1"/>
<param name="cfBase.6" value="1"/>
<param name="cfBase.7" value="1"/>
<param name="cfBase.8" value="1"/>
<param name="cfBase.9" value="1"/>
<param name="cfBase.10" value="1"/>
<param name="cfBase.11" value="1"/>
<param name="cfBase.12" value="1"/>
<param name="cfBase.13" value="1"/>
<param name="cfBase.14" value="1"/>
<param name="cfBase.15" value="1"/>
<param name="cfBase.16" value="0"/>
<param name="mnVias" value="20"/>
<param name="mnSegments" value="9999"/>
<param name="mnExtdSteps" value="9999"/>
<param name="mnRipupLevel" value="10"/>
<param name="mnRipupSteps" value="100"/>
<param name="mnRipupTotal" value="100"/>
</pass>
<pass name="Follow-me" refer="Default" active="yes">
<param name="cfVia" value="8"/>
</pass>
<pass name="Busses" refer="Default" active="yes">
<param name="cfVia" value="8"/>
<param name="cfNonPref" value="4"/>
<param name="cfBusImpact" value="4"/>
<param name="cfHugging" value="0"/>
<param name="mnVias" value="0"/>
</pass>
<pass name="Route" refer="Default" active="yes">
</pass>
<pass name="Optimize1" refer="Default" active="yes">
<param name="cfVia" value="99"/>
</pass>
<pass name="Optimize2" refer="Optimize1" active="yes">
</pass>
<pass name="Optimize3" refer="Optimize2" active="yes">
</pass>
<pass name="Optimize4" refer="Optimize3" active="yes">
</pass>
<pass name="Optimize5" refer="Optimize4" active="yes">
</pass>
<pass name="Optimize6" refer="Optimize5" active="yes">
</pass>
<pass name="Optimize7" refer="Optimize6" active="yes">
<param name="cfBonusStep" value="0"/>
<param name="cfMalusStep" value="0"/>
<param name="cfPadImpact" value="0"/>
<param name="cfSmdImpact" value="0"/>
<param name="cfHugging" value="0"/>
</pass>
<pass name="Optimize8" refer="Optimize7" active="yes">
</pass>
<pass name="Optimize9" refer="Optimize8" active="yes">
</pass>
<pass name="Optimize10" refer="Optimize9" active="yes">
</pass>
<pass name="Optimize11" refer="Optimize10" active="yes">
</pass>
<pass name="Optimize12" refer="Optimize11" active="yes">
</pass>
</autorouter>
<elements>
<element name="IC1" library="ams1117-3.3v" package="SOT229P700X180-4N" value="AMS1117-3.3V" x="7.423" y="14.289" smashed="yes" rot="MR270">
<attribute name="DESCRIPTION" value="1A LOW DROPOUT VOLTAGE REGULATOR, SOT-223" x="41.713" y="-17.461" size="1.778" layer="28" rot="MR270" display="off"/>
<attribute name="HEIGHT" value="1.8mm" x="41.713" y="-17.461" size="1.778" layer="28" rot="MR270" display="off"/>
<attribute name="MANUFACTURER_NAME" value="Advanced Monolithic Systems" x="41.713" y="-17.461" size="1.778" layer="28" rot="MR270" display="off"/>
<attribute name="MANUFACTURER_PART_NUMBER" value="ams1117-3.3v" x="41.713" y="-17.461" size="1.778" layer="28" rot="MR270" display="off"/>
<attribute name="MOUSER_PART_NUMBER" value="" x="41.713" y="-17.461" size="1.778" layer="28" rot="MR270" display="off"/>
<attribute name="MOUSER_PRICE-STOCK" value="" x="41.713" y="-17.461" size="1.778" layer="28" rot="MR270" display="off"/>
<attribute name="NAME" x="4.883" y="14.035" size="1.27" layer="26" rot="MR270" align="center"/>
<attribute name="RS_PART_NUMBER" value="" x="41.713" y="-17.461" size="1.778" layer="28" rot="MR270" display="off"/>
<attribute name="RS_PRICE-STOCK" value="" x="41.713" y="-17.461" size="1.778" layer="28" rot="MR270" display="off"/>
<attribute name="VALUE" x="2.343" y="14.289" size="1.27" layer="28" rot="MR270" align="center"/>
</element>
<element name="IC2" library="linear" library_urn="urn:adsk.eagle:library:262" package="SOT23" package3d_urn="urn:adsk.eagle:package:16489/2" value="LM50" x="12.5" y="14" smashed="yes" rot="MR180">
<attribute name="NAME" x="10.595" y="12.095" size="1.27" layer="26" rot="MR180"/>
<attribute name="VALUE" x="10.595" y="17.175" size="1.27" layer="28" rot="MR180"/>
</element>
<element name="+" library="wirepad" library_urn="urn:adsk.eagle:library:412" package="SMD1,27-2,54" package3d_urn="urn:adsk.eagle:package:30839/1" value="" x="16" y="5" smashed="yes" rot="MR90">
<attribute name="NAME" x="13.6" y="4.2" size="1.27" layer="26" rot="MR180"/>
<attribute name="VALUE" x="16" y="5" size="0.0254" layer="28" rot="MR90"/>
</element>
<element name="-" library="wirepad" library_urn="urn:adsk.eagle:library:412" package="SMD1,27-2,54" package3d_urn="urn:adsk.eagle:package:30839/1" value="" x="16" y="9" smashed="yes" rot="MR90">
<attribute name="NAME" x="13.6" y="8.2" size="1.27" layer="26" rot="MR180"/>
<attribute name="VALUE" x="16" y="9" size="0.0254" layer="28" rot="MR90"/>
</element>
<element name="PAD3" library="wirepad" library_urn="urn:adsk.eagle:library:412" package="SMD1,27-2,54" package3d_urn="urn:adsk.eagle:package:30839/1" value="" x="2" y="6" smashed="yes" rot="MR270">
<attribute name="NAME" x="4.4" y="6.8" size="1.27" layer="26" rot="MR0"/>
<attribute name="VALUE" x="2" y="6" size="0.0254" layer="28" rot="MR270"/>
</element>
<element name="PAD4" library="wirepad" library_urn="urn:adsk.eagle:library:412" package="SMD1,27-2,54" package3d_urn="urn:adsk.eagle:package:30839/1" value="" x="12" y="6" smashed="yes" rot="MR270">
<attribute name="NAME" x="14.4" y="6.8" size="1.27" layer="26" rot="MR0"/>
<attribute name="VALUE" x="12" y="6" size="0.0254" layer="28" rot="MR270"/>
</element>
<element name="TX" library="wirepad" library_urn="urn:adsk.eagle:library:412" package="SMD1,27-2,54" package3d_urn="urn:adsk.eagle:package:30839/1" value="" x="16" y="17" smashed="yes" rot="MR270">
<attribute name="NAME" x="18.4" y="17.8" size="1.27" layer="26" rot="MR0"/>
<attribute name="VALUE" x="16" y="17" size="0.0254" layer="28" rot="MR270"/>
</element>
<element name="RX" library="wirepad" library_urn="urn:adsk.eagle:library:412" package="SMD1,27-2,54" package3d_urn="urn:adsk.eagle:package:30839/1" value="" x="16" y="13" smashed="yes" rot="MR270">
<attribute name="NAME" x="18.4" y="13.8" size="1.27" layer="26" rot="MR0"/>
<attribute name="VALUE" x="16" y="13" size="0.0254" layer="28" rot="MR270"/>
</element>
<element name="GPIO0" library="wirepad" library_urn="urn:adsk.eagle:library:412" package="SMD1,27-2,54" package3d_urn="urn:adsk.eagle:package:30839/1" value="" x="16" y="1" smashed="yes" rot="MR270">
<attribute name="NAME" x="18.4" y="1.8" size="1.27" layer="26" rot="MR0"/>
<attribute name="VALUE" x="16" y="1" size="0.0254" layer="28" rot="MR270"/>
</element>
<element name="REL1" library="wirepad" library_urn="urn:adsk.eagle:library:412" package="SMD1,27-2,54" package3d_urn="urn:adsk.eagle:package:30839/1" value="" x="12" y="4" smashed="yes" rot="MR90">
<attribute name="NAME" x="9.6" y="3.2" size="1.27" layer="26" rot="MR180"/>
<attribute name="VALUE" x="12" y="4" size="0.0254" layer="28" rot="MR90"/>
</element>
<element name="REL2" library="wirepad" library_urn="urn:adsk.eagle:library:412" package="SMD1,27-2,54" package3d_urn="urn:adsk.eagle:package:30839/1" value="" x="2" y="17" smashed="yes" rot="MR90">
<attribute name="NAME" x="-0.4" y="16.2" size="1.27" layer="26" rot="MR180"/>
<attribute name="VALUE" x="2" y="17" size="0.0254" layer="28" rot="MR90"/>
</element>
<element name="OUTñ" library="wirepad" library_urn="urn:adsk.eagle:library:412" package="SMD1,27-2,54" package3d_urn="urn:adsk.eagle:package:30839/1" value="" x="4.5" y="3" smashed="yes" rot="MR0">
<attribute name="NAME" x="5.3" y="0.6" size="1.27" layer="26" rot="MR90"/>
<attribute name="VALUE" x="4.5" y="3" size="0.0254" layer="28" rot="MR0"/>
</element>
<element name="Iñ" library="wirepad" library_urn="urn:adsk.eagle:library:412" package="SMD1,27-2,54" package3d_urn="urn:adsk.eagle:package:30839/1" value="" x="8" y="3" smashed="yes" rot="MR0">
<attribute name="NAME" x="8.8" y="0.6" size="1.27" layer="26" rot="MR90"/>
<attribute name="VALUE" x="8" y="3" size="0.0254" layer="28" rot="MR0"/>
</element>
<element name="U$2" library="esp8266modules" package="ESP07-14PIN" value="ESP07-14PIN" x="9.2" y="9.4" smashed="yes">
<attribute name="DIMENSIONS" value="20.0 x 16.0 mm" x="9.2" y="9.4" size="1.27" layer="27" display="off"/>
<attribute name="NAME" x="1.2" y="22.4" size="1.27" layer="25"/>
<attribute name="PINS" value="14" x="9.2" y="9.4" size="1.27" layer="27" display="off"/>
<attribute name="PITCH" value="0.078&quot; / 2 mm" x="9.2" y="9.4" size="1.27" layer="27" display="off"/>
<attribute name="VALUE" x="1.2" y="0.4" size="1.27" layer="27"/>
</element>
</elements>
<signals>
<signal name="VCC">
<contactref element="IC1" pad="3"/>
<contactref element="+" pad="1"/>
<contactref element="PAD3" pad="1"/>
<wire x1="8.25" y1="16.25" x2="9.5" y2="17.5" width="0.508" layer="16"/>
<wire x1="8.25" y1="14.75" x2="8.25" y2="16.25" width="0.508" layer="16"/>
<wire x1="2" y1="8.5" x2="8.25" y2="14.75" width="0.508" layer="16"/>
<wire x1="2" y1="6" x2="2" y2="8.5" width="0.508" layer="16"/>
<wire x1="9.5" y1="17.5" x2="9.713" y2="17.639" width="0.508" layer="16"/>
<wire x1="12.25" y1="1.25" x2="16" y2="5" width="0.508" layer="16"/>
<wire x1="2.25" y1="1.25" x2="12.25" y2="1.25" width="0.508" layer="16"/>
<wire x1="2.25" y1="6" x2="2.25" y2="1.25" width="0.508" layer="16"/>
<wire x1="2.25" y1="6" x2="2" y2="6" width="0.508" layer="16"/>
</signal>
<signal name="GND">
<contactref element="IC1" pad="1"/>
<contactref element="IC2" pad="2"/>
<contactref element="-" pad="1"/>
<contactref element="U$2" pad="GPIO15"/>
<contactref element="U$2" pad="GND"/>
<wire x1="5.5" y1="18" x2="5.25" y2="17.75" width="0.508" layer="16"/>
<wire x1="5.5" y1="19" x2="5.5" y2="18" width="0.508" layer="16"/>
<wire x1="6" y1="19.5" x2="5.5" y2="19" width="0.508" layer="16"/>
<wire x1="13.25" y1="19.5" x2="6" y2="19.5" width="0.508" layer="16"/>
<wire x1="13.25" y1="15.25" x2="13.25" y2="19.5" width="0.508" layer="16"/>
<wire x1="5.25" y1="17.75" x2="5.133" y2="17.639" width="0.508" layer="16"/>
<wire x1="13.25" y1="15.25" x2="13.45" y2="15.1" width="0.508" layer="16"/>
<wire x1="13.5" y1="9" x2="16" y2="9" width="0.508" layer="16"/>
<wire x1="13.5" y1="15" x2="13.5" y2="9" width="0.508" layer="16"/>
<wire x1="13.5" y1="15" x2="13.45" y2="15.1" width="0.508" layer="16"/>
<wire x1="13" y1="8.25" x2="1" y2="8.25" width="0.508" layer="1"/>
<wire x1="17" y1="4.25" x2="13" y2="8.25" width="0.508" layer="1"/>
<wire x1="17.25" y1="4.25" x2="17" y2="4.25" width="0.508" layer="1"/>
<wire x1="1" y1="8.25" x2="1" y2="8.2" width="0.508" layer="1"/>
<wire x1="17.25" y1="4.25" x2="17.4" y2="4.2" width="0.508" layer="1"/>
<wire x1="13.25" y1="8.25" x2="13.25" y2="9" width="0.508" layer="16"/>
<wire x1="13.25" y1="9" x2="13.5" y2="9" width="0.508" layer="16"/>
<wire x1="13.25" y1="8.25" x2="13" y2="8.25" width="0.508" layer="1"/>
<via x="13.25" y="8.25" extent="1-16" drill="0.35"/>
</signal>
<signal name="N$1">
<contactref element="IC2" pad="1"/>
<contactref element="U$2" pad="GPIO2"/>
<wire x1="11" y1="14.5" x2="11.5" y2="15" width="0.508" layer="16"/>
<wire x1="11" y1="7.25" x2="11" y2="14.5" width="0.508" layer="16"/>
<wire x1="10.75" y1="7" x2="11" y2="7.25" width="0.508" layer="1"/>
<wire x1="1.75" y1="7" x2="10.75" y2="7" width="0.508" layer="1"/>
<wire x1="1" y1="6.25" x2="1.75" y2="7" width="0.508" layer="1"/>
<wire x1="11.5" y1="15" x2="11.55" y2="15.1" width="0.508" layer="16"/>
<wire x1="1" y1="6.25" x2="1" y2="6.2" width="0.508" layer="1"/>
<via x="11" y="7.25" extent="1-16" drill="0.35"/>
</signal>
<signal name="N$3">
<contactref element="IC2" pad="3"/>
<contactref element="PAD4" pad="1"/>
<wire x1="12" y1="12.25" x2="12.5" y2="12.75" width="0.508" layer="16"/>
<wire x1="12" y1="6" x2="12" y2="12.25" width="0.508" layer="16"/>
<wire x1="12.5" y1="12.75" x2="12.5" y2="12.9" width="0.508" layer="16"/>
</signal>
<signal name="N$4">
<contactref element="OUTñ" pad="1"/>
<contactref element="REL1" pad="1"/>
<wire x1="6.75" y1="5.25" x2="4.5" y2="3" width="0.508" layer="16"/>
<wire x1="9.5" y1="5.25" x2="6.75" y2="5.25" width="0.508" layer="16"/>
<wire x1="10.75" y1="4" x2="9.5" y2="5.25" width="0.508" layer="16"/>
<wire x1="12" y1="4" x2="10.75" y2="4" width="0.508" layer="16"/>
</signal>
<signal name="N$7">
<contactref element="Iñ" pad="1"/>
<contactref element="REL2" pad="1"/>
<wire x1="9.25" y1="4.25" x2="8" y2="3" width="0.508" layer="16"/>
<wire x1="10" y1="5" x2="9.25" y2="4.25" width="0.508" layer="1"/>
<wire x1="10" y1="6" x2="10" y2="5" width="0.508" layer="1"/>
<wire x1="10" y1="16" x2="10" y2="6" width="0.508" layer="16"/>
<wire x1="10.75" y1="16.75" x2="10" y2="16" width="0.508" layer="16"/>
<wire x1="10.75" y1="18.5" x2="10.75" y2="16.75" width="0.508" layer="16"/>
<wire x1="10.5" y1="18.75" x2="10.75" y2="18.5" width="0.508" layer="16"/>
<wire x1="6.25" y1="18.75" x2="10.5" y2="18.75" width="0.508" layer="16"/>
<wire x1="6.25" y1="17" x2="6.25" y2="18.75" width="0.508" layer="16"/>
<wire x1="5.75" y1="16.5" x2="6.25" y2="17" width="0.508" layer="16"/>
<wire x1="2" y1="16.5" x2="5.75" y2="16.5" width="0.508" layer="16"/>
<wire x1="2" y1="17" x2="2" y2="16.5" width="0.508" layer="16"/>
<via x="9.25" y="4.25" extent="1-16" drill="0.35"/>
<via x="10" y="6" extent="1-16" drill="0.35"/>
</signal>
<signal name="N$5">
<contactref element="U$2" pad="VCC"/>
<contactref element="U$2" pad="CH_PD"/>
<contactref element="IC1" pad="2"/>
<wire x1="7.25" y1="16.25" x2="7.25" y2="17.5" width="0.508" layer="16"/>
<wire x1="1" y1="16.25" x2="7.25" y2="16.25" width="0.508" layer="1"/>
<wire x1="7.25" y1="17.5" x2="7.423" y2="17.639" width="0.508" layer="16"/>
<wire x1="1" y1="16.25" x2="1" y2="16.2" width="0.508" layer="1"/>
<wire x1="16.25" y1="15.25" x2="17.25" y2="14.25" width="0.508" layer="1"/>
<wire x1="8" y1="15.25" x2="16.25" y2="15.25" width="0.508" layer="1"/>
<wire x1="7.25" y1="16" x2="8" y2="15.25" width="0.508" layer="1"/>
<wire x1="17.25" y1="14.25" x2="17.4" y2="14.2" width="0.508" layer="1"/>
<wire x1="7.25" y1="16" x2="7.25" y2="16.25" width="0.508" layer="1"/>
<via x="7.25" y="16.25" extent="1-16" drill="0.35"/>
</signal>
<signal name="N$10">
<contactref element="TX" pad="1"/>
<contactref element="U$2" pad="TX"/>
<wire x1="16.25" y1="9.25" x2="17.25" y2="8.25" width="0.508" layer="1"/>
<wire x1="15.25" y1="9.25" x2="16.25" y2="9.25" width="0.508" layer="1"/>
<wire x1="14.5" y1="10" x2="15.25" y2="9.25" width="0.508" layer="1"/>
<wire x1="14.5" y1="10.25" x2="14.5" y2="10" width="0.508" layer="1"/>
<wire x1="14.25" y1="10.5" x2="14.5" y2="10.25" width="0.508" layer="16"/>
<wire x1="14.25" y1="14" x2="14.25" y2="10.5" width="0.508" layer="16"/>
<wire x1="16" y1="15.75" x2="14.25" y2="14" width="0.508" layer="16"/>
<wire x1="16" y1="17" x2="16" y2="15.75" width="0.508" layer="16"/>
<wire x1="17.25" y1="8.25" x2="17.4" y2="8.2" width="0.508" layer="1"/>
<via x="14.5" y="10.25" extent="1-16" drill="0.35"/>
</signal>
<signal name="N$11">
<contactref element="U$2" pad="RX"/>
<contactref element="RX" pad="1"/>
<wire x1="15.5" y1="10.25" x2="17.25" y2="10.25" width="0.508" layer="1"/>
<wire x1="16" y1="10.75" x2="15.5" y2="10.25" width="0.508" layer="16"/>
<wire x1="16" y1="13" x2="16" y2="10.75" width="0.508" layer="16"/>
<wire x1="17.25" y1="10.25" x2="17.4" y2="10.2" width="0.508" layer="1"/>
<via x="15.5" y="10.25" extent="1-16" drill="0.35"/>
</signal>
<signal name="N$12">
<contactref element="U$2" pad="GPIO0"/>
<contactref element="GPIO0" pad="1"/>
<wire x1="2" y1="3" x2="1" y2="4" width="0.508" layer="1"/>
<wire x1="16" y1="3" x2="2" y2="3" width="0.508" layer="1"/>
<wire x1="16" y1="1" x2="16" y2="3" width="0.508" layer="16"/>
<wire x1="1" y1="4" x2="1" y2="4.2" width="0.508" layer="1"/>
<via x="16" y="3" extent="1-16" drill="0.35"/>
</signal>
</signals>
<mfgpreviewcolors>
<mfgpreviewcolor name="soldermaskcolor" color="0xC8008000"/>
<mfgpreviewcolor name="silkscreencolor" color="0xFFFEFEFE"/>
<mfgpreviewcolor name="backgroundcolor" color="0xFF282828"/>
<mfgpreviewcolor name="coppercolor" color="0xFFFFBF00"/>
<mfgpreviewcolor name="substratecolor" color="0xFF786E46"/>
</mfgpreviewcolors>
</board>
</drawing>
<compatibility>
<note version="8.2" severity="warning">
Since Version 8.2, EAGLE supports online libraries. The ids
of those online libraries will not be understood (or retained)
with this version.
</note>
<note version="8.3" severity="warning">
Since Version 8.3, EAGLE supports URNs for individual library
assets (packages, symbols, and devices). The URNs of those assets
will not be understood (or retained) with this version.
</note>
<note version="8.3" severity="warning">
Since Version 8.3, EAGLE supports the association of 3D packages
with devices in libraries, schematics, and board files. Those 3D
packages will not be understood (or retained) with this version.
</note>
</compatibility>
</eagle>
