<?xml version="1.0" encoding="utf-8"?>
<!DOCTYPE eagle SYSTEM "eagle.dtd">
<eagle version="9.3.2">
<drawing>
<settings>
<setting alwaysvectorfont="no"/>
<setting verticaltext="up"/>
</settings>
<grid distance="0.1" unitdist="inch" unit="inch" style="lines" multiple="1" display="no" altdistance="0.01" altunitdist="inch" altunit="inch"/>
<layers>
<layer number="1" name="Top" color="4" fill="1" visible="no" active="no"/>
<layer number="16" name="Bottom" color="1" fill="1" visible="no" active="no"/>
<layer number="17" name="Pads" color="2" fill="1" visible="no" active="no"/>
<layer number="18" name="Vias" color="2" fill="1" visible="no" active="no"/>
<layer number="19" name="Unrouted" color="6" fill="1" visible="no" active="no"/>
<layer number="20" name="Dimension" color="15" fill="1" visible="no" active="no"/>
<layer number="21" name="tPlace" color="7" fill="1" visible="no" active="no"/>
<layer number="22" name="bPlace" color="7" fill="1" visible="no" active="no"/>
<layer number="23" name="tOrigins" color="15" fill="1" visible="no" active="no"/>
<layer number="24" name="bOrigins" color="15" fill="1" visible="no" active="no"/>
<layer number="25" name="tNames" color="7" fill="1" visible="no" active="no"/>
<layer number="26" name="bNames" color="7" fill="1" visible="no" active="no"/>
<layer number="27" name="tValues" color="7" fill="1" visible="no" active="no"/>
<layer number="28" name="bValues" color="7" fill="1" visible="no" active="no"/>
<layer number="29" name="tStop" color="7" fill="3" visible="no" active="no"/>
<layer number="30" name="bStop" color="7" fill="6" visible="no" active="no"/>
<layer number="31" name="tCream" color="7" fill="4" visible="no" active="no"/>
<layer number="32" name="bCream" color="7" fill="5" visible="no" active="no"/>
<layer number="33" name="tFinish" color="6" fill="3" visible="no" active="no"/>
<layer number="34" name="bFinish" color="6" fill="6" visible="no" active="no"/>
<layer number="35" name="tGlue" color="7" fill="4" visible="no" active="no"/>
<layer number="36" name="bGlue" color="7" fill="5" visible="no" active="no"/>
<layer number="37" name="tTest" color="7" fill="1" visible="no" active="no"/>
<layer number="38" name="bTest" color="7" fill="1" visible="no" active="no"/>
<layer number="39" name="tKeepout" color="4" fill="11" visible="no" active="no"/>
<layer number="40" name="bKeepout" color="1" fill="11" visible="no" active="no"/>
<layer number="41" name="tRestrict" color="4" fill="10" visible="no" active="no"/>
<layer number="42" name="bRestrict" color="1" fill="10" visible="no" active="no"/>
<layer number="43" name="vRestrict" color="2" fill="10" visible="no" active="no"/>
<layer number="44" name="Drills" color="7" fill="1" visible="no" active="no"/>
<layer number="45" name="Holes" color="7" fill="1" visible="no" active="no"/>
<layer number="46" name="Milling" color="3" fill="1" visible="no" active="no"/>
<layer number="47" name="Measures" color="7" fill="1" visible="no" active="no"/>
<layer number="48" name="Document" color="7" fill="1" visible="no" active="no"/>
<layer number="49" name="Reference" color="7" fill="1" visible="no" active="no"/>
<layer number="50" name="dxf" color="7" fill="1" visible="no" active="no"/>
<layer number="51" name="tDocu" color="7" fill="1" visible="no" active="no"/>
<layer number="52" name="bDocu" color="7" fill="1" visible="no" active="no"/>
<layer number="53" name="tGND_GNDA" color="7" fill="9" visible="no" active="no"/>
<layer number="54" name="bGND_GNDA" color="1" fill="9" visible="no" active="no"/>
<layer number="56" name="wert" color="7" fill="1" visible="no" active="no"/>
<layer number="57" name="tCAD" color="7" fill="1" visible="no" active="no"/>
<layer number="88" name="SimResults" color="9" fill="1" visible="yes" active="yes"/>
<layer number="89" name="SimProbes" color="9" fill="1" visible="yes" active="yes"/>
<layer number="90" name="Modules" color="5" fill="1" visible="yes" active="yes"/>
<layer number="91" name="Nets" color="2" fill="1" visible="yes" active="yes"/>
<layer number="92" name="Busses" color="1" fill="1" visible="yes" active="yes"/>
<layer number="93" name="Pins" color="2" fill="1" visible="no" active="yes"/>
<layer number="94" name="Symbols" color="4" fill="1" visible="yes" active="yes"/>
<layer number="95" name="Names" color="7" fill="1" visible="yes" active="yes"/>
<layer number="96" name="Values" color="7" fill="1" visible="yes" active="yes"/>
<layer number="97" name="Info" color="7" fill="1" visible="yes" active="yes"/>
<layer number="98" name="Guide" color="6" fill="1" visible="yes" active="yes"/>
<layer number="100" name="Muster" color="7" fill="1" visible="no" active="no"/>
<layer number="101" name="Patch_Top" color="12" fill="4" visible="yes" active="yes"/>
<layer number="102" name="Vscore" color="7" fill="1" visible="yes" active="yes"/>
<layer number="103" name="fp3" color="7" fill="1" visible="no" active="yes"/>
<layer number="104" name="Name" color="7" fill="1" visible="yes" active="yes"/>
<layer number="105" name="Beschreib" color="9" fill="1" visible="yes" active="yes"/>
<layer number="106" name="BGA-Top" color="4" fill="1" visible="yes" active="yes"/>
<layer number="107" name="BD-Top" color="5" fill="1" visible="yes" active="yes"/>
<layer number="108" name="fp8" color="7" fill="1" visible="no" active="yes"/>
<layer number="109" name="fp9" color="7" fill="1" visible="no" active="yes"/>
<layer number="110" name="fp0" color="7" fill="1" visible="no" active="yes"/>
<layer number="111" name="LPC17xx" color="7" fill="1" visible="yes" active="yes"/>
<layer number="112" name="tSilk" color="7" fill="1" visible="yes" active="yes"/>
<layer number="116" name="Patch_BOT" color="9" fill="4" visible="yes" active="yes"/>
<layer number="121" name="_tsilk" color="7" fill="1" visible="yes" active="yes"/>
<layer number="122" name="_bsilk" color="7" fill="1" visible="yes" active="yes"/>
<layer number="123" name="tTestmark" color="7" fill="1" visible="no" active="yes"/>
<layer number="124" name="bTestmark" color="7" fill="1" visible="no" active="yes"/>
<layer number="125" name="_tNames" color="7" fill="1" visible="yes" active="yes"/>
<layer number="126" name="_bNames" color="7" fill="1" visible="yes" active="yes"/>
<layer number="127" name="_tValues" color="7" fill="1" visible="yes" active="yes"/>
<layer number="128" name="_bValues" color="7" fill="1" visible="yes" active="yes"/>
<layer number="131" name="tAdjust" color="7" fill="1" visible="no" active="yes"/>
<layer number="132" name="bAdjust" color="7" fill="1" visible="no" active="yes"/>
<layer number="144" name="Drill_legend" color="7" fill="1" visible="yes" active="yes"/>
<layer number="150" name="Notes" color="7" fill="1" visible="no" active="yes"/>
<layer number="151" name="HeatSink" color="7" fill="1" visible="yes" active="yes"/>
<layer number="152" name="_bDocu" color="7" fill="1" visible="yes" active="yes"/>
<layer number="153" name="FabDoc1" color="6" fill="1" visible="no" active="no"/>
<layer number="154" name="FabDoc2" color="2" fill="1" visible="no" active="no"/>
<layer number="155" name="FabDoc3" color="7" fill="15" visible="no" active="no"/>
<layer number="199" name="Contour" color="7" fill="1" visible="yes" active="yes"/>
<layer number="200" name="200bmp" color="1" fill="10" visible="yes" active="yes"/>
<layer number="201" name="201bmp" color="2" fill="1" visible="no" active="no"/>
<layer number="202" name="202bmp" color="3" fill="1" visible="no" active="no"/>
<layer number="203" name="203bmp" color="4" fill="10" visible="yes" active="yes"/>
<layer number="204" name="204bmp" color="5" fill="10" visible="yes" active="yes"/>
<layer number="205" name="205bmp" color="6" fill="10" visible="yes" active="yes"/>
<layer number="206" name="206bmp" color="7" fill="10" visible="yes" active="yes"/>
<layer number="207" name="207bmp" color="8" fill="10" visible="yes" active="yes"/>
<layer number="208" name="208bmp" color="9" fill="10" visible="yes" active="yes"/>
<layer number="209" name="209bmp" color="7" fill="1" visible="no" active="yes"/>
<layer number="210" name="210bmp" color="7" fill="1" visible="no" active="yes"/>
<layer number="211" name="211bmp" color="7" fill="1" visible="yes" active="yes"/>
<layer number="212" name="212bmp" color="7" fill="1" visible="yes" active="yes"/>
<layer number="213" name="213bmp" color="7" fill="1" visible="yes" active="yes"/>
<layer number="214" name="214bmp" color="7" fill="1" visible="yes" active="yes"/>
<layer number="215" name="215bmp" color="7" fill="1" visible="yes" active="yes"/>
<layer number="216" name="216bmp" color="7" fill="1" visible="yes" active="yes"/>
<layer number="217" name="217bmp" color="18" fill="1" visible="no" active="no"/>
<layer number="218" name="218bmp" color="19" fill="1" visible="no" active="no"/>
<layer number="219" name="219bmp" color="20" fill="1" visible="no" active="no"/>
<layer number="220" name="220bmp" color="21" fill="1" visible="no" active="no"/>
<layer number="221" name="221bmp" color="22" fill="1" visible="no" active="no"/>
<layer number="222" name="222bmp" color="23" fill="1" visible="no" active="no"/>
<layer number="223" name="223bmp" color="24" fill="1" visible="no" active="no"/>
<layer number="224" name="224bmp" color="25" fill="1" visible="no" active="no"/>
<layer number="248" name="Housing" color="7" fill="1" visible="yes" active="yes"/>
<layer number="249" name="Edge" color="7" fill="1" visible="yes" active="yes"/>
<layer number="250" name="Descript" color="7" fill="1" visible="no" active="no"/>
<layer number="251" name="SMDround" color="7" fill="1" visible="no" active="no"/>
<layer number="254" name="cooling" color="7" fill="1" visible="yes" active="yes"/>
</layers>
<schematic xreflabel="%F%N/%S.%C%R" xrefpart="/%S.%C%R">
<libraries>
<library name="ams1117-3.3v">
<description>&lt;1A LOW DROPOUT VOLTAGE REGULATOR, SOT-223&lt;/b&gt;&lt;p&gt;
&lt;author&gt;Created by SamacSys&lt;/author&gt;</description>
<packages>
<package name="SOT229P700X180-4N">
<description>&lt;b&gt;3 Lead SOT-223 Plastic Package&lt;/b&gt;&lt;br&gt;
</description>
<smd name="1" x="-3.35" y="2.29" dx="1.3" dy="0.95" layer="1"/>
<smd name="2" x="-3.35" y="0" dx="1.3" dy="0.95" layer="1"/>
<smd name="3" x="-3.35" y="-2.29" dx="1.3" dy="0.95" layer="1"/>
<smd name="4" x="3.35" y="0" dx="3.25" dy="1.3" layer="1" rot="R90"/>
<text x="0" y="0" size="1.27" layer="25" align="center">&gt;NAME</text>
<text x="0" y="0" size="1.27" layer="27" align="center">&gt;VALUE</text>
<wire x1="-4.25" y1="3.605" x2="4.25" y2="3.605" width="0.05" layer="51"/>
<wire x1="4.25" y1="3.605" x2="4.25" y2="-3.605" width="0.05" layer="51"/>
<wire x1="4.25" y1="-3.605" x2="-4.25" y2="-3.605" width="0.05" layer="51"/>
<wire x1="-4.25" y1="-3.605" x2="-4.25" y2="3.605" width="0.05" layer="51"/>
<wire x1="-1.752" y1="3.252" x2="1.752" y2="3.252" width="0.1" layer="51"/>
<wire x1="1.752" y1="3.252" x2="1.752" y2="-3.252" width="0.1" layer="51"/>
<wire x1="1.752" y1="-3.252" x2="-1.752" y2="-3.252" width="0.1" layer="51"/>
<wire x1="-1.752" y1="-3.252" x2="-1.752" y2="3.252" width="0.1" layer="51"/>
<wire x1="-1.752" y1="0.962" x2="0.538" y2="3.252" width="0.1" layer="51"/>
<wire x1="-1.752" y1="3.252" x2="1.752" y2="3.252" width="0.2" layer="21"/>
<wire x1="1.752" y1="3.252" x2="1.752" y2="-3.252" width="0.2" layer="21"/>
<wire x1="1.752" y1="-3.252" x2="-1.752" y2="-3.252" width="0.2" layer="21"/>
<wire x1="-1.752" y1="-3.252" x2="-1.752" y2="3.252" width="0.2" layer="21"/>
<wire x1="-4" y1="3.115" x2="-2.7" y2="3.115" width="0.2" layer="21"/>
</package>
</packages>
<symbols>
<symbol name="AMS1117-3.3V">
<wire x1="5.08" y1="2.54" x2="45.72" y2="2.54" width="0.254" layer="94"/>
<wire x1="45.72" y1="-7.62" x2="45.72" y2="2.54" width="0.254" layer="94"/>
<wire x1="45.72" y1="-7.62" x2="5.08" y2="-7.62" width="0.254" layer="94"/>
<wire x1="5.08" y1="2.54" x2="5.08" y2="-7.62" width="0.254" layer="94"/>
<text x="46.99" y="7.62" size="1.778" layer="95" align="center-left">&gt;NAME</text>
<text x="46.99" y="5.08" size="1.778" layer="96" align="center-left">&gt;VALUE</text>
<pin name="GROUND/ADJUST" x="0" y="0" length="middle"/>
<pin name="VOUT" x="0" y="-2.54" length="middle"/>
<pin name="VIN" x="0" y="-5.08" length="middle"/>
<pin name="TAB_(OUTPUT)" x="50.8" y="-2.54" length="middle" rot="R180"/>
</symbol>
</symbols>
<devicesets>
<deviceset name="AMS1117-3.3V" prefix="IC">
<description>&lt;b&gt;1A LOW DROPOUT VOLTAGE REGULATOR, SOT-223&lt;/b&gt;&lt;p&gt;
Source: &lt;a href="http://www.advanced-monolithic.com/pdf/ds1117.pdf"&gt; Datasheet &lt;/a&gt;</description>
<gates>
<gate name="G$1" symbol="AMS1117-3.3V" x="0" y="0"/>
</gates>
<devices>
<device name="" package="SOT229P700X180-4N">
<connects>
<connect gate="G$1" pin="GROUND/ADJUST" pad="1"/>
<connect gate="G$1" pin="TAB_(OUTPUT)" pad="4"/>
<connect gate="G$1" pin="VIN" pad="3"/>
<connect gate="G$1" pin="VOUT" pad="2"/>
</connects>
<technologies>
<technology name="">
<attribute name="DESCRIPTION" value="1A LOW DROPOUT VOLTAGE REGULATOR, SOT-223" constant="no"/>
<attribute name="HEIGHT" value="1.8mm" constant="no"/>
<attribute name="MANUFACTURER_NAME" value="Advanced Monolithic Systems" constant="no"/>
<attribute name="MANUFACTURER_PART_NUMBER" value="ams1117-3.3v" constant="no"/>
<attribute name="MOUSER_PART_NUMBER" value="" constant="no"/>
<attribute name="MOUSER_PRICE-STOCK" value="" constant="no"/>
<attribute name="RS_PART_NUMBER" value="" constant="no"/>
<attribute name="RS_PRICE-STOCK" value="" constant="no"/>
</technology>
</technologies>
</device>
</devices>
</deviceset>
</devicesets>
</library>
<library name="esp8266modules">
<packages>
<package name="ESP01">
<description>ESP8266 Module 01</description>
<pad name="GND" x="-3.825" y="-5.6375" drill="0.8" shape="square" rot="R270"/>
<pad name="RX" x="3.795" y="-5.6375" drill="0.8" shape="square" rot="R270"/>
<pad name="GPIO2" x="-1.285" y="-5.6375" drill="0.8" rot="R270"/>
<pad name="GPIO0" x="1.255" y="-5.6375" drill="0.8" rot="R270"/>
<pad name="RST" x="1.255" y="-8.1775" drill="0.8" rot="R270"/>
<pad name="CH_PD" x="-1.285" y="-8.1775" drill="0.8" rot="R270"/>
<pad name="TX" x="-3.825" y="-8.1775" drill="0.8" rot="R270"/>
<pad name="VCC" x="3.795" y="-8.1775" drill="0.8" rot="R270"/>
<wire x1="-7" y1="15" x2="-7" y2="7.38" width="0.127" layer="21"/>
<wire x1="-7" y1="7.38" x2="-7" y2="-9.765" width="0.127" layer="21"/>
<wire x1="-7" y1="-9.765" x2="7.2875" y2="-9.765" width="0.127" layer="21"/>
<wire x1="7.2875" y1="-9.765" x2="7.2875" y2="7.38" width="0.127" layer="21"/>
<wire x1="7.2875" y1="7.38" x2="7.2875" y2="15" width="0.127" layer="21"/>
<wire x1="7.2875" y1="15" x2="-7" y2="15" width="0.127" layer="21"/>
<wire x1="-7" y1="7.38" x2="7.2875" y2="7.38" width="0.127" layer="21"/>
<text x="-5.73" y="9.92" size="2.54" layer="21">ESP-01</text>
<text x="-7" y="16" size="1.27" layer="25">&gt;Name</text>
<text x="-7" y="-11" size="1.27" layer="27">&gt;Value</text>
</package>
</packages>
<symbols>
<symbol name="ESP01">
<description>ESP8266 Wifi module 01</description>
<wire x1="-12.7" y1="10.16" x2="-12.7" y2="-2.54" width="0.254" layer="94"/>
<wire x1="-12.7" y1="-2.54" x2="10.16" y2="-2.54" width="0.254" layer="94"/>
<wire x1="10.16" y1="-2.54" x2="10.16" y2="10.16" width="0.254" layer="94"/>
<wire x1="10.16" y1="10.16" x2="-12.7" y2="10.16" width="0.254" layer="94"/>
<pin name="GND" x="-17.78" y="7.62" visible="pin" length="middle"/>
<pin name="GPIO2" x="-17.78" y="5.08" visible="pin" length="middle"/>
<pin name="GPIO0" x="-17.78" y="2.54" visible="pin" length="middle"/>
<pin name="RXD" x="-17.78" y="0" visible="pin" length="middle"/>
<pin name="TXD" x="15.24" y="7.62" visible="pin" length="middle" rot="R180"/>
<pin name="CH_PD" x="15.24" y="5.08" visible="pin" length="middle" rot="R180"/>
<pin name="RST" x="15.24" y="2.54" visible="pin" length="middle" rot="R180"/>
<pin name="VCC" x="15.24" y="0" visible="pin" length="middle" rot="R180"/>
<text x="-12.7" y="10.16" size="1.778" layer="95">&gt;Name</text>
<text x="-12.7" y="-5.08" size="1.778" layer="95">&gt;Value</text>
</symbol>
</symbols>
<devicesets>
<deviceset name="ESP01">
<description>ESP8266 Wifi module 01</description>
<gates>
<gate name="G$1" symbol="ESP01" x="0" y="0"/>
</gates>
<devices>
<device name="" package="ESP01">
<connects>
<connect gate="G$1" pin="CH_PD" pad="CH_PD"/>
<connect gate="G$1" pin="GND" pad="GND"/>
<connect gate="G$1" pin="GPIO0" pad="GPIO0"/>
<connect gate="G$1" pin="GPIO2" pad="GPIO2"/>
<connect gate="G$1" pin="RST" pad="RST"/>
<connect gate="G$1" pin="RXD" pad="RX"/>
<connect gate="G$1" pin="TXD" pad="TX"/>
<connect gate="G$1" pin="VCC" pad="VCC"/>
</connects>
<technologies>
<technology name=""/>
</technologies>
</device>
</devices>
</deviceset>
</devicesets>
</library>
<library name="supply1" urn="urn:adsk.eagle:library:371">
<description>&lt;b&gt;Supply Symbols&lt;/b&gt;&lt;p&gt;
 GND, VCC, 0V, +5V, -5V, etc.&lt;p&gt;
 Please keep in mind, that these devices are necessary for the
 automatic wiring of the supply signals.&lt;p&gt;
 The pin name defined in the symbol is identical to the net which is to be wired automatically.&lt;p&gt;
 In this library the device names are the same as the pin names of the symbols, therefore the correct signal names appear next to the supply symbols in the schematic.&lt;p&gt;
 &lt;author&gt;Created by librarian@cadsoft.de&lt;/author&gt;</description>
<packages>
</packages>
<symbols>
<symbol name="GND" urn="urn:adsk.eagle:symbol:26925/1" library_version="1">
<wire x1="-1.905" y1="0" x2="1.905" y2="0" width="0.254" layer="94"/>
<text x="-2.54" y="-2.54" size="1.778" layer="96">&gt;VALUE</text>
<pin name="GND" x="0" y="2.54" visible="off" length="short" direction="sup" rot="R270"/>
</symbol>
<symbol name="VCC" urn="urn:adsk.eagle:symbol:26928/1" library_version="1">
<wire x1="1.27" y1="-1.905" x2="0" y2="0" width="0.254" layer="94"/>
<wire x1="0" y1="0" x2="-1.27" y2="-1.905" width="0.254" layer="94"/>
<text x="-2.54" y="-2.54" size="1.778" layer="96" rot="R90">&gt;VALUE</text>
<pin name="VCC" x="0" y="-2.54" visible="off" length="short" direction="sup" rot="R90"/>
</symbol>
</symbols>
<devicesets>
<deviceset name="GND" urn="urn:adsk.eagle:component:26954/1" prefix="GND" library_version="1">
<description>&lt;b&gt;SUPPLY SYMBOL&lt;/b&gt;</description>
<gates>
<gate name="1" symbol="GND" x="0" y="0"/>
</gates>
<devices>
<device name="">
<technologies>
<technology name=""/>
</technologies>
</device>
</devices>
</deviceset>
<deviceset name="VCC" urn="urn:adsk.eagle:component:26957/1" prefix="P+" library_version="1">
<description>&lt;b&gt;SUPPLY SYMBOL&lt;/b&gt;</description>
<gates>
<gate name="VCC" symbol="VCC" x="0" y="0"/>
</gates>
<devices>
<device name="">
<technologies>
<technology name=""/>
</technologies>
</device>
</devices>
</deviceset>
</devicesets>
</library>
<library name="wirepad" urn="urn:adsk.eagle:library:412">
<description>&lt;b&gt;Single Pads&lt;/b&gt;&lt;p&gt;
&lt;author&gt;Created by librarian@cadsoft.de&lt;/author&gt;</description>
<packages>
<package name="3,81/1,4" urn="urn:adsk.eagle:footprint:30817/1" library_version="1">
<description>&lt;b&gt;THROUGH-HOLE PAD&lt;/b&gt;</description>
<wire x1="1.905" y1="-1.27" x2="1.905" y2="-1.905" width="0.1524" layer="21"/>
<wire x1="1.905" y1="-1.905" x2="1.27" y2="-1.905" width="0.1524" layer="21"/>
<wire x1="-1.27" y1="-1.905" x2="-1.905" y2="-1.905" width="0.1524" layer="21"/>
<wire x1="-1.905" y1="-1.905" x2="-1.905" y2="-1.27" width="0.1524" layer="21"/>
<wire x1="-1.905" y1="1.27" x2="-1.905" y2="1.905" width="0.1524" layer="21"/>
<wire x1="-1.905" y1="1.905" x2="-1.27" y2="1.905" width="0.1524" layer="21"/>
<wire x1="1.27" y1="1.905" x2="1.905" y2="1.905" width="0.1524" layer="21"/>
<wire x1="1.905" y1="1.905" x2="1.905" y2="1.27" width="0.1524" layer="21"/>
<circle x="0" y="0" radius="1.27" width="0.1524" layer="51"/>
<pad name="1" x="0" y="0" drill="1.397" diameter="3.81" shape="octagon"/>
<text x="-1.905" y="2.286" size="1.27" layer="25" ratio="10">&gt;NAME</text>
<text x="0" y="1.2" size="0.0254" layer="27">&gt;VALUE</text>
</package>
</packages>
<packages3d>
<package3d name="3,81/1,4" urn="urn:adsk.eagle:package:30835/1" type="box" library_version="1">
<description>THROUGH-HOLE PAD</description>
<packageinstances>
<packageinstance name="3,81/1,4"/>
</packageinstances>
</package3d>
</packages3d>
<symbols>
<symbol name="PAD" urn="urn:adsk.eagle:symbol:30808/1" library_version="1">
<wire x1="-1.016" y1="1.016" x2="1.016" y2="-1.016" width="0.254" layer="94"/>
<wire x1="-1.016" y1="-1.016" x2="1.016" y2="1.016" width="0.254" layer="94"/>
<text x="-1.143" y="1.8542" size="1.778" layer="95">&gt;NAME</text>
<text x="-1.143" y="-3.302" size="1.778" layer="96">&gt;VALUE</text>
<pin name="P" x="2.54" y="0" visible="off" length="short" direction="pas" rot="R180"/>
</symbol>
</symbols>
<devicesets>
<deviceset name="3,81/1,4" urn="urn:adsk.eagle:component:30853/1" prefix="PAD" uservalue="yes" library_version="1">
<description>&lt;b&gt;THROUGH-HOLE PAD&lt;/b&gt;</description>
<gates>
<gate name="1" symbol="PAD" x="0" y="0"/>
</gates>
<devices>
<device name="" package="3,81/1,4">
<connects>
<connect gate="1" pin="P" pad="1"/>
</connects>
<package3dinstances>
<package3dinstance package3d_urn="urn:adsk.eagle:package:30835/1"/>
</package3dinstances>
<technologies>
<technology name=""/>
</technologies>
</device>
</devices>
</deviceset>
</devicesets>
</library>
<library name="relay" urn="urn:adsk.eagle:library:339">
<description>&lt;b&gt;Relays&lt;/b&gt;&lt;p&gt;
&lt;ul&gt;
&lt;li&gt;Eichhoff
&lt;li&gt;Finder
&lt;li&gt;Fujitsu
&lt;li&gt;HAMLIN
&lt;li&gt;OMRON
&lt;li&gt;Matsushita
&lt;li&gt;NAiS
&lt;li&gt;Siemens
&lt;li&gt;Schrack
&lt;/ul&gt;
&lt;author&gt;Created by librarian@cadsoft.de&lt;/author&gt;</description>
<packages>
<package name="M3XXH" urn="urn:adsk.eagle:footprint:23994/1" library_version="4">
<description>&lt;b&gt;RELAY&lt;/b&gt;&lt;p&gt;
1 x switch</description>
<wire x1="-7.874" y1="5.461" x2="-6.985" y2="5.461" width="0.1524" layer="21"/>
<wire x1="-6.985" y1="5.461" x2="-5.715" y2="5.461" width="0.1524" layer="51"/>
<wire x1="-5.715" y1="5.461" x2="-4.445" y2="5.461" width="0.1524" layer="21"/>
<wire x1="-4.445" y1="5.461" x2="-3.175" y2="5.461" width="0.1524" layer="51"/>
<wire x1="-3.175" y1="5.461" x2="7.874" y2="5.461" width="0.1524" layer="21"/>
<wire x1="7.874" y1="-5.461" x2="7.874" y2="5.461" width="0.1524" layer="21"/>
<wire x1="7.874" y1="-5.461" x2="-3.175" y2="-5.461" width="0.1524" layer="21"/>
<wire x1="-3.175" y1="-5.461" x2="-4.445" y2="-5.461" width="0.1524" layer="51"/>
<wire x1="-4.445" y1="-5.461" x2="-5.715" y2="-5.461" width="0.1524" layer="21"/>
<wire x1="-5.715" y1="-5.461" x2="-6.985" y2="-5.461" width="0.1524" layer="51"/>
<wire x1="-6.985" y1="-5.461" x2="-7.874" y2="-5.461" width="0.1524" layer="21"/>
<wire x1="-7.874" y1="5.461" x2="-7.874" y2="-5.461" width="0.1524" layer="21"/>
<wire x1="6.35" y1="-2.286" x2="6.35" y2="0" width="0.1524" layer="21"/>
<wire x1="-5.334" y1="0" x2="-6.604" y2="-0.889" width="0.1524" layer="21"/>
<wire x1="-6.35" y1="-2.032" x2="-6.35" y2="-0.762" width="0.1524" layer="21"/>
<wire x1="-6.35" y1="2.032" x2="-6.35" y2="0.889" width="0.1524" layer="21"/>
<wire x1="-2.413" y1="-0.762" x2="-2.413" y2="-2.794" width="0.1524" layer="21"/>
<wire x1="1.27" y1="-2.794" x2="1.27" y2="-0.762" width="0.1524" layer="21"/>
<wire x1="1.27" y1="-0.762" x2="0.127" y2="-0.762" width="0.1524" layer="21"/>
<wire x1="-2.413" y1="3.81" x2="-0.508" y2="3.81" width="0.1524" layer="21"/>
<wire x1="-0.508" y1="-0.762" x2="-0.508" y2="3.81" width="0.1524" layer="21"/>
<wire x1="-0.508" y1="-0.762" x2="-2.413" y2="-0.762" width="0.1524" layer="21"/>
<wire x1="-0.508" y1="-2.794" x2="-0.508" y2="-3.81" width="0.1524" layer="21"/>
<wire x1="-0.508" y1="-2.794" x2="1.27" y2="-2.794" width="0.1524" layer="21"/>
<wire x1="-0.508" y1="-3.81" x2="-2.413" y2="-3.81" width="0.1524" layer="21"/>
<wire x1="-2.413" y1="-2.794" x2="-1.143" y2="-2.794" width="0.1524" layer="21"/>
<wire x1="-1.143" y1="-2.794" x2="-0.508" y2="-2.794" width="0.1524" layer="21"/>
<wire x1="0.127" y1="-0.762" x2="-1.143" y2="-2.794" width="0.1524" layer="21"/>
<wire x1="0.127" y1="-0.762" x2="-0.508" y2="-0.762" width="0.1524" layer="21"/>
<wire x1="-5.334" y1="0" x2="6.35" y2="0" width="0.1524" layer="21"/>
<wire x1="6.35" y1="0" x2="6.35" y2="2.286" width="0.1524" layer="21"/>
<circle x="6.35" y="0" radius="0.254" width="0.254" layer="21"/>
<pad name="P" x="6.35" y="-3.81" drill="1.016" shape="long" rot="R90"/>
<pad name="P@" x="6.35" y="3.81" drill="1.016" shape="long" rot="R90"/>
<pad name="2" x="-3.81" y="-3.81" drill="1.016" shape="long" rot="R90"/>
<pad name="O" x="-6.35" y="-3.81" drill="1.016" shape="long" rot="R90"/>
<pad name="S" x="-6.35" y="3.81" drill="1.016" shape="long" rot="R90"/>
<pad name="1" x="-3.81" y="3.81" drill="1.016" shape="long" rot="R90"/>
<text x="9.525" y="-5.461" size="1.27" layer="25" ratio="10" rot="R90">&gt;NAME</text>
<text x="-8.255" y="-5.461" size="1.27" layer="27" ratio="10" rot="R90">&gt;VALUE</text>
</package>
</packages>
<packages3d>
<package3d name="M3XXH" urn="urn:adsk.eagle:package:24330/1" type="box" library_version="4">
<description>RELAY
1 x switch</description>
<packageinstances>
<packageinstance name="M3XXH"/>
</packageinstances>
</package3d>
</packages3d>
<symbols>
<symbol name="K" urn="urn:adsk.eagle:symbol:23941/1" library_version="4">
<wire x1="-3.81" y1="-1.905" x2="-1.905" y2="-1.905" width="0.254" layer="94"/>
<wire x1="3.81" y1="-1.905" x2="3.81" y2="1.905" width="0.254" layer="94"/>
<wire x1="3.81" y1="1.905" x2="1.905" y2="1.905" width="0.254" layer="94"/>
<wire x1="-3.81" y1="1.905" x2="-3.81" y2="-1.905" width="0.254" layer="94"/>
<wire x1="0" y1="-2.54" x2="0" y2="-1.905" width="0.1524" layer="94"/>
<wire x1="0" y1="-1.905" x2="3.81" y2="-1.905" width="0.254" layer="94"/>
<wire x1="0" y1="2.54" x2="0" y2="1.905" width="0.1524" layer="94"/>
<wire x1="0" y1="1.905" x2="-3.81" y2="1.905" width="0.254" layer="94"/>
<wire x1="-1.905" y1="-1.905" x2="1.905" y2="1.905" width="0.1524" layer="94"/>
<wire x1="-1.905" y1="-1.905" x2="0" y2="-1.905" width="0.254" layer="94"/>
<wire x1="1.905" y1="1.905" x2="0" y2="1.905" width="0.254" layer="94"/>
<text x="1.27" y="2.921" size="1.778" layer="96">&gt;VALUE</text>
<text x="1.27" y="5.08" size="1.778" layer="95">&gt;PART</text>
<pin name="2" x="0" y="-5.08" visible="pad" length="short" direction="pas" rot="R90"/>
<pin name="1" x="0" y="5.08" visible="pad" length="short" direction="pas" rot="R270"/>
</symbol>
<symbol name="U1" urn="urn:adsk.eagle:symbol:23981/1" library_version="4">
<wire x1="3.175" y1="5.08" x2="1.905" y2="5.08" width="0.254" layer="94"/>
<wire x1="-3.175" y1="5.08" x2="-1.905" y2="5.08" width="0.254" layer="94"/>
<wire x1="0" y1="1.27" x2="2.54" y2="5.715" width="0.254" layer="94"/>
<wire x1="-2.54" y1="0" x2="0" y2="0" width="0.1524" layer="94"/>
<wire x1="0" y1="0" x2="0" y2="1.27" width="0.254" layer="94"/>
<circle x="0" y="0" radius="0.127" width="0.4064" layer="94"/>
<circle x="0" y="1.27" radius="0.127" width="0.4064" layer="94"/>
<text x="2.54" y="0" size="1.778" layer="95">&gt;PART</text>
<pin name="O" x="5.08" y="5.08" visible="pad" length="short" direction="pas" rot="R180"/>
<pin name="S" x="-5.08" y="5.08" visible="pad" length="short" direction="pas"/>
<pin name="P" x="0" y="-2.54" visible="pad" length="short" direction="pas" swaplevel="1" rot="R90"/>
<pin name="P@1" x="-2.54" y="-2.54" visible="pad" length="short" direction="pas" swaplevel="1" rot="R90"/>
</symbol>
</symbols>
<devicesets>
<deviceset name="M3XXH" urn="urn:adsk.eagle:component:24603/1" prefix="K" library_version="4">
<description>&lt;b&gt;RELAY&lt;/b&gt;&lt;p&gt;
1 x switch</description>
<gates>
<gate name="1" symbol="K" x="0" y="0" addlevel="must"/>
<gate name="2" symbol="U1" x="17.78" y="0" addlevel="always"/>
</gates>
<devices>
<device name="" package="M3XXH">
<connects>
<connect gate="1" pin="1" pad="1"/>
<connect gate="1" pin="2" pad="2"/>
<connect gate="2" pin="O" pad="O"/>
<connect gate="2" pin="P" pad="P"/>
<connect gate="2" pin="P@1" pad="P@"/>
<connect gate="2" pin="S" pad="S"/>
</connects>
<package3dinstances>
<package3dinstance package3d_urn="urn:adsk.eagle:package:24330/1"/>
</package3dinstances>
<technologies>
<technology name="">
<attribute name="MF" value="" constant="no"/>
<attribute name="MPN" value="" constant="no"/>
<attribute name="OC_FARNELL" value="unknown" constant="no"/>
<attribute name="OC_NEWARK" value="unknown" constant="no"/>
</technology>
</technologies>
</device>
</devices>
</deviceset>
</devicesets>
</library>
<library name="linear" urn="urn:adsk.eagle:library:262">
<description>&lt;b&gt;Linear Devices&lt;/b&gt;&lt;p&gt;
Operational amplifiers,  comparators, voltage regulators, ADCs, DACs, etc.&lt;p&gt;
&lt;author&gt;Created by librarian@cadsoft.de&lt;/author&gt;</description>
<packages>
<package name="SOT23" urn="urn:adsk.eagle:footprint:16354/1" library_version="4">
<description>&lt;b&gt;SMALL OUTLINE TRANSISTOR&lt;/b&gt;&lt;p&gt;
reflow soldering</description>
<wire x1="-1.973" y1="1.983" x2="1.973" y2="1.983" width="0.0508" layer="39"/>
<wire x1="1.973" y1="-1.983" x2="-1.973" y2="-1.983" width="0.0508" layer="39"/>
<wire x1="-1.973" y1="-1.983" x2="-1.973" y2="1.983" width="0.0508" layer="39"/>
<wire x1="1.973" y1="1.983" x2="1.973" y2="-1.983" width="0.0508" layer="39"/>
<wire x1="1.422" y1="0.66" x2="1.422" y2="-0.66" width="0.1524" layer="51"/>
<wire x1="1.422" y1="-0.66" x2="-1.422" y2="-0.66" width="0.1524" layer="51"/>
<wire x1="-1.422" y1="-0.66" x2="-1.422" y2="0.66" width="0.1524" layer="51"/>
<wire x1="-1.422" y1="0.66" x2="1.422" y2="0.66" width="0.1524" layer="51"/>
<wire x1="-1.422" y1="-0.152" x2="-1.422" y2="0.66" width="0.1524" layer="21"/>
<wire x1="-1.422" y1="0.66" x2="-0.864" y2="0.66" width="0.1524" layer="21"/>
<wire x1="0.864" y1="0.66" x2="1.422" y2="0.66" width="0.1524" layer="21"/>
<wire x1="1.422" y1="0.66" x2="1.422" y2="-0.152" width="0.1524" layer="21"/>
<smd name="3" x="0" y="1.1" dx="1" dy="1.4" layer="1"/>
<smd name="2" x="0.95" y="-1.1" dx="1" dy="1.4" layer="1"/>
<smd name="1" x="-0.95" y="-1.1" dx="1" dy="1.4" layer="1"/>
<text x="-1.905" y="1.905" size="1.27" layer="25">&gt;NAME</text>
<text x="-1.905" y="-3.175" size="1.27" layer="27">&gt;VALUE</text>
<rectangle x1="-0.2286" y1="0.7112" x2="0.2286" y2="1.2954" layer="51"/>
<rectangle x1="0.7112" y1="-1.2954" x2="1.1684" y2="-0.7112" layer="51"/>
<rectangle x1="-1.1684" y1="-1.2954" x2="-0.7112" y2="-0.7112" layer="51"/>
<rectangle x1="-0.5001" y1="-0.3" x2="0.5001" y2="0.3" layer="35"/>
</package>
</packages>
<packages3d>
<package3d name="SOT23" urn="urn:adsk.eagle:package:16489/2" type="model" library_version="4">
<description>SMALL OUTLINE TRANSISTOR
reflow soldering</description>
<packageinstances>
<packageinstance name="SOT23"/>
</packageinstances>
</package3d>
</packages3d>
<symbols>
<symbol name="LM50" urn="urn:adsk.eagle:symbol:16353/1" library_version="4">
<wire x1="-7.62" y1="2.54" x2="7.62" y2="2.54" width="0.254" layer="94"/>
<wire x1="7.62" y1="2.54" x2="7.62" y2="-5.08" width="0.254" layer="94"/>
<wire x1="7.62" y1="-5.08" x2="-7.62" y2="-5.08" width="0.254" layer="94"/>
<wire x1="-7.62" y1="-5.08" x2="-7.62" y2="2.54" width="0.254" layer="94"/>
<text x="-2.286" y="-4.064" size="1.524" layer="95">GND</text>
<text x="-7.62" y="3.81" size="1.778" layer="95">&gt;NAME</text>
<text x="2.54" y="-7.62" size="1.778" layer="96">&gt;VALUE</text>
<pin name="+VS" x="-10.16" y="0" length="short" direction="in"/>
<pin name="VO" x="10.16" y="0" length="short" direction="in" rot="R180"/>
<pin name="GND" x="0" y="-7.62" visible="pad" length="short" direction="pwr" rot="R90"/>
</symbol>
</symbols>
<devicesets>
<deviceset name="LM50" urn="urn:adsk.eagle:component:16823/2" prefix="IC" library_version="4">
<description>&lt;b&gt;SOT-23 Single-Supply Centigrade Temperature Sensor&lt;/b&gt;&lt;p&gt;
Vout = (10mV/°C x Temp °C) +5mmmV&lt;br&gt;

Source: http://cache.national.com/ds/LM/LM50.pdf</description>
<gates>
<gate name="G$1" symbol="LM50" x="0" y="0"/>
</gates>
<devices>
<device name="" package="SOT23">
<connects>
<connect gate="G$1" pin="+VS" pad="1"/>
<connect gate="G$1" pin="GND" pad="3"/>
<connect gate="G$1" pin="VO" pad="2"/>
</connects>
<package3dinstances>
<package3dinstance package3d_urn="urn:adsk.eagle:package:16489/2"/>
</package3dinstances>
<technologies>
<technology name=""/>
</technologies>
</device>
</devices>
</deviceset>
</devicesets>
</library>
</libraries>
<attributes>
</attributes>
<variantdefs>
</variantdefs>
<classes>
<class number="0" name="default" width="0" drill="0">
</class>
</classes>
<parts>
<part name="IC1" library="ams1117-3.3v" deviceset="AMS1117-3.3V" device=""/>
<part name="U$1" library="esp8266modules" deviceset="ESP01" device=""/>
<part name="GND1" library="supply1" library_urn="urn:adsk.eagle:library:371" deviceset="GND" device=""/>
<part name="P+1" library="supply1" library_urn="urn:adsk.eagle:library:371" deviceset="VCC" device=""/>
<part name="GND" library="wirepad" library_urn="urn:adsk.eagle:library:412" deviceset="3,81/1,4" device="" package3d_urn="urn:adsk.eagle:package:30835/1"/>
<part name="VCC" library="wirepad" library_urn="urn:adsk.eagle:library:412" deviceset="3,81/1,4" device="" package3d_urn="urn:adsk.eagle:package:30835/1"/>
<part name="IÑ" library="wirepad" library_urn="urn:adsk.eagle:library:412" deviceset="3,81/1,4" device="" package3d_urn="urn:adsk.eagle:package:30835/1"/>
<part name="K1" library="relay" library_urn="urn:adsk.eagle:library:339" deviceset="M3XXH" device="" package3d_urn="urn:adsk.eagle:package:24330/1"/>
<part name="IC2" library="linear" library_urn="urn:adsk.eagle:library:262" deviceset="LM50" device="" package3d_urn="urn:adsk.eagle:package:16489/2"/>
<part name="OUÑ" library="wirepad" library_urn="urn:adsk.eagle:library:412" deviceset="3,81/1,4" device="" package3d_urn="urn:adsk.eagle:package:30835/1"/>
</parts>
<sheets>
<sheet>
<plain>
</plain>
<instances>
<instance part="IC1" gate="G$1" x="86.36" y="35.56" smashed="yes">
<attribute name="NAME" x="133.35" y="43.18" size="1.778" layer="95" align="center-left"/>
<attribute name="VALUE" x="133.35" y="40.64" size="1.778" layer="96" align="center-left"/>
</instance>
<instance part="U$1" gate="G$1" x="33.02" y="43.18" smashed="yes">
<attribute name="NAME" x="20.32" y="53.34" size="1.778" layer="95"/>
<attribute name="VALUE" x="20.32" y="38.1" size="1.778" layer="95"/>
</instance>
<instance part="GND1" gate="1" x="0" y="12.7" smashed="yes">
<attribute name="VALUE" x="-2.54" y="10.16" size="1.778" layer="96"/>
</instance>
<instance part="P+1" gate="VCC" x="93.98" y="10.16" smashed="yes">
<attribute name="VALUE" x="91.44" y="7.62" size="1.778" layer="96" rot="R90"/>
</instance>
<instance part="GND" gate="1" x="5.08" y="7.62" smashed="yes">
<attribute name="NAME" x="3.937" y="9.4742" size="1.778" layer="95"/>
<attribute name="VALUE" x="3.937" y="4.318" size="1.778" layer="96"/>
</instance>
<instance part="VCC" gate="1" x="99.06" y="7.62" smashed="yes">
<attribute name="NAME" x="97.917" y="9.4742" size="1.778" layer="95"/>
<attribute name="VALUE" x="97.917" y="4.318" size="1.778" layer="96"/>
</instance>
<instance part="IÑ" gate="1" x="40.64" y="73.66" smashed="yes">
<attribute name="NAME" x="39.497" y="75.5142" size="1.778" layer="95"/>
<attribute name="VALUE" x="39.497" y="70.358" size="1.778" layer="96"/>
</instance>
<instance part="K1" gate="1" x="86.36" y="88.9" smashed="yes">
<attribute name="VALUE" x="87.63" y="91.821" size="1.778" layer="96"/>
<attribute name="PART" x="87.63" y="93.98" size="1.778" layer="95"/>
</instance>
<instance part="K1" gate="2" x="104.14" y="88.9" smashed="yes">
<attribute name="PART" x="106.68" y="88.9" size="1.778" layer="95"/>
</instance>
<instance part="IC2" gate="G$1" x="10.16" y="81.28" smashed="yes">
<attribute name="NAME" x="2.54" y="85.09" size="1.778" layer="95"/>
<attribute name="VALUE" x="12.7" y="73.66" size="1.778" layer="96"/>
</instance>
<instance part="OUÑ" gate="1" x="121.92" y="76.2" smashed="yes">
<attribute name="NAME" x="120.777" y="78.0542" size="1.778" layer="95"/>
<attribute name="VALUE" x="120.777" y="72.898" size="1.778" layer="96"/>
</instance>
</instances>
<busses>
</busses>
<nets>
<net name="VCC" class="0">
<segment>
<pinref part="IC1" gate="G$1" pin="VIN"/>
<wire x1="86.36" y1="30.48" x2="86.36" y2="15.24" width="0.1524" layer="91"/>
<wire x1="86.36" y1="15.24" x2="83.82" y2="15.24" width="0.1524" layer="91"/>
<pinref part="P+1" gate="VCC" pin="VCC"/>
<wire x1="83.82" y1="15.24" x2="83.82" y2="10.16" width="0.1524" layer="91"/>
<wire x1="83.82" y1="10.16" x2="83.82" y2="7.62" width="0.1524" layer="91"/>
<wire x1="83.82" y1="7.62" x2="93.98" y2="7.62" width="0.1524" layer="91"/>
<junction x="83.82" y="10.16"/>
<wire x1="68.58" y1="10.16" x2="83.82" y2="10.16" width="0.1524" layer="91"/>
<pinref part="VCC" gate="1" pin="P"/>
<wire x1="68.58" y1="81.28" x2="68.58" y2="10.16" width="0.1524" layer="91"/>
<wire x1="93.98" y1="7.62" x2="101.6" y2="7.62" width="0.1524" layer="91"/>
<junction x="93.98" y="7.62"/>
<pinref part="K1" gate="1" pin="2"/>
<wire x1="86.36" y1="83.82" x2="86.36" y2="81.28" width="0.1524" layer="91"/>
<wire x1="86.36" y1="81.28" x2="68.58" y2="81.28" width="0.1524" layer="91"/>
</segment>
</net>
<net name="GND" class="0">
<segment>
<pinref part="GND1" gate="1" pin="GND"/>
<wire x1="0" y1="15.24" x2="10.16" y2="15.24" width="0.1524" layer="91"/>
<wire x1="10.16" y1="15.24" x2="81.28" y2="15.24" width="0.1524" layer="91"/>
<wire x1="81.28" y1="15.24" x2="81.28" y2="35.56" width="0.1524" layer="91"/>
<pinref part="IC1" gate="G$1" pin="GROUND/ADJUST"/>
<wire x1="81.28" y1="35.56" x2="86.36" y2="35.56" width="0.1524" layer="91"/>
<pinref part="U$1" gate="G$1" pin="GND"/>
<wire x1="15.24" y1="50.8" x2="10.16" y2="50.8" width="0.1524" layer="91"/>
<wire x1="10.16" y1="50.8" x2="10.16" y2="15.24" width="0.1524" layer="91"/>
<junction x="10.16" y="15.24"/>
<wire x1="10.16" y1="60.96" x2="10.16" y2="50.8" width="0.1524" layer="91"/>
<junction x="10.16" y="50.8"/>
<pinref part="GND" gate="1" pin="P"/>
<wire x1="10.16" y1="15.24" x2="7.62" y2="15.24" width="0.1524" layer="91"/>
<wire x1="7.62" y1="15.24" x2="7.62" y2="7.62" width="0.1524" layer="91"/>
<pinref part="IC2" gate="G$1" pin="VO"/>
<wire x1="20.32" y1="81.28" x2="20.32" y2="60.96" width="0.1524" layer="91"/>
<wire x1="20.32" y1="60.96" x2="10.16" y2="60.96" width="0.1524" layer="91"/>
</segment>
</net>
<net name="N$2" class="0">
<segment>
<pinref part="U$1" gate="G$1" pin="CH_PD"/>
<wire x1="48.26" y1="48.26" x2="50.8" y2="48.26" width="0.1524" layer="91"/>
<pinref part="U$1" gate="G$1" pin="VCC"/>
<wire x1="50.8" y1="48.26" x2="50.8" y2="43.18" width="0.1524" layer="91"/>
<wire x1="50.8" y1="43.18" x2="48.26" y2="43.18" width="0.1524" layer="91"/>
<pinref part="IC1" gate="G$1" pin="VOUT"/>
<wire x1="50.8" y1="43.18" x2="50.8" y2="33.02" width="0.1524" layer="91"/>
<wire x1="50.8" y1="33.02" x2="86.36" y2="33.02" width="0.1524" layer="91"/>
</segment>
</net>
<net name="N$1" class="0">
<segment>
<pinref part="U$1" gate="G$1" pin="GPIO2"/>
<wire x1="15.24" y1="48.26" x2="12.7" y2="48.26" width="0.1524" layer="91"/>
<wire x1="12.7" y1="48.26" x2="12.7" y2="63.5" width="0.1524" layer="91"/>
<pinref part="IC2" gate="G$1" pin="+VS"/>
<wire x1="0" y1="81.28" x2="0" y2="63.5" width="0.1524" layer="91"/>
<wire x1="0" y1="63.5" x2="12.7" y2="63.5" width="0.1524" layer="91"/>
</segment>
</net>
<net name="N$4" class="0">
<segment>
<pinref part="IÑ" gate="1" pin="P"/>
<wire x1="33.02" y1="71.12" x2="43.18" y2="71.12" width="0.1524" layer="91"/>
<wire x1="43.18" y1="71.12" x2="43.18" y2="73.66" width="0.1524" layer="91"/>
<wire x1="33.02" y1="71.12" x2="33.02" y2="66.04" width="0.1524" layer="91"/>
<wire x1="33.02" y1="66.04" x2="106.68" y2="66.04" width="0.1524" layer="91"/>
<pinref part="K1" gate="2" pin="P"/>
<wire x1="106.68" y1="66.04" x2="106.68" y2="86.36" width="0.1524" layer="91"/>
<wire x1="106.68" y1="86.36" x2="104.14" y2="86.36" width="0.1524" layer="91"/>
</segment>
</net>
<net name="N$3" class="0">
<segment>
<pinref part="IC2" gate="G$1" pin="GND"/>
<wire x1="10.16" y1="73.66" x2="22.86" y2="73.66" width="0.1524" layer="91"/>
<wire x1="22.86" y1="73.66" x2="22.86" y2="101.6" width="0.1524" layer="91"/>
<pinref part="K1" gate="1" pin="1"/>
<wire x1="22.86" y1="101.6" x2="86.36" y2="101.6" width="0.1524" layer="91"/>
<wire x1="86.36" y1="101.6" x2="86.36" y2="93.98" width="0.1524" layer="91"/>
</segment>
</net>
<net name="N$5" class="0">
<segment>
<pinref part="K1" gate="2" pin="S"/>
<wire x1="99.06" y1="93.98" x2="99.06" y2="99.06" width="0.1524" layer="91"/>
<pinref part="OUÑ" gate="1" pin="P"/>
<wire x1="99.06" y1="99.06" x2="124.46" y2="99.06" width="0.1524" layer="91"/>
<wire x1="124.46" y1="99.06" x2="124.46" y2="76.2" width="0.1524" layer="91"/>
</segment>
</net>
</nets>
</sheet>
</sheets>
</schematic>
</drawing>
<compatibility>
<note version="8.2" severity="warning">
Since Version 8.2, EAGLE supports online libraries. The ids
of those online libraries will not be understood (or retained)
with this version.
</note>
<note version="8.3" severity="warning">
Since Version 8.3, EAGLE supports URNs for individual library
assets (packages, symbols, and devices). The URNs of those assets
will not be understood (or retained) with this version.
</note>
<note version="8.3" severity="warning">
Since Version 8.3, EAGLE supports the association of 3D packages
with devices in libraries, schematics, and board files. Those 3D
packages will not be understood (or retained) with this version.
</note>
</compatibility>
</eagle>
