<?xml version="1.0" encoding="utf-8"?>
<!DOCTYPE eagle SYSTEM "eagle.dtd">
<eagle version="9.3.2">
<drawing>
<settings>
<setting alwaysvectorfont="no"/>
<setting verticaltext="up"/>
</settings>
<grid distance="0.1" unitdist="inch" unit="inch" style="lines" multiple="1" display="no" altdistance="0.01" altunitdist="inch" altunit="inch"/>
<layers>
<layer number="1" name="Top" color="4" fill="1" visible="no" active="no"/>
<layer number="16" name="Bottom" color="1" fill="1" visible="no" active="no"/>
<layer number="17" name="Pads" color="2" fill="1" visible="no" active="no"/>
<layer number="18" name="Vias" color="2" fill="1" visible="no" active="no"/>
<layer number="19" name="Unrouted" color="6" fill="1" visible="no" active="no"/>
<layer number="20" name="Dimension" color="15" fill="1" visible="no" active="no"/>
<layer number="21" name="tPlace" color="7" fill="1" visible="no" active="no"/>
<layer number="22" name="bPlace" color="7" fill="1" visible="no" active="no"/>
<layer number="23" name="tOrigins" color="15" fill="1" visible="no" active="no"/>
<layer number="24" name="bOrigins" color="15" fill="1" visible="no" active="no"/>
<layer number="25" name="tNames" color="7" fill="1" visible="no" active="no"/>
<layer number="26" name="bNames" color="7" fill="1" visible="no" active="no"/>
<layer number="27" name="tValues" color="7" fill="1" visible="no" active="no"/>
<layer number="28" name="bValues" color="7" fill="1" visible="no" active="no"/>
<layer number="29" name="tStop" color="7" fill="3" visible="no" active="no"/>
<layer number="30" name="bStop" color="7" fill="6" visible="no" active="no"/>
<layer number="31" name="tCream" color="7" fill="4" visible="no" active="no"/>
<layer number="32" name="bCream" color="7" fill="5" visible="no" active="no"/>
<layer number="33" name="tFinish" color="6" fill="3" visible="no" active="no"/>
<layer number="34" name="bFinish" color="6" fill="6" visible="no" active="no"/>
<layer number="35" name="tGlue" color="7" fill="4" visible="no" active="no"/>
<layer number="36" name="bGlue" color="7" fill="5" visible="no" active="no"/>
<layer number="37" name="tTest" color="7" fill="1" visible="no" active="no"/>
<layer number="38" name="bTest" color="7" fill="1" visible="no" active="no"/>
<layer number="39" name="tKeepout" color="4" fill="11" visible="no" active="no"/>
<layer number="40" name="bKeepout" color="1" fill="11" visible="no" active="no"/>
<layer number="41" name="tRestrict" color="4" fill="10" visible="no" active="no"/>
<layer number="42" name="bRestrict" color="1" fill="10" visible="no" active="no"/>
<layer number="43" name="vRestrict" color="2" fill="10" visible="no" active="no"/>
<layer number="44" name="Drills" color="7" fill="1" visible="no" active="no"/>
<layer number="45" name="Holes" color="7" fill="1" visible="no" active="no"/>
<layer number="46" name="Milling" color="3" fill="1" visible="no" active="no"/>
<layer number="47" name="Measures" color="7" fill="1" visible="no" active="no"/>
<layer number="48" name="Document" color="7" fill="1" visible="no" active="no"/>
<layer number="49" name="Reference" color="7" fill="1" visible="no" active="no"/>
<layer number="50" name="dxf" color="7" fill="1" visible="no" active="no"/>
<layer number="51" name="tDocu" color="7" fill="1" visible="no" active="no"/>
<layer number="52" name="bDocu" color="7" fill="1" visible="no" active="no"/>
<layer number="53" name="tGND_GNDA" color="7" fill="9" visible="no" active="no"/>
<layer number="54" name="bGND_GNDA" color="1" fill="9" visible="no" active="no"/>
<layer number="56" name="wert" color="7" fill="1" visible="no" active="no"/>
<layer number="57" name="tCAD" color="7" fill="1" visible="no" active="no"/>
<layer number="88" name="SimResults" color="9" fill="1" visible="yes" active="yes"/>
<layer number="89" name="SimProbes" color="9" fill="1" visible="yes" active="yes"/>
<layer number="90" name="Modules" color="5" fill="1" visible="yes" active="yes"/>
<layer number="91" name="Nets" color="2" fill="1" visible="yes" active="yes"/>
<layer number="92" name="Busses" color="1" fill="1" visible="yes" active="yes"/>
<layer number="93" name="Pins" color="2" fill="1" visible="no" active="yes"/>
<layer number="94" name="Symbols" color="4" fill="1" visible="yes" active="yes"/>
<layer number="95" name="Names" color="7" fill="1" visible="yes" active="yes"/>
<layer number="96" name="Values" color="7" fill="1" visible="yes" active="yes"/>
<layer number="97" name="Info" color="7" fill="1" visible="yes" active="yes"/>
<layer number="98" name="Guide" color="6" fill="1" visible="yes" active="yes"/>
<layer number="100" name="Muster" color="7" fill="1" visible="no" active="no"/>
<layer number="101" name="Patch_Top" color="12" fill="4" visible="yes" active="yes"/>
<layer number="102" name="Vscore" color="7" fill="1" visible="yes" active="yes"/>
<layer number="103" name="fp3" color="7" fill="1" visible="no" active="yes"/>
<layer number="104" name="Name" color="7" fill="1" visible="yes" active="yes"/>
<layer number="105" name="Beschreib" color="9" fill="1" visible="yes" active="yes"/>
<layer number="106" name="BGA-Top" color="4" fill="1" visible="yes" active="yes"/>
<layer number="107" name="BD-Top" color="5" fill="1" visible="yes" active="yes"/>
<layer number="108" name="fp8" color="7" fill="1" visible="no" active="yes"/>
<layer number="109" name="fp9" color="7" fill="1" visible="no" active="yes"/>
<layer number="110" name="fp0" color="7" fill="1" visible="no" active="yes"/>
<layer number="111" name="LPC17xx" color="7" fill="1" visible="yes" active="yes"/>
<layer number="112" name="tSilk" color="7" fill="1" visible="yes" active="yes"/>
<layer number="116" name="Patch_BOT" color="9" fill="4" visible="yes" active="yes"/>
<layer number="121" name="_tsilk" color="7" fill="1" visible="yes" active="yes"/>
<layer number="122" name="_bsilk" color="7" fill="1" visible="yes" active="yes"/>
<layer number="123" name="tTestmark" color="7" fill="1" visible="no" active="yes"/>
<layer number="124" name="bTestmark" color="7" fill="1" visible="no" active="yes"/>
<layer number="125" name="_tNames" color="7" fill="1" visible="yes" active="yes"/>
<layer number="126" name="_bNames" color="7" fill="1" visible="yes" active="yes"/>
<layer number="127" name="_tValues" color="7" fill="1" visible="yes" active="yes"/>
<layer number="128" name="_bValues" color="7" fill="1" visible="yes" active="yes"/>
<layer number="131" name="tAdjust" color="7" fill="1" visible="no" active="yes"/>
<layer number="132" name="bAdjust" color="7" fill="1" visible="no" active="yes"/>
<layer number="144" name="Drill_legend" color="7" fill="1" visible="yes" active="yes"/>
<layer number="150" name="Notes" color="7" fill="1" visible="no" active="yes"/>
<layer number="151" name="HeatSink" color="7" fill="1" visible="yes" active="yes"/>
<layer number="152" name="_bDocu" color="7" fill="1" visible="yes" active="yes"/>
<layer number="153" name="FabDoc1" color="6" fill="1" visible="no" active="no"/>
<layer number="154" name="FabDoc2" color="2" fill="1" visible="no" active="no"/>
<layer number="155" name="FabDoc3" color="7" fill="15" visible="no" active="no"/>
<layer number="199" name="Contour" color="7" fill="1" visible="yes" active="yes"/>
<layer number="200" name="200bmp" color="1" fill="10" visible="yes" active="yes"/>
<layer number="201" name="201bmp" color="2" fill="1" visible="no" active="no"/>
<layer number="202" name="202bmp" color="3" fill="1" visible="no" active="no"/>
<layer number="203" name="203bmp" color="4" fill="10" visible="yes" active="yes"/>
<layer number="204" name="204bmp" color="5" fill="10" visible="yes" active="yes"/>
<layer number="205" name="205bmp" color="6" fill="10" visible="yes" active="yes"/>
<layer number="206" name="206bmp" color="7" fill="10" visible="yes" active="yes"/>
<layer number="207" name="207bmp" color="8" fill="10" visible="yes" active="yes"/>
<layer number="208" name="208bmp" color="9" fill="10" visible="yes" active="yes"/>
<layer number="209" name="209bmp" color="7" fill="1" visible="no" active="yes"/>
<layer number="210" name="210bmp" color="7" fill="1" visible="no" active="yes"/>
<layer number="211" name="211bmp" color="7" fill="1" visible="yes" active="yes"/>
<layer number="212" name="212bmp" color="7" fill="1" visible="yes" active="yes"/>
<layer number="213" name="213bmp" color="7" fill="1" visible="yes" active="yes"/>
<layer number="214" name="214bmp" color="7" fill="1" visible="yes" active="yes"/>
<layer number="215" name="215bmp" color="7" fill="1" visible="yes" active="yes"/>
<layer number="216" name="216bmp" color="7" fill="1" visible="yes" active="yes"/>
<layer number="217" name="217bmp" color="18" fill="1" visible="no" active="no"/>
<layer number="218" name="218bmp" color="19" fill="1" visible="no" active="no"/>
<layer number="219" name="219bmp" color="20" fill="1" visible="no" active="no"/>
<layer number="220" name="220bmp" color="21" fill="1" visible="no" active="no"/>
<layer number="221" name="221bmp" color="22" fill="1" visible="no" active="no"/>
<layer number="222" name="222bmp" color="23" fill="1" visible="no" active="no"/>
<layer number="223" name="223bmp" color="24" fill="1" visible="no" active="no"/>
<layer number="224" name="224bmp" color="25" fill="1" visible="no" active="no"/>
<layer number="248" name="Housing" color="7" fill="1" visible="yes" active="yes"/>
<layer number="249" name="Edge" color="7" fill="1" visible="yes" active="yes"/>
<layer number="250" name="Descript" color="7" fill="1" visible="no" active="no"/>
<layer number="251" name="SMDround" color="7" fill="1" visible="no" active="no"/>
<layer number="254" name="cooling" color="7" fill="1" visible="yes" active="yes"/>
</layers>
<schematic xreflabel="%F%N/%S.%C%R" xrefpart="/%S.%C%R">
<libraries>
<library name="supply1" urn="urn:adsk.eagle:library:371">
<description>&lt;b&gt;Supply Symbols&lt;/b&gt;&lt;p&gt;
 GND, VCC, 0V, +5V, -5V, etc.&lt;p&gt;
 Please keep in mind, that these devices are necessary for the
 automatic wiring of the supply signals.&lt;p&gt;
 The pin name defined in the symbol is identical to the net which is to be wired automatically.&lt;p&gt;
 In this library the device names are the same as the pin names of the symbols, therefore the correct signal names appear next to the supply symbols in the schematic.&lt;p&gt;
 &lt;author&gt;Created by librarian@cadsoft.de&lt;/author&gt;</description>
<packages>
</packages>
<symbols>
<symbol name="GND" urn="urn:adsk.eagle:symbol:26925/1" library_version="1">
<wire x1="-1.905" y1="0" x2="1.905" y2="0" width="0.254" layer="94"/>
<text x="-2.54" y="-2.54" size="1.778" layer="96">&gt;VALUE</text>
<pin name="GND" x="0" y="2.54" visible="off" length="short" direction="sup" rot="R270"/>
</symbol>
<symbol name="VCC" urn="urn:adsk.eagle:symbol:26928/1" library_version="1">
<wire x1="1.27" y1="-1.905" x2="0" y2="0" width="0.254" layer="94"/>
<wire x1="0" y1="0" x2="-1.27" y2="-1.905" width="0.254" layer="94"/>
<text x="-2.54" y="-2.54" size="1.778" layer="96" rot="R90">&gt;VALUE</text>
<pin name="VCC" x="0" y="-2.54" visible="off" length="short" direction="sup" rot="R90"/>
</symbol>
</symbols>
<devicesets>
<deviceset name="GND" urn="urn:adsk.eagle:component:26954/1" prefix="GND" library_version="1">
<description>&lt;b&gt;SUPPLY SYMBOL&lt;/b&gt;</description>
<gates>
<gate name="1" symbol="GND" x="0" y="0"/>
</gates>
<devices>
<device name="">
<technologies>
<technology name=""/>
</technologies>
</device>
</devices>
</deviceset>
<deviceset name="VCC" urn="urn:adsk.eagle:component:26957/1" prefix="P+" library_version="1">
<description>&lt;b&gt;SUPPLY SYMBOL&lt;/b&gt;</description>
<gates>
<gate name="VCC" symbol="VCC" x="0" y="0"/>
</gates>
<devices>
<device name="">
<technologies>
<technology name=""/>
</technologies>
</device>
</devices>
</deviceset>
</devicesets>
</library>
<library name="wirepad" urn="urn:adsk.eagle:library:412">
<description>&lt;b&gt;Single Pads&lt;/b&gt;&lt;p&gt;
&lt;author&gt;Created by librarian@cadsoft.de&lt;/author&gt;</description>
<packages>
<package name="3,81/1,4" urn="urn:adsk.eagle:footprint:30817/1" library_version="1">
<description>&lt;b&gt;THROUGH-HOLE PAD&lt;/b&gt;</description>
<wire x1="1.905" y1="-1.27" x2="1.905" y2="-1.905" width="0.1524" layer="21"/>
<wire x1="1.905" y1="-1.905" x2="1.27" y2="-1.905" width="0.1524" layer="21"/>
<wire x1="-1.27" y1="-1.905" x2="-1.905" y2="-1.905" width="0.1524" layer="21"/>
<wire x1="-1.905" y1="-1.905" x2="-1.905" y2="-1.27" width="0.1524" layer="21"/>
<wire x1="-1.905" y1="1.27" x2="-1.905" y2="1.905" width="0.1524" layer="21"/>
<wire x1="-1.905" y1="1.905" x2="-1.27" y2="1.905" width="0.1524" layer="21"/>
<wire x1="1.27" y1="1.905" x2="1.905" y2="1.905" width="0.1524" layer="21"/>
<wire x1="1.905" y1="1.905" x2="1.905" y2="1.27" width="0.1524" layer="21"/>
<circle x="0" y="0" radius="1.27" width="0.1524" layer="51"/>
<pad name="1" x="0" y="0" drill="1.397" diameter="3.81" shape="octagon"/>
<text x="-1.905" y="2.286" size="1.27" layer="25" ratio="10">&gt;NAME</text>
<text x="0" y="1.2" size="0.0254" layer="27">&gt;VALUE</text>
</package>
</packages>
<packages3d>
<package3d name="3,81/1,4" urn="urn:adsk.eagle:package:30835/1" type="box" library_version="1">
<description>THROUGH-HOLE PAD</description>
<packageinstances>
<packageinstance name="3,81/1,4"/>
</packageinstances>
</package3d>
</packages3d>
<symbols>
<symbol name="PAD" urn="urn:adsk.eagle:symbol:30808/1" library_version="1">
<wire x1="-1.016" y1="1.016" x2="1.016" y2="-1.016" width="0.254" layer="94"/>
<wire x1="-1.016" y1="-1.016" x2="1.016" y2="1.016" width="0.254" layer="94"/>
<text x="-1.143" y="1.8542" size="1.778" layer="95">&gt;NAME</text>
<text x="-1.143" y="-3.302" size="1.778" layer="96">&gt;VALUE</text>
<pin name="P" x="2.54" y="0" visible="off" length="short" direction="pas" rot="R180"/>
</symbol>
</symbols>
<devicesets>
<deviceset name="3,81/1,4" urn="urn:adsk.eagle:component:30853/1" prefix="PAD" uservalue="yes" library_version="1">
<description>&lt;b&gt;THROUGH-HOLE PAD&lt;/b&gt;</description>
<gates>
<gate name="1" symbol="PAD" x="0" y="0"/>
</gates>
<devices>
<device name="" package="3,81/1,4">
<connects>
<connect gate="1" pin="P" pad="1"/>
</connects>
<package3dinstances>
<package3dinstance package3d_urn="urn:adsk.eagle:package:30835/1"/>
</package3dinstances>
<technologies>
<technology name=""/>
</technologies>
</device>
</devices>
</deviceset>
</devicesets>
</library>
<library name="led-lumiled" urn="urn:adsk.eagle:library:258">
<description>&lt;b&gt;LEDs&lt;/b&gt; Please read the Description in Devices and Packages&lt;p&gt;
http://www.lumileds.com&lt;p&gt;
&lt;author&gt;Created by librarian@cadsoft.de&lt;/author&gt;&lt;br&gt;</description>
<packages>
<package name="LUMILED" urn="urn:adsk.eagle:footprint:15627/1" library_version="2">
<description>&lt;b&gt;Lumileds Lighting. LUXEON®&lt;/b&gt; without cool pad&lt;p&gt;
Source: K2.pdf</description>
<wire x1="-3.575" y1="2.3375" x2="-2.3375" y2="3.575" width="0.2032" layer="21"/>
<wire x1="-2.3375" y1="3.575" x2="2.3375" y2="3.575" width="0.2032" layer="21"/>
<wire x1="3.575" y1="2.3375" x2="3.575" y2="-3.575" width="0.2032" layer="21"/>
<wire x1="3.575" y1="-3.575" x2="-2.3375" y2="-3.575" width="0.2032" layer="21"/>
<wire x1="-2.3375" y1="-3.575" x2="-2.5" y2="-3.4125" width="0.2032" layer="21"/>
<wire x1="-2.5" y1="-3.4125" x2="-3.4125" y2="-2.5" width="0.2032" layer="21" curve="167.43"/>
<wire x1="-3.4125" y1="-2.5" x2="-3.575" y2="-2.3375" width="0.2032" layer="21"/>
<wire x1="-3.575" y1="-2.3375" x2="-3.575" y2="2.3375" width="0.2032" layer="21"/>
<wire x1="2.3375" y1="3.575" x2="2.5" y2="3.4125" width="0.2032" layer="21"/>
<wire x1="2.5" y1="3.4125" x2="3.4125" y2="2.5" width="0.2032" layer="21" curve="167.43"/>
<wire x1="3.4125" y1="2.5" x2="3.575" y2="2.3375" width="0.2032" layer="21"/>
<wire x1="-1.725" y1="2.225" x2="-1.0625" y2="2.5625" width="0.2032" layer="21" curve="-255.45"/>
<wire x1="1.725" y1="-2.225" x2="1.0625" y2="-2.5625" width="0.2032" layer="21" curve="-255.45"/>
<circle x="0" y="0" radius="2.725" width="0.2032" layer="51"/>
<smd name="1NC" x="-5.2" y="1.15" dx="2.9" dy="1.7" layer="1"/>
<smd name="2+" x="-5.2" y="-1.15" dx="2.9" dy="1.7" layer="1"/>
<smd name="3NC" x="5.2" y="-1.15" dx="2.9" dy="1.7" layer="1" rot="R180"/>
<smd name="4-" x="5.2" y="1.15" dx="2.9" dy="1.7" layer="1" rot="R180"/>
<text x="-3.175" y="3.81" size="1.27" layer="25">&gt;NAME</text>
<text x="-3.175" y="-5.08" size="1.27" layer="27">&gt;VALUE</text>
<rectangle x1="-5.975" y1="0.575" x2="-3.625" y2="1.6" layer="51"/>
<rectangle x1="-5.975" y1="-1.6" x2="-3.625" y2="-0.575" layer="51"/>
<rectangle x1="3.625" y1="-1.6" x2="5.975" y2="-0.575" layer="51" rot="R180"/>
<rectangle x1="3.625" y1="0.575" x2="5.975" y2="1.6" layer="51" rot="R180"/>
<polygon width="0.4064" layer="29">
<vertex x="2.3383" y="1.35"/>
<vertex x="0" y="2.7"/>
<vertex x="-2.3383" y="1.35"/>
<vertex x="-2.3383" y="-1.35"/>
<vertex x="0" y="-2.7"/>
<vertex x="2.3383" y="-1.35"/>
</polygon>
<polygon width="0.4064" layer="31">
<vertex x="2.3383" y="1.35"/>
<vertex x="0" y="2.7"/>
<vertex x="-2.3383" y="1.35"/>
<vertex x="-2.3383" y="-1.35"/>
<vertex x="0" y="-2.7"/>
<vertex x="2.3383" y="-1.35"/>
</polygon>
</package>
<package name="LUMILED+" urn="urn:adsk.eagle:footprint:15628/1" library_version="2">
<description>&lt;b&gt;Lumileds Lighting. LUXEON®&lt;/b&gt; with cool pad&lt;p&gt;
Source: K2.pdf</description>
<wire x1="-3.575" y1="2.3375" x2="-2.3375" y2="3.575" width="0.2032" layer="21"/>
<wire x1="-2.3375" y1="3.575" x2="2.3375" y2="3.575" width="0.2032" layer="21"/>
<wire x1="3.575" y1="2.3375" x2="3.575" y2="-3.575" width="0.2032" layer="21"/>
<wire x1="3.575" y1="-3.575" x2="-2.3375" y2="-3.575" width="0.2032" layer="21"/>
<wire x1="-2.3375" y1="-3.575" x2="-2.5" y2="-3.4125" width="0.2032" layer="21"/>
<wire x1="-2.5" y1="-3.4125" x2="-3.4125" y2="-2.5" width="0.2032" layer="21" curve="167.43"/>
<wire x1="-3.4125" y1="-2.5" x2="-3.575" y2="-2.3375" width="0.2032" layer="21"/>
<wire x1="-3.575" y1="-2.3375" x2="-3.575" y2="2.3375" width="0.2032" layer="21"/>
<wire x1="2.3375" y1="3.575" x2="2.5" y2="3.4125" width="0.2032" layer="21"/>
<wire x1="2.5" y1="3.4125" x2="3.4125" y2="2.5" width="0.2032" layer="21" curve="167.43"/>
<wire x1="3.4125" y1="2.5" x2="3.575" y2="2.3375" width="0.2032" layer="21"/>
<wire x1="-1.725" y1="2.225" x2="-1.0625" y2="2.5625" width="0.2032" layer="21" curve="-255.45"/>
<wire x1="1.725" y1="-2.225" x2="1.0625" y2="-2.5625" width="0.2032" layer="21" curve="-255.45"/>
<circle x="0" y="0" radius="2.725" width="0.2032" layer="51"/>
<smd name="1NC" x="-5.2" y="1.15" dx="2.9" dy="1.7" layer="1"/>
<smd name="2+" x="-5.2" y="-1.15" dx="2.9" dy="1.7" layer="1"/>
<smd name="3NC" x="5.2" y="-1.15" dx="2.9" dy="1.7" layer="1" rot="R180"/>
<smd name="4-" x="5.2" y="1.15" dx="2.9" dy="1.7" layer="1" rot="R180"/>
<text x="-3.175" y="3.81" size="1.27" layer="25">&gt;NAME</text>
<text x="-3.175" y="-5.08" size="1.27" layer="27">&gt;VALUE</text>
<rectangle x1="-5.975" y1="0.575" x2="-3.625" y2="1.6" layer="51"/>
<rectangle x1="-5.975" y1="-1.6" x2="-3.625" y2="-0.575" layer="51"/>
<rectangle x1="3.625" y1="-1.6" x2="5.975" y2="-0.575" layer="51" rot="R180"/>
<rectangle x1="3.625" y1="0.575" x2="5.975" y2="1.6" layer="51" rot="R180"/>
<polygon width="0.4064" layer="1">
<vertex x="2.3383" y="1.35"/>
<vertex x="0" y="2.7"/>
<vertex x="-2.3383" y="1.35"/>
<vertex x="-2.3383" y="-1.35"/>
<vertex x="0" y="-2.7"/>
<vertex x="2.3383" y="-1.35"/>
</polygon>
<polygon width="0.4064" layer="29">
<vertex x="2.3383" y="1.35"/>
<vertex x="0" y="2.7"/>
<vertex x="-2.3383" y="1.35"/>
<vertex x="-2.3383" y="-1.35"/>
<vertex x="0" y="-2.7"/>
<vertex x="2.3383" y="-1.35"/>
</polygon>
<polygon width="0.4064" layer="31">
<vertex x="2.3383" y="1.35"/>
<vertex x="0" y="2.7"/>
<vertex x="-2.3383" y="1.35"/>
<vertex x="-2.3383" y="-1.35"/>
<vertex x="0" y="-2.7"/>
<vertex x="2.3383" y="-1.35"/>
</polygon>
</package>
</packages>
<packages3d>
<package3d name="LUMILED" urn="urn:adsk.eagle:package:15633/1" type="box" library_version="2">
<description>Lumileds Lighting. LUXEON® without cool pad
Source: K2.pdf</description>
<packageinstances>
<packageinstance name="LUMILED"/>
</packageinstances>
</package3d>
<package3d name="LUMILED+" urn="urn:adsk.eagle:package:15631/1" type="box" library_version="2">
<description>Lumileds Lighting. LUXEON® with cool pad
Source: K2.pdf</description>
<packageinstances>
<packageinstance name="LUMILED+"/>
</packageinstances>
</package3d>
</packages3d>
<symbols>
<symbol name="LED" urn="urn:adsk.eagle:symbol:15624/2" library_version="2">
<wire x1="1.27" y1="0" x2="0" y2="-2.54" width="0.254" layer="94"/>
<wire x1="0" y1="-2.54" x2="-1.27" y2="0" width="0.254" layer="94"/>
<wire x1="1.27" y1="-2.54" x2="0" y2="-2.54" width="0.254" layer="94"/>
<wire x1="0" y1="-2.54" x2="-1.27" y2="-2.54" width="0.254" layer="94"/>
<wire x1="1.27" y1="0" x2="0" y2="0" width="0.254" layer="94"/>
<wire x1="0" y1="0" x2="-1.27" y2="0" width="0.254" layer="94"/>
<wire x1="-2.032" y1="-0.762" x2="-3.429" y2="-2.159" width="0.1524" layer="94"/>
<wire x1="-1.905" y1="-1.905" x2="-3.302" y2="-3.302" width="0.1524" layer="94"/>
<text x="3.556" y="-4.572" size="1.778" layer="95" rot="R90">&gt;NAME</text>
<text x="5.715" y="-4.572" size="1.778" layer="96" rot="R90">&gt;VALUE</text>
<pin name="C" x="0" y="-5.08" visible="off" length="short" direction="pas" rot="R90"/>
<pin name="A" x="0" y="2.54" visible="off" length="short" direction="pas" rot="R270"/>
<polygon width="0.1524" layer="94">
<vertex x="-3.429" y="-2.159"/>
<vertex x="-3.048" y="-1.27"/>
<vertex x="-2.54" y="-1.778"/>
</polygon>
<polygon width="0.1524" layer="94">
<vertex x="-3.302" y="-3.302"/>
<vertex x="-2.921" y="-2.413"/>
<vertex x="-2.413" y="-2.921"/>
</polygon>
</symbol>
</symbols>
<devicesets>
<deviceset name="LED" urn="urn:adsk.eagle:component:15636/2" prefix="LED" library_version="2">
<description>&lt;b&gt;LED&lt;/b&gt;&lt;p&gt;
- &lt;u&gt;LUMILED®&lt;/u&gt;&lt;br&gt;
LXK2-PW12-R00, LXK2-PW12-S00, LXK2-PW14-U00, LXK2-PW14-V00&lt;br&gt;
LXK2-PM12-R00, LXK2-PM12-S00, LXK2-PM14-U00&lt;br&gt;
LXK2-PE12-Q00, LXK2-PE12-R00, LXK2-PE12-S00, LXK2-PE14-T00, LXK2-PE14-U00&lt;br&gt;
LXK2-PB12-K00, LXK2-PB12-L00, LXK2-PB12-M00, LXK2-PB14-N00, LXK2-PB14-P00, LXK2-PB14-Q00&lt;br&gt;
LXK2-PR12-L00, LXK2-PR12-M00, LXK2-PR14-Q00, LXK2-PR14-R00&lt;br&gt;
LXK2-PD12-Q00, LXK2-PD12-R00, LXK2-PD12-S00&lt;br&gt;
LXK2-PH12-R00, LXK2-PH12-S00&lt;br&gt;
LXK2-PL12-P00, LXK2-PL12-Q00, LXK2-PL12-R00&lt;br&gt;
&lt;p&gt;
Source: www.luxeon.com&lt;p&gt;</description>
<gates>
<gate name="G$1" symbol="LED" x="0" y="0"/>
</gates>
<devices>
<device name="LUMILED" package="LUMILED">
<connects>
<connect gate="G$1" pin="A" pad="2+"/>
<connect gate="G$1" pin="C" pad="4-"/>
</connects>
<package3dinstances>
<package3dinstance package3d_urn="urn:adsk.eagle:package:15633/1"/>
</package3dinstances>
<technologies>
<technology name="">
<attribute name="MF" value="" constant="no"/>
<attribute name="MPN" value="" constant="no"/>
<attribute name="OC_FARNELL" value="unknown" constant="no"/>
<attribute name="OC_NEWARK" value="unknown" constant="no"/>
</technology>
</technologies>
</device>
<device name="LUMILED+" package="LUMILED+">
<connects>
<connect gate="G$1" pin="A" pad="2+"/>
<connect gate="G$1" pin="C" pad="4-"/>
</connects>
<package3dinstances>
<package3dinstance package3d_urn="urn:adsk.eagle:package:15631/1"/>
</package3dinstances>
<technologies>
<technology name="">
<attribute name="MF" value="" constant="no"/>
<attribute name="MPN" value="" constant="no"/>
<attribute name="OC_FARNELL" value="unknown" constant="no"/>
<attribute name="OC_NEWARK" value="unknown" constant="no"/>
</technology>
</technologies>
</device>
</devices>
</deviceset>
</devicesets>
</library>
</libraries>
<attributes>
</attributes>
<variantdefs>
</variantdefs>
<classes>
<class number="0" name="default" width="0" drill="0">
</class>
</classes>
<parts>
<part name="GND1" library="supply1" library_urn="urn:adsk.eagle:library:371" deviceset="GND" device=""/>
<part name="P+1" library="supply1" library_urn="urn:adsk.eagle:library:371" deviceset="VCC" device=""/>
<part name="GND" library="wirepad" library_urn="urn:adsk.eagle:library:412" deviceset="3,81/1,4" device="" package3d_urn="urn:adsk.eagle:package:30835/1"/>
<part name="VCC" library="wirepad" library_urn="urn:adsk.eagle:library:412" deviceset="3,81/1,4" device="" package3d_urn="urn:adsk.eagle:package:30835/1"/>
<part name="LED3" library="led-lumiled" library_urn="urn:adsk.eagle:library:258" deviceset="LED" device="LUMILED" package3d_urn="urn:adsk.eagle:package:15633/1"/>
<part name="LED1" library="led-lumiled" library_urn="urn:adsk.eagle:library:258" deviceset="LED" device="LUMILED" package3d_urn="urn:adsk.eagle:package:15633/1"/>
<part name="LED5" library="led-lumiled" library_urn="urn:adsk.eagle:library:258" deviceset="LED" device="LUMILED" package3d_urn="urn:adsk.eagle:package:15633/1"/>
<part name="LED6" library="led-lumiled" library_urn="urn:adsk.eagle:library:258" deviceset="LED" device="LUMILED" package3d_urn="urn:adsk.eagle:package:15633/1"/>
</parts>
<sheets>
<sheet>
<plain>
</plain>
<instances>
<instance part="GND1" gate="1" x="0" y="12.7" smashed="yes">
<attribute name="VALUE" x="-2.54" y="10.16" size="1.778" layer="96"/>
</instance>
<instance part="P+1" gate="VCC" x="93.98" y="10.16" smashed="yes">
<attribute name="VALUE" x="91.44" y="7.62" size="1.778" layer="96" rot="R90"/>
</instance>
<instance part="GND" gate="1" x="5.08" y="7.62" smashed="yes">
<attribute name="NAME" x="3.937" y="9.4742" size="1.778" layer="95"/>
<attribute name="VALUE" x="3.937" y="4.318" size="1.778" layer="96"/>
</instance>
<instance part="VCC" gate="1" x="99.06" y="7.62" smashed="yes">
<attribute name="NAME" x="97.917" y="9.4742" size="1.778" layer="95"/>
<attribute name="VALUE" x="97.917" y="4.318" size="1.778" layer="96"/>
</instance>
<instance part="LED3" gate="G$1" x="22.86" y="60.96" smashed="yes">
<attribute name="NAME" x="26.416" y="56.388" size="1.778" layer="95" rot="R90"/>
<attribute name="VALUE" x="28.575" y="56.388" size="1.778" layer="96" rot="R90"/>
</instance>
<instance part="LED1" gate="G$1" x="40.64" y="58.42" smashed="yes">
<attribute name="NAME" x="44.196" y="53.848" size="1.778" layer="95" rot="R90"/>
<attribute name="VALUE" x="46.355" y="53.848" size="1.778" layer="96" rot="R90"/>
</instance>
<instance part="LED5" gate="G$1" x="-7.62" y="58.42" smashed="yes">
<attribute name="NAME" x="-4.064" y="53.848" size="1.778" layer="95" rot="R90"/>
<attribute name="VALUE" x="-1.905" y="53.848" size="1.778" layer="96" rot="R90"/>
</instance>
<instance part="LED6" gate="G$1" x="-20.32" y="55.88" smashed="yes">
<attribute name="NAME" x="-16.764" y="51.308" size="1.778" layer="95" rot="R90"/>
<attribute name="VALUE" x="-14.605" y="51.308" size="1.778" layer="96" rot="R90"/>
</instance>
</instances>
<busses>
</busses>
<nets>
<net name="VCC" class="0">
<segment>
<pinref part="P+1" gate="VCC" pin="VCC"/>
<wire x1="83.82" y1="7.62" x2="93.98" y2="7.62" width="0.1524" layer="91"/>
<pinref part="VCC" gate="1" pin="P"/>
<wire x1="93.98" y1="7.62" x2="101.6" y2="7.62" width="0.1524" layer="91"/>
<junction x="93.98" y="7.62"/>
<pinref part="LED6" gate="G$1" pin="A"/>
<pinref part="LED5" gate="G$1" pin="A"/>
<wire x1="-20.32" y1="58.42" x2="-7.62" y2="60.96" width="0.1524" layer="91"/>
<wire x1="-7.62" y1="60.96" x2="10.16" y2="60.96" width="0.1524" layer="91"/>
<junction x="-7.62" y="60.96"/>
<pinref part="LED3" gate="G$1" pin="A"/>
<wire x1="10.16" y1="60.96" x2="22.86" y2="63.5" width="0.1524" layer="91"/>
<pinref part="LED1" gate="G$1" pin="A"/>
<wire x1="22.86" y1="63.5" x2="40.64" y2="60.96" width="0.1524" layer="91"/>
<junction x="22.86" y="63.5"/>
<wire x1="40.64" y1="60.96" x2="83.82" y2="7.62" width="0.1524" layer="91"/>
<junction x="40.64" y="60.96"/>
</segment>
</net>
<net name="GND" class="0">
<segment>
<pinref part="GND1" gate="1" pin="GND"/>
<wire x1="0" y1="15.24" x2="7.62" y2="15.24" width="0.1524" layer="91"/>
<pinref part="GND" gate="1" pin="P"/>
<wire x1="10.16" y1="15.24" x2="7.62" y2="15.24" width="0.1524" layer="91"/>
<wire x1="7.62" y1="15.24" x2="7.62" y2="7.62" width="0.1524" layer="91"/>
<pinref part="LED6" gate="G$1" pin="C"/>
<pinref part="LED5" gate="G$1" pin="C"/>
<wire x1="-20.32" y1="50.8" x2="-7.62" y2="53.34" width="0.1524" layer="91"/>
<wire x1="-7.62" y1="53.34" x2="10.16" y2="53.34" width="0.1524" layer="91"/>
<junction x="-7.62" y="53.34"/>
<pinref part="LED3" gate="G$1" pin="C"/>
<wire x1="10.16" y1="53.34" x2="22.86" y2="55.88" width="0.1524" layer="91"/>
<pinref part="LED1" gate="G$1" pin="C"/>
<wire x1="22.86" y1="55.88" x2="40.64" y2="53.34" width="0.1524" layer="91"/>
<junction x="22.86" y="55.88"/>
<wire x1="-20.32" y1="50.8" x2="0" y2="15.24" width="0.1524" layer="91"/>
<junction x="-20.32" y="50.8"/>
<junction x="0" y="15.24"/>
</segment>
</net>
</nets>
</sheet>
</sheets>
</schematic>
</drawing>
<compatibility>
<note version="8.2" severity="warning">
Since Version 8.2, EAGLE supports online libraries. The ids
of those online libraries will not be understood (or retained)
with this version.
</note>
<note version="8.3" severity="warning">
Since Version 8.3, EAGLE supports URNs for individual library
assets (packages, symbols, and devices). The URNs of those assets
will not be understood (or retained) with this version.
</note>
<note version="8.3" severity="warning">
Since Version 8.3, EAGLE supports the association of 3D packages
with devices in libraries, schematics, and board files. Those 3D
packages will not be understood (or retained) with this version.
</note>
</compatibility>
</eagle>
