<?xml version="1.0" encoding="utf-8"?>
<!DOCTYPE eagle SYSTEM "eagle.dtd">
<eagle version="9.6.2">
<drawing>
<settings>
<setting alwaysvectorfont="no"/>
<setting verticaltext="up"/>
</settings>
<grid distance="0.5" unitdist="mm" unit="mm" style="lines" multiple="1" display="yes" altdistance="1" altunitdist="mm" altunit="mm"/>
<layers>
<layer number="1" name="Top" color="4" fill="1" visible="yes" active="yes"/>
<layer number="2" name="Route2" color="16" fill="1" visible="no" active="no"/>
<layer number="3" name="Route3" color="17" fill="1" visible="no" active="no"/>
<layer number="4" name="Route4" color="18" fill="1" visible="no" active="no"/>
<layer number="5" name="Route5" color="19" fill="1" visible="no" active="no"/>
<layer number="6" name="Route6" color="25" fill="1" visible="no" active="no"/>
<layer number="7" name="Route7" color="26" fill="1" visible="no" active="no"/>
<layer number="8" name="Route8" color="27" fill="1" visible="no" active="no"/>
<layer number="9" name="Route9" color="28" fill="1" visible="no" active="no"/>
<layer number="10" name="Route10" color="29" fill="1" visible="no" active="no"/>
<layer number="11" name="Route11" color="30" fill="1" visible="no" active="no"/>
<layer number="12" name="Route12" color="20" fill="1" visible="no" active="no"/>
<layer number="13" name="Route13" color="21" fill="1" visible="no" active="no"/>
<layer number="14" name="Route14" color="22" fill="1" visible="no" active="no"/>
<layer number="15" name="Route15" color="23" fill="1" visible="no" active="no"/>
<layer number="16" name="Bottom" color="1" fill="1" visible="yes" active="yes"/>
<layer number="17" name="Pads" color="2" fill="1" visible="yes" active="yes"/>
<layer number="18" name="Vias" color="2" fill="1" visible="yes" active="yes"/>
<layer number="19" name="Unrouted" color="6" fill="1" visible="yes" active="yes"/>
<layer number="20" name="Dimension" color="24" fill="1" visible="yes" active="yes"/>
<layer number="21" name="tPlace" color="7" fill="1" visible="yes" active="yes"/>
<layer number="22" name="bPlace" color="7" fill="1" visible="yes" active="yes"/>
<layer number="23" name="tOrigins" color="15" fill="1" visible="yes" active="yes"/>
<layer number="24" name="bOrigins" color="15" fill="1" visible="yes" active="yes"/>
<layer number="25" name="tNames" color="7" fill="1" visible="yes" active="yes"/>
<layer number="26" name="bNames" color="7" fill="1" visible="yes" active="yes"/>
<layer number="27" name="tValues" color="7" fill="1" visible="yes" active="yes"/>
<layer number="28" name="bValues" color="7" fill="1" visible="yes" active="yes"/>
<layer number="29" name="tStop" color="7" fill="3" visible="no" active="yes"/>
<layer number="30" name="bStop" color="7" fill="6" visible="no" active="yes"/>
<layer number="31" name="tCream" color="7" fill="4" visible="no" active="yes"/>
<layer number="32" name="bCream" color="7" fill="5" visible="no" active="yes"/>
<layer number="33" name="tFinish" color="6" fill="3" visible="no" active="yes"/>
<layer number="34" name="bFinish" color="6" fill="6" visible="no" active="yes"/>
<layer number="35" name="tGlue" color="7" fill="4" visible="no" active="yes"/>
<layer number="36" name="bGlue" color="7" fill="5" visible="no" active="yes"/>
<layer number="37" name="tTest" color="7" fill="1" visible="no" active="yes"/>
<layer number="38" name="bTest" color="7" fill="1" visible="no" active="yes"/>
<layer number="39" name="tKeepout" color="4" fill="11" visible="yes" active="yes"/>
<layer number="40" name="bKeepout" color="1" fill="11" visible="yes" active="yes"/>
<layer number="41" name="tRestrict" color="4" fill="10" visible="yes" active="yes"/>
<layer number="42" name="bRestrict" color="1" fill="10" visible="yes" active="yes"/>
<layer number="43" name="vRestrict" color="2" fill="10" visible="yes" active="yes"/>
<layer number="44" name="Drills" color="7" fill="1" visible="no" active="yes"/>
<layer number="45" name="Holes" color="7" fill="1" visible="no" active="yes"/>
<layer number="46" name="Milling" color="3" fill="1" visible="no" active="yes"/>
<layer number="47" name="Measures" color="7" fill="1" visible="no" active="yes"/>
<layer number="48" name="Document" color="7" fill="1" visible="yes" active="yes"/>
<layer number="49" name="Reference" color="7" fill="1" visible="yes" active="yes"/>
<layer number="50" name="dxf" color="7" fill="1" visible="no" active="no"/>
<layer number="51" name="tDocu" color="7" fill="1" visible="yes" active="yes"/>
<layer number="52" name="bDocu" color="7" fill="1" visible="yes" active="yes"/>
<layer number="53" name="tGND_GNDA" color="7" fill="9" visible="no" active="no"/>
<layer number="54" name="bGND_GNDA" color="1" fill="9" visible="no" active="no"/>
<layer number="56" name="wert" color="7" fill="1" visible="yes" active="yes"/>
<layer number="57" name="tCAD" color="7" fill="1" visible="no" active="no"/>
<layer number="59" name="tCarbon" color="7" fill="1" visible="no" active="no"/>
<layer number="60" name="bCarbon" color="7" fill="1" visible="no" active="no"/>
<layer number="88" name="SimResults" color="9" fill="1" visible="no" active="no"/>
<layer number="89" name="SimProbes" color="9" fill="1" visible="no" active="no"/>
<layer number="90" name="Modules" color="5" fill="1" visible="no" active="no"/>
<layer number="91" name="Nets" color="2" fill="1" visible="no" active="no"/>
<layer number="92" name="Busses" color="1" fill="1" visible="no" active="no"/>
<layer number="93" name="Pins" color="2" fill="1" visible="no" active="no"/>
<layer number="94" name="Symbols" color="4" fill="1" visible="no" active="no"/>
<layer number="95" name="Names" color="7" fill="1" visible="no" active="no"/>
<layer number="96" name="Values" color="7" fill="1" visible="no" active="no"/>
<layer number="97" name="Info" color="7" fill="1" visible="no" active="no"/>
<layer number="98" name="Guide" color="6" fill="1" visible="no" active="no"/>
<layer number="99" name="SpiceOrder" color="7" fill="1" visible="no" active="no"/>
<layer number="100" name="help" color="7" fill="1" visible="yes" active="yes"/>
<layer number="101" name="DOC" color="7" fill="1" visible="yes" active="yes"/>
<layer number="102" name="bot_pads" color="7" fill="1" visible="yes" active="yes"/>
<layer number="103" name="fp3" color="7" fill="1" visible="no" active="yes"/>
<layer number="104" name="S_DOKU" color="7" fill="1" visible="yes" active="yes"/>
<layer number="105" name="Beschreib" color="9" fill="1" visible="yes" active="yes"/>
<layer number="106" name="BGA-Top" color="4" fill="1" visible="yes" active="yes"/>
<layer number="107" name="BD-Top" color="5" fill="1" visible="yes" active="yes"/>
<layer number="108" name="fp8" color="7" fill="1" visible="no" active="yes"/>
<layer number="109" name="fp9" color="7" fill="1" visible="no" active="yes"/>
<layer number="110" name="fp0" color="7" fill="1" visible="no" active="yes"/>
<layer number="111" name="LPC17xx" color="7" fill="1" visible="yes" active="yes"/>
<layer number="112" name="tSilk" color="7" fill="1" visible="yes" active="yes"/>
<layer number="113" name="IDFDebug" color="4" fill="1" visible="no" active="no"/>
<layer number="116" name="Patch_BOT" color="7" fill="1" visible="yes" active="yes"/>
<layer number="118" name="Rect_Pads" color="7" fill="1" visible="no" active="no"/>
<layer number="121" name="_tsilk" color="7" fill="1" visible="yes" active="yes"/>
<layer number="122" name="_bsilk" color="7" fill="1" visible="yes" active="yes"/>
<layer number="123" name="tTestmark" color="7" fill="1" visible="no" active="yes"/>
<layer number="124" name="bTestmark" color="7" fill="1" visible="no" active="yes"/>
<layer number="125" name="_tNames" color="7" fill="1" visible="yes" active="yes"/>
<layer number="126" name="_bNames" color="7" fill="1" visible="yes" active="yes"/>
<layer number="127" name="_tValues" color="7" fill="1" visible="yes" active="yes"/>
<layer number="128" name="_bValues" color="7" fill="1" visible="yes" active="yes"/>
<layer number="129" name="Mask" color="7" fill="1" visible="no" active="no"/>
<layer number="131" name="tAdjust" color="7" fill="1" visible="no" active="yes"/>
<layer number="132" name="bAdjust" color="7" fill="1" visible="no" active="yes"/>
<layer number="144" name="Drill_legend" color="7" fill="1" visible="yes" active="yes"/>
<layer number="150" name="Notes" color="7" fill="1" visible="no" active="yes"/>
<layer number="151" name="HeatSink" color="7" fill="1" visible="yes" active="yes"/>
<layer number="152" name="_bDocu" color="7" fill="1" visible="yes" active="yes"/>
<layer number="153" name="FabDoc1" color="6" fill="1" visible="no" active="no"/>
<layer number="154" name="FabDoc2" color="2" fill="1" visible="no" active="no"/>
<layer number="155" name="FabDoc3" color="7" fill="15" visible="no" active="no"/>
<layer number="199" name="Contour" color="7" fill="1" visible="yes" active="yes"/>
<layer number="200" name="200bmp" color="1" fill="10" visible="yes" active="yes"/>
<layer number="201" name="201bmp" color="2" fill="10" visible="yes" active="yes"/>
<layer number="202" name="202bmp" color="3" fill="1" visible="no" active="no"/>
<layer number="203" name="203bmp" color="4" fill="10" visible="yes" active="yes"/>
<layer number="204" name="204bmp" color="5" fill="10" visible="yes" active="yes"/>
<layer number="205" name="205bmp" color="6" fill="10" visible="yes" active="yes"/>
<layer number="206" name="206bmp" color="7" fill="10" visible="yes" active="yes"/>
<layer number="207" name="207bmp" color="8" fill="10" visible="yes" active="yes"/>
<layer number="208" name="208bmp" color="9" fill="10" visible="yes" active="yes"/>
<layer number="209" name="209bmp" color="7" fill="1" visible="no" active="yes"/>
<layer number="210" name="210bmp" color="7" fill="1" visible="no" active="yes"/>
<layer number="211" name="211bmp" color="7" fill="1" visible="yes" active="yes"/>
<layer number="212" name="212bmp" color="7" fill="1" visible="yes" active="yes"/>
<layer number="213" name="213bmp" color="7" fill="1" visible="yes" active="yes"/>
<layer number="214" name="214bmp" color="7" fill="1" visible="yes" active="yes"/>
<layer number="215" name="215bmp" color="7" fill="1" visible="yes" active="yes"/>
<layer number="216" name="216bmp" color="7" fill="1" visible="yes" active="yes"/>
<layer number="217" name="217bmp" color="18" fill="1" visible="no" active="no"/>
<layer number="218" name="218bmp" color="19" fill="1" visible="no" active="no"/>
<layer number="219" name="219bmp" color="20" fill="1" visible="no" active="no"/>
<layer number="220" name="220bmp" color="21" fill="1" visible="no" active="no"/>
<layer number="221" name="221bmp" color="22" fill="1" visible="no" active="no"/>
<layer number="222" name="222bmp" color="23" fill="1" visible="no" active="no"/>
<layer number="223" name="223bmp" color="24" fill="1" visible="no" active="no"/>
<layer number="224" name="224bmp" color="25" fill="1" visible="no" active="no"/>
<layer number="225" name="225bmp" color="7" fill="1" visible="no" active="no"/>
<layer number="226" name="226bmp" color="7" fill="1" visible="no" active="no"/>
<layer number="227" name="227bmp" color="7" fill="1" visible="no" active="no"/>
<layer number="228" name="228bmp" color="7" fill="1" visible="no" active="no"/>
<layer number="229" name="229bmp" color="7" fill="1" visible="no" active="no"/>
<layer number="230" name="230bmp" color="7" fill="1" visible="no" active="no"/>
<layer number="231" name="231bmp" color="7" fill="1" visible="no" active="no"/>
<layer number="248" name="Housing" color="7" fill="1" visible="yes" active="yes"/>
<layer number="249" name="Edge" color="7" fill="1" visible="yes" active="yes"/>
<layer number="250" name="Descript" color="3" fill="1" visible="no" active="no"/>
<layer number="251" name="SMDround" color="12" fill="11" visible="no" active="no"/>
<layer number="254" name="OrgLBR" color="7" fill="1" visible="yes" active="yes"/>
<layer number="255" name="routoute" color="7" fill="1" visible="no" active="no"/>
</layers>
<board>
<fusionsync huburn="a.cGVyc29uYWw6dWUyOWMxYjYw" projecturn="a.cGVyc29uYWw6dWUyOWMxYjYwIzIwMTgxMjI4MTY3NDk0NDUx" f3durn="urn:adsk.wipprod:dm.lineage:4A2_SiWqRFKUOxwjfebPzA" pcbguid="" lastpulledtime="" lastsyncedchangeguid="" latestrevisionid="1d50f013-6ef5-4892-91c4-fca6acdf2be7" lastsyncedrevisionid="1d50f013-6ef5-4892-91c4-fca6acdf2be7" lastboardhashguid="0610ddb7-1d89-2974-8135-08d70d48c47b" lastpushedtime="2023-09-01T15:25:24Z" linktopcb3d="true"/>
<plain>
<wire x1="0.5" y1="22" x2="0.5" y2="25" width="0.1524" layer="20"/>
<wire x1="0.5" y1="22" x2="17.5" y2="22" width="0.1524" layer="20"/>
<wire x1="17.5" y1="22" x2="17.5" y2="26" width="0.1524" layer="20"/>
<wire x1="17.5" y1="26" x2="0.5" y2="25" width="0.1524" layer="20" curve="-298.351701"/>
</plain>
<libraries>
<library name="relay" urn="urn:adsk.eagle:library:339">
<description>&lt;b&gt;Relays&lt;/b&gt;&lt;p&gt;
&lt;ul&gt;
&lt;li&gt;Eichhoff
&lt;li&gt;Finder
&lt;li&gt;Fujitsu
&lt;li&gt;HAMLIN
&lt;li&gt;OMRON
&lt;li&gt;Matsushita
&lt;li&gt;NAiS
&lt;li&gt;Siemens
&lt;li&gt;Schrack
&lt;/ul&gt;
&lt;author&gt;Created by librarian@cadsoft.de&lt;/author&gt;</description>
<packages>
<package name="G6K-2F-Y" urn="urn:adsk.eagle:footprint:24016/1" library_version="5">
<description>&lt;b&gt;Low Signal Relay&lt;/b&gt;&lt;p&gt;
oeiwcsnts1.omron.com/.. D20G6K0100.pdf</description>
<wire x1="-5" y1="3.3" x2="-4.5" y2="3.3" width="0.254" layer="21"/>
<wire x1="-4.5" y1="3.3" x2="-3.1" y2="3.3" width="0.254" layer="51"/>
<wire x1="-3.1" y1="3.3" x2="-1.3" y2="3.3" width="0.254" layer="21"/>
<wire x1="-1.3" y1="3.3" x2="0.1" y2="3.3" width="0.254" layer="51"/>
<wire x1="0.1" y1="3.3" x2="0.9" y2="3.3" width="0.254" layer="21"/>
<wire x1="0.9" y1="3.3" x2="2.3" y2="3.3" width="0.254" layer="51"/>
<wire x1="2.3" y1="3.3" x2="3.1" y2="3.3" width="0.254" layer="21"/>
<wire x1="3.1" y1="3.3" x2="4.6" y2="3.3" width="0.254" layer="51"/>
<wire x1="5" y1="3.3" x2="5" y2="-3.3" width="0.254" layer="21"/>
<wire x1="5" y1="-3.3" x2="4.6" y2="-3.3" width="0.254" layer="21"/>
<wire x1="4.6" y1="-3.3" x2="3.1" y2="-3.3" width="0.254" layer="51"/>
<wire x1="3.1" y1="-3.3" x2="2.3" y2="-3.3" width="0.254" layer="21"/>
<wire x1="2.3" y1="-3.3" x2="0.9" y2="-3.3" width="0.254" layer="51"/>
<wire x1="0.9" y1="-3.3" x2="0.1" y2="-3.3" width="0.254" layer="21"/>
<wire x1="0.1" y1="-3.3" x2="-1.3" y2="-3.3" width="0.254" layer="51"/>
<wire x1="-1.3" y1="-3.3" x2="-3" y2="-3.3" width="0.254" layer="21"/>
<wire x1="-3" y1="-3.3" x2="-4.5" y2="-3.3" width="0.254" layer="51"/>
<wire x1="-5" y1="-3.3" x2="-5" y2="3.3" width="0.254" layer="21"/>
<wire x1="-5" y1="-3.3" x2="-4.5" y2="-3.3" width="0.254" layer="21"/>
<wire x1="5" y1="3.3" x2="4.6" y2="3.3" width="0.254" layer="21"/>
<smd name="1" x="-3.8" y="-3.5" dx="1.2" dy="1.8" layer="1"/>
<smd name="8" x="-3.8" y="3.5" dx="1.2" dy="1.8" layer="1"/>
<smd name="2" x="-0.6" y="-3.5" dx="1.2" dy="1.8" layer="1"/>
<smd name="7" x="-0.6" y="3.5" dx="1.2" dy="1.8" layer="1"/>
<smd name="3" x="1.6" y="-3.5" dx="1.2" dy="1.8" layer="1"/>
<smd name="6" x="1.6" y="3.5" dx="1.2" dy="1.8" layer="1"/>
<smd name="4" x="3.8" y="-3.5" dx="1.2" dy="1.8" layer="1"/>
<smd name="5" x="3.8" y="3.5" dx="1.2" dy="1.8" layer="1"/>
<text x="-3.81" y="0.635" size="1.27" layer="25">&gt;NAME</text>
<text x="-3.81" y="-1.905" size="1.27" layer="27">&gt;VALUE</text>
<rectangle x1="-4.05" y1="-3.9" x2="-3.55" y2="-3.4" layer="51"/>
<rectangle x1="-0.85" y1="-3.9" x2="-0.35" y2="-3.4" layer="51"/>
<rectangle x1="1.35" y1="-3.9" x2="1.85" y2="-3.4" layer="51"/>
<rectangle x1="3.55" y1="-3.9" x2="4.05" y2="-3.4" layer="51"/>
<rectangle x1="3.55" y1="3.4" x2="4.05" y2="3.9" layer="51"/>
<rectangle x1="1.35" y1="3.4" x2="1.85" y2="3.9" layer="51"/>
<rectangle x1="-0.85" y1="3.4" x2="-0.35" y2="3.9" layer="51"/>
<rectangle x1="-4.05" y1="3.4" x2="-3.55" y2="3.9" layer="51"/>
</package>
</packages>
<packages3d>
<package3d name="G6K-2F-Y" urn="urn:adsk.eagle:package:24351/1" type="box" library_version="5">
<description>Low Signal Relay
oeiwcsnts1.omron.com/.. D20G6K0100.pdf</description>
<packageinstances>
<packageinstance name="G6K-2F-Y"/>
</packageinstances>
</package3d>
</packages3d>
</library>
<library name="ESP32-C3-MINI-1-N4">
<packages>
<package name="XCVR_ESP32-C3-MINI-1-N4">
<wire x1="-6.6" y1="8.3" x2="6.6" y2="8.3" width="0.127" layer="51"/>
<wire x1="6.6" y1="8.3" x2="6.6" y2="2.9" width="0.127" layer="51"/>
<wire x1="6.6" y1="2.9" x2="6.6" y2="-8.3" width="0.127" layer="51"/>
<wire x1="6.6" y1="-8.3" x2="-6.6" y2="-8.3" width="0.127" layer="51"/>
<wire x1="-6.6" y1="-8.3" x2="-6.6" y2="2.9" width="0.127" layer="51"/>
<polygon width="0.01" layer="1">
<vertex x="-1.25" y="-1.45"/>
<vertex x="-2.7" y="-1.45"/>
<vertex x="-2.7" y="-0.6"/>
<vertex x="-2.1" y="0"/>
<vertex x="-1.25" y="0"/>
</polygon>
<polygon width="0.01" layer="29">
<vertex x="-1.15" y="-1.55"/>
<vertex x="-2.8" y="-1.55"/>
<vertex x="-2.8" y="-0.56"/>
<vertex x="-2.14" y="0.1"/>
<vertex x="-1.15" y="0.1"/>
</polygon>
<polygon width="0.01" layer="31">
<vertex x="-1.25" y="-1.45"/>
<vertex x="-2.7" y="-1.45"/>
<vertex x="-2.7" y="-0.6"/>
<vertex x="-2.1" y="0"/>
<vertex x="-1.25" y="0"/>
</polygon>
<rectangle x1="-6.6" y1="2.9" x2="6.6" y2="8.3" layer="41"/>
<rectangle x1="-6.6" y1="2.9" x2="6.6" y2="8.3" layer="42"/>
<rectangle x1="-6.6" y1="2.9" x2="6.6" y2="8.3" layer="43"/>
<wire x1="-6.6" y1="2.9" x2="-6.6" y2="8.3" width="0.127" layer="51"/>
<wire x1="6.6" y1="8.3" x2="6.6" y2="2.92" width="0.127" layer="21"/>
<wire x1="-6.6" y1="2.92" x2="-6.6" y2="8.3" width="0.127" layer="21"/>
<wire x1="-6.6" y1="8.3" x2="6.6" y2="8.3" width="0.127" layer="21"/>
<wire x1="-6.85" y1="8.55" x2="-6.85" y2="-8.55" width="0.05" layer="39"/>
<wire x1="-6.85" y1="-8.55" x2="6.85" y2="-8.55" width="0.05" layer="39"/>
<wire x1="6.85" y1="-8.55" x2="6.85" y2="8.55" width="0.05" layer="39"/>
<wire x1="6.85" y1="8.55" x2="-6.85" y2="8.55" width="0.05" layer="39"/>
<circle x="-7.25" y="1.3" radius="0.1" width="0.2" layer="21"/>
<circle x="-7.25" y="1.3" radius="0.1" width="0.2" layer="51"/>
<text x="-6.85" y="9" size="1.27" layer="25">&gt;NAME</text>
<text x="-6.85" y="-9" size="1.27" layer="27" align="top-left">&gt;VALUE</text>
<wire x1="-6.6" y1="2.9" x2="6.6" y2="2.9" width="0.127" layer="51"/>
<smd name="1" x="-5.9" y="1.3" dx="0.8" dy="0.4" layer="1"/>
<smd name="2" x="-5.9" y="0.5" dx="0.8" dy="0.4" layer="1"/>
<smd name="3" x="-5.9" y="-0.3" dx="0.8" dy="0.4" layer="1"/>
<smd name="4" x="-5.9" y="-1.1" dx="0.8" dy="0.4" layer="1"/>
<smd name="5" x="-5.9" y="-1.9" dx="0.8" dy="0.4" layer="1"/>
<smd name="6" x="-5.9" y="-2.7" dx="0.8" dy="0.4" layer="1"/>
<smd name="7" x="-5.9" y="-3.5" dx="0.8" dy="0.4" layer="1"/>
<smd name="8" x="-5.9" y="-4.3" dx="0.8" dy="0.4" layer="1"/>
<smd name="9" x="-5.9" y="-5.1" dx="0.8" dy="0.4" layer="1"/>
<smd name="10" x="-5.9" y="-5.9" dx="0.8" dy="0.4" layer="1"/>
<smd name="11" x="-5.9" y="-6.7" dx="0.8" dy="0.4" layer="1"/>
<smd name="12" x="-4.8" y="-7.6" dx="0.4" dy="0.8" layer="1"/>
<smd name="13" x="-4" y="-7.6" dx="0.4" dy="0.8" layer="1"/>
<smd name="14" x="-3.2" y="-7.6" dx="0.4" dy="0.8" layer="1"/>
<smd name="15" x="-2.4" y="-7.6" dx="0.4" dy="0.8" layer="1"/>
<smd name="16" x="-1.6" y="-7.6" dx="0.4" dy="0.8" layer="1"/>
<smd name="17" x="-0.8" y="-7.6" dx="0.4" dy="0.8" layer="1"/>
<smd name="18" x="0" y="-7.6" dx="0.4" dy="0.8" layer="1"/>
<smd name="19" x="0.8" y="-7.6" dx="0.4" dy="0.8" layer="1"/>
<smd name="20" x="1.6" y="-7.6" dx="0.4" dy="0.8" layer="1"/>
<smd name="21" x="2.4" y="-7.6" dx="0.4" dy="0.8" layer="1"/>
<smd name="22" x="3.2" y="-7.6" dx="0.4" dy="0.8" layer="1"/>
<smd name="23" x="4" y="-7.6" dx="0.4" dy="0.8" layer="1"/>
<smd name="24" x="4.8" y="-7.6" dx="0.4" dy="0.8" layer="1"/>
<smd name="25" x="5.9" y="-6.7" dx="0.8" dy="0.4" layer="1"/>
<smd name="26" x="5.9" y="-5.9" dx="0.8" dy="0.4" layer="1"/>
<smd name="27" x="5.9" y="-5.1" dx="0.8" dy="0.4" layer="1"/>
<smd name="28" x="5.9" y="-4.3" dx="0.8" dy="0.4" layer="1"/>
<smd name="29" x="5.9" y="-3.5" dx="0.8" dy="0.4" layer="1"/>
<smd name="30" x="5.9" y="-2.7" dx="0.8" dy="0.4" layer="1"/>
<smd name="31" x="5.9" y="-1.9" dx="0.8" dy="0.4" layer="1"/>
<smd name="32" x="5.9" y="-1.1" dx="0.8" dy="0.4" layer="1"/>
<smd name="33" x="5.9" y="-0.3" dx="0.8" dy="0.4" layer="1"/>
<smd name="34" x="5.9" y="0.5" dx="0.8" dy="0.4" layer="1"/>
<smd name="35" x="5.9" y="1.3" dx="0.8" dy="0.4" layer="1"/>
<smd name="36" x="4.8" y="2.2" dx="0.4" dy="0.8" layer="1"/>
<smd name="37" x="4" y="2.2" dx="0.4" dy="0.8" layer="1"/>
<smd name="38" x="3.2" y="2.2" dx="0.4" dy="0.8" layer="1"/>
<smd name="39" x="2.4" y="2.2" dx="0.4" dy="0.8" layer="1"/>
<smd name="40" x="1.6" y="2.2" dx="0.4" dy="0.8" layer="1"/>
<smd name="41" x="0.8" y="2.2" dx="0.4" dy="0.8" layer="1"/>
<smd name="42" x="0" y="2.2" dx="0.4" dy="0.8" layer="1"/>
<smd name="43" x="-0.8" y="2.2" dx="0.4" dy="0.8" layer="1"/>
<smd name="44" x="-1.6" y="2.2" dx="0.4" dy="0.8" layer="1"/>
<smd name="45" x="-2.4" y="2.2" dx="0.4" dy="0.8" layer="1"/>
<smd name="46" x="-3.2" y="2.2" dx="0.4" dy="0.8" layer="1"/>
<smd name="47" x="-4" y="2.2" dx="0.4" dy="0.8" layer="1"/>
<smd name="48" x="-4.8" y="2.2" dx="0.4" dy="0.8" layer="1"/>
<smd name="49_9" x="0" y="-2.7" dx="1.45" dy="1.45" layer="1"/>
<smd name="49_3" x="1.975" y="-0.725" dx="1.45" dy="1.45" layer="1"/>
<smd name="49_2" x="0" y="-0.725" dx="1.45" dy="1.45" layer="1"/>
<smd name="49_1" x="-1.975" y="-0.725" dx="0.6" dy="0.6" layer="1" stop="no" cream="no"/>
<smd name="49_8" x="-1.975" y="-2.7" dx="1.45" dy="1.45" layer="1"/>
<smd name="49_7" x="-1.975" y="-4.675" dx="1.45" dy="1.45" layer="1"/>
<smd name="49_6" x="0" y="-4.675" dx="1.45" dy="1.45" layer="1"/>
<smd name="49_5" x="1.975" y="-4.675" dx="1.45" dy="1.45" layer="1"/>
<smd name="49_4" x="1.975" y="-2.7" dx="1.45" dy="1.45" layer="1"/>
<smd name="53" x="-5.95" y="2.25" dx="0.7" dy="0.7" layer="1"/>
<smd name="52" x="-5.95" y="-7.65" dx="0.7" dy="0.7" layer="1"/>
<smd name="51" x="5.95" y="-7.65" dx="0.7" dy="0.7" layer="1"/>
<smd name="50" x="5.95" y="2.25" dx="0.7" dy="0.7" layer="1"/>
</package>
</packages>
</library>
<library name="ams1117-3.3v">
<description>&lt;1A LOW DROPOUT VOLTAGE REGULATOR, SOT-223&lt;/b&gt;&lt;p&gt;
&lt;author&gt;Created by SamacSys&lt;/author&gt;</description>
<packages>
<package name="SOT229P700X180-4N">
<description>&lt;b&gt;3 Lead SOT-223 Plastic Package&lt;/b&gt;&lt;br&gt;
</description>
<smd name="1" x="-3.35" y="2.29" dx="1.3" dy="0.95" layer="1"/>
<smd name="2" x="-3.35" y="0" dx="1.3" dy="0.95" layer="1"/>
<smd name="3" x="-3.35" y="-2.29" dx="1.3" dy="0.95" layer="1"/>
<smd name="4" x="3.35" y="0" dx="3.25" dy="1.3" layer="1" rot="R90"/>
<text x="0" y="0" size="1.27" layer="25" align="center">&gt;NAME</text>
<text x="0" y="0" size="1.27" layer="27" align="center">&gt;VALUE</text>
<wire x1="-4.25" y1="3.605" x2="4.25" y2="3.605" width="0.05" layer="51"/>
<wire x1="4.25" y1="3.605" x2="4.25" y2="-3.605" width="0.05" layer="51"/>
<wire x1="4.25" y1="-3.605" x2="-4.25" y2="-3.605" width="0.05" layer="51"/>
<wire x1="-4.25" y1="-3.605" x2="-4.25" y2="3.605" width="0.05" layer="51"/>
<wire x1="-1.752" y1="3.252" x2="1.752" y2="3.252" width="0.1" layer="51"/>
<wire x1="1.752" y1="3.252" x2="1.752" y2="-3.252" width="0.1" layer="51"/>
<wire x1="1.752" y1="-3.252" x2="-1.752" y2="-3.252" width="0.1" layer="51"/>
<wire x1="-1.752" y1="-3.252" x2="-1.752" y2="3.252" width="0.1" layer="51"/>
<wire x1="-1.752" y1="0.962" x2="0.538" y2="3.252" width="0.1" layer="51"/>
<wire x1="-1.752" y1="3.252" x2="1.752" y2="3.252" width="0.2" layer="21"/>
<wire x1="1.752" y1="3.252" x2="1.752" y2="-3.252" width="0.2" layer="21"/>
<wire x1="1.752" y1="-3.252" x2="-1.752" y2="-3.252" width="0.2" layer="21"/>
<wire x1="-1.752" y1="-3.252" x2="-1.752" y2="3.252" width="0.2" layer="21"/>
<wire x1="-4" y1="3.115" x2="-2.7" y2="3.115" width="0.2" layer="21"/>
</package>
</packages>
</library>
<library name="con-molex" urn="urn:adsk.eagle:library:165">
<description>&lt;b&gt;Molex Connectors&lt;/b&gt;&lt;p&gt;
&lt;author&gt;Created by librarian@cadsoft.de&lt;/author&gt;</description>
<packages>
<package name="22-23-2021" urn="urn:adsk.eagle:footprint:8078259/1" library_version="5">
<description>&lt;b&gt;KK® 254 Solid Header, Vertical, with Friction Lock, 2 Circuits, Tin (Sn) Plating&lt;/b&gt;&lt;p&gt;&lt;a href =http://www.molex.com/pdm_docs/sd/022232021_sd.pdf&gt;Datasheet &lt;/a&gt;</description>
<wire x1="-2.54" y1="3.175" x2="2.54" y2="3.175" width="0.254" layer="21"/>
<wire x1="2.54" y1="3.175" x2="2.54" y2="1.27" width="0.254" layer="21"/>
<wire x1="2.54" y1="1.27" x2="2.54" y2="-3.175" width="0.254" layer="21"/>
<wire x1="2.54" y1="-3.175" x2="-2.54" y2="-3.175" width="0.254" layer="21"/>
<wire x1="-2.54" y1="-3.175" x2="-2.54" y2="1.27" width="0.254" layer="21"/>
<wire x1="-2.54" y1="1.27" x2="-2.54" y2="3.175" width="0.254" layer="21"/>
<wire x1="-2.54" y1="1.27" x2="2.54" y2="1.27" width="0.254" layer="21"/>
<pad name="1" x="-1.27" y="0" drill="1" shape="long" rot="R90"/>
<pad name="2" x="1.27" y="0" drill="1" shape="long" rot="R90"/>
<text x="-2.54" y="3.81" size="1.016" layer="25" ratio="10">&gt;NAME</text>
<text x="-2.54" y="-5.08" size="1.016" layer="27" ratio="10">&gt;VALUE</text>
</package>
</packages>
<packages3d>
<package3d name="22-23-2021" urn="urn:adsk.eagle:package:8078633/1" type="box" library_version="5">
<description>&lt;b&gt;KK® 254 Solid Header, Vertical, with Friction Lock, 2 Circuits, Tin (Sn) Plating&lt;/b&gt;&lt;p&gt;&lt;a href =http://www.molex.com/pdm_docs/sd/022232021_sd.pdf&gt;Datasheet &lt;/a&gt;</description>
<packageinstances>
<packageinstance name="22-23-2021"/>
</packageinstances>
</package3d>
</packages3d>
</library>
<library name="RHD2000_eval_board">
<description>Intan Technologies RHD2000 Eval Board</description>
<packages>
<package name="1206">
<wire x1="-1.5494" y1="0.8128" x2="1.5494" y2="0.8128" width="0.1016" layer="51"/>
<wire x1="1.5494" y1="-0.8128" x2="-1.5494" y2="-0.8128" width="0.1016" layer="51"/>
<wire x1="-2.54" y1="1.27" x2="2.54" y2="1.27" width="0.127" layer="21"/>
<wire x1="2.54" y1="1.27" x2="2.54" y2="-1.27" width="0.127" layer="21"/>
<wire x1="2.54" y1="-1.27" x2="-2.54" y2="-1.27" width="0.127" layer="21"/>
<wire x1="-2.54" y1="-1.27" x2="-2.54" y2="1.27" width="0.127" layer="21"/>
<smd name="1" x="-1.651" y="0" dx="1.2192" dy="1.8796" layer="1"/>
<smd name="2" x="1.651" y="0" dx="1.2192" dy="1.8796" layer="1"/>
<text x="-2.54" y="1.524" size="1.016" layer="25" font="vector">&gt;NAME</text>
<text x="-2.54" y="-2.54" size="1.016" layer="27" font="vector">&gt;VALUE</text>
<rectangle x1="-1.6002" y1="-0.8128" x2="-1.0922" y2="0.8128" layer="51"/>
<rectangle x1="1.0922" y1="-0.8128" x2="1.6002" y2="0.8128" layer="51"/>
</package>
<package name="0805">
<wire x1="-0.9652" y1="0.635" x2="0.9652" y2="0.635" width="0.1016" layer="51"/>
<wire x1="0.9652" y1="-0.635" x2="-0.9652" y2="-0.635" width="0.1016" layer="51"/>
<wire x1="-1.778" y1="1.016" x2="1.778" y2="1.016" width="0.127" layer="21"/>
<wire x1="1.778" y1="1.016" x2="1.778" y2="-1.016" width="0.127" layer="21"/>
<wire x1="1.778" y1="-1.016" x2="-1.778" y2="-1.016" width="0.127" layer="21"/>
<wire x1="-1.778" y1="-1.016" x2="-1.778" y2="1.016" width="0.127" layer="21"/>
<smd name="1" x="-1.0414" y="0" dx="0.9652" dy="1.524" layer="1"/>
<smd name="2" x="1.0414" y="0" dx="0.9652" dy="1.524" layer="1"/>
<text x="-1.778" y="1.27" size="1.016" layer="25" font="vector">&gt;NAME</text>
<text x="-2.032" y="-2.286" size="1.016" layer="27" font="vector">&gt;VALUE</text>
<rectangle x1="-1.016" y1="-0.635" x2="-0.6096" y2="0.635" layer="51"/>
<rectangle x1="0.6096" y1="-0.635" x2="1.016" y2="0.635" layer="51"/>
</package>
</packages>
</library>
<library name="con-lsta" urn="urn:adsk.eagle:library:161">
<description>&lt;b&gt;Female Headers etc.&lt;/b&gt;&lt;p&gt;
Naming:&lt;p&gt;
FE = female&lt;p&gt;
# contacts - # rows&lt;p&gt;
W = angled&lt;p&gt;
&lt;author&gt;Created by librarian@cadsoft.de&lt;/author&gt;</description>
<packages>
<package name="FE05-1" urn="urn:adsk.eagle:footprint:8133/1" library_version="2">
<description>&lt;b&gt;FEMALE HEADER&lt;/b&gt;</description>
<wire x1="-6.35" y1="1.27" x2="-6.35" y2="-1.27" width="0.1524" layer="21"/>
<wire x1="-6.35" y1="-1.27" x2="-4.064" y2="-1.27" width="0.1524" layer="21"/>
<wire x1="-4.064" y1="-1.27" x2="-3.81" y2="-1.016" width="0.1524" layer="21"/>
<wire x1="-3.81" y1="-1.016" x2="-3.556" y2="-1.27" width="0.1524" layer="21"/>
<wire x1="-3.556" y1="-1.27" x2="-1.524" y2="-1.27" width="0.1524" layer="21"/>
<wire x1="-1.524" y1="-1.27" x2="-1.27" y2="-1.016" width="0.1524" layer="21"/>
<wire x1="-1.27" y1="-1.016" x2="-1.016" y2="-1.27" width="0.1524" layer="21"/>
<wire x1="-1.016" y1="-1.27" x2="1.016" y2="-1.27" width="0.1524" layer="21"/>
<wire x1="1.016" y1="-1.27" x2="1.27" y2="-1.016" width="0.1524" layer="21"/>
<wire x1="1.27" y1="-1.016" x2="1.524" y2="-1.27" width="0.1524" layer="21"/>
<wire x1="1.524" y1="-1.27" x2="3.556" y2="-1.27" width="0.1524" layer="21"/>
<wire x1="3.556" y1="-1.27" x2="3.81" y2="-1.016" width="0.1524" layer="21"/>
<wire x1="3.81" y1="-1.016" x2="4.064" y2="-1.27" width="0.1524" layer="21"/>
<wire x1="4.064" y1="-1.27" x2="6.35" y2="-1.27" width="0.1524" layer="21"/>
<wire x1="6.35" y1="-1.27" x2="6.35" y2="1.27" width="0.1524" layer="21"/>
<wire x1="6.35" y1="1.27" x2="4.064" y2="1.27" width="0.1524" layer="21"/>
<wire x1="4.064" y1="1.27" x2="3.81" y2="1.016" width="0.1524" layer="21"/>
<wire x1="3.81" y1="1.016" x2="3.556" y2="1.27" width="0.1524" layer="21"/>
<wire x1="3.556" y1="1.27" x2="1.524" y2="1.27" width="0.1524" layer="21"/>
<wire x1="1.524" y1="1.27" x2="1.27" y2="1.016" width="0.1524" layer="21"/>
<wire x1="1.27" y1="1.016" x2="1.016" y2="1.27" width="0.1524" layer="21"/>
<wire x1="1.016" y1="1.27" x2="-1.016" y2="1.27" width="0.1524" layer="21"/>
<wire x1="-1.016" y1="1.27" x2="-1.27" y2="1.016" width="0.1524" layer="21"/>
<wire x1="-1.27" y1="1.016" x2="-1.524" y2="1.27" width="0.1524" layer="21"/>
<wire x1="-1.524" y1="1.27" x2="-3.556" y2="1.27" width="0.1524" layer="21"/>
<wire x1="-3.556" y1="1.27" x2="-3.81" y2="1.016" width="0.1524" layer="21"/>
<wire x1="-3.81" y1="1.016" x2="-4.064" y2="1.27" width="0.1524" layer="21"/>
<wire x1="-4.064" y1="1.27" x2="-6.35" y2="1.27" width="0.1524" layer="21"/>
<wire x1="-5.334" y1="0.762" x2="-5.334" y2="0.508" width="0.1524" layer="51"/>
<wire x1="-5.334" y1="0.508" x2="-5.588" y2="0.508" width="0.1524" layer="51"/>
<wire x1="-5.588" y1="0.508" x2="-5.588" y2="-0.508" width="0.1524" layer="51"/>
<wire x1="-5.588" y1="-0.508" x2="-5.334" y2="-0.508" width="0.1524" layer="51"/>
<wire x1="-5.334" y1="-0.508" x2="-5.334" y2="-0.762" width="0.1524" layer="51"/>
<wire x1="-5.334" y1="-0.762" x2="-4.826" y2="-0.762" width="0.1524" layer="51"/>
<wire x1="-4.826" y1="-0.762" x2="-4.826" y2="-0.508" width="0.1524" layer="51"/>
<wire x1="-4.826" y1="-0.508" x2="-4.572" y2="-0.508" width="0.1524" layer="51"/>
<wire x1="-4.572" y1="-0.508" x2="-4.572" y2="0.508" width="0.1524" layer="51"/>
<wire x1="-4.572" y1="0.508" x2="-4.826" y2="0.508" width="0.1524" layer="51"/>
<wire x1="-4.826" y1="0.508" x2="-4.826" y2="0.762" width="0.1524" layer="51"/>
<wire x1="-4.826" y1="0.762" x2="-5.334" y2="0.762" width="0.1524" layer="51"/>
<wire x1="-2.794" y1="0.762" x2="-2.794" y2="0.508" width="0.1524" layer="51"/>
<wire x1="-2.794" y1="0.508" x2="-3.048" y2="0.508" width="0.1524" layer="51"/>
<wire x1="-3.048" y1="0.508" x2="-3.048" y2="-0.508" width="0.1524" layer="51"/>
<wire x1="-3.048" y1="-0.508" x2="-2.794" y2="-0.508" width="0.1524" layer="51"/>
<wire x1="-2.794" y1="-0.508" x2="-2.794" y2="-0.762" width="0.1524" layer="51"/>
<wire x1="-2.794" y1="-0.762" x2="-2.286" y2="-0.762" width="0.1524" layer="51"/>
<wire x1="-2.286" y1="-0.762" x2="-2.286" y2="-0.508" width="0.1524" layer="51"/>
<wire x1="-2.286" y1="-0.508" x2="-2.032" y2="-0.508" width="0.1524" layer="51"/>
<wire x1="-2.032" y1="-0.508" x2="-2.032" y2="0.508" width="0.1524" layer="51"/>
<wire x1="-2.032" y1="0.508" x2="-2.286" y2="0.508" width="0.1524" layer="51"/>
<wire x1="-2.286" y1="0.508" x2="-2.286" y2="0.762" width="0.1524" layer="51"/>
<wire x1="-2.286" y1="0.762" x2="-2.794" y2="0.762" width="0.1524" layer="51"/>
<wire x1="-0.254" y1="0.762" x2="-0.254" y2="0.508" width="0.1524" layer="51"/>
<wire x1="-0.254" y1="0.508" x2="-0.508" y2="0.508" width="0.1524" layer="51"/>
<wire x1="-0.508" y1="0.508" x2="-0.508" y2="-0.508" width="0.1524" layer="51"/>
<wire x1="-0.508" y1="-0.508" x2="-0.254" y2="-0.508" width="0.1524" layer="51"/>
<wire x1="-0.254" y1="-0.508" x2="-0.254" y2="-0.762" width="0.1524" layer="51"/>
<wire x1="-0.254" y1="-0.762" x2="0.254" y2="-0.762" width="0.1524" layer="51"/>
<wire x1="0.254" y1="-0.762" x2="0.254" y2="-0.508" width="0.1524" layer="51"/>
<wire x1="0.254" y1="-0.508" x2="0.508" y2="-0.508" width="0.1524" layer="51"/>
<wire x1="0.508" y1="-0.508" x2="0.508" y2="0.508" width="0.1524" layer="51"/>
<wire x1="0.508" y1="0.508" x2="0.254" y2="0.508" width="0.1524" layer="51"/>
<wire x1="0.254" y1="0.508" x2="0.254" y2="0.762" width="0.1524" layer="51"/>
<wire x1="0.254" y1="0.762" x2="-0.254" y2="0.762" width="0.1524" layer="51"/>
<wire x1="2.286" y1="0.762" x2="2.286" y2="0.508" width="0.1524" layer="51"/>
<wire x1="2.286" y1="0.508" x2="2.032" y2="0.508" width="0.1524" layer="51"/>
<wire x1="2.032" y1="0.508" x2="2.032" y2="-0.508" width="0.1524" layer="51"/>
<wire x1="2.032" y1="-0.508" x2="2.286" y2="-0.508" width="0.1524" layer="51"/>
<wire x1="2.286" y1="-0.508" x2="2.286" y2="-0.762" width="0.1524" layer="51"/>
<wire x1="2.286" y1="-0.762" x2="2.794" y2="-0.762" width="0.1524" layer="51"/>
<wire x1="2.794" y1="-0.762" x2="2.794" y2="-0.508" width="0.1524" layer="51"/>
<wire x1="2.794" y1="-0.508" x2="3.048" y2="-0.508" width="0.1524" layer="51"/>
<wire x1="3.048" y1="-0.508" x2="3.048" y2="0.508" width="0.1524" layer="51"/>
<wire x1="3.048" y1="0.508" x2="2.794" y2="0.508" width="0.1524" layer="51"/>
<wire x1="2.794" y1="0.508" x2="2.794" y2="0.762" width="0.1524" layer="51"/>
<wire x1="2.794" y1="0.762" x2="2.286" y2="0.762" width="0.1524" layer="51"/>
<wire x1="4.826" y1="0.762" x2="4.826" y2="0.508" width="0.1524" layer="51"/>
<wire x1="4.826" y1="0.508" x2="4.572" y2="0.508" width="0.1524" layer="51"/>
<wire x1="4.572" y1="0.508" x2="4.572" y2="-0.508" width="0.1524" layer="51"/>
<wire x1="4.572" y1="-0.508" x2="4.826" y2="-0.508" width="0.1524" layer="51"/>
<wire x1="4.826" y1="-0.508" x2="4.826" y2="-0.762" width="0.1524" layer="51"/>
<wire x1="4.826" y1="-0.762" x2="5.334" y2="-0.762" width="0.1524" layer="51"/>
<wire x1="5.334" y1="-0.762" x2="5.334" y2="-0.508" width="0.1524" layer="51"/>
<wire x1="5.334" y1="-0.508" x2="5.588" y2="-0.508" width="0.1524" layer="51"/>
<wire x1="5.588" y1="-0.508" x2="5.588" y2="0.508" width="0.1524" layer="51"/>
<wire x1="5.588" y1="0.508" x2="5.334" y2="0.508" width="0.1524" layer="51"/>
<wire x1="5.334" y1="0.508" x2="5.334" y2="0.762" width="0.1524" layer="51"/>
<wire x1="5.334" y1="0.762" x2="4.826" y2="0.762" width="0.1524" layer="51"/>
<pad name="1" x="-5.08" y="0" drill="0.8128" shape="long" rot="R90"/>
<pad name="2" x="-2.54" y="0" drill="0.8128" shape="long" rot="R90"/>
<pad name="3" x="0" y="0" drill="0.8128" shape="long" rot="R90"/>
<pad name="4" x="2.54" y="0" drill="0.8128" shape="long" rot="R90"/>
<pad name="5" x="5.08" y="0" drill="0.8128" shape="long" rot="R90"/>
<text x="-6.35" y="1.651" size="1.27" layer="25" ratio="10">&gt;NAME</text>
<text x="-7.493" y="-0.635" size="1.27" layer="21" ratio="10">1</text>
<text x="6.604" y="-0.635" size="1.27" layer="21" ratio="10">5</text>
<text x="0" y="1.651" size="1.27" layer="27" ratio="10">&gt;VALUE</text>
<rectangle x1="-5.207" y1="0.254" x2="-4.953" y2="0.762" layer="51"/>
<rectangle x1="-5.207" y1="-0.762" x2="-4.953" y2="-0.254" layer="51"/>
<rectangle x1="-2.667" y1="0.254" x2="-2.413" y2="0.762" layer="51"/>
<rectangle x1="-2.667" y1="-0.762" x2="-2.413" y2="-0.254" layer="51"/>
<rectangle x1="-0.127" y1="0.254" x2="0.127" y2="0.762" layer="51"/>
<rectangle x1="-0.127" y1="-0.762" x2="0.127" y2="-0.254" layer="51"/>
<rectangle x1="2.413" y1="0.254" x2="2.667" y2="0.762" layer="51"/>
<rectangle x1="2.413" y1="-0.762" x2="2.667" y2="-0.254" layer="51"/>
<rectangle x1="4.953" y1="0.254" x2="5.207" y2="0.762" layer="51"/>
<rectangle x1="4.953" y1="-0.762" x2="5.207" y2="-0.254" layer="51"/>
</package>
</packages>
<packages3d>
<package3d name="FE05-1" urn="urn:adsk.eagle:package:8190/1" type="box" library_version="2">
<description>FEMALE HEADER</description>
<packageinstances>
<packageinstance name="FE05-1"/>
</packageinstances>
</package3d>
</packages3d>
</library>
<library name="adafruit">
<packages>
<package name="SOD-123">
<wire x1="-1" y1="0.7" x2="1" y2="0.7" width="0.1524" layer="51"/>
<wire x1="1" y1="0.7" x2="1" y2="-0.7" width="0.1524" layer="51"/>
<wire x1="1" y1="-0.7" x2="-1" y2="-0.7" width="0.1524" layer="51"/>
<wire x1="-1" y1="-0.7" x2="-1" y2="0.7" width="0.1524" layer="51"/>
<wire x1="-0.5" y1="0" x2="0.1" y2="0.4" width="0.1524" layer="51"/>
<wire x1="0.1" y1="0.4" x2="0.1" y2="-0.4" width="0.1524" layer="51"/>
<wire x1="0.1" y1="-0.4" x2="-0.5" y2="0" width="0.1524" layer="51"/>
<wire x1="-1.778" y1="0.762" x2="1.778" y2="0.762" width="0.127" layer="21"/>
<wire x1="1.778" y1="0.762" x2="1.778" y2="-0.762" width="0.127" layer="21"/>
<wire x1="1.778" y1="-0.762" x2="-1.778" y2="-0.762" width="0.127" layer="21"/>
<wire x1="-1.778" y1="-0.762" x2="-1.778" y2="0.762" width="0.127" layer="21"/>
<smd name="C" x="-1.85" y="0" dx="1.2" dy="0.7" layer="1"/>
<smd name="A" x="1.85" y="0" dx="1.2" dy="0.7" layer="1"/>
<text x="-1.1" y="1" size="0.4064" layer="25">&gt;NAME</text>
<text x="-1.1" y="-1.284" size="0.4064" layer="27">&gt;VALUE</text>
<rectangle x1="-0.7" y1="-0.7" x2="-0.5" y2="0.7" layer="51"/>
</package>
<package name="SOT23">
<description>&lt;b&gt;SOT-23&lt;/b&gt;</description>
<wire x1="1.4224" y1="0.6604" x2="1.4224" y2="-0.6604" width="0.1524" layer="51"/>
<wire x1="1.4224" y1="-0.6604" x2="-1.4224" y2="-0.6604" width="0.1524" layer="51"/>
<wire x1="-1.4224" y1="-0.6604" x2="-1.4224" y2="0.6604" width="0.1524" layer="51"/>
<wire x1="-1.4224" y1="0.6604" x2="1.4224" y2="0.6604" width="0.1524" layer="51"/>
<smd name="3" x="0" y="1.1" dx="1" dy="1.4" layer="1"/>
<smd name="2" x="0.95" y="-1.1" dx="1" dy="1.4" layer="1"/>
<smd name="1" x="-0.95" y="-1.1" dx="1" dy="1.4" layer="1"/>
<text x="-1.905" y="1.905" size="1.27" layer="25">&gt;NAME</text>
<text x="-1.905" y="-3.175" size="1.27" layer="27">&gt;VALUE</text>
<rectangle x1="-0.2286" y1="0.7112" x2="0.2286" y2="1.2954" layer="51"/>
<rectangle x1="0.7112" y1="-1.2954" x2="1.1684" y2="-0.7112" layer="51"/>
<rectangle x1="-1.1684" y1="-1.2954" x2="-0.7112" y2="-0.7112" layer="51"/>
</package>
<package name="PNA460XM">
<wire x1="-3.81" y1="-1.27" x2="-2.54" y2="-1.27" width="0.127" layer="21"/>
<wire x1="-2.54" y1="-1.27" x2="2.54" y2="-1.27" width="0.4064" layer="21"/>
<wire x1="2.54" y1="-1.27" x2="3.81" y2="-1.27" width="0.127" layer="21"/>
<wire x1="3.81" y1="-1.27" x2="3.81" y2="1.27" width="0.127" layer="21"/>
<wire x1="3.81" y1="1.27" x2="-3.81" y2="1.27" width="0.127" layer="21"/>
<wire x1="-3.81" y1="1.27" x2="-3.81" y2="-1.27" width="0.127" layer="21"/>
<wire x1="2.54" y1="-1.27" x2="-2.54" y2="-1.27" width="0.4064" layer="21" curve="-112.624029"/>
<pad name="1" x="-2.54" y="0" drill="1.016" diameter="1.9304" shape="square" rot="R90"/>
<pad name="2" x="0" y="0" drill="1.016" diameter="1.9304" rot="R90"/>
<pad name="3" x="2.54" y="0" drill="1.016" diameter="1.9304" rot="R90"/>
<text x="-3.8862" y="1.8288" size="1.27" layer="25" ratio="10">&gt;NAME</text>
<rectangle x1="2.286" y1="-0.254" x2="2.794" y2="0.254" layer="51"/>
<rectangle x1="-0.254" y1="-0.254" x2="0.254" y2="0.254" layer="51"/>
<rectangle x1="-2.794" y1="-0.254" x2="-2.286" y2="0.254" layer="51"/>
</package>
</packages>
</library>
<library name="RepRapjr">
<packages>
<package name="LED5MM">
<description>&lt;B&gt;LED&lt;/B&gt;&lt;p&gt;
5 mm, round</description>
<wire x1="2.54" y1="-1.905" x2="2.54" y2="1.905" width="0.2032" layer="21"/>
<wire x1="2.54" y1="-1.905" x2="2.54" y2="1.905" width="0.254" layer="21" curve="-286.260205"/>
<wire x1="-1.143" y1="0" x2="0" y2="1.143" width="0.1524" layer="51" curve="-90"/>
<wire x1="0" y1="-1.143" x2="1.143" y2="0" width="0.1524" layer="51" curve="90"/>
<wire x1="-1.651" y1="0" x2="0" y2="1.651" width="0.1524" layer="51" curve="-90"/>
<wire x1="0" y1="-1.651" x2="1.651" y2="0" width="0.1524" layer="51" curve="90"/>
<wire x1="-2.159" y1="0" x2="0" y2="2.159" width="0.1524" layer="51" curve="-90"/>
<wire x1="0" y1="-2.159" x2="2.159" y2="0" width="0.1524" layer="51" curve="90"/>
<circle x="0" y="0" radius="2.54" width="0.1524" layer="21"/>
<pad name="A" x="-1.27" y="0" drill="0.8128" shape="octagon"/>
<pad name="K" x="1.27" y="0" drill="0.8128" shape="octagon"/>
<text x="3.175" y="0.5334" size="1.27" layer="25" ratio="10">&gt;NAME</text>
<text x="3.2004" y="-1.8034" size="1.27" layer="27" ratio="10">&gt;VALUE</text>
</package>
</packages>
</library>
<library name="con-lstb" urn="urn:adsk.eagle:library:162">
<description>&lt;b&gt;Pin Headers&lt;/b&gt;&lt;p&gt;
Naming:&lt;p&gt;
MA = male&lt;p&gt;
# contacts - # rows&lt;p&gt;
W = angled&lt;p&gt;
&lt;author&gt;Created by librarian@cadsoft.de&lt;/author&gt;</description>
<packages>
<package name="MA03-1" urn="urn:adsk.eagle:footprint:8281/1" library_version="2">
<description>&lt;b&gt;PIN HEADER&lt;/b&gt;</description>
<wire x1="-3.175" y1="1.27" x2="-1.905" y2="1.27" width="0.1524" layer="21"/>
<wire x1="-1.905" y1="1.27" x2="-1.27" y2="0.635" width="0.1524" layer="21"/>
<wire x1="-1.27" y1="-0.635" x2="-1.905" y2="-1.27" width="0.1524" layer="21"/>
<wire x1="-1.27" y1="0.635" x2="-0.635" y2="1.27" width="0.1524" layer="21"/>
<wire x1="-0.635" y1="1.27" x2="0.635" y2="1.27" width="0.1524" layer="21"/>
<wire x1="0.635" y1="1.27" x2="1.27" y2="0.635" width="0.1524" layer="21"/>
<wire x1="1.27" y1="-0.635" x2="0.635" y2="-1.27" width="0.1524" layer="21"/>
<wire x1="0.635" y1="-1.27" x2="-0.635" y2="-1.27" width="0.1524" layer="21"/>
<wire x1="-0.635" y1="-1.27" x2="-1.27" y2="-0.635" width="0.1524" layer="21"/>
<wire x1="-3.81" y1="0.635" x2="-3.81" y2="-0.635" width="0.1524" layer="21"/>
<wire x1="-3.175" y1="1.27" x2="-3.81" y2="0.635" width="0.1524" layer="21"/>
<wire x1="-3.81" y1="-0.635" x2="-3.175" y2="-1.27" width="0.1524" layer="21"/>
<wire x1="-1.905" y1="-1.27" x2="-3.175" y2="-1.27" width="0.1524" layer="21"/>
<wire x1="1.27" y1="0.635" x2="1.905" y2="1.27" width="0.1524" layer="21"/>
<wire x1="1.905" y1="1.27" x2="3.175" y2="1.27" width="0.1524" layer="21"/>
<wire x1="3.175" y1="1.27" x2="3.81" y2="0.635" width="0.1524" layer="21"/>
<wire x1="3.81" y1="-0.635" x2="3.175" y2="-1.27" width="0.1524" layer="21"/>
<wire x1="3.175" y1="-1.27" x2="1.905" y2="-1.27" width="0.1524" layer="21"/>
<wire x1="1.905" y1="-1.27" x2="1.27" y2="-0.635" width="0.1524" layer="21"/>
<wire x1="3.81" y1="0.635" x2="3.81" y2="-0.635" width="0.1524" layer="21"/>
<pad name="1" x="-2.54" y="0" drill="1.016" shape="long" rot="R90"/>
<pad name="2" x="0" y="0" drill="1.016" shape="long" rot="R90"/>
<pad name="3" x="2.54" y="0" drill="1.016" shape="long" rot="R90"/>
<text x="-3.81" y="1.651" size="1.27" layer="25" ratio="10">&gt;NAME</text>
<text x="-5.08" y="-0.635" size="1.27" layer="21" ratio="10">1</text>
<text x="-3.81" y="-2.921" size="1.27" layer="27" ratio="10">&gt;VALUE</text>
<rectangle x1="-0.254" y1="-0.254" x2="0.254" y2="0.254" layer="51"/>
<rectangle x1="-2.794" y1="-0.254" x2="-2.286" y2="0.254" layer="51"/>
<rectangle x1="2.286" y1="-0.254" x2="2.794" y2="0.254" layer="51"/>
</package>
</packages>
<packages3d>
<package3d name="MA03-1" urn="urn:adsk.eagle:package:8339/1" type="box" library_version="2">
<description>PIN HEADER</description>
<packageinstances>
<packageinstance name="MA03-1"/>
</packageinstances>
</package3d>
</packages3d>
</library>
<library name="SparkFun-Switches">
<description>&lt;h3&gt;SparkFun Switches, Buttons, Encoders&lt;/h3&gt;
In this library you'll find switches, buttons, joysticks, and anything that moves to create or disrupt an electrical connection.
&lt;br&gt;
&lt;br&gt;
We've spent an enormous amount of time creating and checking these footprints and parts, but it is &lt;b&gt; the end user's responsibility&lt;/b&gt; to ensure correctness and suitablity for a given componet or application. 
&lt;br&gt;
&lt;br&gt;If you enjoy using this library, please buy one of our products at &lt;a href=" www.sparkfun.com"&gt;SparkFun.com&lt;/a&gt;.
&lt;br&gt;
&lt;br&gt;
&lt;b&gt;Licensing:&lt;/b&gt; Creative Commons ShareAlike 4.0 International - https://creativecommons.org/licenses/by-sa/4.0/ 
&lt;br&gt;
&lt;br&gt;
You are welcome to use this library for commercial purposes. For attribution, we ask that when you begin to sell your device using our footprint, you email us with a link to the product being sold. We want bragging rights that we helped (in a very small part) to create your 8th world wonder. We would like the opportunity to feature your device on our homepage.</description>
<packages>
<package name="TACTILE_SWITCH_SMD_4.6X2.8MM">
<description>&lt;h3&gt;Momentary Switch (Pushbutton) - SPST - SMD, 4.6 x 2.8mm&lt;/h3&gt;
&lt;p&gt;Normally-open (NO) SPST momentary switches (buttons, pushbuttons).&lt;/p&gt;
&lt;p&gt;&lt;a href="http://www.ck-components.com/media/1479/kmr2.pdf"&gt;Datasheet&lt;/a&gt;&lt;/p&gt;</description>
<smd name="3" x="2.05" y="0.8" dx="0.9" dy="1" layer="1"/>
<smd name="2" x="2.05" y="-0.8" dx="0.9" dy="1" layer="1"/>
<smd name="1" x="-2.05" y="-0.8" dx="0.9" dy="1" layer="1"/>
<smd name="4" x="-2.05" y="0.8" dx="0.9" dy="1" layer="1"/>
<wire x1="-2.1" y1="1.4" x2="-2.1" y2="-1.4" width="0.127" layer="51"/>
<wire x1="2.1" y1="-1.4" x2="2.1" y2="1.4" width="0.127" layer="51"/>
<wire x1="-2.1" y1="1.4" x2="2.1" y2="1.4" width="0.127" layer="51"/>
<wire x1="-2.1" y1="-1.4" x2="2.1" y2="-1.4" width="0.127" layer="51"/>
<circle x="0" y="0" radius="0.805" width="0.127" layer="21"/>
<wire x1="1.338" y1="-1.4" x2="-1.338" y2="-1.4" width="0.2032" layer="21"/>
<wire x1="-1.338" y1="1.4" x2="1.338" y2="1.4" width="0.2032" layer="21"/>
<wire x1="-2.1" y1="0.13" x2="-2.1" y2="-0.13" width="0.2032" layer="21"/>
<wire x1="2.1" y1="-0.13" x2="2.1" y2="0.13" width="0.2032" layer="21"/>
<rectangle x1="-2.3" y1="0.5" x2="-2.1" y2="1.1" layer="51"/>
<rectangle x1="-2.3" y1="-1.1" x2="-2.1" y2="-0.5" layer="51"/>
<rectangle x1="2.1" y1="-1.1" x2="2.3" y2="-0.5" layer="51" rot="R180"/>
<rectangle x1="2.1" y1="0.5" x2="2.3" y2="1.1" layer="51" rot="R180"/>
<text x="0" y="1.524" size="0.6096" layer="25" font="vector" ratio="20" align="bottom-center">&gt;Name</text>
<text x="0" y="-1.524" size="0.6096" layer="27" font="vector" ratio="20" align="top-center">&gt;Value</text>
</package>
<package name="TACTILE_SWITCH_SMD_6.0X3.5MM">
<description>&lt;h3&gt;Momentary Switch (Pushbutton) - SPST - SMD, 6.0 x 3.5 mm&lt;/h3&gt;
&lt;p&gt;Normally-open (NO) SPST momentary switches (buttons, pushbuttons).&lt;/p&gt;
&lt;p&gt;&lt;a href="https://www.sparkfun.com/datasheets/Components/1101.pdf"&gt;Datasheet&lt;/a&gt;&lt;/p&gt;</description>
<wire x1="-3" y1="1.1" x2="-3" y2="-1.1" width="0.127" layer="51"/>
<wire x1="3" y1="1.1" x2="3" y2="-1.1" width="0.127" layer="51"/>
<wire x1="-2.75" y1="1.75" x2="-3" y2="1.5" width="0.2032" layer="21" curve="90"/>
<wire x1="-2.75" y1="1.75" x2="2.75" y2="1.75" width="0.2032" layer="21"/>
<wire x1="2.75" y1="1.75" x2="3" y2="1.5" width="0.2032" layer="21" curve="-90"/>
<wire x1="3" y1="-1.5" x2="2.75" y2="-1.75" width="0.2032" layer="21" curve="-90"/>
<wire x1="2.75" y1="-1.75" x2="-2.75" y2="-1.75" width="0.2032" layer="21"/>
<wire x1="-3" y1="-1.5" x2="-2.75" y2="-1.75" width="0.2032" layer="21" curve="90"/>
<wire x1="-3" y1="-1.5" x2="-3" y2="-1.1" width="0.2032" layer="21"/>
<wire x1="-3" y1="1.1" x2="-3" y2="1.5" width="0.2032" layer="21"/>
<wire x1="3" y1="1.1" x2="3" y2="1.5" width="0.2032" layer="21"/>
<wire x1="3" y1="-1.5" x2="3" y2="-1.1" width="0.2032" layer="21"/>
<wire x1="-1.5" y1="0.75" x2="1.5" y2="0.75" width="0.2032" layer="21"/>
<wire x1="1.5" y1="-0.75" x2="-1.5" y2="-0.75" width="0.2032" layer="21"/>
<wire x1="-1.5" y1="-0.75" x2="-1.5" y2="0.75" width="0.2032" layer="21"/>
<wire x1="1.5" y1="-0.75" x2="1.5" y2="0.75" width="0.2032" layer="21"/>
<wire x1="-2" y1="0" x2="-1" y2="0" width="0.127" layer="51"/>
<wire x1="-1" y1="0" x2="0.1" y2="0.5" width="0.127" layer="51"/>
<wire x1="0.3" y1="0" x2="2" y2="0" width="0.127" layer="51"/>
<smd name="1" x="-3.15" y="0" dx="2.3" dy="1.6" layer="1" rot="R180"/>
<smd name="2" x="3.15" y="0" dx="2.3" dy="1.6" layer="1" rot="R180"/>
<text x="0" y="1.905" size="0.6096" layer="25" font="vector" ratio="20" align="bottom-center">&gt;Name</text>
<text x="0" y="-1.905" size="0.6096" layer="27" font="vector" ratio="20" align="top-center">&gt;Value</text>
</package>
</packages>
</library>
</libraries>
<attributes>
</attributes>
<variantdefs>
</variantdefs>
<classes>
<class number="0" name="default" width="0" drill="0">
</class>
</classes>
<designrules name="default">
<description language="de">&lt;b&gt;EAGLE Design Rules&lt;/b&gt;
&lt;p&gt;
Die Standard-Design-Rules sind so gewählt, dass sie für 
die meisten Anwendungen passen. Sollte ihre Platine 
besondere Anforderungen haben, treffen Sie die erforderlichen
Einstellungen hier und speichern die Design Rules unter 
einem neuen Namen ab.</description>
<description language="en">&lt;b&gt;EAGLE Design Rules&lt;/b&gt;
&lt;p&gt;
The default Design Rules have been set to cover
a wide range of applications. Your particular design
may have different requirements, so please make the
necessary adjustments and save your customized
design rules under a new name.</description>
<param name="layerSetup" value="(1*16)"/>
<param name="mtCopper" value="0.035mm 0.035mm 0.035mm 0.035mm 0.035mm 0.035mm 0.035mm 0.035mm 0.035mm 0.035mm 0.035mm 0.035mm 0.035mm 0.035mm 0.035mm 0.035mm"/>
<param name="mtIsolate" value="1.5mm 0.15mm 0.2mm 0.15mm 0.2mm 0.15mm 0.2mm 0.15mm 0.2mm 0.15mm 0.2mm 0.15mm 0.2mm 0.15mm 0.2mm"/>
<param name="mdWireWire" value="6mil"/>
<param name="mdWirePad" value="6mil"/>
<param name="mdWireVia" value="6mil"/>
<param name="mdPadPad" value="6mil"/>
<param name="mdPadVia" value="6mil"/>
<param name="mdViaVia" value="6mil"/>
<param name="mdSmdPad" value="6mil"/>
<param name="mdSmdVia" value="6mil"/>
<param name="mdSmdSmd" value="6mil"/>
<param name="mdViaViaSameLayer" value="6mil"/>
<param name="mnLayersViaInSmd" value="2"/>
<param name="mdCopperDimension" value="40mil"/>
<param name="mdDrill" value="6mil"/>
<param name="mdSmdStop" value="0mil"/>
<param name="msWidth" value="6mil"/>
<param name="msDrill" value="0.35mm"/>
<param name="msMicroVia" value="9.99mm"/>
<param name="msBlindViaRatio" value="0.5"/>
<param name="rvPadTop" value="0.25"/>
<param name="rvPadInner" value="0.25"/>
<param name="rvPadBottom" value="0.25"/>
<param name="rvViaOuter" value="0.25"/>
<param name="rvViaInner" value="0.25"/>
<param name="rvMicroViaOuter" value="0.25"/>
<param name="rvMicroViaInner" value="0.25"/>
<param name="rlMinPadTop" value="10mil"/>
<param name="rlMaxPadTop" value="20mil"/>
<param name="rlMinPadInner" value="10mil"/>
<param name="rlMaxPadInner" value="20mil"/>
<param name="rlMinPadBottom" value="10mil"/>
<param name="rlMaxPadBottom" value="20mil"/>
<param name="rlMinViaOuter" value="8mil"/>
<param name="rlMaxViaOuter" value="20mil"/>
<param name="rlMinViaInner" value="8mil"/>
<param name="rlMaxViaInner" value="20mil"/>
<param name="rlMinMicroViaOuter" value="4mil"/>
<param name="rlMaxMicroViaOuter" value="20mil"/>
<param name="rlMinMicroViaInner" value="4mil"/>
<param name="rlMaxMicroViaInner" value="20mil"/>
<param name="psTop" value="-1"/>
<param name="psBottom" value="-1"/>
<param name="psFirst" value="-1"/>
<param name="psElongationLong" value="100"/>
<param name="psElongationOffset" value="100"/>
<param name="mvStopFrame" value="1"/>
<param name="mvCreamFrame" value="0"/>
<param name="mlMinStopFrame" value="4mil"/>
<param name="mlMaxStopFrame" value="4mil"/>
<param name="mlMinCreamFrame" value="0mil"/>
<param name="mlMaxCreamFrame" value="0mil"/>
<param name="mlViaStopLimit" value="0mil"/>
<param name="srRoundness" value="0"/>
<param name="srMinRoundness" value="0mil"/>
<param name="srMaxRoundness" value="0mil"/>
<param name="slThermalIsolate" value="10mil"/>
<param name="slThermalsForVias" value="0"/>
<param name="dpMaxLengthDifference" value="10mm"/>
<param name="dpGapFactor" value="2.5"/>
<param name="checkAngle" value="0"/>
<param name="checkFont" value="1"/>
<param name="checkRestrict" value="1"/>
<param name="checkStop" value="0"/>
<param name="checkValues" value="0"/>
<param name="checkNames" value="1"/>
<param name="checkWireStubs" value="1"/>
<param name="checkPolygonWidth" value="0"/>
<param name="useDiameter" value="13"/>
<param name="maxErrors" value="50"/>
</designrules>
<autorouter>
<pass name="Default">
<param name="RoutingGrid" value="50mil"/>
<param name="AutoGrid" value="1"/>
<param name="Efforts" value="2"/>
<param name="TopRouterVariant" value="1"/>
<param name="tpViaShape" value="round"/>
<param name="PrefDir.1" value="a"/>
<param name="PrefDir.2" value="0"/>
<param name="PrefDir.3" value="0"/>
<param name="PrefDir.4" value="0"/>
<param name="PrefDir.5" value="0"/>
<param name="PrefDir.6" value="0"/>
<param name="PrefDir.7" value="0"/>
<param name="PrefDir.8" value="0"/>
<param name="PrefDir.9" value="0"/>
<param name="PrefDir.10" value="0"/>
<param name="PrefDir.11" value="0"/>
<param name="PrefDir.12" value="0"/>
<param name="PrefDir.13" value="0"/>
<param name="PrefDir.14" value="0"/>
<param name="PrefDir.15" value="0"/>
<param name="PrefDir.16" value="a"/>
<param name="cfVia" value="8"/>
<param name="cfNonPref" value="5"/>
<param name="cfChangeDir" value="2"/>
<param name="cfOrthStep" value="2"/>
<param name="cfDiagStep" value="3"/>
<param name="cfExtdStep" value="0"/>
<param name="cfBonusStep" value="1"/>
<param name="cfMalusStep" value="1"/>
<param name="cfPadImpact" value="4"/>
<param name="cfSmdImpact" value="4"/>
<param name="cfBusImpact" value="0"/>
<param name="cfHugging" value="3"/>
<param name="cfAvoid" value="4"/>
<param name="cfPolygon" value="10"/>
<param name="cfBase.1" value="0"/>
<param name="cfBase.2" value="1"/>
<param name="cfBase.3" value="1"/>
<param name="cfBase.4" value="1"/>
<param name="cfBase.5" value="1"/>
<param name="cfBase.6" value="1"/>
<param name="cfBase.7" value="1"/>
<param name="cfBase.8" value="1"/>
<param name="cfBase.9" value="1"/>
<param name="cfBase.10" value="1"/>
<param name="cfBase.11" value="1"/>
<param name="cfBase.12" value="1"/>
<param name="cfBase.13" value="1"/>
<param name="cfBase.14" value="1"/>
<param name="cfBase.15" value="1"/>
<param name="cfBase.16" value="0"/>
<param name="mnVias" value="20"/>
<param name="mnSegments" value="9999"/>
<param name="mnExtdSteps" value="9999"/>
<param name="mnRipupLevel" value="10"/>
<param name="mnRipupSteps" value="100"/>
<param name="mnRipupTotal" value="100"/>
</pass>
<pass name="Follow-me" refer="Default" active="yes">
</pass>
<pass name="Busses" refer="Default" active="yes">
<param name="cfNonPref" value="4"/>
<param name="cfBusImpact" value="4"/>
<param name="cfHugging" value="0"/>
<param name="mnVias" value="0"/>
</pass>
<pass name="Route" refer="Default" active="yes">
</pass>
<pass name="Optimize1" refer="Default" active="yes">
<param name="cfVia" value="99"/>
<param name="cfExtdStep" value="10"/>
<param name="cfHugging" value="1"/>
<param name="mnExtdSteps" value="1"/>
<param name="mnRipupLevel" value="0"/>
</pass>
<pass name="Optimize2" refer="Optimize1" active="yes">
<param name="cfNonPref" value="0"/>
<param name="cfChangeDir" value="6"/>
<param name="cfExtdStep" value="0"/>
<param name="cfBonusStep" value="2"/>
<param name="cfMalusStep" value="2"/>
<param name="cfPadImpact" value="2"/>
<param name="cfSmdImpact" value="2"/>
<param name="cfHugging" value="0"/>
</pass>
<pass name="Optimize3" refer="Optimize2" active="yes">
<param name="cfChangeDir" value="8"/>
<param name="cfPadImpact" value="0"/>
<param name="cfSmdImpact" value="0"/>
</pass>
<pass name="Optimize4" refer="Optimize3" active="yes">
<param name="cfChangeDir" value="25"/>
</pass>
</autorouter>
<elements>
<element name="K1" library="relay" library_urn="urn:adsk.eagle:library:339" package="G6K-2F-Y" package3d_urn="urn:adsk.eagle:package:24351/1" override_package3d_urn="urn:adsk.eagle:package:41508054/2" override_package_urn="urn:adsk.eagle:footprint:24016/1" value="G6K-2F-Y" x="12.89" y="3.66" smashed="yes" rot="R180">
<attribute name="MF" value="OMRON COMPONENTS USA" x="-6.16" y="31.6" size="1.778" layer="27" rot="R180" display="off"/>
<attribute name="MPN" value="G6K-2F-Y DC3" x="-6.16" y="31.6" size="1.778" layer="27" rot="R180" display="off"/>
<attribute name="NAME" x="16.7" y="3.025" size="1.27" layer="25" rot="R180"/>
<attribute name="OC_FARNELL" value="1690316" x="-6.16" y="31.6" size="1.778" layer="27" rot="R180" display="off"/>
<attribute name="OC_NEWARK" value="89C6451" x="-6.16" y="31.6" size="1.778" layer="27" rot="R180" display="off"/>
<attribute name="POPULARITY" value="0" x="-6.16" y="31.6" size="1.778" layer="27" rot="R180" display="off"/>
<attribute name="VALUE" x="16.7" y="5.565" size="1.27" layer="27" rot="R180"/>
</element>
<element name="U1" library="ESP32-C3-MINI-1-N4" package="XCVR_ESP32-C3-MINI-1-N4" override_package3d_urn="urn:adsk.eagle:package:41508086/2" override_package_urn="urn:adsk.eagle:footprint:41508087/1" value="ESP32-C3-MINI-1-N4" x="9.43" y="18.47" smashed="yes">
<attribute name="AVAILABILITY" value="In Stock" x="33.56" y="7.04" size="1.778" layer="27" display="off"/>
<attribute name="DESCRIPTION" value=" Bluetooth, WiFi 802.11b/g/n, Bluetooth v5.0 Transceiver Module 2.412GHz ~ 2.484GHz PCB Trace Surface Mount " x="33.56" y="7.04" size="1.778" layer="27" display="off"/>
<attribute name="MF" value="Espressif Systems" x="33.56" y="7.04" size="1.778" layer="27" display="off"/>
<attribute name="MP" value="ESP32-C3-MINI-1-N4" x="33.56" y="7.04" size="1.778" layer="27" display="off"/>
<attribute name="NAME" x="2.58" y="27.47" size="1.27" layer="25"/>
<attribute name="PACKAGE" value="SMD-53 Espressif Systems" x="33.56" y="7.04" size="1.778" layer="27" display="off"/>
<attribute name="PRICE" value="None" x="33.56" y="7.04" size="1.778" layer="27" display="off"/>
<attribute name="PURCHASE-URL" value="https://pricing.snapeda.com/search/part/ESP32-C3-MINI-1-N4/?ref=eda" x="33.56" y="7.04" size="1.778" layer="27" display="off"/>
</element>
<element name="IC1" library="ams1117-3.3v" package="SOT229P700X180-4N" override_package3d_urn="urn:adsk.eagle:package:41507927/2" override_package_urn="urn:adsk.eagle:footprint:41507928/1" value="AMS1117-3.3V" x="3.55" y="4.35" smashed="yes" rot="R180">
<attribute name="DESCRIPTION" value="1A LOW DROPOUT VOLTAGE REGULATOR, SOT-223" x="3.55" y="4.35" size="1.778" layer="27" rot="R180" display="off"/>
<attribute name="HEIGHT" value="1.8mm" x="3.55" y="4.35" size="1.778" layer="27" rot="R180" display="off"/>
<attribute name="MANUFACTURER_NAME" value="Advanced Monolithic Systems" x="3.55" y="4.35" size="1.778" layer="27" rot="R180" display="off"/>
<attribute name="MANUFACTURER_PART_NUMBER" value="ams1117-3.3v" x="3.55" y="4.35" size="1.778" layer="27" rot="R180" display="off"/>
<attribute name="MOUSER_PART_NUMBER" value="" x="3.55" y="4.35" size="1.778" layer="27" rot="R180" display="off"/>
<attribute name="MOUSER_PRICE-STOCK" value="" x="3.55" y="4.35" size="1.778" layer="27" rot="R180" display="off"/>
<attribute name="NAME" x="3.55" y="1.81" size="1.27" layer="25" rot="R270" align="center"/>
<attribute name="RS_PART_NUMBER" value="" x="3.55" y="4.35" size="1.778" layer="27" rot="R180" display="off"/>
<attribute name="RS_PRICE-STOCK" value="" x="3.55" y="4.35" size="1.778" layer="27" rot="R180" display="off"/>
</element>
<element name="C1" library="RHD2000_eval_board" package="1206" override_package3d_urn="urn:adsk.eagle:package:41508081/2" override_package_urn="urn:adsk.eagle:footprint:41508082/1" value="" x="3.78" y="-0.8" smashed="yes">
<attribute name="NAME" x="1.24" y="0.724" size="1.016" layer="25" font="vector"/>
<attribute name="VALUE" x="1.24" y="-3.34" size="1.016" layer="27" font="vector"/>
</element>
<element name="SV1" library="con-lsta" library_urn="urn:adsk.eagle:library:161" package="FE05-1" package3d_urn="urn:adsk.eagle:package:8190/1" value="" x="-3.38" y="8.31" smashed="yes" rot="R104.8">
<attribute name="MF" value="" x="-3.38" y="8.31" size="1.778" layer="27" rot="R104.8" display="off"/>
<attribute name="MPN" value="" x="-3.38" y="8.31" size="1.778" layer="27" rot="R104.8" display="off"/>
<attribute name="NAME" x="-3.35414375" y="1.748928125" size="1.27" layer="25" ratio="10" rot="R104.8"/>
<attribute name="OC_FARNELL" value="unknown" x="-3.38" y="8.31" size="1.778" layer="27" rot="R104.8" display="off"/>
<attribute name="OC_NEWARK" value="unknown" x="-3.38" y="8.31" size="1.778" layer="27" rot="R104.8" display="off"/>
<attribute name="POPULARITY" value="7" x="-3.38" y="8.31" size="1.778" layer="27" rot="R104.8" display="off"/>
<attribute name="VALUE" x="-4.976225" y="7.88825625" size="1.27" layer="27" ratio="10" rot="R104.8"/>
</element>
<element name="D1" library="adafruit" package="SOD-123" override_package3d_urn="urn:adsk.eagle:package:41508063/2" override_package_urn="urn:adsk.eagle:footprint:41508064/1" value="" x="19.24" y="3.7" smashed="yes" rot="R270">
<attribute name="NAME" x="20.24" y="4.8" size="0.4064" layer="25" rot="R270"/>
<attribute name="VALUE" x="17.956" y="4.8" size="0.4064" layer="27" rot="R270"/>
</element>
<element name="Q1" library="adafruit" package="SOT23" override_package3d_urn="urn:adsk.eagle:package:41510500/2" override_package_urn="urn:adsk.eagle:footprint:41510501/1" value="" x="0.5" y="11" smashed="yes">
<attribute name="NAME" x="-0.905" y="10.905" size="1.27" layer="25"/>
<attribute name="VALUE" x="-1.405" y="7.825" size="1.27" layer="27"/>
</element>
<element name="LED1" library="RepRapjr" package="LED5MM" value="" x="-3.5" y="17.5" smashed="yes" rot="MR288.3">
<attribute name="NAME" x="-6.409203125" y="19.45134375" size="1.27" layer="26" ratio="10" rot="MR288.3"/>
<attribute name="VALUE" x="-2.792709375" y="13.895203125" size="1.27" layer="28" ratio="10" rot="MR288.3"/>
</element>
<element name="LED2" library="RepRapjr" package="LED5MM" value="" x="22.5" y="3.5" smashed="yes" rot="MR300.6">
<attribute name="NAME" x="21.51119375" y="1.302234375" size="1.27" layer="26" ratio="10" rot="MR300.6"/>
<attribute name="VALUE" x="22.42311875" y="-0.17271875" size="1.27" layer="28" ratio="10" rot="MR300.6"/>
</element>
<element name="U$1" library="adafruit" package="PNA460XM" value="PNA460XM" x="23.5" y="16" smashed="yes" rot="R106.3">
<attribute name="NAME" x="22.835428125" y="11.756715625" size="1.27" layer="25" ratio="10" rot="R106.3"/>
</element>
<element name="5V_GND" library="con-molex" library_urn="urn:adsk.eagle:library:165" package="22-23-2021" package3d_urn="urn:adsk.eagle:package:8078633/1" value="22-23-2021" x="19" y="18.5" smashed="yes" rot="R180">
<attribute name="MF" value="MOLEX" x="19" y="18.5" size="1.778" layer="27" rot="R180" display="off"/>
<attribute name="MPN" value="22-23-2021" x="19" y="18.5" size="1.778" layer="27" rot="R180" display="off"/>
<attribute name="NAME" x="21.04" y="16.69" size="1.016" layer="25" ratio="10" rot="R180"/>
<attribute name="OC_FARNELL" value="1462926" x="19" y="18.5" size="1.778" layer="27" rot="R180" display="off"/>
<attribute name="OC_NEWARK" value="25C3832" x="19" y="18.5" size="1.778" layer="27" rot="R180" display="off"/>
<attribute name="POPULARITY" value="40" x="19" y="18.5" size="1.778" layer="27" rot="R180" display="off"/>
</element>
<element name="IN_IN_OUT" library="con-lstb" library_urn="urn:adsk.eagle:library:162" package="MA03-1" package3d_urn="urn:adsk.eagle:package:8339/1" value="" x="10.5" y="-3" smashed="yes">
<attribute name="MF" value="" x="10.5" y="-3" size="1.778" layer="27" display="off"/>
<attribute name="MPN" value="" x="10.5" y="-3" size="1.778" layer="27" display="off"/>
<attribute name="NAME" x="6.575834375" y="-1.441875" size="1.27" layer="25" ratio="10"/>
<attribute name="OC_FARNELL" value="unknown" x="10.5" y="-3" size="1.778" layer="27" display="off"/>
<attribute name="OC_NEWARK" value="unknown" x="10.5" y="-3" size="1.778" layer="27" display="off"/>
<attribute name="POPULARITY" value="48" x="10.5" y="-3" size="1.778" layer="27" display="off"/>
<attribute name="VALUE" x="6.69000625" y="-5.921" size="1.27" layer="27" ratio="10"/>
</element>
<element name="R1" library="RHD2000_eval_board" package="0805" override_package3d_urn="urn:adsk.eagle:package:41510511/2" override_package_urn="urn:adsk.eagle:footprint:41510512/1" value="" x="19" y="14" smashed="yes" rot="R180">
<attribute name="NAME" x="18.278" y="12.73" size="1.016" layer="25" font="vector" rot="R180"/>
<attribute name="VALUE" x="21.032" y="16.286" size="1.016" layer="27" font="vector" rot="R180"/>
</element>
<element name="R2" library="RHD2000_eval_board" package="1206" override_package3d_urn="urn:adsk.eagle:package:41512857/2" override_package_urn="urn:adsk.eagle:footprint:41512858/1" value="1ohm" x="0" y="18.5" smashed="yes" rot="R90">
<attribute name="NAME" x="0.476" y="17.46" size="1.016" layer="25" font="vector" rot="R90"/>
<attribute name="VALUE" x="2.54" y="15.96" size="1.016" layer="27" font="vector" rot="R90"/>
</element>
<element name="Q2" library="adafruit" package="SOT23" override_package3d_urn="urn:adsk.eagle:package:41510500/2" override_package_urn="urn:adsk.eagle:footprint:41510501/1" value="" x="21" y="11" smashed="yes">
<attribute name="NAME" x="20.095" y="10.405" size="1.27" layer="25"/>
<attribute name="VALUE" x="19.095" y="7.825" size="1.27" layer="27"/>
</element>
<element name="R3" library="RHD2000_eval_board" package="0805" override_package3d_urn="urn:adsk.eagle:package:41510511/2" override_package_urn="urn:adsk.eagle:footprint:41510512/1" value="10k" x="18" y="10.5" smashed="yes" rot="R90">
<attribute name="NAME" x="16.73" y="8.722" size="1.016" layer="25" font="vector" rot="R90"/>
<attribute name="VALUE" x="20.286" y="8.468" size="1.016" layer="27" font="vector" rot="R90"/>
</element>
<element name="S1" library="SparkFun-Switches" package="TACTILE_SWITCH_SMD_4.6X2.8MM" override_package3d_urn="urn:adsk.eagle:package:41517400/2" override_package_urn="urn:adsk.eagle:footprint:41517401/1" value="MOMENTARY-SWITCH-SPST-SMD-4.6X2.8MM" x="24" y="9" smashed="yes" rot="R259">
<attribute name="NAME" x="25.495996875" y="8.70920625" size="0.6096" layer="25" font="vector" ratio="20" rot="R259" align="bottom-center"/>
<attribute name="PROD_ID" value="SWCH-13065" x="24" y="9" size="1.778" layer="27" rot="R259" display="off"/>
</element>
<element name="S2" library="SparkFun-Switches" package="TACTILE_SWITCH_SMD_6.0X3.5MM" value="MOMENTARY-SWITCH-SPST-SMD-6.0X3.5MM" x="0" y="11" smashed="yes" rot="MR270">
<attribute name="NAME" x="-1.905" y="11" size="0.6096" layer="26" font="vector" ratio="20" rot="MR270" align="bottom-center"/>
<attribute name="PROD_ID" value="SWCH-00815" x="0" y="11" size="1.778" layer="28" rot="MR270" display="off"/>
<attribute name="SF_SKU" value="COM-08229" x="0" y="11" size="1.778" layer="28" rot="MR270" display="off"/>
</element>
</elements>
<signals>
<signal name="GND">
<contactref element="U1" pad="1"/>
<contactref element="U1" pad="2"/>
<contactref element="U1" pad="11"/>
<contactref element="U1" pad="14"/>
<contactref element="U1" pad="36"/>
<contactref element="U1" pad="37"/>
<contactref element="U1" pad="38"/>
<contactref element="U1" pad="39"/>
<contactref element="U1" pad="40"/>
<contactref element="U1" pad="41"/>
<contactref element="U1" pad="42"/>
<contactref element="U1" pad="43"/>
<contactref element="U1" pad="44"/>
<contactref element="U1" pad="45"/>
<contactref element="U1" pad="46"/>
<contactref element="U1" pad="47"/>
<contactref element="U1" pad="48"/>
<contactref element="U1" pad="49_1"/>
<contactref element="U1" pad="49_2"/>
<contactref element="U1" pad="49_3"/>
<contactref element="U1" pad="49_4"/>
<contactref element="U1" pad="49_5"/>
<contactref element="U1" pad="49_6"/>
<contactref element="U1" pad="49_7"/>
<contactref element="U1" pad="49_8"/>
<contactref element="U1" pad="49_9"/>
<contactref element="U1" pad="50"/>
<contactref element="U1" pad="51"/>
<contactref element="U1" pad="52"/>
<contactref element="U1" pad="53"/>
<contactref element="SV1" pad="4"/>
<contactref element="Q1" pad="2"/>
<contactref element="U$1" pad="2"/>
<contactref element="5V_GND" pad="2"/>
<contactref element="Q2" pad="2"/>
<contactref element="S1" pad="2"/>
<contactref element="S1" pad="1"/>
<contactref element="S2" pad="1"/>
<wire x1="3.5" y1="11.75" x2="3.5" y2="10.875" width="0.1524" layer="1"/>
<wire x1="3.5" y1="10.875" x2="3.48" y2="10.82" width="0.1524" layer="1"/>
<wire x1="3.5" y1="11.75" x2="3.53" y2="11.77" width="0.1524" layer="1"/>
<wire x1="6.25" y1="12.625" x2="6.25" y2="11.875" width="0.1524" layer="1"/>
<wire x1="6.25" y1="11.875" x2="6.25" y2="10.875" width="0.1524" layer="1"/>
<wire x1="7.375" y1="13.75" x2="6.25" y2="12.625" width="0.1524" layer="1"/>
<wire x1="6.25" y1="10.875" x2="6.23" y2="10.87" width="0.1524" layer="1"/>
<wire x1="7.375" y1="13.75" x2="7.455" y2="13.795" width="0.1524" layer="1"/>
<wire x1="6.25" y1="11.875" x2="3.625" y2="11.875" width="0.1524" layer="1"/>
<wire x1="3.625" y1="11.875" x2="3.53" y2="11.77" width="0.1524" layer="1"/>
<wire x1="2.625" y1="10" x2="1.5" y2="10" width="0.1524" layer="1"/>
<wire x1="3.375" y1="10.75" x2="2.625" y2="10" width="0.1524" layer="1"/>
<wire x1="1.5" y1="10" x2="1.45" y2="9.9" width="0.1524" layer="1"/>
<wire x1="3.375" y1="10.75" x2="3.48" y2="10.82" width="0.1524" layer="1"/>
<wire x1="15" y1="11.25" x2="15.375" y2="10.875" width="0.1524" layer="1"/>
<wire x1="14.875" y1="11.25" x2="15" y2="11.25" width="0.1524" layer="1"/>
<wire x1="12.375" y1="13.75" x2="14.875" y2="11.25" width="0.1524" layer="1"/>
<wire x1="11.5" y1="13.75" x2="12.375" y2="13.75" width="0.1524" layer="1"/>
<wire x1="15.375" y1="10.875" x2="15.38" y2="10.82" width="0.1524" layer="1"/>
<wire x1="11.5" y1="13.75" x2="11.405" y2="13.795" width="0.1524" layer="1"/>
<wire x1="11.5" y1="17.625" x2="11.5" y2="15.875" width="0.1524" layer="1"/>
<wire x1="11.5" y1="15.875" x2="11.405" y2="15.77" width="0.1524" layer="1"/>
<wire x1="11.5" y1="17.625" x2="11.405" y2="17.745" width="0.1524" layer="1"/>
<wire x1="7.5" y1="15.875" x2="7.5" y2="17.625" width="0.1524" layer="1"/>
<wire x1="7.5" y1="17.625" x2="7.455" y2="17.745" width="0.1524" layer="1"/>
<wire x1="7.5" y1="15.875" x2="7.455" y2="15.77" width="0.1524" layer="1"/>
<wire x1="9.5" y1="15.75" x2="9.5" y2="13.875" width="0.1524" layer="1"/>
<wire x1="9.5" y1="13.875" x2="9.43" y2="13.795" width="0.1524" layer="1"/>
<wire x1="9.5" y1="15.75" x2="9.43" y2="15.77" width="0.1524" layer="1"/>
<wire x1="9.5" y1="15.875" x2="9.5" y2="17.625" width="0.1524" layer="1"/>
<wire x1="9.5" y1="17.625" x2="9.43" y2="17.745" width="0.1524" layer="1"/>
<wire x1="9.375" y1="17.75" x2="7.5" y2="17.75" width="0.1524" layer="1"/>
<wire x1="9.375" y1="17.75" x2="9.43" y2="17.745" width="0.1524" layer="1"/>
<wire x1="9.5" y1="15.875" x2="11.375" y2="15.875" width="0.1524" layer="1"/>
<wire x1="11.375" y1="15.875" x2="11.405" y2="15.77" width="0.1524" layer="1"/>
<wire x1="9.5" y1="15.875" x2="9.43" y2="15.77" width="0.1524" layer="1"/>
<wire x1="11.5" y1="15.75" x2="11.5" y2="13.875" width="0.1524" layer="1"/>
<wire x1="11.5" y1="13.875" x2="11.405" y2="13.795" width="0.1524" layer="1"/>
<wire x1="11.5" y1="15.75" x2="11.405" y2="15.77" width="0.1524" layer="1"/>
<wire x1="7.5" y1="15.75" x2="7.5" y2="13.875" width="0.1524" layer="1"/>
<wire x1="7.5" y1="13.875" x2="7.455" y2="13.795" width="0.1524" layer="1"/>
<wire x1="7.5" y1="15.75" x2="7.455" y2="15.77" width="0.1524" layer="1"/>
<wire x1="22.75" y1="9.125" x2="22.75" y2="7.25" width="0.1524" layer="1"/>
<wire x1="22" y1="9.875" x2="22.125" y2="9.75" width="0.1524" layer="1"/>
<wire x1="22.125" y1="9.75" x2="22.75" y2="9.125" width="0.1524" layer="1"/>
<wire x1="22.75" y1="7.25" x2="22.8235375" y2="7.140309375" width="0.1524" layer="1"/>
<wire x1="22" y1="9.875" x2="21.95" y2="9.9" width="0.1524" layer="1"/>
<wire x1="22.125" y1="9.75" x2="23.5" y2="11.125" width="0.1524" layer="1"/>
<wire x1="23.5" y1="11.125" x2="23.60585625" y2="11.16498125" width="0.1524" layer="1"/>
<wire x1="22.125" y1="9.75" x2="21.95" y2="9.9" width="0.1524" layer="1"/>
<wire x1="23.5" y1="12" x2="23.5" y2="11.25" width="0.1524" layer="1"/>
<wire x1="22.75" y1="12.75" x2="23.5" y2="12" width="0.1524" layer="1"/>
<wire x1="22.75" y1="15.25" x2="22.75" y2="12.75" width="0.1524" layer="1"/>
<wire x1="23.5" y1="16" x2="22.75" y2="15.25" width="0.1524" layer="1"/>
<wire x1="23.5" y1="11.25" x2="23.60585625" y2="11.16498125" width="0.1524" layer="1"/>
<wire x1="-0.75" y1="14.125" x2="0" y2="14.125" width="0.1524" layer="16"/>
<wire x1="-4" y1="10.875" x2="-0.75" y2="14.125" width="0.1524" layer="16"/>
<wire x1="0" y1="14.125" x2="0" y2="14.15" width="0.1524" layer="16"/>
<wire x1="-4" y1="10.875" x2="-4.02883125" y2="10.76573125" width="0.1524" layer="16"/>
<wire x1="3.5" y1="19.875" x2="3.5" y2="20.625" width="0.1524" layer="1"/>
<wire x1="3.5" y1="20.625" x2="3.48" y2="20.72" width="0.1524" layer="1"/>
<wire x1="3.5" y1="19.875" x2="3.53" y2="19.77" width="0.1524" layer="1"/>
<wire x1="3.625" y1="19.75" x2="3.625" y2="19" width="0.1524" layer="1"/>
<wire x1="3.625" y1="19" x2="3.53" y2="18.97" width="0.1524" layer="1"/>
<wire x1="3.625" y1="19.75" x2="3.53" y2="19.77" width="0.1524" layer="1"/>
<wire x1="7.75" y1="20.625" x2="7.5" y2="20.625" width="0.1524" layer="1"/>
<wire x1="7.5" y1="20.625" x2="7.125" y2="20.625" width="0.1524" layer="1"/>
<wire x1="7.125" y1="20.625" x2="7.03" y2="20.67" width="0.1524" layer="1"/>
<wire x1="7.75" y1="20.625" x2="7.83" y2="20.67" width="0.1524" layer="1"/>
<wire x1="5.375" y1="20.625" x2="4.75" y2="20.625" width="0.1524" layer="1"/>
<wire x1="4.75" y1="20.625" x2="4.63" y2="20.67" width="0.1524" layer="1"/>
<wire x1="5.375" y1="20.625" x2="5.43" y2="20.67" width="0.1524" layer="1"/>
<wire x1="5.5" y1="20.625" x2="6.125" y2="20.625" width="0.1524" layer="1"/>
<wire x1="6.125" y1="20.625" x2="6.23" y2="20.67" width="0.1524" layer="1"/>
<wire x1="5.5" y1="20.625" x2="5.43" y2="20.67" width="0.1524" layer="1"/>
<wire x1="6.25" y1="20.625" x2="7" y2="20.625" width="0.1524" layer="1"/>
<wire x1="7" y1="20.625" x2="7.03" y2="20.67" width="0.1524" layer="1"/>
<wire x1="6.25" y1="20.625" x2="6.23" y2="20.67" width="0.1524" layer="1"/>
<wire x1="4.625" y1="20.75" x2="3.5" y2="20.75" width="0.1524" layer="1"/>
<wire x1="3.5" y1="20.75" x2="3.48" y2="20.72" width="0.1524" layer="1"/>
<wire x1="4.625" y1="20.75" x2="4.63" y2="20.67" width="0.1524" layer="1"/>
<wire x1="13.375" y1="20.625" x2="12.75" y2="20.625" width="0.1524" layer="1"/>
<wire x1="12.75" y1="20.625" x2="12.63" y2="20.67" width="0.1524" layer="1"/>
<wire x1="13.375" y1="20.625" x2="13.43" y2="20.67" width="0.1524" layer="1"/>
<wire x1="14.25" y1="20.75" x2="15.375" y2="20.75" width="0.1524" layer="1"/>
<wire x1="15.375" y1="20.75" x2="15.38" y2="20.72" width="0.1524" layer="1"/>
<wire x1="14.25" y1="20.75" x2="14.23" y2="20.67" width="0.1524" layer="1"/>
<wire x1="14.125" y1="20.625" x2="13.5" y2="20.625" width="0.1524" layer="1"/>
<wire x1="13.5" y1="20.625" x2="13.43" y2="20.67" width="0.1524" layer="1"/>
<wire x1="14.125" y1="20.625" x2="14.23" y2="20.67" width="0.1524" layer="1"/>
<wire x1="11.75" y1="20.625" x2="11.125" y2="20.625" width="0.1524" layer="1"/>
<wire x1="11.125" y1="20.625" x2="11.03" y2="20.67" width="0.1524" layer="1"/>
<wire x1="11.75" y1="20.625" x2="11.83" y2="20.67" width="0.1524" layer="1"/>
<wire x1="9.375" y1="20.625" x2="8.75" y2="20.625" width="0.1524" layer="1"/>
<wire x1="8.75" y1="20.625" x2="8.63" y2="20.67" width="0.1524" layer="1"/>
<wire x1="9.375" y1="20.625" x2="9.43" y2="20.67" width="0.1524" layer="1"/>
<wire x1="9.5" y1="20.625" x2="10.125" y2="20.625" width="0.1524" layer="1"/>
<wire x1="10.125" y1="20.625" x2="10.23" y2="20.67" width="0.1524" layer="1"/>
<wire x1="9.5" y1="20.625" x2="9.43" y2="20.67" width="0.1524" layer="1"/>
<wire x1="10.25" y1="20.625" x2="11" y2="20.625" width="0.1524" layer="1"/>
<wire x1="11" y1="20.625" x2="11.03" y2="20.67" width="0.1524" layer="1"/>
<wire x1="10.25" y1="20.625" x2="10.23" y2="20.67" width="0.1524" layer="1"/>
<wire x1="11.875" y1="20.625" x2="12.625" y2="20.625" width="0.1524" layer="1"/>
<wire x1="12.625" y1="20.625" x2="12.63" y2="20.67" width="0.1524" layer="1"/>
<wire x1="11.875" y1="20.625" x2="11.83" y2="20.67" width="0.1524" layer="1"/>
<wire x1="8.625" y1="20.625" x2="7.875" y2="20.625" width="0.1524" layer="1"/>
<wire x1="7.875" y1="20.625" x2="7.83" y2="20.67" width="0.1524" layer="1"/>
<wire x1="8.625" y1="20.625" x2="8.63" y2="20.67" width="0.1524" layer="1"/>
<wire x1="15.5" y1="20.625" x2="17.625" y2="18.5" width="0.1524" layer="1"/>
<wire x1="17.625" y1="18.5" x2="17.73" y2="18.5" width="0.1524" layer="1"/>
<wire x1="15.5" y1="20.625" x2="15.38" y2="20.72" width="0.1524" layer="1"/>
<wire x1="4.875" y1="14.25" x2="0" y2="14.25" width="0.1524" layer="16"/>
<wire x1="9.125" y1="18.5" x2="4.875" y2="14.25" width="0.1524" layer="16"/>
<wire x1="17.73" y1="18.5" x2="9.125" y2="18.5" width="0.1524" layer="16"/>
<wire x1="0" y1="14.25" x2="0" y2="14.15" width="0.1524" layer="16"/>
<wire x1="21" y1="15.25" x2="22.75" y2="15.25" width="0.1524" layer="1"/>
<wire x1="17.75" y1="18.5" x2="21" y2="15.25" width="0.1524" layer="1"/>
<wire x1="17.75" y1="18.5" x2="17.73" y2="18.5" width="0.1524" layer="1"/>
<wire x1="7.5" y1="20.625" x2="7.5" y2="17.75" width="0.1524" layer="1"/>
<wire x1="7.5" y1="17.75" x2="7.455" y2="17.745" width="0.1524" layer="1"/>
</signal>
<signal name="N$2">
<contactref element="C1" pad="2"/>
<contactref element="IC1" pad="1"/>
<wire x1="6.875" y1="0.625" x2="6.875" y2="2" width="0.1524" layer="1"/>
<wire x1="5.5" y1="-0.75" x2="6.875" y2="0.625" width="0.1524" layer="1"/>
<wire x1="6.875" y1="2" x2="6.9" y2="2.06" width="0.1524" layer="1"/>
<wire x1="5.5" y1="-0.75" x2="5.431" y2="-0.8" width="0.1524" layer="1"/>
</signal>
<signal name="VDD">
<contactref element="IC1" pad="2"/>
<contactref element="C1" pad="1"/>
<contactref element="U1" pad="8"/>
<contactref element="U1" pad="3"/>
<contactref element="SV1" pad="5"/>
<contactref element="U$1" pad="3"/>
<contactref element="R1" pad="2"/>
<contactref element="R2" pad="2"/>
<contactref element="R3" pad="2"/>
<wire x1="18" y1="14" x2="18" y2="11.5414" width="0.1524" layer="1"/>
<wire x1="19.375" y1="15.375" x2="18" y2="14" width="0.1524" layer="1"/>
<wire x1="19.75" y1="15.375" x2="19.375" y2="15.375" width="0.1524" layer="16"/>
<wire x1="22.75" y1="18.375" x2="19.75" y2="15.375" width="0.1524" layer="16"/>
<wire x1="18" y1="14" x2="17.9586" y2="14" width="0.1524" layer="1"/>
<wire x1="22.75" y1="18.375" x2="22.78710625" y2="18.437903125" width="0.1524" layer="16"/>
<wire x1="3.875" y1="14.5" x2="3.625" y2="14.25" width="0.1524" layer="1"/>
<wire x1="4" y1="14.5" x2="3.875" y2="14.5" width="0.1524" layer="1"/>
<wire x1="4.25" y1="14.75" x2="4" y2="14.5" width="0.1524" layer="1"/>
<wire x1="4.25" y1="17.625" x2="4.25" y2="14.75" width="0.1524" layer="1"/>
<wire x1="3.625" y1="18.25" x2="4.25" y2="17.625" width="0.1524" layer="1"/>
<wire x1="3.625" y1="14.25" x2="3.53" y2="14.17" width="0.1524" layer="1"/>
<wire x1="3.625" y1="18.25" x2="3.53" y2="18.17" width="0.1524" layer="1"/>
<wire x1="1.375" y1="20.125" x2="0" y2="20.125" width="0.1524" layer="1"/>
<wire x1="3.25" y1="18.25" x2="1.375" y2="20.125" width="0.1524" layer="1"/>
<wire x1="3.5" y1="18.25" x2="3.25" y2="18.25" width="0.1524" layer="1"/>
<wire x1="3.5" y1="18.25" x2="3.53" y2="18.17" width="0.1524" layer="1"/>
<wire x1="6.875" y1="3.875" x2="6.875" y2="4" width="0.1524" layer="1"/>
<wire x1="6.875" y1="4" x2="6.875" y2="4.25" width="0.1524" layer="1"/>
<wire x1="2.25" y1="-0.75" x2="5.125" y2="2.125" width="0.1524" layer="1"/>
<wire x1="5.125" y1="2.125" x2="6.875" y2="3.875" width="0.1524" layer="1"/>
<wire x1="6.875" y1="4.25" x2="6.9" y2="4.35" width="0.1524" layer="1"/>
<wire x1="2.25" y1="-0.75" x2="2.129" y2="-0.8" width="0.1524" layer="1"/>
<wire x1="-4.125" y1="13.125" x2="-4.625" y2="13.125" width="0.1524" layer="1"/>
<wire x1="-1.625" y1="10.625" x2="-4.125" y2="13.125" width="0.1524" layer="1"/>
<wire x1="-1.625" y1="8.875" x2="-1.625" y2="10.625" width="0.1524" layer="1"/>
<wire x1="5.125" y1="2.125" x2="-1.625" y2="8.875" width="0.1524" layer="1"/>
<wire x1="-4.625" y1="13.125" x2="-4.6776625" y2="13.2214625" width="0.1524" layer="1"/>
<wire x1="0" y1="18" x2="0" y2="20.125" width="0.1524" layer="1"/>
<wire x1="-4.75" y1="13.25" x2="0" y2="18" width="0.1524" layer="16"/>
<wire x1="0" y1="20.125" x2="0" y2="20.151" width="0.1524" layer="1"/>
<wire x1="-4.75" y1="13.25" x2="-4.6776625" y2="13.2214625" width="0.1524" layer="16"/>
<wire x1="19.375" y1="12.375" x2="19.375" y2="15.375" width="0.1524" layer="16"/>
<wire x1="10.125" y1="3.125" x2="19.375" y2="12.375" width="0.1524" layer="16"/>
<wire x1="8.25" y1="3.125" x2="10.125" y2="3.125" width="0.1524" layer="16"/>
<wire x1="8" y1="2.875" x2="8.25" y2="3.125" width="0.1524" layer="16"/>
<wire x1="6.875" y1="4" x2="8" y2="2.875" width="0.1524" layer="1"/>
<wire x1="6.875" y1="4" x2="6.9" y2="4.35" width="0.1524" layer="1"/>
<via x="19.375" y="15.375" extent="1-16" drill="0.35"/>
<via x="0" y="18" extent="1-16" drill="0.35"/>
<via x="8" y="2.875" extent="1-16" drill="0.35"/>
</signal>
<signal name="RX">
<contactref element="U1" pad="30"/>
<contactref element="SV1" pad="3"/>
<wire x1="12.75" y1="15.75" x2="15.25" y2="15.75" width="0.1524" layer="1"/>
<wire x1="6.875" y1="15.75" x2="12.75" y2="15.75" width="0.1524" layer="16"/>
<wire x1="0.375" y1="9.25" x2="6.875" y2="15.75" width="0.1524" layer="16"/>
<wire x1="-2.5" y1="9.25" x2="0.375" y2="9.25" width="0.1524" layer="16"/>
<wire x1="-3.375" y1="8.375" x2="-2.5" y2="9.25" width="0.1524" layer="16"/>
<wire x1="15.25" y1="15.75" x2="15.33" y2="15.77" width="0.1524" layer="1"/>
<wire x1="-3.375" y1="8.375" x2="-3.38" y2="8.31" width="0.1524" layer="16"/>
<via x="12.75" y="15.75" extent="1-16" drill="0.35"/>
</signal>
<signal name="TX">
<contactref element="SV1" pad="2"/>
<contactref element="U1" pad="31"/>
<wire x1="14.375" y1="16.5" x2="15.25" y2="16.5" width="0.1524" layer="1"/>
<wire x1="14.375" y1="13.75" x2="14.375" y2="16.5" width="0.1524" layer="16"/>
<wire x1="10.25" y1="9.625" x2="14.375" y2="13.75" width="0.1524" layer="16"/>
<wire x1="10.25" y1="5.375" x2="10.25" y2="9.625" width="0.1524" layer="16"/>
<wire x1="9.875" y1="5" x2="10.25" y2="5.375" width="0.1524" layer="16"/>
<wire x1="-1.875" y1="5" x2="9.875" y2="5" width="0.1524" layer="16"/>
<wire x1="-2.625" y1="5.75" x2="-1.875" y2="5" width="0.1524" layer="16"/>
<wire x1="15.25" y1="16.5" x2="15.33" y2="16.57" width="0.1524" layer="1"/>
<wire x1="-2.625" y1="5.75" x2="-2.731165625" y2="5.854265625" width="0.1524" layer="16"/>
<via x="14.375" y="16.5" extent="1-16" drill="0.35"/>
</signal>
<signal name="GPIO0">
<contactref element="SV1" pad="1"/>
<contactref element="U1" pad="23"/>
<contactref element="R1" pad="1"/>
<wire x1="13.75" y1="10.5" x2="13.5" y2="10.75" width="0.1524" layer="1"/>
<wire x1="13.75" y1="10.375" x2="13.75" y2="10.5" width="0.1524" layer="1"/>
<wire x1="14" y1="10.125" x2="13.75" y2="10.375" width="0.1524" layer="1"/>
<wire x1="17" y1="10.125" x2="16.125" y2="10.125" width="0.1524" layer="1"/>
<wire x1="16.125" y1="10.125" x2="14" y2="10.125" width="0.1524" layer="1"/>
<wire x1="17.625" y1="10.75" x2="17" y2="10.125" width="0.1524" layer="1"/>
<wire x1="18.875" y1="10.75" x2="17.625" y2="10.75" width="0.1524" layer="1"/>
<wire x1="20" y1="11.875" x2="18.875" y2="10.75" width="0.1524" layer="1"/>
<wire x1="20" y1="14" x2="20" y2="11.875" width="0.1524" layer="1"/>
<wire x1="13.5" y1="10.75" x2="13.43" y2="10.87" width="0.1524" layer="1"/>
<wire x1="20" y1="14" x2="20.0414" y2="14" width="0.1524" layer="1"/>
<wire x1="9.625" y1="3.5" x2="-2" y2="3.5" width="0.1524" layer="16"/>
<wire x1="16.125" y1="10" x2="9.625" y2="3.5" width="0.1524" layer="16"/>
<wire x1="16.125" y1="10.125" x2="16.125" y2="10" width="0.1524" layer="1"/>
<wire x1="-2" y1="3.5" x2="-2.082334375" y2="3.398534375" width="0.1524" layer="16"/>
<via x="16.125" y="10" extent="1-16" drill="0.35"/>
</signal>
<signal name="N$5">
<contactref element="K1" pad="8"/>
<contactref element="Q2" pad="3"/>
<contactref element="D1" pad="A"/>
<wire x1="18.25" y1="1.75" x2="18.375" y2="1.75" width="0.1524" layer="1"/>
<wire x1="18.375" y1="1.75" x2="19.125" y2="1.75" width="0.1524" layer="1"/>
<wire x1="16.75" y1="0.25" x2="18.25" y2="1.75" width="0.1524" layer="1"/>
<wire x1="19.125" y1="1.75" x2="19.24" y2="1.85" width="0.1524" layer="1"/>
<wire x1="16.75" y1="0.25" x2="16.69" y2="0.16" width="0.1524" layer="1"/>
<wire x1="21" y1="4.375" x2="21" y2="12.1" width="0.1524" layer="1"/>
<wire x1="18.375" y1="1.75" x2="21" y2="4.375" width="0.1524" layer="1"/>
</signal>
<signal name="IR_IN">
<contactref element="U1" pad="16"/>
<contactref element="U$1" pad="1"/>
<wire x1="7.875" y1="11.125" x2="7.875" y2="10.875" width="0.1524" layer="1"/>
<wire x1="8.625" y1="11.875" x2="7.875" y2="11.125" width="0.1524" layer="1"/>
<wire x1="13.375" y1="11.875" x2="8.625" y2="11.875" width="0.1524" layer="1"/>
<wire x1="17.5" y1="16" x2="13.375" y2="11.875" width="0.1524" layer="16"/>
<wire x1="19.75" y1="16" x2="17.5" y2="16" width="0.1524" layer="1"/>
<wire x1="21.125" y1="14.625" x2="19.75" y2="16" width="0.1524" layer="1"/>
<wire x1="22.125" y1="14.625" x2="21.125" y2="14.625" width="0.1524" layer="1"/>
<wire x1="23.125" y1="14.625" x2="22.125" y2="14.625" width="0.1524" layer="16"/>
<wire x1="24.125" y1="13.625" x2="23.125" y2="14.625" width="0.1524" layer="16"/>
<wire x1="7.875" y1="10.875" x2="7.83" y2="10.87" width="0.1524" layer="1"/>
<wire x1="24.125" y1="13.625" x2="24.212890625" y2="13.56209375" width="0.1524" layer="16"/>
<via x="13.375" y="11.875" extent="1-16" drill="0.35"/>
<via x="17.5" y="16" extent="1-16" drill="0.35"/>
<via x="22.125" y="14.625" extent="1-16" drill="0.35"/>
</signal>
<signal name="IR_OUT">
<contactref element="U1" pad="18"/>
<contactref element="Q1" pad="1"/>
<wire x1="9.125" y1="10.5" x2="9.375" y2="10.75" width="0.1524" layer="1"/>
<wire x1="9.125" y1="10.375" x2="9.125" y2="10.5" width="0.1524" layer="1"/>
<wire x1="7.625" y1="8.875" x2="9.125" y2="10.375" width="0.1524" layer="1"/>
<wire x1="0.625" y1="8.875" x2="7.625" y2="8.875" width="0.1524" layer="1"/>
<wire x1="-0.375" y1="9.875" x2="0.625" y2="8.875" width="0.1524" layer="1"/>
<wire x1="9.375" y1="10.75" x2="9.43" y2="10.87" width="0.1524" layer="1"/>
<wire x1="-0.375" y1="9.875" x2="-0.45" y2="9.9" width="0.1524" layer="1"/>
</signal>
<signal name="N$10">
<contactref element="LED1" pad="K"/>
<contactref element="LED2" pad="K"/>
<contactref element="Q1" pad="3"/>
<wire x1="0.25" y1="12.125" x2="0.5" y2="12.125" width="0.1524" layer="1"/>
<wire x1="-3.875" y1="16.25" x2="-1.25" y2="13.625" width="0.1524" layer="1"/>
<wire x1="-1.25" y1="13.625" x2="0.25" y2="12.125" width="0.1524" layer="1"/>
<wire x1="0.5" y1="12.125" x2="0.5" y2="12.1" width="0.1524" layer="1"/>
<wire x1="-3.875" y1="16.25" x2="-3.898771875" y2="16.294228125" width="0.1524" layer="1"/>
<wire x1="10.25" y1="2.5" x2="21.75" y2="2.5" width="0.1524" layer="16"/>
<wire x1="6.875" y1="5.875" x2="10.25" y2="2.5" width="0.1524" layer="1"/>
<wire x1="2" y1="5.875" x2="6.875" y2="5.875" width="0.1524" layer="1"/>
<wire x1="-1.25" y1="9.125" x2="2" y2="5.875" width="0.1524" layer="1"/>
<wire x1="-1.25" y1="13.625" x2="-1.25" y2="9.125" width="0.1524" layer="1"/>
<wire x1="21.75" y1="2.5" x2="21.85351875" y2="2.40685625" width="0.1524" layer="16"/>
<via x="10.25" y="2.5" extent="1-16" drill="0.35"/>
</signal>
<signal name="N$6">
<contactref element="K1" pad="7"/>
<contactref element="IN_IN_OUT" pad="3"/>
<wire x1="13.375" y1="-2.75" x2="13.375" y2="0.125" width="0.8" layer="1"/>
<wire x1="13.125" y1="-3" x2="13.375" y2="-2.75" width="0.1524" layer="1"/>
<wire x1="13.375" y1="0.125" x2="13.49" y2="0.16" width="0.1524" layer="1"/>
<wire x1="13.125" y1="-3" x2="13.04" y2="-3" width="0.1524" layer="1"/>
</signal>
<signal name="N$7">
<contactref element="K1" pad="6"/>
<contactref element="IN_IN_OUT" pad="2"/>
<wire x1="11.25" y1="-2.25" x2="11.25" y2="0.125" width="0.8" layer="1"/>
<wire x1="10.5" y1="-3" x2="11.25" y2="-2.25" width="0.8" layer="1"/>
<wire x1="11.25" y1="0.125" x2="11.29" y2="0.16" width="0.1524" layer="1"/>
</signal>
<signal name="5V">
<contactref element="IC1" pad="3"/>
<contactref element="5V_GND" pad="1"/>
<contactref element="K1" pad="1"/>
<contactref element="D1" pad="C"/>
<wire x1="18.25" y1="5.625" x2="19.125" y2="5.625" width="0.1524" layer="1"/>
<wire x1="16.75" y1="7.125" x2="18.25" y2="5.625" width="0.1524" layer="1"/>
<wire x1="19.125" y1="5.625" x2="19.24" y2="5.55" width="0.1524" layer="1"/>
<wire x1="16.75" y1="7.125" x2="16.69" y2="7.16" width="0.1524" layer="1"/>
<wire x1="7" y1="7" x2="7" y2="6.75" width="0.1524" layer="1"/>
<wire x1="8.375" y1="8.375" x2="7" y2="7" width="0.1524" layer="1"/>
<wire x1="15.5" y1="8.375" x2="12.375" y2="8.375" width="0.1524" layer="1"/>
<wire x1="12.375" y1="8.375" x2="8.375" y2="8.375" width="0.1524" layer="1"/>
<wire x1="16.625" y1="7.25" x2="15.5" y2="8.375" width="0.1524" layer="1"/>
<wire x1="7" y1="6.75" x2="6.9" y2="6.64" width="0.1524" layer="1"/>
<wire x1="16.625" y1="7.25" x2="16.69" y2="7.16" width="0.1524" layer="1"/>
<wire x1="20.25" y1="17.125" x2="20.25" y2="18.5" width="0.1524" layer="16"/>
<wire x1="12.375" y1="9.25" x2="20.25" y2="17.125" width="0.1524" layer="16"/>
<wire x1="12.375" y1="8.375" x2="12.375" y2="9.25" width="0.1524" layer="1"/>
<wire x1="20.25" y1="18.5" x2="20.27" y2="18.5" width="0.1524" layer="16"/>
<via x="12.375" y="9.25" extent="1-16" drill="0.35"/>
</signal>
<signal name="N$8">
<contactref element="LED2" pad="A"/>
<contactref element="LED1" pad="A"/>
<contactref element="R2" pad="1"/>
<wire x1="-1.25" y1="16.875" x2="0" y2="16.875" width="0.1524" layer="1"/>
<wire x1="-3" y1="18.625" x2="-1.25" y2="16.875" width="0.1524" layer="1"/>
<wire x1="0" y1="16.875" x2="0" y2="16.849" width="0.1524" layer="1"/>
<wire x1="-3" y1="18.625" x2="-3.10123125" y2="18.70576875" width="0.1524" layer="1"/>
<wire x1="23.125" y1="12.75" x2="23.125" y2="4.625" width="0.1524" layer="16"/>
<wire x1="21.5" y1="14.375" x2="23.125" y2="12.75" width="0.1524" layer="16"/>
<wire x1="21.5" y1="16.25" x2="21.5" y2="14.375" width="0.1524" layer="16"/>
<wire x1="21.5" y1="19.5" x2="21.5" y2="16.25" width="0.1524" layer="1"/>
<wire x1="20.75" y1="20.25" x2="21.5" y2="19.5" width="0.1524" layer="1"/>
<wire x1="18.625" y1="20.25" x2="20.75" y2="20.25" width="0.1524" layer="1"/>
<wire x1="-1.5" y1="20.25" x2="18.625" y2="20.25" width="0.1524" layer="16"/>
<wire x1="-3" y1="18.75" x2="-1.5" y2="20.25" width="0.1524" layer="16"/>
<wire x1="23.125" y1="4.625" x2="23.146484375" y2="4.593140625" width="0.1524" layer="16"/>
<wire x1="-3" y1="18.75" x2="-3.10123125" y2="18.70576875" width="0.1524" layer="16"/>
<via x="21.5" y="16.25" extent="1-16" drill="0.35"/>
<via x="18.625" y="20.25" extent="1-16" drill="0.35"/>
</signal>
<signal name="N$9">
<contactref element="U1" pad="21"/>
<contactref element="Q2" pad="1"/>
<wire x1="12.125" y1="10.5" x2="11.875" y2="10.75" width="0.1524" layer="1"/>
<wire x1="12.125" y1="10.375" x2="12.125" y2="10.5" width="0.1524" layer="1"/>
<wire x1="13.5" y1="9" x2="12.125" y2="10.375" width="0.1524" layer="1"/>
<wire x1="16.875" y1="9" x2="13.5" y2="9" width="0.1524" layer="1"/>
<wire x1="17.25" y1="8.625" x2="16.875" y2="9" width="0.1524" layer="1"/>
<wire x1="18.75" y1="8.625" x2="17.25" y2="8.625" width="0.1524" layer="1"/>
<wire x1="20" y1="9.875" x2="18.75" y2="8.625" width="0.1524" layer="1"/>
<wire x1="11.875" y1="10.75" x2="11.83" y2="10.87" width="0.1524" layer="1"/>
<wire x1="20" y1="9.875" x2="20.05" y2="9.9" width="0.1524" layer="1"/>
</signal>
<signal name="N$4">
<contactref element="U1" pad="22"/>
<contactref element="R3" pad="1"/>
<wire x1="13" y1="10.5" x2="12.63" y2="10.87" width="0.1524" layer="1"/>
<wire x1="13" y1="10.375" x2="13" y2="10.5" width="0.1524" layer="1"/>
<wire x1="14" y1="9.375" x2="13" y2="10.375" width="0.1524" layer="1"/>
<wire x1="18" y1="9.375" x2="14" y2="9.375" width="0.1524" layer="1"/>
<wire x1="18" y1="9.375" x2="18" y2="9.4586" width="0.1524" layer="1"/>
</signal>
<signal name="RESET_BTN">
<contactref element="S1" pad="3"/>
<contactref element="S1" pad="4"/>
<contactref element="U1" pad="19"/>
<contactref element="S2" pad="2"/>
<wire x1="24.5" y1="10.125" x2="24.5" y2="6.875" width="0.1524" layer="1"/>
<wire x1="25.125" y1="10.75" x2="24.5" y2="10.125" width="0.1524" layer="1"/>
<wire x1="24.5" y1="6.875" x2="24.394140625" y2="6.835015625" width="0.1524" layer="1"/>
<wire x1="25.125" y1="10.75" x2="25.176459375" y2="10.8596875" width="0.1524" layer="1"/>
<wire x1="10.125" y1="10.5" x2="10.125" y2="10.75" width="0.1524" layer="1"/>
<wire x1="8.625" y1="9" x2="10.125" y2="10.5" width="0.1524" layer="1"/>
<wire x1="1.125" y1="9" x2="6.25" y2="9" width="0.1524" layer="16"/>
<wire x1="6.25" y1="9" x2="8.625" y2="9" width="0.1524" layer="16"/>
<wire x1="0" y1="7.875" x2="1.125" y2="9" width="0.1524" layer="16"/>
<wire x1="10.125" y1="10.75" x2="10.23" y2="10.87" width="0.1524" layer="1"/>
<wire x1="0" y1="7.875" x2="0" y2="7.85" width="0.1524" layer="16"/>
<wire x1="23.875" y1="6.75" x2="24.375" y2="6.75" width="0.1524" layer="1"/>
<wire x1="19.875" y1="2.75" x2="23.875" y2="6.75" width="0.1524" layer="1"/>
<wire x1="19.875" y1="1.125" x2="19.875" y2="2.75" width="0.1524" layer="1"/>
<wire x1="17.75" y1="-1" x2="19.875" y2="1.125" width="0.1524" layer="1"/>
<wire x1="16" y1="-1" x2="17.75" y2="-1" width="0.1524" layer="1"/>
<wire x1="14.375" y1="0.625" x2="16" y2="-1" width="0.1524" layer="1"/>
<wire x1="14.375" y1="1.125" x2="14.375" y2="0.625" width="0.1524" layer="1"/>
<wire x1="9.875" y1="5.625" x2="14.375" y2="1.125" width="0.1524" layer="1"/>
<wire x1="9.625" y1="5.625" x2="9.875" y2="5.625" width="0.1524" layer="1"/>
<wire x1="6.25" y1="9" x2="9.625" y2="5.625" width="0.1524" layer="16"/>
<wire x1="24.375" y1="6.75" x2="24.394140625" y2="6.835015625" width="0.1524" layer="1"/>
<via x="8.625" y="9" extent="1-16" drill="0.35"/>
<via x="9.625" y="5.625" extent="1-16" drill="0.35"/>
</signal>
</signals>
<mfgpreviewcolors>
<mfgpreviewcolor name="soldermaskcolor" color="0xC8008000"/>
<mfgpreviewcolor name="silkscreencolor" color="0xFFFEFEFE"/>
<mfgpreviewcolor name="backgroundcolor" color="0xFF282828"/>
<mfgpreviewcolor name="coppercolor" color="0xFFFFBF00"/>
<mfgpreviewcolor name="substratecolor" color="0xFF786E46"/>
</mfgpreviewcolors>
</board>
</drawing>
<compatibility>
<note version="8.2" severity="warning">
Since Version 8.2, EAGLE supports online libraries. The ids
of those online libraries will not be understood (or retained)
with this version.
</note>
<note version="8.3" severity="warning">
Since Version 8.3, EAGLE supports Fusion synchronisation.
This feature will not be available in this version and saving
the document will break the link to the Fusion PCB feature.
</note>
<note version="8.3" severity="warning">
Since Version 8.3, EAGLE supports URNs for individual library
assets (packages, symbols, and devices). The URNs of those assets
will not be understood (or retained) with this version.
</note>
<note version="8.3" severity="warning">
Since Version 8.3, EAGLE supports the association of 3D packages
with devices in libraries, schematics, and board files. Those 3D
packages will not be understood (or retained) with this version.
</note>
<note version="9.4" severity="warning">
Since Version 9.4, EAGLE supports the overriding of 3D packages
in schematics and board files. Those overridden 3d packages
will not be understood (or retained) with this version.
</note>
</compatibility>
</eagle>
