G04 EAGLE Gerber RS-274X export*
G75*
%MOMM*%
%FSLAX34Y34*%
%LPD*%
%INTop Copper*%
%IPPOS*%
%AMOC8*
5,1,8,0,0,1.08239X$1,22.5*%
G01*
%ADD10C,0.170000*%
%ADD11R,2.500000X1.000000*%
%ADD12C,0.508000*%
%ADD13C,0.756400*%


D10*
X188642Y168854D02*
X165342Y168854D01*
X165342Y177154D01*
X188642Y177154D01*
X188642Y168854D01*
X188642Y170469D02*
X165342Y170469D01*
X165342Y172084D02*
X188642Y172084D01*
X188642Y173699D02*
X165342Y173699D01*
X165342Y175314D02*
X188642Y175314D01*
X188642Y176929D02*
X165342Y176929D01*
D11*
X176992Y153004D03*
X176992Y133004D03*
X176992Y113004D03*
X176992Y93004D03*
X176992Y73004D03*
X176992Y53004D03*
X12992Y173004D03*
X12992Y153004D03*
X12992Y133004D03*
X12992Y113004D03*
X12992Y93004D03*
X12992Y73004D03*
X12992Y53004D03*
X12992Y33954D03*
X176992Y33954D03*
D10*
X360440Y168854D02*
X383740Y168854D01*
X360440Y168854D02*
X360440Y177154D01*
X383740Y177154D01*
X383740Y168854D01*
X383740Y170469D02*
X360440Y170469D01*
X360440Y172084D02*
X383740Y172084D01*
X383740Y173699D02*
X360440Y173699D01*
X360440Y175314D02*
X383740Y175314D01*
X383740Y176929D02*
X360440Y176929D01*
D11*
X372090Y153004D03*
X372090Y133004D03*
X372090Y113004D03*
X372090Y93004D03*
X372090Y73004D03*
X372090Y53004D03*
X208090Y173004D03*
X208090Y153004D03*
X208090Y133004D03*
X208090Y113004D03*
X208090Y93004D03*
X208090Y73004D03*
X208090Y53004D03*
X208090Y33954D03*
X372090Y33954D03*
D10*
X555537Y168854D02*
X578837Y168854D01*
X555537Y168854D02*
X555537Y177154D01*
X578837Y177154D01*
X578837Y168854D01*
X578837Y170469D02*
X555537Y170469D01*
X555537Y172084D02*
X578837Y172084D01*
X578837Y173699D02*
X555537Y173699D01*
X555537Y175314D02*
X578837Y175314D01*
X578837Y176929D02*
X555537Y176929D01*
D11*
X567187Y153004D03*
X567187Y133004D03*
X567187Y113004D03*
X567187Y93004D03*
X567187Y73004D03*
X567187Y53004D03*
X403187Y173004D03*
X403187Y153004D03*
X403187Y133004D03*
X403187Y113004D03*
X403187Y93004D03*
X403187Y73004D03*
X403187Y53004D03*
X403187Y33954D03*
X567187Y33954D03*
D10*
X750635Y168854D02*
X773935Y168854D01*
X750635Y168854D02*
X750635Y177154D01*
X773935Y177154D01*
X773935Y168854D01*
X773935Y170469D02*
X750635Y170469D01*
X750635Y172084D02*
X773935Y172084D01*
X773935Y173699D02*
X750635Y173699D01*
X750635Y175314D02*
X773935Y175314D01*
X773935Y176929D02*
X750635Y176929D01*
D11*
X762285Y153004D03*
X762285Y133004D03*
X762285Y113004D03*
X762285Y93004D03*
X762285Y73004D03*
X762285Y53004D03*
X598285Y173004D03*
X598285Y153004D03*
X598285Y133004D03*
X598285Y113004D03*
X598285Y93004D03*
X598285Y73004D03*
X598285Y53004D03*
X598285Y33954D03*
X762285Y33954D03*
D10*
X945732Y168854D02*
X969032Y168854D01*
X945732Y168854D02*
X945732Y177154D01*
X969032Y177154D01*
X969032Y168854D01*
X969032Y170469D02*
X945732Y170469D01*
X945732Y172084D02*
X969032Y172084D01*
X969032Y173699D02*
X945732Y173699D01*
X945732Y175314D02*
X969032Y175314D01*
X969032Y176929D02*
X945732Y176929D01*
D11*
X957382Y153004D03*
X957382Y133004D03*
X957382Y113004D03*
X957382Y93004D03*
X957382Y73004D03*
X957382Y53004D03*
X793382Y173004D03*
X793382Y153004D03*
X793382Y133004D03*
X793382Y113004D03*
X793382Y93004D03*
X793382Y73004D03*
X793382Y53004D03*
X793382Y33954D03*
X957382Y33954D03*
D10*
X188642Y368955D02*
X165342Y368955D01*
X165342Y377255D01*
X188642Y377255D01*
X188642Y368955D01*
X188642Y370570D02*
X165342Y370570D01*
X165342Y372185D02*
X188642Y372185D01*
X188642Y373800D02*
X165342Y373800D01*
X165342Y375415D02*
X188642Y375415D01*
X188642Y377030D02*
X165342Y377030D01*
D11*
X176992Y353105D03*
X176992Y333105D03*
X176992Y313105D03*
X176992Y293105D03*
X176992Y273105D03*
X176992Y253105D03*
X12992Y373105D03*
X12992Y353105D03*
X12992Y333105D03*
X12992Y313105D03*
X12992Y293105D03*
X12992Y273105D03*
X12992Y253105D03*
X12992Y234055D03*
X176992Y234055D03*
D10*
X360440Y368955D02*
X383740Y368955D01*
X360440Y368955D02*
X360440Y377255D01*
X383740Y377255D01*
X383740Y368955D01*
X383740Y370570D02*
X360440Y370570D01*
X360440Y372185D02*
X383740Y372185D01*
X383740Y373800D02*
X360440Y373800D01*
X360440Y375415D02*
X383740Y375415D01*
X383740Y377030D02*
X360440Y377030D01*
D11*
X372090Y353105D03*
X372090Y333105D03*
X372090Y313105D03*
X372090Y293105D03*
X372090Y273105D03*
X372090Y253105D03*
X208090Y373105D03*
X208090Y353105D03*
X208090Y333105D03*
X208090Y313105D03*
X208090Y293105D03*
X208090Y273105D03*
X208090Y253105D03*
X208090Y234055D03*
X372090Y234055D03*
D10*
X555537Y368955D02*
X578837Y368955D01*
X555537Y368955D02*
X555537Y377255D01*
X578837Y377255D01*
X578837Y368955D01*
X578837Y370570D02*
X555537Y370570D01*
X555537Y372185D02*
X578837Y372185D01*
X578837Y373800D02*
X555537Y373800D01*
X555537Y375415D02*
X578837Y375415D01*
X578837Y377030D02*
X555537Y377030D01*
D11*
X567187Y353105D03*
X567187Y333105D03*
X567187Y313105D03*
X567187Y293105D03*
X567187Y273105D03*
X567187Y253105D03*
X403187Y373105D03*
X403187Y353105D03*
X403187Y333105D03*
X403187Y313105D03*
X403187Y293105D03*
X403187Y273105D03*
X403187Y253105D03*
X403187Y234055D03*
X567187Y234055D03*
D10*
X750635Y368955D02*
X773935Y368955D01*
X750635Y368955D02*
X750635Y377255D01*
X773935Y377255D01*
X773935Y368955D01*
X773935Y370570D02*
X750635Y370570D01*
X750635Y372185D02*
X773935Y372185D01*
X773935Y373800D02*
X750635Y373800D01*
X750635Y375415D02*
X773935Y375415D01*
X773935Y377030D02*
X750635Y377030D01*
D11*
X762285Y353105D03*
X762285Y333105D03*
X762285Y313105D03*
X762285Y293105D03*
X762285Y273105D03*
X762285Y253105D03*
X598285Y373105D03*
X598285Y353105D03*
X598285Y333105D03*
X598285Y313105D03*
X598285Y293105D03*
X598285Y273105D03*
X598285Y253105D03*
X598285Y234055D03*
X762285Y234055D03*
D10*
X945732Y368955D02*
X969032Y368955D01*
X945732Y368955D02*
X945732Y377255D01*
X969032Y377255D01*
X969032Y368955D01*
X969032Y370570D02*
X945732Y370570D01*
X945732Y372185D02*
X969032Y372185D01*
X969032Y373800D02*
X945732Y373800D01*
X945732Y375415D02*
X969032Y375415D01*
X969032Y377030D02*
X945732Y377030D01*
D11*
X957382Y353105D03*
X957382Y333105D03*
X957382Y313105D03*
X957382Y293105D03*
X957382Y273105D03*
X957382Y253105D03*
X793382Y373105D03*
X793382Y353105D03*
X793382Y333105D03*
X793382Y313105D03*
X793382Y293105D03*
X793382Y273105D03*
X793382Y253105D03*
X793382Y234055D03*
X957382Y234055D03*
D10*
X188642Y569056D02*
X165342Y569056D01*
X165342Y577356D01*
X188642Y577356D01*
X188642Y569056D01*
X188642Y570671D02*
X165342Y570671D01*
X165342Y572286D02*
X188642Y572286D01*
X188642Y573901D02*
X165342Y573901D01*
X165342Y575516D02*
X188642Y575516D01*
X188642Y577131D02*
X165342Y577131D01*
D11*
X176992Y553206D03*
X176992Y533206D03*
X176992Y513206D03*
X176992Y493206D03*
X176992Y473206D03*
X176992Y453206D03*
X12992Y573206D03*
X12992Y553206D03*
X12992Y533206D03*
X12992Y513206D03*
X12992Y493206D03*
X12992Y473206D03*
X12992Y453206D03*
X12992Y434156D03*
X176992Y434156D03*
D10*
X360440Y569056D02*
X383740Y569056D01*
X360440Y569056D02*
X360440Y577356D01*
X383740Y577356D01*
X383740Y569056D01*
X383740Y570671D02*
X360440Y570671D01*
X360440Y572286D02*
X383740Y572286D01*
X383740Y573901D02*
X360440Y573901D01*
X360440Y575516D02*
X383740Y575516D01*
X383740Y577131D02*
X360440Y577131D01*
D11*
X372090Y553206D03*
X372090Y533206D03*
X372090Y513206D03*
X372090Y493206D03*
X372090Y473206D03*
X372090Y453206D03*
X208090Y573206D03*
X208090Y553206D03*
X208090Y533206D03*
X208090Y513206D03*
X208090Y493206D03*
X208090Y473206D03*
X208090Y453206D03*
X208090Y434156D03*
X372090Y434156D03*
D10*
X555537Y569056D02*
X578837Y569056D01*
X555537Y569056D02*
X555537Y577356D01*
X578837Y577356D01*
X578837Y569056D01*
X578837Y570671D02*
X555537Y570671D01*
X555537Y572286D02*
X578837Y572286D01*
X578837Y573901D02*
X555537Y573901D01*
X555537Y575516D02*
X578837Y575516D01*
X578837Y577131D02*
X555537Y577131D01*
D11*
X567187Y553206D03*
X567187Y533206D03*
X567187Y513206D03*
X567187Y493206D03*
X567187Y473206D03*
X567187Y453206D03*
X403187Y573206D03*
X403187Y553206D03*
X403187Y533206D03*
X403187Y513206D03*
X403187Y493206D03*
X403187Y473206D03*
X403187Y453206D03*
X403187Y434156D03*
X567187Y434156D03*
D10*
X750635Y569056D02*
X773935Y569056D01*
X750635Y569056D02*
X750635Y577356D01*
X773935Y577356D01*
X773935Y569056D01*
X773935Y570671D02*
X750635Y570671D01*
X750635Y572286D02*
X773935Y572286D01*
X773935Y573901D02*
X750635Y573901D01*
X750635Y575516D02*
X773935Y575516D01*
X773935Y577131D02*
X750635Y577131D01*
D11*
X762285Y553206D03*
X762285Y533206D03*
X762285Y513206D03*
X762285Y493206D03*
X762285Y473206D03*
X762285Y453206D03*
X598285Y573206D03*
X598285Y553206D03*
X598285Y533206D03*
X598285Y513206D03*
X598285Y493206D03*
X598285Y473206D03*
X598285Y453206D03*
X598285Y434156D03*
X762285Y434156D03*
D10*
X945732Y569056D02*
X969032Y569056D01*
X945732Y569056D02*
X945732Y577356D01*
X969032Y577356D01*
X969032Y569056D01*
X969032Y570671D02*
X945732Y570671D01*
X945732Y572286D02*
X969032Y572286D01*
X969032Y573901D02*
X945732Y573901D01*
X945732Y575516D02*
X969032Y575516D01*
X969032Y577131D02*
X945732Y577131D01*
D11*
X957382Y553206D03*
X957382Y533206D03*
X957382Y513206D03*
X957382Y493206D03*
X957382Y473206D03*
X957382Y453206D03*
X793382Y573206D03*
X793382Y553206D03*
X793382Y533206D03*
X793382Y513206D03*
X793382Y493206D03*
X793382Y473206D03*
X793382Y453206D03*
X793382Y434156D03*
X957382Y434156D03*
D10*
X188642Y769157D02*
X165342Y769157D01*
X165342Y777457D01*
X188642Y777457D01*
X188642Y769157D01*
X188642Y770772D02*
X165342Y770772D01*
X165342Y772387D02*
X188642Y772387D01*
X188642Y774002D02*
X165342Y774002D01*
X165342Y775617D02*
X188642Y775617D01*
X188642Y777232D02*
X165342Y777232D01*
D11*
X176992Y753307D03*
X176992Y733307D03*
X176992Y713307D03*
X176992Y693307D03*
X176992Y673307D03*
X176992Y653307D03*
X12992Y773307D03*
X12992Y753307D03*
X12992Y733307D03*
X12992Y713307D03*
X12992Y693307D03*
X12992Y673307D03*
X12992Y653307D03*
X12992Y634257D03*
X176992Y634257D03*
D10*
X360440Y769157D02*
X383740Y769157D01*
X360440Y769157D02*
X360440Y777457D01*
X383740Y777457D01*
X383740Y769157D01*
X383740Y770772D02*
X360440Y770772D01*
X360440Y772387D02*
X383740Y772387D01*
X383740Y774002D02*
X360440Y774002D01*
X360440Y775617D02*
X383740Y775617D01*
X383740Y777232D02*
X360440Y777232D01*
D11*
X372090Y753307D03*
X372090Y733307D03*
X372090Y713307D03*
X372090Y693307D03*
X372090Y673307D03*
X372090Y653307D03*
X208090Y773307D03*
X208090Y753307D03*
X208090Y733307D03*
X208090Y713307D03*
X208090Y693307D03*
X208090Y673307D03*
X208090Y653307D03*
X208090Y634257D03*
X372090Y634257D03*
D10*
X555537Y769157D02*
X578837Y769157D01*
X555537Y769157D02*
X555537Y777457D01*
X578837Y777457D01*
X578837Y769157D01*
X578837Y770772D02*
X555537Y770772D01*
X555537Y772387D02*
X578837Y772387D01*
X578837Y774002D02*
X555537Y774002D01*
X555537Y775617D02*
X578837Y775617D01*
X578837Y777232D02*
X555537Y777232D01*
D11*
X567187Y753307D03*
X567187Y733307D03*
X567187Y713307D03*
X567187Y693307D03*
X567187Y673307D03*
X567187Y653307D03*
X403187Y773307D03*
X403187Y753307D03*
X403187Y733307D03*
X403187Y713307D03*
X403187Y693307D03*
X403187Y673307D03*
X403187Y653307D03*
X403187Y634257D03*
X567187Y634257D03*
D10*
X750635Y769157D02*
X773935Y769157D01*
X750635Y769157D02*
X750635Y777457D01*
X773935Y777457D01*
X773935Y769157D01*
X773935Y770772D02*
X750635Y770772D01*
X750635Y772387D02*
X773935Y772387D01*
X773935Y774002D02*
X750635Y774002D01*
X750635Y775617D02*
X773935Y775617D01*
X773935Y777232D02*
X750635Y777232D01*
D11*
X762285Y753307D03*
X762285Y733307D03*
X762285Y713307D03*
X762285Y693307D03*
X762285Y673307D03*
X762285Y653307D03*
X598285Y773307D03*
X598285Y753307D03*
X598285Y733307D03*
X598285Y713307D03*
X598285Y693307D03*
X598285Y673307D03*
X598285Y653307D03*
X598285Y634257D03*
X762285Y634257D03*
D10*
X945732Y769157D02*
X969032Y769157D01*
X945732Y769157D02*
X945732Y777457D01*
X969032Y777457D01*
X969032Y769157D01*
X969032Y770772D02*
X945732Y770772D01*
X945732Y772387D02*
X969032Y772387D01*
X969032Y774002D02*
X945732Y774002D01*
X945732Y775617D02*
X969032Y775617D01*
X969032Y777232D02*
X945732Y777232D01*
D11*
X957382Y753307D03*
X957382Y733307D03*
X957382Y713307D03*
X957382Y693307D03*
X957382Y673307D03*
X957382Y653307D03*
X793382Y773307D03*
X793382Y753307D03*
X793382Y733307D03*
X793382Y713307D03*
X793382Y693307D03*
X793382Y673307D03*
X793382Y653307D03*
X793382Y634257D03*
X957382Y634257D03*
D12*
X85242Y151054D02*
X40792Y106604D01*
X40792Y100254D01*
X34442Y93904D01*
X15392Y93904D01*
X12992Y93004D01*
D13*
X85242Y151054D03*
D12*
X82067Y160579D02*
X53492Y132004D01*
X82067Y160579D02*
X94767Y160579D01*
X94767Y132004D01*
X59842Y97079D01*
X59842Y49454D01*
D13*
X53492Y132004D03*
X59842Y49454D03*
D12*
X21742Y43104D02*
X15392Y36754D01*
X21742Y43104D02*
X31267Y43104D01*
X31267Y68504D01*
X15392Y36754D02*
X12992Y33954D01*
X24917Y122479D02*
X15392Y132004D01*
X24917Y122479D02*
X31267Y122479D01*
X31267Y103429D01*
X15392Y132004D02*
X12992Y133004D01*
D13*
X31267Y68504D03*
X31267Y103429D03*
D12*
X167792Y163754D02*
X174142Y170104D01*
X167792Y163754D02*
X158267Y163754D01*
X158267Y160579D01*
X174142Y170104D02*
X176992Y173004D01*
D13*
X158267Y160579D03*
D12*
X158267Y151054D02*
X174142Y151054D01*
X158267Y151054D02*
X158267Y147879D01*
X174142Y151054D02*
X176992Y153004D01*
D13*
X158267Y147879D03*
D12*
X174142Y90729D02*
X167792Y84379D01*
X158267Y84379D01*
X158267Y27229D01*
X174142Y90729D02*
X176992Y93004D01*
D13*
X158267Y27229D03*
D12*
X56667Y154229D02*
X63017Y160579D01*
X63017Y170104D01*
D13*
X56667Y154229D03*
X63017Y170104D03*
D12*
X113817Y49454D02*
X126517Y36754D01*
X113817Y49454D02*
X113817Y166929D01*
X101117Y179629D01*
X37617Y179629D01*
X37617Y170104D01*
D13*
X126517Y36754D03*
X37617Y170104D03*
D12*
X104292Y128829D02*
X69367Y93904D01*
X104292Y128829D02*
X104292Y163754D01*
X101117Y166929D01*
X167792Y122479D02*
X174142Y116129D01*
X167792Y122479D02*
X148742Y122479D01*
X148742Y160579D01*
X174142Y116129D02*
X176992Y113004D01*
D13*
X69367Y93904D03*
X101117Y166929D03*
X148742Y160579D03*
D12*
X101117Y109779D02*
X104292Y106604D01*
X104292Y46279D01*
X132867Y17704D01*
X174142Y17704D01*
X174142Y33579D01*
X176992Y33954D01*
X174142Y36754D02*
X174142Y52629D01*
X176992Y53004D01*
X174142Y36754D02*
X176992Y33954D01*
D13*
X101117Y109779D03*
D12*
X235890Y106604D02*
X280340Y151054D01*
X235890Y106604D02*
X235890Y100254D01*
X229540Y93904D01*
X210490Y93904D01*
X208090Y93004D01*
D13*
X280340Y151054D03*
D12*
X277165Y160579D02*
X248590Y132004D01*
X277165Y160579D02*
X289865Y160579D01*
X289865Y132004D01*
X254940Y97079D01*
X254940Y49454D01*
D13*
X248590Y132004D03*
X254940Y49454D03*
D12*
X216840Y43104D02*
X210490Y36754D01*
X216840Y43104D02*
X226365Y43104D01*
X226365Y68504D01*
X210490Y36754D02*
X208090Y33954D01*
X220015Y122479D02*
X210490Y132004D01*
X220015Y122479D02*
X226365Y122479D01*
X226365Y103429D01*
X210490Y132004D02*
X208090Y133004D01*
D13*
X226365Y68504D03*
X226365Y103429D03*
D12*
X362890Y163754D02*
X369240Y170104D01*
X362890Y163754D02*
X353365Y163754D01*
X353365Y160579D01*
X369240Y170104D02*
X372090Y173004D01*
D13*
X353365Y160579D03*
D12*
X353365Y151054D02*
X369240Y151054D01*
X353365Y151054D02*
X353365Y147879D01*
X369240Y151054D02*
X372090Y153004D01*
D13*
X353365Y147879D03*
D12*
X369240Y90729D02*
X362890Y84379D01*
X353365Y84379D01*
X353365Y27229D01*
X369240Y90729D02*
X372090Y93004D01*
D13*
X353365Y27229D03*
D12*
X251765Y154229D02*
X258115Y160579D01*
X258115Y170104D01*
D13*
X251765Y154229D03*
X258115Y170104D03*
D12*
X308915Y49454D02*
X321615Y36754D01*
X308915Y49454D02*
X308915Y166929D01*
X296215Y179629D01*
X232715Y179629D01*
X232715Y170104D01*
D13*
X321615Y36754D03*
X232715Y170104D03*
D12*
X299390Y128829D02*
X264465Y93904D01*
X299390Y128829D02*
X299390Y163754D01*
X296215Y166929D01*
X362890Y122479D02*
X369240Y116129D01*
X362890Y122479D02*
X343840Y122479D01*
X343840Y160579D01*
X369240Y116129D02*
X372090Y113004D01*
D13*
X264465Y93904D03*
X296215Y166929D03*
X343840Y160579D03*
D12*
X296215Y109779D02*
X299390Y106604D01*
X299390Y46279D01*
X327965Y17704D01*
X369240Y17704D01*
X369240Y33579D01*
X372090Y33954D01*
X369240Y36754D02*
X369240Y52629D01*
X372090Y53004D01*
X369240Y36754D02*
X372090Y33954D01*
D13*
X296215Y109779D03*
D12*
X430987Y106604D02*
X475437Y151054D01*
X430987Y106604D02*
X430987Y100254D01*
X424637Y93904D01*
X405587Y93904D01*
X403187Y93004D01*
D13*
X475437Y151054D03*
D12*
X472262Y160579D02*
X443687Y132004D01*
X472262Y160579D02*
X484962Y160579D01*
X484962Y132004D01*
X450037Y97079D01*
X450037Y49454D01*
D13*
X443687Y132004D03*
X450037Y49454D03*
D12*
X411937Y43104D02*
X405587Y36754D01*
X411937Y43104D02*
X421462Y43104D01*
X421462Y68504D01*
X405587Y36754D02*
X403187Y33954D01*
X415112Y122479D02*
X405587Y132004D01*
X415112Y122479D02*
X421462Y122479D01*
X421462Y103429D01*
X405587Y132004D02*
X403187Y133004D01*
D13*
X421462Y68504D03*
X421462Y103429D03*
D12*
X557987Y163754D02*
X564337Y170104D01*
X557987Y163754D02*
X548462Y163754D01*
X548462Y160579D01*
X564337Y170104D02*
X567187Y173004D01*
D13*
X548462Y160579D03*
D12*
X548462Y151054D02*
X564337Y151054D01*
X548462Y151054D02*
X548462Y147879D01*
X564337Y151054D02*
X567187Y153004D01*
D13*
X548462Y147879D03*
D12*
X564337Y90729D02*
X557987Y84379D01*
X548462Y84379D01*
X548462Y27229D01*
X564337Y90729D02*
X567187Y93004D01*
D13*
X548462Y27229D03*
D12*
X446862Y154229D02*
X453212Y160579D01*
X453212Y170104D01*
D13*
X446862Y154229D03*
X453212Y170104D03*
D12*
X504012Y49454D02*
X516712Y36754D01*
X504012Y49454D02*
X504012Y166929D01*
X491312Y179629D01*
X427812Y179629D01*
X427812Y170104D01*
D13*
X516712Y36754D03*
X427812Y170104D03*
D12*
X494487Y128829D02*
X459562Y93904D01*
X494487Y128829D02*
X494487Y163754D01*
X491312Y166929D01*
X557987Y122479D02*
X564337Y116129D01*
X557987Y122479D02*
X538937Y122479D01*
X538937Y160579D01*
X564337Y116129D02*
X567187Y113004D01*
D13*
X459562Y93904D03*
X491312Y166929D03*
X538937Y160579D03*
D12*
X491312Y109779D02*
X494487Y106604D01*
X494487Y46279D01*
X523062Y17704D01*
X564337Y17704D01*
X564337Y33579D01*
X567187Y33954D01*
X564337Y36754D02*
X564337Y52629D01*
X567187Y53004D01*
X564337Y36754D02*
X567187Y33954D01*
D13*
X491312Y109779D03*
D12*
X626085Y106604D02*
X670535Y151054D01*
X626085Y106604D02*
X626085Y100254D01*
X619735Y93904D01*
X600685Y93904D01*
X598285Y93004D01*
D13*
X670535Y151054D03*
D12*
X667360Y160579D02*
X638785Y132004D01*
X667360Y160579D02*
X680060Y160579D01*
X680060Y132004D01*
X645135Y97079D01*
X645135Y49454D01*
D13*
X638785Y132004D03*
X645135Y49454D03*
D12*
X607035Y43104D02*
X600685Y36754D01*
X607035Y43104D02*
X616560Y43104D01*
X616560Y68504D01*
X600685Y36754D02*
X598285Y33954D01*
X610210Y122479D02*
X600685Y132004D01*
X610210Y122479D02*
X616560Y122479D01*
X616560Y103429D01*
X600685Y132004D02*
X598285Y133004D01*
D13*
X616560Y68504D03*
X616560Y103429D03*
D12*
X753085Y163754D02*
X759435Y170104D01*
X753085Y163754D02*
X743560Y163754D01*
X743560Y160579D01*
X759435Y170104D02*
X762285Y173004D01*
D13*
X743560Y160579D03*
D12*
X743560Y151054D02*
X759435Y151054D01*
X743560Y151054D02*
X743560Y147879D01*
X759435Y151054D02*
X762285Y153004D01*
D13*
X743560Y147879D03*
D12*
X759435Y90729D02*
X753085Y84379D01*
X743560Y84379D01*
X743560Y27229D01*
X759435Y90729D02*
X762285Y93004D01*
D13*
X743560Y27229D03*
D12*
X641960Y154229D02*
X648310Y160579D01*
X648310Y170104D01*
D13*
X641960Y154229D03*
X648310Y170104D03*
D12*
X699110Y49454D02*
X711810Y36754D01*
X699110Y49454D02*
X699110Y166929D01*
X686410Y179629D01*
X622910Y179629D01*
X622910Y170104D01*
D13*
X711810Y36754D03*
X622910Y170104D03*
D12*
X689585Y128829D02*
X654660Y93904D01*
X689585Y128829D02*
X689585Y163754D01*
X686410Y166929D01*
X753085Y122479D02*
X759435Y116129D01*
X753085Y122479D02*
X734035Y122479D01*
X734035Y160579D01*
X759435Y116129D02*
X762285Y113004D01*
D13*
X654660Y93904D03*
X686410Y166929D03*
X734035Y160579D03*
D12*
X686410Y109779D02*
X689585Y106604D01*
X689585Y46279D01*
X718160Y17704D01*
X759435Y17704D01*
X759435Y33579D01*
X762285Y33954D01*
X759435Y36754D02*
X759435Y52629D01*
X762285Y53004D01*
X759435Y36754D02*
X762285Y33954D01*
D13*
X686410Y109779D03*
D12*
X821182Y106604D02*
X865632Y151054D01*
X821182Y106604D02*
X821182Y100254D01*
X814832Y93904D01*
X795782Y93904D01*
X793382Y93004D01*
D13*
X865632Y151054D03*
D12*
X862457Y160579D02*
X833882Y132004D01*
X862457Y160579D02*
X875157Y160579D01*
X875157Y132004D01*
X840232Y97079D01*
X840232Y49454D01*
D13*
X833882Y132004D03*
X840232Y49454D03*
D12*
X802132Y43104D02*
X795782Y36754D01*
X802132Y43104D02*
X811657Y43104D01*
X811657Y68504D01*
X795782Y36754D02*
X793382Y33954D01*
X805307Y122479D02*
X795782Y132004D01*
X805307Y122479D02*
X811657Y122479D01*
X811657Y103429D01*
X795782Y132004D02*
X793382Y133004D01*
D13*
X811657Y68504D03*
X811657Y103429D03*
D12*
X948182Y163754D02*
X954532Y170104D01*
X948182Y163754D02*
X938657Y163754D01*
X938657Y160579D01*
X954532Y170104D02*
X957382Y173004D01*
D13*
X938657Y160579D03*
D12*
X938657Y151054D02*
X954532Y151054D01*
X938657Y151054D02*
X938657Y147879D01*
X954532Y151054D02*
X957382Y153004D01*
D13*
X938657Y147879D03*
D12*
X954532Y90729D02*
X948182Y84379D01*
X938657Y84379D01*
X938657Y27229D01*
X954532Y90729D02*
X957382Y93004D01*
D13*
X938657Y27229D03*
D12*
X837057Y154229D02*
X843407Y160579D01*
X843407Y170104D01*
D13*
X837057Y154229D03*
X843407Y170104D03*
D12*
X894207Y49454D02*
X906907Y36754D01*
X894207Y49454D02*
X894207Y166929D01*
X881507Y179629D01*
X818007Y179629D01*
X818007Y170104D01*
D13*
X906907Y36754D03*
X818007Y170104D03*
D12*
X884682Y128829D02*
X849757Y93904D01*
X884682Y128829D02*
X884682Y163754D01*
X881507Y166929D01*
X948182Y122479D02*
X954532Y116129D01*
X948182Y122479D02*
X929132Y122479D01*
X929132Y160579D01*
X954532Y116129D02*
X957382Y113004D01*
D13*
X849757Y93904D03*
X881507Y166929D03*
X929132Y160579D03*
D12*
X881507Y109779D02*
X884682Y106604D01*
X884682Y46279D01*
X913257Y17704D01*
X954532Y17704D01*
X954532Y33579D01*
X957382Y33954D01*
X954532Y36754D02*
X954532Y52629D01*
X957382Y53004D01*
X954532Y36754D02*
X957382Y33954D01*
D13*
X881507Y109779D03*
D12*
X85242Y351155D02*
X40792Y306705D01*
X40792Y300355D01*
X34442Y294005D01*
X15392Y294005D01*
X12992Y293105D01*
D13*
X85242Y351155D03*
D12*
X82067Y360680D02*
X53492Y332105D01*
X82067Y360680D02*
X94767Y360680D01*
X94767Y332105D01*
X59842Y297180D01*
X59842Y249555D01*
D13*
X53492Y332105D03*
X59842Y249555D03*
D12*
X21742Y243205D02*
X15392Y236855D01*
X21742Y243205D02*
X31267Y243205D01*
X31267Y268605D01*
X15392Y236855D02*
X12992Y234055D01*
X24917Y322580D02*
X15392Y332105D01*
X24917Y322580D02*
X31267Y322580D01*
X31267Y303530D01*
X15392Y332105D02*
X12992Y333105D01*
D13*
X31267Y268605D03*
X31267Y303530D03*
D12*
X167792Y363855D02*
X174142Y370205D01*
X167792Y363855D02*
X158267Y363855D01*
X158267Y360680D01*
X174142Y370205D02*
X176992Y373105D01*
D13*
X158267Y360680D03*
D12*
X158267Y351155D02*
X174142Y351155D01*
X158267Y351155D02*
X158267Y347980D01*
X174142Y351155D02*
X176992Y353105D01*
D13*
X158267Y347980D03*
D12*
X174142Y290830D02*
X167792Y284480D01*
X158267Y284480D01*
X158267Y227330D01*
X174142Y290830D02*
X176992Y293105D01*
D13*
X158267Y227330D03*
D12*
X56667Y354330D02*
X63017Y360680D01*
X63017Y370205D01*
D13*
X56667Y354330D03*
X63017Y370205D03*
D12*
X113817Y249555D02*
X126517Y236855D01*
X113817Y249555D02*
X113817Y367030D01*
X101117Y379730D01*
X37617Y379730D01*
X37617Y370205D01*
D13*
X126517Y236855D03*
X37617Y370205D03*
D12*
X104292Y328930D02*
X69367Y294005D01*
X104292Y328930D02*
X104292Y363855D01*
X101117Y367030D01*
X167792Y322580D02*
X174142Y316230D01*
X167792Y322580D02*
X148742Y322580D01*
X148742Y360680D01*
X174142Y316230D02*
X176992Y313105D01*
D13*
X69367Y294005D03*
X101117Y367030D03*
X148742Y360680D03*
D12*
X101117Y309880D02*
X104292Y306705D01*
X104292Y246380D01*
X132867Y217805D01*
X174142Y217805D01*
X174142Y233680D01*
X176992Y234055D01*
X174142Y236855D02*
X174142Y252730D01*
X176992Y253105D01*
X174142Y236855D02*
X176992Y234055D01*
D13*
X101117Y309880D03*
D12*
X235890Y306705D02*
X280340Y351155D01*
X235890Y306705D02*
X235890Y300355D01*
X229540Y294005D01*
X210490Y294005D01*
X208090Y293105D01*
D13*
X280340Y351155D03*
D12*
X277165Y360680D02*
X248590Y332105D01*
X277165Y360680D02*
X289865Y360680D01*
X289865Y332105D01*
X254940Y297180D01*
X254940Y249555D01*
D13*
X248590Y332105D03*
X254940Y249555D03*
D12*
X216840Y243205D02*
X210490Y236855D01*
X216840Y243205D02*
X226365Y243205D01*
X226365Y268605D01*
X210490Y236855D02*
X208090Y234055D01*
X220015Y322580D02*
X210490Y332105D01*
X220015Y322580D02*
X226365Y322580D01*
X226365Y303530D01*
X210490Y332105D02*
X208090Y333105D01*
D13*
X226365Y268605D03*
X226365Y303530D03*
D12*
X362890Y363855D02*
X369240Y370205D01*
X362890Y363855D02*
X353365Y363855D01*
X353365Y360680D01*
X369240Y370205D02*
X372090Y373105D01*
D13*
X353365Y360680D03*
D12*
X353365Y351155D02*
X369240Y351155D01*
X353365Y351155D02*
X353365Y347980D01*
X369240Y351155D02*
X372090Y353105D01*
D13*
X353365Y347980D03*
D12*
X369240Y290830D02*
X362890Y284480D01*
X353365Y284480D01*
X353365Y227330D01*
X369240Y290830D02*
X372090Y293105D01*
D13*
X353365Y227330D03*
D12*
X251765Y354330D02*
X258115Y360680D01*
X258115Y370205D01*
D13*
X251765Y354330D03*
X258115Y370205D03*
D12*
X308915Y249555D02*
X321615Y236855D01*
X308915Y249555D02*
X308915Y367030D01*
X296215Y379730D01*
X232715Y379730D01*
X232715Y370205D01*
D13*
X321615Y236855D03*
X232715Y370205D03*
D12*
X299390Y328930D02*
X264465Y294005D01*
X299390Y328930D02*
X299390Y363855D01*
X296215Y367030D01*
X362890Y322580D02*
X369240Y316230D01*
X362890Y322580D02*
X343840Y322580D01*
X343840Y360680D01*
X369240Y316230D02*
X372090Y313105D01*
D13*
X264465Y294005D03*
X296215Y367030D03*
X343840Y360680D03*
D12*
X296215Y309880D02*
X299390Y306705D01*
X299390Y246380D01*
X327965Y217805D01*
X369240Y217805D01*
X369240Y233680D01*
X372090Y234055D01*
X369240Y236855D02*
X369240Y252730D01*
X372090Y253105D01*
X369240Y236855D02*
X372090Y234055D01*
D13*
X296215Y309880D03*
D12*
X430987Y306705D02*
X475437Y351155D01*
X430987Y306705D02*
X430987Y300355D01*
X424637Y294005D01*
X405587Y294005D01*
X403187Y293105D01*
D13*
X475437Y351155D03*
D12*
X472262Y360680D02*
X443687Y332105D01*
X472262Y360680D02*
X484962Y360680D01*
X484962Y332105D01*
X450037Y297180D01*
X450037Y249555D01*
D13*
X443687Y332105D03*
X450037Y249555D03*
D12*
X411937Y243205D02*
X405587Y236855D01*
X411937Y243205D02*
X421462Y243205D01*
X421462Y268605D01*
X405587Y236855D02*
X403187Y234055D01*
X415112Y322580D02*
X405587Y332105D01*
X415112Y322580D02*
X421462Y322580D01*
X421462Y303530D01*
X405587Y332105D02*
X403187Y333105D01*
D13*
X421462Y268605D03*
X421462Y303530D03*
D12*
X557987Y363855D02*
X564337Y370205D01*
X557987Y363855D02*
X548462Y363855D01*
X548462Y360680D01*
X564337Y370205D02*
X567187Y373105D01*
D13*
X548462Y360680D03*
D12*
X548462Y351155D02*
X564337Y351155D01*
X548462Y351155D02*
X548462Y347980D01*
X564337Y351155D02*
X567187Y353105D01*
D13*
X548462Y347980D03*
D12*
X564337Y290830D02*
X557987Y284480D01*
X548462Y284480D01*
X548462Y227330D01*
X564337Y290830D02*
X567187Y293105D01*
D13*
X548462Y227330D03*
D12*
X446862Y354330D02*
X453212Y360680D01*
X453212Y370205D01*
D13*
X446862Y354330D03*
X453212Y370205D03*
D12*
X504012Y249555D02*
X516712Y236855D01*
X504012Y249555D02*
X504012Y367030D01*
X491312Y379730D01*
X427812Y379730D01*
X427812Y370205D01*
D13*
X516712Y236855D03*
X427812Y370205D03*
D12*
X494487Y328930D02*
X459562Y294005D01*
X494487Y328930D02*
X494487Y363855D01*
X491312Y367030D01*
X557987Y322580D02*
X564337Y316230D01*
X557987Y322580D02*
X538937Y322580D01*
X538937Y360680D01*
X564337Y316230D02*
X567187Y313105D01*
D13*
X459562Y294005D03*
X491312Y367030D03*
X538937Y360680D03*
D12*
X491312Y309880D02*
X494487Y306705D01*
X494487Y246380D01*
X523062Y217805D01*
X564337Y217805D01*
X564337Y233680D01*
X567187Y234055D01*
X564337Y236855D02*
X564337Y252730D01*
X567187Y253105D01*
X564337Y236855D02*
X567187Y234055D01*
D13*
X491312Y309880D03*
D12*
X626085Y306705D02*
X670535Y351155D01*
X626085Y306705D02*
X626085Y300355D01*
X619735Y294005D01*
X600685Y294005D01*
X598285Y293105D01*
D13*
X670535Y351155D03*
D12*
X667360Y360680D02*
X638785Y332105D01*
X667360Y360680D02*
X680060Y360680D01*
X680060Y332105D01*
X645135Y297180D01*
X645135Y249555D01*
D13*
X638785Y332105D03*
X645135Y249555D03*
D12*
X607035Y243205D02*
X600685Y236855D01*
X607035Y243205D02*
X616560Y243205D01*
X616560Y268605D01*
X600685Y236855D02*
X598285Y234055D01*
X610210Y322580D02*
X600685Y332105D01*
X610210Y322580D02*
X616560Y322580D01*
X616560Y303530D01*
X600685Y332105D02*
X598285Y333105D01*
D13*
X616560Y268605D03*
X616560Y303530D03*
D12*
X753085Y363855D02*
X759435Y370205D01*
X753085Y363855D02*
X743560Y363855D01*
X743560Y360680D01*
X759435Y370205D02*
X762285Y373105D01*
D13*
X743560Y360680D03*
D12*
X743560Y351155D02*
X759435Y351155D01*
X743560Y351155D02*
X743560Y347980D01*
X759435Y351155D02*
X762285Y353105D01*
D13*
X743560Y347980D03*
D12*
X759435Y290830D02*
X753085Y284480D01*
X743560Y284480D01*
X743560Y227330D01*
X759435Y290830D02*
X762285Y293105D01*
D13*
X743560Y227330D03*
D12*
X641960Y354330D02*
X648310Y360680D01*
X648310Y370205D01*
D13*
X641960Y354330D03*
X648310Y370205D03*
D12*
X699110Y249555D02*
X711810Y236855D01*
X699110Y249555D02*
X699110Y367030D01*
X686410Y379730D01*
X622910Y379730D01*
X622910Y370205D01*
D13*
X711810Y236855D03*
X622910Y370205D03*
D12*
X689585Y328930D02*
X654660Y294005D01*
X689585Y328930D02*
X689585Y363855D01*
X686410Y367030D01*
X753085Y322580D02*
X759435Y316230D01*
X753085Y322580D02*
X734035Y322580D01*
X734035Y360680D01*
X759435Y316230D02*
X762285Y313105D01*
D13*
X654660Y294005D03*
X686410Y367030D03*
X734035Y360680D03*
D12*
X686410Y309880D02*
X689585Y306705D01*
X689585Y246380D01*
X718160Y217805D01*
X759435Y217805D01*
X759435Y233680D01*
X762285Y234055D01*
X759435Y236855D02*
X759435Y252730D01*
X762285Y253105D01*
X759435Y236855D02*
X762285Y234055D01*
D13*
X686410Y309880D03*
D12*
X821182Y306705D02*
X865632Y351155D01*
X821182Y306705D02*
X821182Y300355D01*
X814832Y294005D01*
X795782Y294005D01*
X793382Y293105D01*
D13*
X865632Y351155D03*
D12*
X862457Y360680D02*
X833882Y332105D01*
X862457Y360680D02*
X875157Y360680D01*
X875157Y332105D01*
X840232Y297180D01*
X840232Y249555D01*
D13*
X833882Y332105D03*
X840232Y249555D03*
D12*
X802132Y243205D02*
X795782Y236855D01*
X802132Y243205D02*
X811657Y243205D01*
X811657Y268605D01*
X795782Y236855D02*
X793382Y234055D01*
X805307Y322580D02*
X795782Y332105D01*
X805307Y322580D02*
X811657Y322580D01*
X811657Y303530D01*
X795782Y332105D02*
X793382Y333105D01*
D13*
X811657Y268605D03*
X811657Y303530D03*
D12*
X948182Y363855D02*
X954532Y370205D01*
X948182Y363855D02*
X938657Y363855D01*
X938657Y360680D01*
X954532Y370205D02*
X957382Y373105D01*
D13*
X938657Y360680D03*
D12*
X938657Y351155D02*
X954532Y351155D01*
X938657Y351155D02*
X938657Y347980D01*
X954532Y351155D02*
X957382Y353105D01*
D13*
X938657Y347980D03*
D12*
X954532Y290830D02*
X948182Y284480D01*
X938657Y284480D01*
X938657Y227330D01*
X954532Y290830D02*
X957382Y293105D01*
D13*
X938657Y227330D03*
D12*
X837057Y354330D02*
X843407Y360680D01*
X843407Y370205D01*
D13*
X837057Y354330D03*
X843407Y370205D03*
D12*
X894207Y249555D02*
X906907Y236855D01*
X894207Y249555D02*
X894207Y367030D01*
X881507Y379730D01*
X818007Y379730D01*
X818007Y370205D01*
D13*
X906907Y236855D03*
X818007Y370205D03*
D12*
X884682Y328930D02*
X849757Y294005D01*
X884682Y328930D02*
X884682Y363855D01*
X881507Y367030D01*
X948182Y322580D02*
X954532Y316230D01*
X948182Y322580D02*
X929132Y322580D01*
X929132Y360680D01*
X954532Y316230D02*
X957382Y313105D01*
D13*
X849757Y294005D03*
X881507Y367030D03*
X929132Y360680D03*
D12*
X881507Y309880D02*
X884682Y306705D01*
X884682Y246380D01*
X913257Y217805D01*
X954532Y217805D01*
X954532Y233680D01*
X957382Y234055D01*
X954532Y236855D02*
X954532Y252730D01*
X957382Y253105D01*
X954532Y236855D02*
X957382Y234055D01*
D13*
X881507Y309880D03*
D12*
X85242Y551256D02*
X40792Y506806D01*
X40792Y500456D01*
X34442Y494106D01*
X15392Y494106D01*
X12992Y493206D01*
D13*
X85242Y551256D03*
D12*
X82067Y560781D02*
X53492Y532206D01*
X82067Y560781D02*
X94767Y560781D01*
X94767Y532206D01*
X59842Y497281D01*
X59842Y449656D01*
D13*
X53492Y532206D03*
X59842Y449656D03*
D12*
X21742Y443306D02*
X15392Y436956D01*
X21742Y443306D02*
X31267Y443306D01*
X31267Y468706D01*
X15392Y436956D02*
X12992Y434156D01*
X24917Y522681D02*
X15392Y532206D01*
X24917Y522681D02*
X31267Y522681D01*
X31267Y503631D01*
X15392Y532206D02*
X12992Y533206D01*
D13*
X31267Y468706D03*
X31267Y503631D03*
D12*
X167792Y563956D02*
X174142Y570306D01*
X167792Y563956D02*
X158267Y563956D01*
X158267Y560781D01*
X174142Y570306D02*
X176992Y573206D01*
D13*
X158267Y560781D03*
D12*
X158267Y551256D02*
X174142Y551256D01*
X158267Y551256D02*
X158267Y548081D01*
X174142Y551256D02*
X176992Y553206D01*
D13*
X158267Y548081D03*
D12*
X174142Y490931D02*
X167792Y484581D01*
X158267Y484581D01*
X158267Y427431D01*
X174142Y490931D02*
X176992Y493206D01*
D13*
X158267Y427431D03*
D12*
X56667Y554431D02*
X63017Y560781D01*
X63017Y570306D01*
D13*
X56667Y554431D03*
X63017Y570306D03*
D12*
X113817Y449656D02*
X126517Y436956D01*
X113817Y449656D02*
X113817Y567131D01*
X101117Y579831D01*
X37617Y579831D01*
X37617Y570306D01*
D13*
X126517Y436956D03*
X37617Y570306D03*
D12*
X104292Y529031D02*
X69367Y494106D01*
X104292Y529031D02*
X104292Y563956D01*
X101117Y567131D01*
X167792Y522681D02*
X174142Y516331D01*
X167792Y522681D02*
X148742Y522681D01*
X148742Y560781D01*
X174142Y516331D02*
X176992Y513206D01*
D13*
X69367Y494106D03*
X101117Y567131D03*
X148742Y560781D03*
D12*
X101117Y509981D02*
X104292Y506806D01*
X104292Y446481D01*
X132867Y417906D01*
X174142Y417906D01*
X174142Y433781D01*
X176992Y434156D01*
X174142Y436956D02*
X174142Y452831D01*
X176992Y453206D01*
X174142Y436956D02*
X176992Y434156D01*
D13*
X101117Y509981D03*
D12*
X235890Y506806D02*
X280340Y551256D01*
X235890Y506806D02*
X235890Y500456D01*
X229540Y494106D01*
X210490Y494106D01*
X208090Y493206D01*
D13*
X280340Y551256D03*
D12*
X277165Y560781D02*
X248590Y532206D01*
X277165Y560781D02*
X289865Y560781D01*
X289865Y532206D01*
X254940Y497281D01*
X254940Y449656D01*
D13*
X248590Y532206D03*
X254940Y449656D03*
D12*
X216840Y443306D02*
X210490Y436956D01*
X216840Y443306D02*
X226365Y443306D01*
X226365Y468706D01*
X210490Y436956D02*
X208090Y434156D01*
X220015Y522681D02*
X210490Y532206D01*
X220015Y522681D02*
X226365Y522681D01*
X226365Y503631D01*
X210490Y532206D02*
X208090Y533206D01*
D13*
X226365Y468706D03*
X226365Y503631D03*
D12*
X362890Y563956D02*
X369240Y570306D01*
X362890Y563956D02*
X353365Y563956D01*
X353365Y560781D01*
X369240Y570306D02*
X372090Y573206D01*
D13*
X353365Y560781D03*
D12*
X353365Y551256D02*
X369240Y551256D01*
X353365Y551256D02*
X353365Y548081D01*
X369240Y551256D02*
X372090Y553206D01*
D13*
X353365Y548081D03*
D12*
X369240Y490931D02*
X362890Y484581D01*
X353365Y484581D01*
X353365Y427431D01*
X369240Y490931D02*
X372090Y493206D01*
D13*
X353365Y427431D03*
D12*
X251765Y554431D02*
X258115Y560781D01*
X258115Y570306D01*
D13*
X251765Y554431D03*
X258115Y570306D03*
D12*
X308915Y449656D02*
X321615Y436956D01*
X308915Y449656D02*
X308915Y567131D01*
X296215Y579831D01*
X232715Y579831D01*
X232715Y570306D01*
D13*
X321615Y436956D03*
X232715Y570306D03*
D12*
X299390Y529031D02*
X264465Y494106D01*
X299390Y529031D02*
X299390Y563956D01*
X296215Y567131D01*
X362890Y522681D02*
X369240Y516331D01*
X362890Y522681D02*
X343840Y522681D01*
X343840Y560781D01*
X369240Y516331D02*
X372090Y513206D01*
D13*
X264465Y494106D03*
X296215Y567131D03*
X343840Y560781D03*
D12*
X296215Y509981D02*
X299390Y506806D01*
X299390Y446481D01*
X327965Y417906D01*
X369240Y417906D01*
X369240Y433781D01*
X372090Y434156D01*
X369240Y436956D02*
X369240Y452831D01*
X372090Y453206D01*
X369240Y436956D02*
X372090Y434156D01*
D13*
X296215Y509981D03*
D12*
X430987Y506806D02*
X475437Y551256D01*
X430987Y506806D02*
X430987Y500456D01*
X424637Y494106D01*
X405587Y494106D01*
X403187Y493206D01*
D13*
X475437Y551256D03*
D12*
X472262Y560781D02*
X443687Y532206D01*
X472262Y560781D02*
X484962Y560781D01*
X484962Y532206D01*
X450037Y497281D01*
X450037Y449656D01*
D13*
X443687Y532206D03*
X450037Y449656D03*
D12*
X411937Y443306D02*
X405587Y436956D01*
X411937Y443306D02*
X421462Y443306D01*
X421462Y468706D01*
X405587Y436956D02*
X403187Y434156D01*
X415112Y522681D02*
X405587Y532206D01*
X415112Y522681D02*
X421462Y522681D01*
X421462Y503631D01*
X405587Y532206D02*
X403187Y533206D01*
D13*
X421462Y468706D03*
X421462Y503631D03*
D12*
X557987Y563956D02*
X564337Y570306D01*
X557987Y563956D02*
X548462Y563956D01*
X548462Y560781D01*
X564337Y570306D02*
X567187Y573206D01*
D13*
X548462Y560781D03*
D12*
X548462Y551256D02*
X564337Y551256D01*
X548462Y551256D02*
X548462Y548081D01*
X564337Y551256D02*
X567187Y553206D01*
D13*
X548462Y548081D03*
D12*
X564337Y490931D02*
X557987Y484581D01*
X548462Y484581D01*
X548462Y427431D01*
X564337Y490931D02*
X567187Y493206D01*
D13*
X548462Y427431D03*
D12*
X446862Y554431D02*
X453212Y560781D01*
X453212Y570306D01*
D13*
X446862Y554431D03*
X453212Y570306D03*
D12*
X504012Y449656D02*
X516712Y436956D01*
X504012Y449656D02*
X504012Y567131D01*
X491312Y579831D01*
X427812Y579831D01*
X427812Y570306D01*
D13*
X516712Y436956D03*
X427812Y570306D03*
D12*
X494487Y529031D02*
X459562Y494106D01*
X494487Y529031D02*
X494487Y563956D01*
X491312Y567131D01*
X557987Y522681D02*
X564337Y516331D01*
X557987Y522681D02*
X538937Y522681D01*
X538937Y560781D01*
X564337Y516331D02*
X567187Y513206D01*
D13*
X459562Y494106D03*
X491312Y567131D03*
X538937Y560781D03*
D12*
X491312Y509981D02*
X494487Y506806D01*
X494487Y446481D01*
X523062Y417906D01*
X564337Y417906D01*
X564337Y433781D01*
X567187Y434156D01*
X564337Y436956D02*
X564337Y452831D01*
X567187Y453206D01*
X564337Y436956D02*
X567187Y434156D01*
D13*
X491312Y509981D03*
D12*
X626085Y506806D02*
X670535Y551256D01*
X626085Y506806D02*
X626085Y500456D01*
X619735Y494106D01*
X600685Y494106D01*
X598285Y493206D01*
D13*
X670535Y551256D03*
D12*
X667360Y560781D02*
X638785Y532206D01*
X667360Y560781D02*
X680060Y560781D01*
X680060Y532206D01*
X645135Y497281D01*
X645135Y449656D01*
D13*
X638785Y532206D03*
X645135Y449656D03*
D12*
X607035Y443306D02*
X600685Y436956D01*
X607035Y443306D02*
X616560Y443306D01*
X616560Y468706D01*
X600685Y436956D02*
X598285Y434156D01*
X610210Y522681D02*
X600685Y532206D01*
X610210Y522681D02*
X616560Y522681D01*
X616560Y503631D01*
X600685Y532206D02*
X598285Y533206D01*
D13*
X616560Y468706D03*
X616560Y503631D03*
D12*
X753085Y563956D02*
X759435Y570306D01*
X753085Y563956D02*
X743560Y563956D01*
X743560Y560781D01*
X759435Y570306D02*
X762285Y573206D01*
D13*
X743560Y560781D03*
D12*
X743560Y551256D02*
X759435Y551256D01*
X743560Y551256D02*
X743560Y548081D01*
X759435Y551256D02*
X762285Y553206D01*
D13*
X743560Y548081D03*
D12*
X759435Y490931D02*
X753085Y484581D01*
X743560Y484581D01*
X743560Y427431D01*
X759435Y490931D02*
X762285Y493206D01*
D13*
X743560Y427431D03*
D12*
X641960Y554431D02*
X648310Y560781D01*
X648310Y570306D01*
D13*
X641960Y554431D03*
X648310Y570306D03*
D12*
X699110Y449656D02*
X711810Y436956D01*
X699110Y449656D02*
X699110Y567131D01*
X686410Y579831D01*
X622910Y579831D01*
X622910Y570306D01*
D13*
X711810Y436956D03*
X622910Y570306D03*
D12*
X689585Y529031D02*
X654660Y494106D01*
X689585Y529031D02*
X689585Y563956D01*
X686410Y567131D01*
X753085Y522681D02*
X759435Y516331D01*
X753085Y522681D02*
X734035Y522681D01*
X734035Y560781D01*
X759435Y516331D02*
X762285Y513206D01*
D13*
X654660Y494106D03*
X686410Y567131D03*
X734035Y560781D03*
D12*
X686410Y509981D02*
X689585Y506806D01*
X689585Y446481D01*
X718160Y417906D01*
X759435Y417906D01*
X759435Y433781D01*
X762285Y434156D01*
X759435Y436956D02*
X759435Y452831D01*
X762285Y453206D01*
X759435Y436956D02*
X762285Y434156D01*
D13*
X686410Y509981D03*
D12*
X821182Y506806D02*
X865632Y551256D01*
X821182Y506806D02*
X821182Y500456D01*
X814832Y494106D01*
X795782Y494106D01*
X793382Y493206D01*
D13*
X865632Y551256D03*
D12*
X862457Y560781D02*
X833882Y532206D01*
X862457Y560781D02*
X875157Y560781D01*
X875157Y532206D01*
X840232Y497281D01*
X840232Y449656D01*
D13*
X833882Y532206D03*
X840232Y449656D03*
D12*
X802132Y443306D02*
X795782Y436956D01*
X802132Y443306D02*
X811657Y443306D01*
X811657Y468706D01*
X795782Y436956D02*
X793382Y434156D01*
X805307Y522681D02*
X795782Y532206D01*
X805307Y522681D02*
X811657Y522681D01*
X811657Y503631D01*
X795782Y532206D02*
X793382Y533206D01*
D13*
X811657Y468706D03*
X811657Y503631D03*
D12*
X948182Y563956D02*
X954532Y570306D01*
X948182Y563956D02*
X938657Y563956D01*
X938657Y560781D01*
X954532Y570306D02*
X957382Y573206D01*
D13*
X938657Y560781D03*
D12*
X938657Y551256D02*
X954532Y551256D01*
X938657Y551256D02*
X938657Y548081D01*
X954532Y551256D02*
X957382Y553206D01*
D13*
X938657Y548081D03*
D12*
X954532Y490931D02*
X948182Y484581D01*
X938657Y484581D01*
X938657Y427431D01*
X954532Y490931D02*
X957382Y493206D01*
D13*
X938657Y427431D03*
D12*
X837057Y554431D02*
X843407Y560781D01*
X843407Y570306D01*
D13*
X837057Y554431D03*
X843407Y570306D03*
D12*
X894207Y449656D02*
X906907Y436956D01*
X894207Y449656D02*
X894207Y567131D01*
X881507Y579831D01*
X818007Y579831D01*
X818007Y570306D01*
D13*
X906907Y436956D03*
X818007Y570306D03*
D12*
X884682Y529031D02*
X849757Y494106D01*
X884682Y529031D02*
X884682Y563956D01*
X881507Y567131D01*
X948182Y522681D02*
X954532Y516331D01*
X948182Y522681D02*
X929132Y522681D01*
X929132Y560781D01*
X954532Y516331D02*
X957382Y513206D01*
D13*
X849757Y494106D03*
X881507Y567131D03*
X929132Y560781D03*
D12*
X881507Y509981D02*
X884682Y506806D01*
X884682Y446481D01*
X913257Y417906D01*
X954532Y417906D01*
X954532Y433781D01*
X957382Y434156D01*
X954532Y436956D02*
X954532Y452831D01*
X957382Y453206D01*
X954532Y436956D02*
X957382Y434156D01*
D13*
X881507Y509981D03*
D12*
X85242Y751357D02*
X40792Y706907D01*
X40792Y700557D01*
X34442Y694207D01*
X15392Y694207D01*
X12992Y693307D01*
D13*
X85242Y751357D03*
D12*
X82067Y760882D02*
X53492Y732307D01*
X82067Y760882D02*
X94767Y760882D01*
X94767Y732307D01*
X59842Y697382D01*
X59842Y649757D01*
D13*
X53492Y732307D03*
X59842Y649757D03*
D12*
X21742Y643407D02*
X15392Y637057D01*
X21742Y643407D02*
X31267Y643407D01*
X31267Y668807D01*
X15392Y637057D02*
X12992Y634257D01*
X24917Y722782D02*
X15392Y732307D01*
X24917Y722782D02*
X31267Y722782D01*
X31267Y703732D01*
X15392Y732307D02*
X12992Y733307D01*
D13*
X31267Y668807D03*
X31267Y703732D03*
D12*
X167792Y764057D02*
X174142Y770407D01*
X167792Y764057D02*
X158267Y764057D01*
X158267Y760882D01*
X174142Y770407D02*
X176992Y773307D01*
D13*
X158267Y760882D03*
D12*
X158267Y751357D02*
X174142Y751357D01*
X158267Y751357D02*
X158267Y748182D01*
X174142Y751357D02*
X176992Y753307D01*
D13*
X158267Y748182D03*
D12*
X174142Y691032D02*
X167792Y684682D01*
X158267Y684682D01*
X158267Y627532D01*
X174142Y691032D02*
X176992Y693307D01*
D13*
X158267Y627532D03*
D12*
X56667Y754532D02*
X63017Y760882D01*
X63017Y770407D01*
D13*
X56667Y754532D03*
X63017Y770407D03*
D12*
X113817Y649757D02*
X126517Y637057D01*
X113817Y649757D02*
X113817Y767232D01*
X101117Y779932D01*
X37617Y779932D01*
X37617Y770407D01*
D13*
X126517Y637057D03*
X37617Y770407D03*
D12*
X104292Y729132D02*
X69367Y694207D01*
X104292Y729132D02*
X104292Y764057D01*
X101117Y767232D01*
X167792Y722782D02*
X174142Y716432D01*
X167792Y722782D02*
X148742Y722782D01*
X148742Y760882D01*
X174142Y716432D02*
X176992Y713307D01*
D13*
X69367Y694207D03*
X101117Y767232D03*
X148742Y760882D03*
D12*
X101117Y710082D02*
X104292Y706907D01*
X104292Y646582D01*
X132867Y618007D01*
X174142Y618007D01*
X174142Y633882D01*
X176992Y634257D01*
X174142Y637057D02*
X174142Y652932D01*
X176992Y653307D01*
X174142Y637057D02*
X176992Y634257D01*
D13*
X101117Y710082D03*
D12*
X235890Y706907D02*
X280340Y751357D01*
X235890Y706907D02*
X235890Y700557D01*
X229540Y694207D01*
X210490Y694207D01*
X208090Y693307D01*
D13*
X280340Y751357D03*
D12*
X277165Y760882D02*
X248590Y732307D01*
X277165Y760882D02*
X289865Y760882D01*
X289865Y732307D01*
X254940Y697382D01*
X254940Y649757D01*
D13*
X248590Y732307D03*
X254940Y649757D03*
D12*
X216840Y643407D02*
X210490Y637057D01*
X216840Y643407D02*
X226365Y643407D01*
X226365Y668807D01*
X210490Y637057D02*
X208090Y634257D01*
X220015Y722782D02*
X210490Y732307D01*
X220015Y722782D02*
X226365Y722782D01*
X226365Y703732D01*
X210490Y732307D02*
X208090Y733307D01*
D13*
X226365Y668807D03*
X226365Y703732D03*
D12*
X362890Y764057D02*
X369240Y770407D01*
X362890Y764057D02*
X353365Y764057D01*
X353365Y760882D01*
X369240Y770407D02*
X372090Y773307D01*
D13*
X353365Y760882D03*
D12*
X353365Y751357D02*
X369240Y751357D01*
X353365Y751357D02*
X353365Y748182D01*
X369240Y751357D02*
X372090Y753307D01*
D13*
X353365Y748182D03*
D12*
X369240Y691032D02*
X362890Y684682D01*
X353365Y684682D01*
X353365Y627532D01*
X369240Y691032D02*
X372090Y693307D01*
D13*
X353365Y627532D03*
D12*
X251765Y754532D02*
X258115Y760882D01*
X258115Y770407D01*
D13*
X251765Y754532D03*
X258115Y770407D03*
D12*
X308915Y649757D02*
X321615Y637057D01*
X308915Y649757D02*
X308915Y767232D01*
X296215Y779932D01*
X232715Y779932D01*
X232715Y770407D01*
D13*
X321615Y637057D03*
X232715Y770407D03*
D12*
X299390Y729132D02*
X264465Y694207D01*
X299390Y729132D02*
X299390Y764057D01*
X296215Y767232D01*
X362890Y722782D02*
X369240Y716432D01*
X362890Y722782D02*
X343840Y722782D01*
X343840Y760882D01*
X369240Y716432D02*
X372090Y713307D01*
D13*
X264465Y694207D03*
X296215Y767232D03*
X343840Y760882D03*
D12*
X296215Y710082D02*
X299390Y706907D01*
X299390Y646582D01*
X327965Y618007D01*
X369240Y618007D01*
X369240Y633882D01*
X372090Y634257D01*
X369240Y637057D02*
X369240Y652932D01*
X372090Y653307D01*
X369240Y637057D02*
X372090Y634257D01*
D13*
X296215Y710082D03*
D12*
X430987Y706907D02*
X475437Y751357D01*
X430987Y706907D02*
X430987Y700557D01*
X424637Y694207D01*
X405587Y694207D01*
X403187Y693307D01*
D13*
X475437Y751357D03*
D12*
X472262Y760882D02*
X443687Y732307D01*
X472262Y760882D02*
X484962Y760882D01*
X484962Y732307D01*
X450037Y697382D01*
X450037Y649757D01*
D13*
X443687Y732307D03*
X450037Y649757D03*
D12*
X411937Y643407D02*
X405587Y637057D01*
X411937Y643407D02*
X421462Y643407D01*
X421462Y668807D01*
X405587Y637057D02*
X403187Y634257D01*
X415112Y722782D02*
X405587Y732307D01*
X415112Y722782D02*
X421462Y722782D01*
X421462Y703732D01*
X405587Y732307D02*
X403187Y733307D01*
D13*
X421462Y668807D03*
X421462Y703732D03*
D12*
X557987Y764057D02*
X564337Y770407D01*
X557987Y764057D02*
X548462Y764057D01*
X548462Y760882D01*
X564337Y770407D02*
X567187Y773307D01*
D13*
X548462Y760882D03*
D12*
X548462Y751357D02*
X564337Y751357D01*
X548462Y751357D02*
X548462Y748182D01*
X564337Y751357D02*
X567187Y753307D01*
D13*
X548462Y748182D03*
D12*
X564337Y691032D02*
X557987Y684682D01*
X548462Y684682D01*
X548462Y627532D01*
X564337Y691032D02*
X567187Y693307D01*
D13*
X548462Y627532D03*
D12*
X446862Y754532D02*
X453212Y760882D01*
X453212Y770407D01*
D13*
X446862Y754532D03*
X453212Y770407D03*
D12*
X504012Y649757D02*
X516712Y637057D01*
X504012Y649757D02*
X504012Y767232D01*
X491312Y779932D01*
X427812Y779932D01*
X427812Y770407D01*
D13*
X516712Y637057D03*
X427812Y770407D03*
D12*
X494487Y729132D02*
X459562Y694207D01*
X494487Y729132D02*
X494487Y764057D01*
X491312Y767232D01*
X557987Y722782D02*
X564337Y716432D01*
X557987Y722782D02*
X538937Y722782D01*
X538937Y760882D01*
X564337Y716432D02*
X567187Y713307D01*
D13*
X459562Y694207D03*
X491312Y767232D03*
X538937Y760882D03*
D12*
X491312Y710082D02*
X494487Y706907D01*
X494487Y646582D01*
X523062Y618007D01*
X564337Y618007D01*
X564337Y633882D01*
X567187Y634257D01*
X564337Y637057D02*
X564337Y652932D01*
X567187Y653307D01*
X564337Y637057D02*
X567187Y634257D01*
D13*
X491312Y710082D03*
D12*
X626085Y706907D02*
X670535Y751357D01*
X626085Y706907D02*
X626085Y700557D01*
X619735Y694207D01*
X600685Y694207D01*
X598285Y693307D01*
D13*
X670535Y751357D03*
D12*
X667360Y760882D02*
X638785Y732307D01*
X667360Y760882D02*
X680060Y760882D01*
X680060Y732307D01*
X645135Y697382D01*
X645135Y649757D01*
D13*
X638785Y732307D03*
X645135Y649757D03*
D12*
X607035Y643407D02*
X600685Y637057D01*
X607035Y643407D02*
X616560Y643407D01*
X616560Y668807D01*
X600685Y637057D02*
X598285Y634257D01*
X610210Y722782D02*
X600685Y732307D01*
X610210Y722782D02*
X616560Y722782D01*
X616560Y703732D01*
X600685Y732307D02*
X598285Y733307D01*
D13*
X616560Y668807D03*
X616560Y703732D03*
D12*
X753085Y764057D02*
X759435Y770407D01*
X753085Y764057D02*
X743560Y764057D01*
X743560Y760882D01*
X759435Y770407D02*
X762285Y773307D01*
D13*
X743560Y760882D03*
D12*
X743560Y751357D02*
X759435Y751357D01*
X743560Y751357D02*
X743560Y748182D01*
X759435Y751357D02*
X762285Y753307D01*
D13*
X743560Y748182D03*
D12*
X759435Y691032D02*
X753085Y684682D01*
X743560Y684682D01*
X743560Y627532D01*
X759435Y691032D02*
X762285Y693307D01*
D13*
X743560Y627532D03*
D12*
X641960Y754532D02*
X648310Y760882D01*
X648310Y770407D01*
D13*
X641960Y754532D03*
X648310Y770407D03*
D12*
X699110Y649757D02*
X711810Y637057D01*
X699110Y649757D02*
X699110Y767232D01*
X686410Y779932D01*
X622910Y779932D01*
X622910Y770407D01*
D13*
X711810Y637057D03*
X622910Y770407D03*
D12*
X689585Y729132D02*
X654660Y694207D01*
X689585Y729132D02*
X689585Y764057D01*
X686410Y767232D01*
X753085Y722782D02*
X759435Y716432D01*
X753085Y722782D02*
X734035Y722782D01*
X734035Y760882D01*
X759435Y716432D02*
X762285Y713307D01*
D13*
X654660Y694207D03*
X686410Y767232D03*
X734035Y760882D03*
D12*
X686410Y710082D02*
X689585Y706907D01*
X689585Y646582D01*
X718160Y618007D01*
X759435Y618007D01*
X759435Y633882D01*
X762285Y634257D01*
X759435Y637057D02*
X759435Y652932D01*
X762285Y653307D01*
X759435Y637057D02*
X762285Y634257D01*
D13*
X686410Y710082D03*
D12*
X821182Y706907D02*
X865632Y751357D01*
X821182Y706907D02*
X821182Y700557D01*
X814832Y694207D01*
X795782Y694207D01*
X793382Y693307D01*
D13*
X865632Y751357D03*
D12*
X862457Y760882D02*
X833882Y732307D01*
X862457Y760882D02*
X875157Y760882D01*
X875157Y732307D01*
X840232Y697382D01*
X840232Y649757D01*
D13*
X833882Y732307D03*
X840232Y649757D03*
D12*
X802132Y643407D02*
X795782Y637057D01*
X802132Y643407D02*
X811657Y643407D01*
X811657Y668807D01*
X795782Y637057D02*
X793382Y634257D01*
X805307Y722782D02*
X795782Y732307D01*
X805307Y722782D02*
X811657Y722782D01*
X811657Y703732D01*
X795782Y732307D02*
X793382Y733307D01*
D13*
X811657Y668807D03*
X811657Y703732D03*
D12*
X948182Y764057D02*
X954532Y770407D01*
X948182Y764057D02*
X938657Y764057D01*
X938657Y760882D01*
X954532Y770407D02*
X957382Y773307D01*
D13*
X938657Y760882D03*
D12*
X938657Y751357D02*
X954532Y751357D01*
X938657Y751357D02*
X938657Y748182D01*
X954532Y751357D02*
X957382Y753307D01*
D13*
X938657Y748182D03*
D12*
X954532Y691032D02*
X948182Y684682D01*
X938657Y684682D01*
X938657Y627532D01*
X954532Y691032D02*
X957382Y693307D01*
D13*
X938657Y627532D03*
D12*
X837057Y754532D02*
X843407Y760882D01*
X843407Y770407D01*
D13*
X837057Y754532D03*
X843407Y770407D03*
D12*
X894207Y649757D02*
X906907Y637057D01*
X894207Y649757D02*
X894207Y767232D01*
X881507Y779932D01*
X818007Y779932D01*
X818007Y770407D01*
D13*
X906907Y637057D03*
X818007Y770407D03*
D12*
X884682Y729132D02*
X849757Y694207D01*
X884682Y729132D02*
X884682Y764057D01*
X881507Y767232D01*
X948182Y722782D02*
X954532Y716432D01*
X948182Y722782D02*
X929132Y722782D01*
X929132Y760882D01*
X954532Y716432D02*
X957382Y713307D01*
D13*
X849757Y694207D03*
X881507Y767232D03*
X929132Y760882D03*
D12*
X881507Y710082D02*
X884682Y706907D01*
X884682Y646582D01*
X913257Y618007D01*
X954532Y618007D01*
X954532Y633882D01*
X957382Y634257D01*
X954532Y637057D02*
X954532Y652932D01*
X957382Y653307D01*
X954532Y637057D02*
X957382Y634257D01*
D13*
X881507Y710082D03*
M02*
