G04 EAGLE Gerber RS-274X export*
G75*
%MOMM*%
%FSLAX34Y34*%
%LPD*%
%INBottom Copper*%
%IPPOS*%
%AMOC8*
5,1,8,0,0,1.08239X$1,22.5*%
G01*
%ADD10R,0.950000X1.300000*%
%ADD11R,3.250000X1.300000*%
%ADD12R,1.400000X1.000000*%
%ADD13R,2.540000X1.270000*%
%ADD14R,1.270000X2.540000*%
%ADD15R,1.600000X2.300000*%
%ADD16C,0.508000*%
%ADD17C,0.756400*%


D10*
X41322Y80552D03*
X64222Y80552D03*
X87122Y80552D03*
D11*
X64222Y13552D03*
D12*
X50116Y142450D03*
X72116Y132950D03*
X72116Y151950D03*
D13*
X149992Y55004D03*
X149992Y95004D03*
X14992Y50004D03*
X114992Y50004D03*
X149992Y175004D03*
X149992Y135004D03*
X149992Y15004D03*
X14992Y155004D03*
X114992Y25004D03*
D14*
X84992Y175004D03*
X49992Y175004D03*
D15*
X115976Y100758D03*
X115976Y163758D03*
D12*
X74906Y106350D03*
X52906Y115850D03*
X52906Y96850D03*
D10*
X236420Y80552D03*
X259320Y80552D03*
X282220Y80552D03*
D11*
X259320Y13552D03*
D12*
X245214Y142450D03*
X267214Y132950D03*
X267214Y151950D03*
D13*
X345090Y55004D03*
X345090Y95004D03*
X210090Y50004D03*
X310090Y50004D03*
X345090Y175004D03*
X345090Y135004D03*
X345090Y15004D03*
X210090Y155004D03*
X310090Y25004D03*
D14*
X280090Y175004D03*
X245090Y175004D03*
D15*
X311074Y100758D03*
X311074Y163758D03*
D12*
X270004Y106350D03*
X248004Y115850D03*
X248004Y96850D03*
D10*
X431517Y80552D03*
X454417Y80552D03*
X477317Y80552D03*
D11*
X454417Y13552D03*
D12*
X440311Y142450D03*
X462311Y132950D03*
X462311Y151950D03*
D13*
X540187Y55004D03*
X540187Y95004D03*
X405187Y50004D03*
X505187Y50004D03*
X540187Y175004D03*
X540187Y135004D03*
X540187Y15004D03*
X405187Y155004D03*
X505187Y25004D03*
D14*
X475187Y175004D03*
X440187Y175004D03*
D15*
X506171Y100758D03*
X506171Y163758D03*
D12*
X465101Y106350D03*
X443101Y115850D03*
X443101Y96850D03*
D10*
X626615Y80552D03*
X649515Y80552D03*
X672415Y80552D03*
D11*
X649515Y13552D03*
D12*
X635409Y142450D03*
X657409Y132950D03*
X657409Y151950D03*
D13*
X735285Y55004D03*
X735285Y95004D03*
X600285Y50004D03*
X700285Y50004D03*
X735285Y175004D03*
X735285Y135004D03*
X735285Y15004D03*
X600285Y155004D03*
X700285Y25004D03*
D14*
X670285Y175004D03*
X635285Y175004D03*
D15*
X701269Y100758D03*
X701269Y163758D03*
D12*
X660199Y106350D03*
X638199Y115850D03*
X638199Y96850D03*
D10*
X821712Y80552D03*
X844612Y80552D03*
X867512Y80552D03*
D11*
X844612Y13552D03*
D12*
X830506Y142450D03*
X852506Y132950D03*
X852506Y151950D03*
D13*
X930382Y55004D03*
X930382Y95004D03*
X795382Y50004D03*
X895382Y50004D03*
X930382Y175004D03*
X930382Y135004D03*
X930382Y15004D03*
X795382Y155004D03*
X895382Y25004D03*
D14*
X865382Y175004D03*
X830382Y175004D03*
D15*
X896366Y100758D03*
X896366Y163758D03*
D12*
X855296Y106350D03*
X833296Y115850D03*
X833296Y96850D03*
D10*
X41322Y280653D03*
X64222Y280653D03*
X87122Y280653D03*
D11*
X64222Y213653D03*
D12*
X50116Y342551D03*
X72116Y333051D03*
X72116Y352051D03*
D13*
X149992Y255105D03*
X149992Y295105D03*
X14992Y250105D03*
X114992Y250105D03*
X149992Y375105D03*
X149992Y335105D03*
X149992Y215105D03*
X14992Y355105D03*
X114992Y225105D03*
D14*
X84992Y375105D03*
X49992Y375105D03*
D15*
X115976Y300859D03*
X115976Y363859D03*
D12*
X74906Y306451D03*
X52906Y315951D03*
X52906Y296951D03*
D10*
X236420Y280653D03*
X259320Y280653D03*
X282220Y280653D03*
D11*
X259320Y213653D03*
D12*
X245214Y342551D03*
X267214Y333051D03*
X267214Y352051D03*
D13*
X345090Y255105D03*
X345090Y295105D03*
X210090Y250105D03*
X310090Y250105D03*
X345090Y375105D03*
X345090Y335105D03*
X345090Y215105D03*
X210090Y355105D03*
X310090Y225105D03*
D14*
X280090Y375105D03*
X245090Y375105D03*
D15*
X311074Y300859D03*
X311074Y363859D03*
D12*
X270004Y306451D03*
X248004Y315951D03*
X248004Y296951D03*
D10*
X431517Y280653D03*
X454417Y280653D03*
X477317Y280653D03*
D11*
X454417Y213653D03*
D12*
X440311Y342551D03*
X462311Y333051D03*
X462311Y352051D03*
D13*
X540187Y255105D03*
X540187Y295105D03*
X405187Y250105D03*
X505187Y250105D03*
X540187Y375105D03*
X540187Y335105D03*
X540187Y215105D03*
X405187Y355105D03*
X505187Y225105D03*
D14*
X475187Y375105D03*
X440187Y375105D03*
D15*
X506171Y300859D03*
X506171Y363859D03*
D12*
X465101Y306451D03*
X443101Y315951D03*
X443101Y296951D03*
D10*
X626615Y280653D03*
X649515Y280653D03*
X672415Y280653D03*
D11*
X649515Y213653D03*
D12*
X635409Y342551D03*
X657409Y333051D03*
X657409Y352051D03*
D13*
X735285Y255105D03*
X735285Y295105D03*
X600285Y250105D03*
X700285Y250105D03*
X735285Y375105D03*
X735285Y335105D03*
X735285Y215105D03*
X600285Y355105D03*
X700285Y225105D03*
D14*
X670285Y375105D03*
X635285Y375105D03*
D15*
X701269Y300859D03*
X701269Y363859D03*
D12*
X660199Y306451D03*
X638199Y315951D03*
X638199Y296951D03*
D10*
X821712Y280653D03*
X844612Y280653D03*
X867512Y280653D03*
D11*
X844612Y213653D03*
D12*
X830506Y342551D03*
X852506Y333051D03*
X852506Y352051D03*
D13*
X930382Y255105D03*
X930382Y295105D03*
X795382Y250105D03*
X895382Y250105D03*
X930382Y375105D03*
X930382Y335105D03*
X930382Y215105D03*
X795382Y355105D03*
X895382Y225105D03*
D14*
X865382Y375105D03*
X830382Y375105D03*
D15*
X896366Y300859D03*
X896366Y363859D03*
D12*
X855296Y306451D03*
X833296Y315951D03*
X833296Y296951D03*
D10*
X41322Y480754D03*
X64222Y480754D03*
X87122Y480754D03*
D11*
X64222Y413754D03*
D12*
X50116Y542652D03*
X72116Y533152D03*
X72116Y552152D03*
D13*
X149992Y455206D03*
X149992Y495206D03*
X14992Y450206D03*
X114992Y450206D03*
X149992Y575206D03*
X149992Y535206D03*
X149992Y415206D03*
X14992Y555206D03*
X114992Y425206D03*
D14*
X84992Y575206D03*
X49992Y575206D03*
D15*
X115976Y500960D03*
X115976Y563960D03*
D12*
X74906Y506552D03*
X52906Y516052D03*
X52906Y497052D03*
D10*
X236420Y480754D03*
X259320Y480754D03*
X282220Y480754D03*
D11*
X259320Y413754D03*
D12*
X245214Y542652D03*
X267214Y533152D03*
X267214Y552152D03*
D13*
X345090Y455206D03*
X345090Y495206D03*
X210090Y450206D03*
X310090Y450206D03*
X345090Y575206D03*
X345090Y535206D03*
X345090Y415206D03*
X210090Y555206D03*
X310090Y425206D03*
D14*
X280090Y575206D03*
X245090Y575206D03*
D15*
X311074Y500960D03*
X311074Y563960D03*
D12*
X270004Y506552D03*
X248004Y516052D03*
X248004Y497052D03*
D10*
X431517Y480754D03*
X454417Y480754D03*
X477317Y480754D03*
D11*
X454417Y413754D03*
D12*
X440311Y542652D03*
X462311Y533152D03*
X462311Y552152D03*
D13*
X540187Y455206D03*
X540187Y495206D03*
X405187Y450206D03*
X505187Y450206D03*
X540187Y575206D03*
X540187Y535206D03*
X540187Y415206D03*
X405187Y555206D03*
X505187Y425206D03*
D14*
X475187Y575206D03*
X440187Y575206D03*
D15*
X506171Y500960D03*
X506171Y563960D03*
D12*
X465101Y506552D03*
X443101Y516052D03*
X443101Y497052D03*
D10*
X626615Y480754D03*
X649515Y480754D03*
X672415Y480754D03*
D11*
X649515Y413754D03*
D12*
X635409Y542652D03*
X657409Y533152D03*
X657409Y552152D03*
D13*
X735285Y455206D03*
X735285Y495206D03*
X600285Y450206D03*
X700285Y450206D03*
X735285Y575206D03*
X735285Y535206D03*
X735285Y415206D03*
X600285Y555206D03*
X700285Y425206D03*
D14*
X670285Y575206D03*
X635285Y575206D03*
D15*
X701269Y500960D03*
X701269Y563960D03*
D12*
X660199Y506552D03*
X638199Y516052D03*
X638199Y497052D03*
D10*
X821712Y480754D03*
X844612Y480754D03*
X867512Y480754D03*
D11*
X844612Y413754D03*
D12*
X830506Y542652D03*
X852506Y533152D03*
X852506Y552152D03*
D13*
X930382Y455206D03*
X930382Y495206D03*
X795382Y450206D03*
X895382Y450206D03*
X930382Y575206D03*
X930382Y535206D03*
X930382Y415206D03*
X795382Y555206D03*
X895382Y425206D03*
D14*
X865382Y575206D03*
X830382Y575206D03*
D15*
X896366Y500960D03*
X896366Y563960D03*
D12*
X855296Y506552D03*
X833296Y516052D03*
X833296Y497052D03*
D10*
X41322Y680855D03*
X64222Y680855D03*
X87122Y680855D03*
D11*
X64222Y613855D03*
D12*
X50116Y742753D03*
X72116Y733253D03*
X72116Y752253D03*
D13*
X149992Y655307D03*
X149992Y695307D03*
X14992Y650307D03*
X114992Y650307D03*
X149992Y775307D03*
X149992Y735307D03*
X149992Y615307D03*
X14992Y755307D03*
X114992Y625307D03*
D14*
X84992Y775307D03*
X49992Y775307D03*
D15*
X115976Y701061D03*
X115976Y764061D03*
D12*
X74906Y706653D03*
X52906Y716153D03*
X52906Y697153D03*
D10*
X236420Y680855D03*
X259320Y680855D03*
X282220Y680855D03*
D11*
X259320Y613855D03*
D12*
X245214Y742753D03*
X267214Y733253D03*
X267214Y752253D03*
D13*
X345090Y655307D03*
X345090Y695307D03*
X210090Y650307D03*
X310090Y650307D03*
X345090Y775307D03*
X345090Y735307D03*
X345090Y615307D03*
X210090Y755307D03*
X310090Y625307D03*
D14*
X280090Y775307D03*
X245090Y775307D03*
D15*
X311074Y701061D03*
X311074Y764061D03*
D12*
X270004Y706653D03*
X248004Y716153D03*
X248004Y697153D03*
D10*
X431517Y680855D03*
X454417Y680855D03*
X477317Y680855D03*
D11*
X454417Y613855D03*
D12*
X440311Y742753D03*
X462311Y733253D03*
X462311Y752253D03*
D13*
X540187Y655307D03*
X540187Y695307D03*
X405187Y650307D03*
X505187Y650307D03*
X540187Y775307D03*
X540187Y735307D03*
X540187Y615307D03*
X405187Y755307D03*
X505187Y625307D03*
D14*
X475187Y775307D03*
X440187Y775307D03*
D15*
X506171Y701061D03*
X506171Y764061D03*
D12*
X465101Y706653D03*
X443101Y716153D03*
X443101Y697153D03*
D10*
X626615Y680855D03*
X649515Y680855D03*
X672415Y680855D03*
D11*
X649515Y613855D03*
D12*
X635409Y742753D03*
X657409Y733253D03*
X657409Y752253D03*
D13*
X735285Y655307D03*
X735285Y695307D03*
X600285Y650307D03*
X700285Y650307D03*
X735285Y775307D03*
X735285Y735307D03*
X735285Y615307D03*
X600285Y755307D03*
X700285Y625307D03*
D14*
X670285Y775307D03*
X635285Y775307D03*
D15*
X701269Y701061D03*
X701269Y764061D03*
D12*
X660199Y706653D03*
X638199Y716153D03*
X638199Y697153D03*
D10*
X821712Y680855D03*
X844612Y680855D03*
X867512Y680855D03*
D11*
X844612Y613855D03*
D12*
X830506Y742753D03*
X852506Y733253D03*
X852506Y752253D03*
D13*
X930382Y655307D03*
X930382Y695307D03*
X795382Y650307D03*
X895382Y650307D03*
X930382Y775307D03*
X930382Y735307D03*
X930382Y615307D03*
X795382Y755307D03*
X895382Y625307D03*
D14*
X865382Y775307D03*
X830382Y775307D03*
D15*
X896366Y701061D03*
X896366Y764061D03*
D12*
X855296Y706653D03*
X833296Y716153D03*
X833296Y697153D03*
D16*
X104292Y62154D02*
X102705Y63741D01*
X88417Y78029D01*
X104292Y62154D02*
X142392Y62154D01*
X148742Y55804D01*
X88417Y78029D02*
X87122Y80552D01*
X148742Y55804D02*
X149992Y55004D01*
X21742Y58979D02*
X15392Y52629D01*
X21742Y58979D02*
X97942Y58979D01*
X102705Y63741D01*
X15392Y52629D02*
X14992Y50004D01*
X40792Y81204D02*
X40792Y112954D01*
X50317Y112954D01*
X40792Y81204D02*
X41322Y80552D01*
X50317Y112954D02*
X52906Y115850D01*
X53492Y116129D02*
X69367Y132004D01*
X72116Y132950D01*
X53492Y116129D02*
X52906Y115850D01*
X126517Y119304D02*
X148742Y97079D01*
X126517Y119304D02*
X59842Y119304D01*
X148742Y97079D02*
X149992Y95004D01*
X59842Y119304D02*
X52906Y115850D01*
X72542Y151054D02*
X85242Y151054D01*
X72542Y151054D02*
X72116Y151950D01*
D17*
X85242Y151054D03*
D16*
X50317Y141529D02*
X50317Y132004D01*
X53492Y132004D01*
X59842Y49454D02*
X113817Y49454D01*
X50317Y141529D02*
X50116Y142450D01*
X113817Y49454D02*
X114992Y50004D01*
D17*
X53492Y132004D03*
X59842Y49454D03*
D16*
X66192Y81204D02*
X69367Y84379D01*
X72542Y84379D01*
X88417Y100254D01*
X113817Y100254D01*
X66192Y81204D02*
X64222Y80552D01*
X113817Y100254D02*
X115976Y100758D01*
X53492Y68504D02*
X31267Y68504D01*
X53492Y68504D02*
X63017Y78029D01*
X64222Y80552D01*
X31267Y68504D02*
X31267Y103429D01*
D17*
X31267Y68504D03*
X31267Y103429D03*
D16*
X158267Y160579D02*
X158267Y173279D01*
X151917Y173279D01*
X149992Y175004D01*
D17*
X158267Y160579D03*
D16*
X158267Y147879D02*
X151917Y141529D01*
X151917Y135179D01*
X149992Y135004D01*
D17*
X158267Y147879D03*
D16*
X158267Y27229D02*
X148742Y17704D01*
X149992Y15004D01*
D17*
X158267Y27229D03*
D16*
X56667Y154229D02*
X15392Y154229D01*
X63017Y170104D02*
X66192Y173279D01*
X82067Y173279D01*
X15392Y154229D02*
X14992Y155004D01*
X82067Y173279D02*
X84992Y175004D01*
D17*
X56667Y154229D03*
X63017Y170104D03*
D16*
X126517Y36754D02*
X116992Y27229D01*
X37617Y170104D02*
X40792Y173279D01*
X47142Y173279D01*
X116992Y27229D02*
X114992Y25004D01*
X47142Y173279D02*
X49992Y175004D01*
D17*
X126517Y36754D03*
X37617Y170104D03*
D16*
X53492Y93904D02*
X69367Y93904D01*
X101117Y166929D02*
X113817Y166929D01*
X52906Y96850D02*
X53492Y93904D01*
X115976Y163758D02*
X113817Y166929D01*
X145567Y163754D02*
X148742Y160579D01*
X145567Y163754D02*
X116992Y163754D01*
X115976Y163758D01*
D17*
X69367Y93904D03*
X101117Y166929D03*
X148742Y160579D03*
D16*
X78892Y109779D02*
X75717Y106604D01*
X78892Y109779D02*
X101117Y109779D01*
X75717Y106604D02*
X74906Y106350D01*
D17*
X101117Y109779D03*
D16*
X297802Y63741D02*
X299390Y62154D01*
X297802Y63741D02*
X283515Y78029D01*
X299390Y62154D02*
X337490Y62154D01*
X343840Y55804D01*
X283515Y78029D02*
X282220Y80552D01*
X343840Y55804D02*
X345090Y55004D01*
X216840Y58979D02*
X210490Y52629D01*
X216840Y58979D02*
X293040Y58979D01*
X297802Y63741D01*
X210490Y52629D02*
X210090Y50004D01*
X235890Y81204D02*
X235890Y112954D01*
X245415Y112954D01*
X235890Y81204D02*
X236420Y80552D01*
X245415Y112954D02*
X248004Y115850D01*
X248590Y116129D02*
X264465Y132004D01*
X267214Y132950D01*
X248590Y116129D02*
X248004Y115850D01*
X321615Y119304D02*
X343840Y97079D01*
X321615Y119304D02*
X254940Y119304D01*
X343840Y97079D02*
X345090Y95004D01*
X254940Y119304D02*
X248004Y115850D01*
X267640Y151054D02*
X280340Y151054D01*
X267640Y151054D02*
X267214Y151950D01*
D17*
X280340Y151054D03*
D16*
X245415Y141529D02*
X245415Y132004D01*
X248590Y132004D01*
X254940Y49454D02*
X308915Y49454D01*
X245415Y141529D02*
X245214Y142450D01*
X308915Y49454D02*
X310090Y50004D01*
D17*
X248590Y132004D03*
X254940Y49454D03*
D16*
X261290Y81204D02*
X264465Y84379D01*
X267640Y84379D01*
X283515Y100254D01*
X308915Y100254D01*
X261290Y81204D02*
X259320Y80552D01*
X308915Y100254D02*
X311074Y100758D01*
X248590Y68504D02*
X226365Y68504D01*
X248590Y68504D02*
X258115Y78029D01*
X259320Y80552D01*
X226365Y68504D02*
X226365Y103429D01*
D17*
X226365Y68504D03*
X226365Y103429D03*
D16*
X353365Y160579D02*
X353365Y173279D01*
X347015Y173279D01*
X345090Y175004D01*
D17*
X353365Y160579D03*
D16*
X353365Y147879D02*
X347015Y141529D01*
X347015Y135179D01*
X345090Y135004D01*
D17*
X353365Y147879D03*
D16*
X353365Y27229D02*
X343840Y17704D01*
X345090Y15004D01*
D17*
X353365Y27229D03*
D16*
X251765Y154229D02*
X210490Y154229D01*
X258115Y170104D02*
X261290Y173279D01*
X277165Y173279D01*
X210490Y154229D02*
X210090Y155004D01*
X277165Y173279D02*
X280090Y175004D01*
D17*
X251765Y154229D03*
X258115Y170104D03*
D16*
X321615Y36754D02*
X312090Y27229D01*
X232715Y170104D02*
X235890Y173279D01*
X242240Y173279D01*
X312090Y27229D02*
X310090Y25004D01*
X242240Y173279D02*
X245090Y175004D01*
D17*
X321615Y36754D03*
X232715Y170104D03*
D16*
X248590Y93904D02*
X264465Y93904D01*
X296215Y166929D02*
X308915Y166929D01*
X248004Y96850D02*
X248590Y93904D01*
X311074Y163758D02*
X308915Y166929D01*
X340665Y163754D02*
X343840Y160579D01*
X340665Y163754D02*
X312090Y163754D01*
X311074Y163758D01*
D17*
X264465Y93904D03*
X296215Y166929D03*
X343840Y160579D03*
D16*
X273990Y109779D02*
X270815Y106604D01*
X273990Y109779D02*
X296215Y109779D01*
X270815Y106604D02*
X270004Y106350D01*
D17*
X296215Y109779D03*
D16*
X492900Y63741D02*
X494487Y62154D01*
X492900Y63741D02*
X478612Y78029D01*
X494487Y62154D02*
X532587Y62154D01*
X538937Y55804D01*
X478612Y78029D02*
X477317Y80552D01*
X538937Y55804D02*
X540187Y55004D01*
X411937Y58979D02*
X405587Y52629D01*
X411937Y58979D02*
X488137Y58979D01*
X492900Y63741D01*
X405587Y52629D02*
X405187Y50004D01*
X430987Y81204D02*
X430987Y112954D01*
X440512Y112954D01*
X430987Y81204D02*
X431517Y80552D01*
X440512Y112954D02*
X443101Y115850D01*
X443687Y116129D02*
X459562Y132004D01*
X462311Y132950D01*
X443687Y116129D02*
X443101Y115850D01*
X516712Y119304D02*
X538937Y97079D01*
X516712Y119304D02*
X450037Y119304D01*
X538937Y97079D02*
X540187Y95004D01*
X450037Y119304D02*
X443101Y115850D01*
X462737Y151054D02*
X475437Y151054D01*
X462737Y151054D02*
X462311Y151950D01*
D17*
X475437Y151054D03*
D16*
X440512Y141529D02*
X440512Y132004D01*
X443687Y132004D01*
X450037Y49454D02*
X504012Y49454D01*
X440512Y141529D02*
X440311Y142450D01*
X504012Y49454D02*
X505187Y50004D01*
D17*
X443687Y132004D03*
X450037Y49454D03*
D16*
X456387Y81204D02*
X459562Y84379D01*
X462737Y84379D01*
X478612Y100254D01*
X504012Y100254D01*
X456387Y81204D02*
X454417Y80552D01*
X504012Y100254D02*
X506171Y100758D01*
X443687Y68504D02*
X421462Y68504D01*
X443687Y68504D02*
X453212Y78029D01*
X454417Y80552D01*
X421462Y68504D02*
X421462Y103429D01*
D17*
X421462Y68504D03*
X421462Y103429D03*
D16*
X548462Y160579D02*
X548462Y173279D01*
X542112Y173279D01*
X540187Y175004D01*
D17*
X548462Y160579D03*
D16*
X548462Y147879D02*
X542112Y141529D01*
X542112Y135179D01*
X540187Y135004D01*
D17*
X548462Y147879D03*
D16*
X548462Y27229D02*
X538937Y17704D01*
X540187Y15004D01*
D17*
X548462Y27229D03*
D16*
X446862Y154229D02*
X405587Y154229D01*
X453212Y170104D02*
X456387Y173279D01*
X472262Y173279D01*
X405587Y154229D02*
X405187Y155004D01*
X472262Y173279D02*
X475187Y175004D01*
D17*
X446862Y154229D03*
X453212Y170104D03*
D16*
X516712Y36754D02*
X507187Y27229D01*
X427812Y170104D02*
X430987Y173279D01*
X437337Y173279D01*
X507187Y27229D02*
X505187Y25004D01*
X437337Y173279D02*
X440187Y175004D01*
D17*
X516712Y36754D03*
X427812Y170104D03*
D16*
X443687Y93904D02*
X459562Y93904D01*
X491312Y166929D02*
X504012Y166929D01*
X443101Y96850D02*
X443687Y93904D01*
X506171Y163758D02*
X504012Y166929D01*
X535762Y163754D02*
X538937Y160579D01*
X535762Y163754D02*
X507187Y163754D01*
X506171Y163758D01*
D17*
X459562Y93904D03*
X491312Y166929D03*
X538937Y160579D03*
D16*
X469087Y109779D02*
X465912Y106604D01*
X469087Y109779D02*
X491312Y109779D01*
X465912Y106604D02*
X465101Y106350D01*
D17*
X491312Y109779D03*
D16*
X687997Y63741D02*
X689585Y62154D01*
X687997Y63741D02*
X673710Y78029D01*
X689585Y62154D02*
X727685Y62154D01*
X734035Y55804D01*
X673710Y78029D02*
X672415Y80552D01*
X734035Y55804D02*
X735285Y55004D01*
X607035Y58979D02*
X600685Y52629D01*
X607035Y58979D02*
X683235Y58979D01*
X687997Y63741D01*
X600685Y52629D02*
X600285Y50004D01*
X626085Y81204D02*
X626085Y112954D01*
X635610Y112954D01*
X626085Y81204D02*
X626615Y80552D01*
X635610Y112954D02*
X638199Y115850D01*
X638785Y116129D02*
X654660Y132004D01*
X657409Y132950D01*
X638785Y116129D02*
X638199Y115850D01*
X711810Y119304D02*
X734035Y97079D01*
X711810Y119304D02*
X645135Y119304D01*
X734035Y97079D02*
X735285Y95004D01*
X645135Y119304D02*
X638199Y115850D01*
X657835Y151054D02*
X670535Y151054D01*
X657835Y151054D02*
X657409Y151950D01*
D17*
X670535Y151054D03*
D16*
X635610Y141529D02*
X635610Y132004D01*
X638785Y132004D01*
X645135Y49454D02*
X699110Y49454D01*
X635610Y141529D02*
X635409Y142450D01*
X699110Y49454D02*
X700285Y50004D01*
D17*
X638785Y132004D03*
X645135Y49454D03*
D16*
X651485Y81204D02*
X654660Y84379D01*
X657835Y84379D01*
X673710Y100254D01*
X699110Y100254D01*
X651485Y81204D02*
X649515Y80552D01*
X699110Y100254D02*
X701269Y100758D01*
X638785Y68504D02*
X616560Y68504D01*
X638785Y68504D02*
X648310Y78029D01*
X649515Y80552D01*
X616560Y68504D02*
X616560Y103429D01*
D17*
X616560Y68504D03*
X616560Y103429D03*
D16*
X743560Y160579D02*
X743560Y173279D01*
X737210Y173279D01*
X735285Y175004D01*
D17*
X743560Y160579D03*
D16*
X743560Y147879D02*
X737210Y141529D01*
X737210Y135179D01*
X735285Y135004D01*
D17*
X743560Y147879D03*
D16*
X743560Y27229D02*
X734035Y17704D01*
X735285Y15004D01*
D17*
X743560Y27229D03*
D16*
X641960Y154229D02*
X600685Y154229D01*
X648310Y170104D02*
X651485Y173279D01*
X667360Y173279D01*
X600685Y154229D02*
X600285Y155004D01*
X667360Y173279D02*
X670285Y175004D01*
D17*
X641960Y154229D03*
X648310Y170104D03*
D16*
X711810Y36754D02*
X702285Y27229D01*
X622910Y170104D02*
X626085Y173279D01*
X632435Y173279D01*
X702285Y27229D02*
X700285Y25004D01*
X632435Y173279D02*
X635285Y175004D01*
D17*
X711810Y36754D03*
X622910Y170104D03*
D16*
X638785Y93904D02*
X654660Y93904D01*
X686410Y166929D02*
X699110Y166929D01*
X638199Y96850D02*
X638785Y93904D01*
X701269Y163758D02*
X699110Y166929D01*
X730860Y163754D02*
X734035Y160579D01*
X730860Y163754D02*
X702285Y163754D01*
X701269Y163758D01*
D17*
X654660Y93904D03*
X686410Y166929D03*
X734035Y160579D03*
D16*
X664185Y109779D02*
X661010Y106604D01*
X664185Y109779D02*
X686410Y109779D01*
X661010Y106604D02*
X660199Y106350D01*
D17*
X686410Y109779D03*
D16*
X883095Y63741D02*
X884682Y62154D01*
X883095Y63741D02*
X868807Y78029D01*
X884682Y62154D02*
X922782Y62154D01*
X929132Y55804D01*
X868807Y78029D02*
X867512Y80552D01*
X929132Y55804D02*
X930382Y55004D01*
X802132Y58979D02*
X795782Y52629D01*
X802132Y58979D02*
X878332Y58979D01*
X883095Y63741D01*
X795782Y52629D02*
X795382Y50004D01*
X821182Y81204D02*
X821182Y112954D01*
X830707Y112954D01*
X821182Y81204D02*
X821712Y80552D01*
X830707Y112954D02*
X833296Y115850D01*
X833882Y116129D02*
X849757Y132004D01*
X852506Y132950D01*
X833882Y116129D02*
X833296Y115850D01*
X906907Y119304D02*
X929132Y97079D01*
X906907Y119304D02*
X840232Y119304D01*
X929132Y97079D02*
X930382Y95004D01*
X840232Y119304D02*
X833296Y115850D01*
X852932Y151054D02*
X865632Y151054D01*
X852932Y151054D02*
X852506Y151950D01*
D17*
X865632Y151054D03*
D16*
X830707Y141529D02*
X830707Y132004D01*
X833882Y132004D01*
X840232Y49454D02*
X894207Y49454D01*
X830707Y141529D02*
X830506Y142450D01*
X894207Y49454D02*
X895382Y50004D01*
D17*
X833882Y132004D03*
X840232Y49454D03*
D16*
X846582Y81204D02*
X849757Y84379D01*
X852932Y84379D01*
X868807Y100254D01*
X894207Y100254D01*
X846582Y81204D02*
X844612Y80552D01*
X894207Y100254D02*
X896366Y100758D01*
X833882Y68504D02*
X811657Y68504D01*
X833882Y68504D02*
X843407Y78029D01*
X844612Y80552D01*
X811657Y68504D02*
X811657Y103429D01*
D17*
X811657Y68504D03*
X811657Y103429D03*
D16*
X938657Y160579D02*
X938657Y173279D01*
X932307Y173279D01*
X930382Y175004D01*
D17*
X938657Y160579D03*
D16*
X938657Y147879D02*
X932307Y141529D01*
X932307Y135179D01*
X930382Y135004D01*
D17*
X938657Y147879D03*
D16*
X938657Y27229D02*
X929132Y17704D01*
X930382Y15004D01*
D17*
X938657Y27229D03*
D16*
X837057Y154229D02*
X795782Y154229D01*
X843407Y170104D02*
X846582Y173279D01*
X862457Y173279D01*
X795782Y154229D02*
X795382Y155004D01*
X862457Y173279D02*
X865382Y175004D01*
D17*
X837057Y154229D03*
X843407Y170104D03*
D16*
X906907Y36754D02*
X897382Y27229D01*
X818007Y170104D02*
X821182Y173279D01*
X827532Y173279D01*
X897382Y27229D02*
X895382Y25004D01*
X827532Y173279D02*
X830382Y175004D01*
D17*
X906907Y36754D03*
X818007Y170104D03*
D16*
X833882Y93904D02*
X849757Y93904D01*
X881507Y166929D02*
X894207Y166929D01*
X833296Y96850D02*
X833882Y93904D01*
X896366Y163758D02*
X894207Y166929D01*
X925957Y163754D02*
X929132Y160579D01*
X925957Y163754D02*
X897382Y163754D01*
X896366Y163758D01*
D17*
X849757Y93904D03*
X881507Y166929D03*
X929132Y160579D03*
D16*
X859282Y109779D02*
X856107Y106604D01*
X859282Y109779D02*
X881507Y109779D01*
X856107Y106604D02*
X855296Y106350D01*
D17*
X881507Y109779D03*
D16*
X104292Y262255D02*
X102705Y263843D01*
X88417Y278130D01*
X104292Y262255D02*
X142392Y262255D01*
X148742Y255905D01*
X88417Y278130D02*
X87122Y280653D01*
X148742Y255905D02*
X149992Y255105D01*
X21742Y259080D02*
X15392Y252730D01*
X21742Y259080D02*
X97942Y259080D01*
X102705Y263843D01*
X15392Y252730D02*
X14992Y250105D01*
X40792Y281305D02*
X40792Y313055D01*
X50317Y313055D01*
X40792Y281305D02*
X41322Y280653D01*
X50317Y313055D02*
X52906Y315951D01*
X53492Y316230D02*
X69367Y332105D01*
X72116Y333051D01*
X53492Y316230D02*
X52906Y315951D01*
X126517Y319405D02*
X148742Y297180D01*
X126517Y319405D02*
X59842Y319405D01*
X148742Y297180D02*
X149992Y295105D01*
X59842Y319405D02*
X52906Y315951D01*
X72542Y351155D02*
X85242Y351155D01*
X72542Y351155D02*
X72116Y352051D01*
D17*
X85242Y351155D03*
D16*
X50317Y341630D02*
X50317Y332105D01*
X53492Y332105D01*
X59842Y249555D02*
X113817Y249555D01*
X50317Y341630D02*
X50116Y342551D01*
X113817Y249555D02*
X114992Y250105D01*
D17*
X53492Y332105D03*
X59842Y249555D03*
D16*
X66192Y281305D02*
X69367Y284480D01*
X72542Y284480D01*
X88417Y300355D01*
X113817Y300355D01*
X66192Y281305D02*
X64222Y280653D01*
X113817Y300355D02*
X115976Y300859D01*
X53492Y268605D02*
X31267Y268605D01*
X53492Y268605D02*
X63017Y278130D01*
X64222Y280653D01*
X31267Y268605D02*
X31267Y303530D01*
D17*
X31267Y268605D03*
X31267Y303530D03*
D16*
X158267Y360680D02*
X158267Y373380D01*
X151917Y373380D01*
X149992Y375105D01*
D17*
X158267Y360680D03*
D16*
X158267Y347980D02*
X151917Y341630D01*
X151917Y335280D01*
X149992Y335105D01*
D17*
X158267Y347980D03*
D16*
X158267Y227330D02*
X148742Y217805D01*
X149992Y215105D01*
D17*
X158267Y227330D03*
D16*
X56667Y354330D02*
X15392Y354330D01*
X63017Y370205D02*
X66192Y373380D01*
X82067Y373380D01*
X15392Y354330D02*
X14992Y355105D01*
X82067Y373380D02*
X84992Y375105D01*
D17*
X56667Y354330D03*
X63017Y370205D03*
D16*
X126517Y236855D02*
X116992Y227330D01*
X37617Y370205D02*
X40792Y373380D01*
X47142Y373380D01*
X116992Y227330D02*
X114992Y225105D01*
X47142Y373380D02*
X49992Y375105D01*
D17*
X126517Y236855D03*
X37617Y370205D03*
D16*
X53492Y294005D02*
X69367Y294005D01*
X101117Y367030D02*
X113817Y367030D01*
X52906Y296951D02*
X53492Y294005D01*
X115976Y363859D02*
X113817Y367030D01*
X145567Y363855D02*
X148742Y360680D01*
X145567Y363855D02*
X116992Y363855D01*
X115976Y363859D01*
D17*
X69367Y294005D03*
X101117Y367030D03*
X148742Y360680D03*
D16*
X78892Y309880D02*
X75717Y306705D01*
X78892Y309880D02*
X101117Y309880D01*
X75717Y306705D02*
X74906Y306451D01*
D17*
X101117Y309880D03*
D16*
X297802Y263843D02*
X299390Y262255D01*
X297802Y263843D02*
X283515Y278130D01*
X299390Y262255D02*
X337490Y262255D01*
X343840Y255905D01*
X283515Y278130D02*
X282220Y280653D01*
X343840Y255905D02*
X345090Y255105D01*
X216840Y259080D02*
X210490Y252730D01*
X216840Y259080D02*
X293040Y259080D01*
X297802Y263843D01*
X210490Y252730D02*
X210090Y250105D01*
X235890Y281305D02*
X235890Y313055D01*
X245415Y313055D01*
X235890Y281305D02*
X236420Y280653D01*
X245415Y313055D02*
X248004Y315951D01*
X248590Y316230D02*
X264465Y332105D01*
X267214Y333051D01*
X248590Y316230D02*
X248004Y315951D01*
X321615Y319405D02*
X343840Y297180D01*
X321615Y319405D02*
X254940Y319405D01*
X343840Y297180D02*
X345090Y295105D01*
X254940Y319405D02*
X248004Y315951D01*
X267640Y351155D02*
X280340Y351155D01*
X267640Y351155D02*
X267214Y352051D01*
D17*
X280340Y351155D03*
D16*
X245415Y341630D02*
X245415Y332105D01*
X248590Y332105D01*
X254940Y249555D02*
X308915Y249555D01*
X245415Y341630D02*
X245214Y342551D01*
X308915Y249555D02*
X310090Y250105D01*
D17*
X248590Y332105D03*
X254940Y249555D03*
D16*
X261290Y281305D02*
X264465Y284480D01*
X267640Y284480D01*
X283515Y300355D01*
X308915Y300355D01*
X261290Y281305D02*
X259320Y280653D01*
X308915Y300355D02*
X311074Y300859D01*
X248590Y268605D02*
X226365Y268605D01*
X248590Y268605D02*
X258115Y278130D01*
X259320Y280653D01*
X226365Y268605D02*
X226365Y303530D01*
D17*
X226365Y268605D03*
X226365Y303530D03*
D16*
X353365Y360680D02*
X353365Y373380D01*
X347015Y373380D01*
X345090Y375105D01*
D17*
X353365Y360680D03*
D16*
X353365Y347980D02*
X347015Y341630D01*
X347015Y335280D01*
X345090Y335105D01*
D17*
X353365Y347980D03*
D16*
X353365Y227330D02*
X343840Y217805D01*
X345090Y215105D01*
D17*
X353365Y227330D03*
D16*
X251765Y354330D02*
X210490Y354330D01*
X258115Y370205D02*
X261290Y373380D01*
X277165Y373380D01*
X210490Y354330D02*
X210090Y355105D01*
X277165Y373380D02*
X280090Y375105D01*
D17*
X251765Y354330D03*
X258115Y370205D03*
D16*
X321615Y236855D02*
X312090Y227330D01*
X232715Y370205D02*
X235890Y373380D01*
X242240Y373380D01*
X312090Y227330D02*
X310090Y225105D01*
X242240Y373380D02*
X245090Y375105D01*
D17*
X321615Y236855D03*
X232715Y370205D03*
D16*
X248590Y294005D02*
X264465Y294005D01*
X296215Y367030D02*
X308915Y367030D01*
X248004Y296951D02*
X248590Y294005D01*
X311074Y363859D02*
X308915Y367030D01*
X340665Y363855D02*
X343840Y360680D01*
X340665Y363855D02*
X312090Y363855D01*
X311074Y363859D01*
D17*
X264465Y294005D03*
X296215Y367030D03*
X343840Y360680D03*
D16*
X273990Y309880D02*
X270815Y306705D01*
X273990Y309880D02*
X296215Y309880D01*
X270815Y306705D02*
X270004Y306451D01*
D17*
X296215Y309880D03*
D16*
X492900Y263843D02*
X494487Y262255D01*
X492900Y263843D02*
X478612Y278130D01*
X494487Y262255D02*
X532587Y262255D01*
X538937Y255905D01*
X478612Y278130D02*
X477317Y280653D01*
X538937Y255905D02*
X540187Y255105D01*
X411937Y259080D02*
X405587Y252730D01*
X411937Y259080D02*
X488137Y259080D01*
X492900Y263843D01*
X405587Y252730D02*
X405187Y250105D01*
X430987Y281305D02*
X430987Y313055D01*
X440512Y313055D01*
X430987Y281305D02*
X431517Y280653D01*
X440512Y313055D02*
X443101Y315951D01*
X443687Y316230D02*
X459562Y332105D01*
X462311Y333051D01*
X443687Y316230D02*
X443101Y315951D01*
X516712Y319405D02*
X538937Y297180D01*
X516712Y319405D02*
X450037Y319405D01*
X538937Y297180D02*
X540187Y295105D01*
X450037Y319405D02*
X443101Y315951D01*
X462737Y351155D02*
X475437Y351155D01*
X462737Y351155D02*
X462311Y352051D01*
D17*
X475437Y351155D03*
D16*
X440512Y341630D02*
X440512Y332105D01*
X443687Y332105D01*
X450037Y249555D02*
X504012Y249555D01*
X440512Y341630D02*
X440311Y342551D01*
X504012Y249555D02*
X505187Y250105D01*
D17*
X443687Y332105D03*
X450037Y249555D03*
D16*
X456387Y281305D02*
X459562Y284480D01*
X462737Y284480D01*
X478612Y300355D01*
X504012Y300355D01*
X456387Y281305D02*
X454417Y280653D01*
X504012Y300355D02*
X506171Y300859D01*
X443687Y268605D02*
X421462Y268605D01*
X443687Y268605D02*
X453212Y278130D01*
X454417Y280653D01*
X421462Y268605D02*
X421462Y303530D01*
D17*
X421462Y268605D03*
X421462Y303530D03*
D16*
X548462Y360680D02*
X548462Y373380D01*
X542112Y373380D01*
X540187Y375105D01*
D17*
X548462Y360680D03*
D16*
X548462Y347980D02*
X542112Y341630D01*
X542112Y335280D01*
X540187Y335105D01*
D17*
X548462Y347980D03*
D16*
X548462Y227330D02*
X538937Y217805D01*
X540187Y215105D01*
D17*
X548462Y227330D03*
D16*
X446862Y354330D02*
X405587Y354330D01*
X453212Y370205D02*
X456387Y373380D01*
X472262Y373380D01*
X405587Y354330D02*
X405187Y355105D01*
X472262Y373380D02*
X475187Y375105D01*
D17*
X446862Y354330D03*
X453212Y370205D03*
D16*
X516712Y236855D02*
X507187Y227330D01*
X427812Y370205D02*
X430987Y373380D01*
X437337Y373380D01*
X507187Y227330D02*
X505187Y225105D01*
X437337Y373380D02*
X440187Y375105D01*
D17*
X516712Y236855D03*
X427812Y370205D03*
D16*
X443687Y294005D02*
X459562Y294005D01*
X491312Y367030D02*
X504012Y367030D01*
X443101Y296951D02*
X443687Y294005D01*
X506171Y363859D02*
X504012Y367030D01*
X535762Y363855D02*
X538937Y360680D01*
X535762Y363855D02*
X507187Y363855D01*
X506171Y363859D01*
D17*
X459562Y294005D03*
X491312Y367030D03*
X538937Y360680D03*
D16*
X469087Y309880D02*
X465912Y306705D01*
X469087Y309880D02*
X491312Y309880D01*
X465912Y306705D02*
X465101Y306451D01*
D17*
X491312Y309880D03*
D16*
X687997Y263843D02*
X689585Y262255D01*
X687997Y263843D02*
X673710Y278130D01*
X689585Y262255D02*
X727685Y262255D01*
X734035Y255905D01*
X673710Y278130D02*
X672415Y280653D01*
X734035Y255905D02*
X735285Y255105D01*
X607035Y259080D02*
X600685Y252730D01*
X607035Y259080D02*
X683235Y259080D01*
X687997Y263843D01*
X600685Y252730D02*
X600285Y250105D01*
X626085Y281305D02*
X626085Y313055D01*
X635610Y313055D01*
X626085Y281305D02*
X626615Y280653D01*
X635610Y313055D02*
X638199Y315951D01*
X638785Y316230D02*
X654660Y332105D01*
X657409Y333051D01*
X638785Y316230D02*
X638199Y315951D01*
X711810Y319405D02*
X734035Y297180D01*
X711810Y319405D02*
X645135Y319405D01*
X734035Y297180D02*
X735285Y295105D01*
X645135Y319405D02*
X638199Y315951D01*
X657835Y351155D02*
X670535Y351155D01*
X657835Y351155D02*
X657409Y352051D01*
D17*
X670535Y351155D03*
D16*
X635610Y341630D02*
X635610Y332105D01*
X638785Y332105D01*
X645135Y249555D02*
X699110Y249555D01*
X635610Y341630D02*
X635409Y342551D01*
X699110Y249555D02*
X700285Y250105D01*
D17*
X638785Y332105D03*
X645135Y249555D03*
D16*
X651485Y281305D02*
X654660Y284480D01*
X657835Y284480D01*
X673710Y300355D01*
X699110Y300355D01*
X651485Y281305D02*
X649515Y280653D01*
X699110Y300355D02*
X701269Y300859D01*
X638785Y268605D02*
X616560Y268605D01*
X638785Y268605D02*
X648310Y278130D01*
X649515Y280653D01*
X616560Y268605D02*
X616560Y303530D01*
D17*
X616560Y268605D03*
X616560Y303530D03*
D16*
X743560Y360680D02*
X743560Y373380D01*
X737210Y373380D01*
X735285Y375105D01*
D17*
X743560Y360680D03*
D16*
X743560Y347980D02*
X737210Y341630D01*
X737210Y335280D01*
X735285Y335105D01*
D17*
X743560Y347980D03*
D16*
X743560Y227330D02*
X734035Y217805D01*
X735285Y215105D01*
D17*
X743560Y227330D03*
D16*
X641960Y354330D02*
X600685Y354330D01*
X648310Y370205D02*
X651485Y373380D01*
X667360Y373380D01*
X600685Y354330D02*
X600285Y355105D01*
X667360Y373380D02*
X670285Y375105D01*
D17*
X641960Y354330D03*
X648310Y370205D03*
D16*
X711810Y236855D02*
X702285Y227330D01*
X622910Y370205D02*
X626085Y373380D01*
X632435Y373380D01*
X702285Y227330D02*
X700285Y225105D01*
X632435Y373380D02*
X635285Y375105D01*
D17*
X711810Y236855D03*
X622910Y370205D03*
D16*
X638785Y294005D02*
X654660Y294005D01*
X686410Y367030D02*
X699110Y367030D01*
X638199Y296951D02*
X638785Y294005D01*
X701269Y363859D02*
X699110Y367030D01*
X730860Y363855D02*
X734035Y360680D01*
X730860Y363855D02*
X702285Y363855D01*
X701269Y363859D01*
D17*
X654660Y294005D03*
X686410Y367030D03*
X734035Y360680D03*
D16*
X664185Y309880D02*
X661010Y306705D01*
X664185Y309880D02*
X686410Y309880D01*
X661010Y306705D02*
X660199Y306451D01*
D17*
X686410Y309880D03*
D16*
X883095Y263843D02*
X884682Y262255D01*
X883095Y263843D02*
X868807Y278130D01*
X884682Y262255D02*
X922782Y262255D01*
X929132Y255905D01*
X868807Y278130D02*
X867512Y280653D01*
X929132Y255905D02*
X930382Y255105D01*
X802132Y259080D02*
X795782Y252730D01*
X802132Y259080D02*
X878332Y259080D01*
X883095Y263843D01*
X795782Y252730D02*
X795382Y250105D01*
X821182Y281305D02*
X821182Y313055D01*
X830707Y313055D01*
X821182Y281305D02*
X821712Y280653D01*
X830707Y313055D02*
X833296Y315951D01*
X833882Y316230D02*
X849757Y332105D01*
X852506Y333051D01*
X833882Y316230D02*
X833296Y315951D01*
X906907Y319405D02*
X929132Y297180D01*
X906907Y319405D02*
X840232Y319405D01*
X929132Y297180D02*
X930382Y295105D01*
X840232Y319405D02*
X833296Y315951D01*
X852932Y351155D02*
X865632Y351155D01*
X852932Y351155D02*
X852506Y352051D01*
D17*
X865632Y351155D03*
D16*
X830707Y341630D02*
X830707Y332105D01*
X833882Y332105D01*
X840232Y249555D02*
X894207Y249555D01*
X830707Y341630D02*
X830506Y342551D01*
X894207Y249555D02*
X895382Y250105D01*
D17*
X833882Y332105D03*
X840232Y249555D03*
D16*
X846582Y281305D02*
X849757Y284480D01*
X852932Y284480D01*
X868807Y300355D01*
X894207Y300355D01*
X846582Y281305D02*
X844612Y280653D01*
X894207Y300355D02*
X896366Y300859D01*
X833882Y268605D02*
X811657Y268605D01*
X833882Y268605D02*
X843407Y278130D01*
X844612Y280653D01*
X811657Y268605D02*
X811657Y303530D01*
D17*
X811657Y268605D03*
X811657Y303530D03*
D16*
X938657Y360680D02*
X938657Y373380D01*
X932307Y373380D01*
X930382Y375105D01*
D17*
X938657Y360680D03*
D16*
X938657Y347980D02*
X932307Y341630D01*
X932307Y335280D01*
X930382Y335105D01*
D17*
X938657Y347980D03*
D16*
X938657Y227330D02*
X929132Y217805D01*
X930382Y215105D01*
D17*
X938657Y227330D03*
D16*
X837057Y354330D02*
X795782Y354330D01*
X843407Y370205D02*
X846582Y373380D01*
X862457Y373380D01*
X795782Y354330D02*
X795382Y355105D01*
X862457Y373380D02*
X865382Y375105D01*
D17*
X837057Y354330D03*
X843407Y370205D03*
D16*
X906907Y236855D02*
X897382Y227330D01*
X818007Y370205D02*
X821182Y373380D01*
X827532Y373380D01*
X897382Y227330D02*
X895382Y225105D01*
X827532Y373380D02*
X830382Y375105D01*
D17*
X906907Y236855D03*
X818007Y370205D03*
D16*
X833882Y294005D02*
X849757Y294005D01*
X881507Y367030D02*
X894207Y367030D01*
X833296Y296951D02*
X833882Y294005D01*
X896366Y363859D02*
X894207Y367030D01*
X925957Y363855D02*
X929132Y360680D01*
X925957Y363855D02*
X897382Y363855D01*
X896366Y363859D01*
D17*
X849757Y294005D03*
X881507Y367030D03*
X929132Y360680D03*
D16*
X859282Y309880D02*
X856107Y306705D01*
X859282Y309880D02*
X881507Y309880D01*
X856107Y306705D02*
X855296Y306451D01*
D17*
X881507Y309880D03*
D16*
X104292Y462356D02*
X102705Y463944D01*
X88417Y478231D01*
X104292Y462356D02*
X142392Y462356D01*
X148742Y456006D01*
X88417Y478231D02*
X87122Y480754D01*
X148742Y456006D02*
X149992Y455206D01*
X21742Y459181D02*
X15392Y452831D01*
X21742Y459181D02*
X97942Y459181D01*
X102705Y463944D01*
X15392Y452831D02*
X14992Y450206D01*
X40792Y481406D02*
X40792Y513156D01*
X50317Y513156D01*
X40792Y481406D02*
X41322Y480754D01*
X50317Y513156D02*
X52906Y516052D01*
X53492Y516331D02*
X69367Y532206D01*
X72116Y533152D01*
X53492Y516331D02*
X52906Y516052D01*
X126517Y519506D02*
X148742Y497281D01*
X126517Y519506D02*
X59842Y519506D01*
X148742Y497281D02*
X149992Y495206D01*
X59842Y519506D02*
X52906Y516052D01*
X72542Y551256D02*
X85242Y551256D01*
X72542Y551256D02*
X72116Y552152D01*
D17*
X85242Y551256D03*
D16*
X50317Y541731D02*
X50317Y532206D01*
X53492Y532206D01*
X59842Y449656D02*
X113817Y449656D01*
X50317Y541731D02*
X50116Y542652D01*
X113817Y449656D02*
X114992Y450206D01*
D17*
X53492Y532206D03*
X59842Y449656D03*
D16*
X66192Y481406D02*
X69367Y484581D01*
X72542Y484581D01*
X88417Y500456D01*
X113817Y500456D01*
X66192Y481406D02*
X64222Y480754D01*
X113817Y500456D02*
X115976Y500960D01*
X53492Y468706D02*
X31267Y468706D01*
X53492Y468706D02*
X63017Y478231D01*
X64222Y480754D01*
X31267Y468706D02*
X31267Y503631D01*
D17*
X31267Y468706D03*
X31267Y503631D03*
D16*
X158267Y560781D02*
X158267Y573481D01*
X151917Y573481D01*
X149992Y575206D01*
D17*
X158267Y560781D03*
D16*
X158267Y548081D02*
X151917Y541731D01*
X151917Y535381D01*
X149992Y535206D01*
D17*
X158267Y548081D03*
D16*
X158267Y427431D02*
X148742Y417906D01*
X149992Y415206D01*
D17*
X158267Y427431D03*
D16*
X56667Y554431D02*
X15392Y554431D01*
X63017Y570306D02*
X66192Y573481D01*
X82067Y573481D01*
X15392Y554431D02*
X14992Y555206D01*
X82067Y573481D02*
X84992Y575206D01*
D17*
X56667Y554431D03*
X63017Y570306D03*
D16*
X126517Y436956D02*
X116992Y427431D01*
X37617Y570306D02*
X40792Y573481D01*
X47142Y573481D01*
X116992Y427431D02*
X114992Y425206D01*
X47142Y573481D02*
X49992Y575206D01*
D17*
X126517Y436956D03*
X37617Y570306D03*
D16*
X53492Y494106D02*
X69367Y494106D01*
X101117Y567131D02*
X113817Y567131D01*
X52906Y497052D02*
X53492Y494106D01*
X115976Y563960D02*
X113817Y567131D01*
X145567Y563956D02*
X148742Y560781D01*
X145567Y563956D02*
X116992Y563956D01*
X115976Y563960D01*
D17*
X69367Y494106D03*
X101117Y567131D03*
X148742Y560781D03*
D16*
X78892Y509981D02*
X75717Y506806D01*
X78892Y509981D02*
X101117Y509981D01*
X75717Y506806D02*
X74906Y506552D01*
D17*
X101117Y509981D03*
D16*
X297802Y463944D02*
X299390Y462356D01*
X297802Y463944D02*
X283515Y478231D01*
X299390Y462356D02*
X337490Y462356D01*
X343840Y456006D01*
X283515Y478231D02*
X282220Y480754D01*
X343840Y456006D02*
X345090Y455206D01*
X216840Y459181D02*
X210490Y452831D01*
X216840Y459181D02*
X293040Y459181D01*
X297802Y463944D01*
X210490Y452831D02*
X210090Y450206D01*
X235890Y481406D02*
X235890Y513156D01*
X245415Y513156D01*
X235890Y481406D02*
X236420Y480754D01*
X245415Y513156D02*
X248004Y516052D01*
X248590Y516331D02*
X264465Y532206D01*
X267214Y533152D01*
X248590Y516331D02*
X248004Y516052D01*
X321615Y519506D02*
X343840Y497281D01*
X321615Y519506D02*
X254940Y519506D01*
X343840Y497281D02*
X345090Y495206D01*
X254940Y519506D02*
X248004Y516052D01*
X267640Y551256D02*
X280340Y551256D01*
X267640Y551256D02*
X267214Y552152D01*
D17*
X280340Y551256D03*
D16*
X245415Y541731D02*
X245415Y532206D01*
X248590Y532206D01*
X254940Y449656D02*
X308915Y449656D01*
X245415Y541731D02*
X245214Y542652D01*
X308915Y449656D02*
X310090Y450206D01*
D17*
X248590Y532206D03*
X254940Y449656D03*
D16*
X261290Y481406D02*
X264465Y484581D01*
X267640Y484581D01*
X283515Y500456D01*
X308915Y500456D01*
X261290Y481406D02*
X259320Y480754D01*
X308915Y500456D02*
X311074Y500960D01*
X248590Y468706D02*
X226365Y468706D01*
X248590Y468706D02*
X258115Y478231D01*
X259320Y480754D01*
X226365Y468706D02*
X226365Y503631D01*
D17*
X226365Y468706D03*
X226365Y503631D03*
D16*
X353365Y560781D02*
X353365Y573481D01*
X347015Y573481D01*
X345090Y575206D01*
D17*
X353365Y560781D03*
D16*
X353365Y548081D02*
X347015Y541731D01*
X347015Y535381D01*
X345090Y535206D01*
D17*
X353365Y548081D03*
D16*
X353365Y427431D02*
X343840Y417906D01*
X345090Y415206D01*
D17*
X353365Y427431D03*
D16*
X251765Y554431D02*
X210490Y554431D01*
X258115Y570306D02*
X261290Y573481D01*
X277165Y573481D01*
X210490Y554431D02*
X210090Y555206D01*
X277165Y573481D02*
X280090Y575206D01*
D17*
X251765Y554431D03*
X258115Y570306D03*
D16*
X321615Y436956D02*
X312090Y427431D01*
X232715Y570306D02*
X235890Y573481D01*
X242240Y573481D01*
X312090Y427431D02*
X310090Y425206D01*
X242240Y573481D02*
X245090Y575206D01*
D17*
X321615Y436956D03*
X232715Y570306D03*
D16*
X248590Y494106D02*
X264465Y494106D01*
X296215Y567131D02*
X308915Y567131D01*
X248004Y497052D02*
X248590Y494106D01*
X311074Y563960D02*
X308915Y567131D01*
X340665Y563956D02*
X343840Y560781D01*
X340665Y563956D02*
X312090Y563956D01*
X311074Y563960D01*
D17*
X264465Y494106D03*
X296215Y567131D03*
X343840Y560781D03*
D16*
X273990Y509981D02*
X270815Y506806D01*
X273990Y509981D02*
X296215Y509981D01*
X270815Y506806D02*
X270004Y506552D01*
D17*
X296215Y509981D03*
D16*
X492900Y463944D02*
X494487Y462356D01*
X492900Y463944D02*
X478612Y478231D01*
X494487Y462356D02*
X532587Y462356D01*
X538937Y456006D01*
X478612Y478231D02*
X477317Y480754D01*
X538937Y456006D02*
X540187Y455206D01*
X411937Y459181D02*
X405587Y452831D01*
X411937Y459181D02*
X488137Y459181D01*
X492900Y463944D01*
X405587Y452831D02*
X405187Y450206D01*
X430987Y481406D02*
X430987Y513156D01*
X440512Y513156D01*
X430987Y481406D02*
X431517Y480754D01*
X440512Y513156D02*
X443101Y516052D01*
X443687Y516331D02*
X459562Y532206D01*
X462311Y533152D01*
X443687Y516331D02*
X443101Y516052D01*
X516712Y519506D02*
X538937Y497281D01*
X516712Y519506D02*
X450037Y519506D01*
X538937Y497281D02*
X540187Y495206D01*
X450037Y519506D02*
X443101Y516052D01*
X462737Y551256D02*
X475437Y551256D01*
X462737Y551256D02*
X462311Y552152D01*
D17*
X475437Y551256D03*
D16*
X440512Y541731D02*
X440512Y532206D01*
X443687Y532206D01*
X450037Y449656D02*
X504012Y449656D01*
X440512Y541731D02*
X440311Y542652D01*
X504012Y449656D02*
X505187Y450206D01*
D17*
X443687Y532206D03*
X450037Y449656D03*
D16*
X456387Y481406D02*
X459562Y484581D01*
X462737Y484581D01*
X478612Y500456D01*
X504012Y500456D01*
X456387Y481406D02*
X454417Y480754D01*
X504012Y500456D02*
X506171Y500960D01*
X443687Y468706D02*
X421462Y468706D01*
X443687Y468706D02*
X453212Y478231D01*
X454417Y480754D01*
X421462Y468706D02*
X421462Y503631D01*
D17*
X421462Y468706D03*
X421462Y503631D03*
D16*
X548462Y560781D02*
X548462Y573481D01*
X542112Y573481D01*
X540187Y575206D01*
D17*
X548462Y560781D03*
D16*
X548462Y548081D02*
X542112Y541731D01*
X542112Y535381D01*
X540187Y535206D01*
D17*
X548462Y548081D03*
D16*
X548462Y427431D02*
X538937Y417906D01*
X540187Y415206D01*
D17*
X548462Y427431D03*
D16*
X446862Y554431D02*
X405587Y554431D01*
X453212Y570306D02*
X456387Y573481D01*
X472262Y573481D01*
X405587Y554431D02*
X405187Y555206D01*
X472262Y573481D02*
X475187Y575206D01*
D17*
X446862Y554431D03*
X453212Y570306D03*
D16*
X516712Y436956D02*
X507187Y427431D01*
X427812Y570306D02*
X430987Y573481D01*
X437337Y573481D01*
X507187Y427431D02*
X505187Y425206D01*
X437337Y573481D02*
X440187Y575206D01*
D17*
X516712Y436956D03*
X427812Y570306D03*
D16*
X443687Y494106D02*
X459562Y494106D01*
X491312Y567131D02*
X504012Y567131D01*
X443101Y497052D02*
X443687Y494106D01*
X506171Y563960D02*
X504012Y567131D01*
X535762Y563956D02*
X538937Y560781D01*
X535762Y563956D02*
X507187Y563956D01*
X506171Y563960D01*
D17*
X459562Y494106D03*
X491312Y567131D03*
X538937Y560781D03*
D16*
X469087Y509981D02*
X465912Y506806D01*
X469087Y509981D02*
X491312Y509981D01*
X465912Y506806D02*
X465101Y506552D01*
D17*
X491312Y509981D03*
D16*
X687997Y463944D02*
X689585Y462356D01*
X687997Y463944D02*
X673710Y478231D01*
X689585Y462356D02*
X727685Y462356D01*
X734035Y456006D01*
X673710Y478231D02*
X672415Y480754D01*
X734035Y456006D02*
X735285Y455206D01*
X607035Y459181D02*
X600685Y452831D01*
X607035Y459181D02*
X683235Y459181D01*
X687997Y463944D01*
X600685Y452831D02*
X600285Y450206D01*
X626085Y481406D02*
X626085Y513156D01*
X635610Y513156D01*
X626085Y481406D02*
X626615Y480754D01*
X635610Y513156D02*
X638199Y516052D01*
X638785Y516331D02*
X654660Y532206D01*
X657409Y533152D01*
X638785Y516331D02*
X638199Y516052D01*
X711810Y519506D02*
X734035Y497281D01*
X711810Y519506D02*
X645135Y519506D01*
X734035Y497281D02*
X735285Y495206D01*
X645135Y519506D02*
X638199Y516052D01*
X657835Y551256D02*
X670535Y551256D01*
X657835Y551256D02*
X657409Y552152D01*
D17*
X670535Y551256D03*
D16*
X635610Y541731D02*
X635610Y532206D01*
X638785Y532206D01*
X645135Y449656D02*
X699110Y449656D01*
X635610Y541731D02*
X635409Y542652D01*
X699110Y449656D02*
X700285Y450206D01*
D17*
X638785Y532206D03*
X645135Y449656D03*
D16*
X651485Y481406D02*
X654660Y484581D01*
X657835Y484581D01*
X673710Y500456D01*
X699110Y500456D01*
X651485Y481406D02*
X649515Y480754D01*
X699110Y500456D02*
X701269Y500960D01*
X638785Y468706D02*
X616560Y468706D01*
X638785Y468706D02*
X648310Y478231D01*
X649515Y480754D01*
X616560Y468706D02*
X616560Y503631D01*
D17*
X616560Y468706D03*
X616560Y503631D03*
D16*
X743560Y560781D02*
X743560Y573481D01*
X737210Y573481D01*
X735285Y575206D01*
D17*
X743560Y560781D03*
D16*
X743560Y548081D02*
X737210Y541731D01*
X737210Y535381D01*
X735285Y535206D01*
D17*
X743560Y548081D03*
D16*
X743560Y427431D02*
X734035Y417906D01*
X735285Y415206D01*
D17*
X743560Y427431D03*
D16*
X641960Y554431D02*
X600685Y554431D01*
X648310Y570306D02*
X651485Y573481D01*
X667360Y573481D01*
X600685Y554431D02*
X600285Y555206D01*
X667360Y573481D02*
X670285Y575206D01*
D17*
X641960Y554431D03*
X648310Y570306D03*
D16*
X711810Y436956D02*
X702285Y427431D01*
X622910Y570306D02*
X626085Y573481D01*
X632435Y573481D01*
X702285Y427431D02*
X700285Y425206D01*
X632435Y573481D02*
X635285Y575206D01*
D17*
X711810Y436956D03*
X622910Y570306D03*
D16*
X638785Y494106D02*
X654660Y494106D01*
X686410Y567131D02*
X699110Y567131D01*
X638199Y497052D02*
X638785Y494106D01*
X701269Y563960D02*
X699110Y567131D01*
X730860Y563956D02*
X734035Y560781D01*
X730860Y563956D02*
X702285Y563956D01*
X701269Y563960D01*
D17*
X654660Y494106D03*
X686410Y567131D03*
X734035Y560781D03*
D16*
X664185Y509981D02*
X661010Y506806D01*
X664185Y509981D02*
X686410Y509981D01*
X661010Y506806D02*
X660199Y506552D01*
D17*
X686410Y509981D03*
D16*
X883095Y463944D02*
X884682Y462356D01*
X883095Y463944D02*
X868807Y478231D01*
X884682Y462356D02*
X922782Y462356D01*
X929132Y456006D01*
X868807Y478231D02*
X867512Y480754D01*
X929132Y456006D02*
X930382Y455206D01*
X802132Y459181D02*
X795782Y452831D01*
X802132Y459181D02*
X878332Y459181D01*
X883095Y463944D01*
X795782Y452831D02*
X795382Y450206D01*
X821182Y481406D02*
X821182Y513156D01*
X830707Y513156D01*
X821182Y481406D02*
X821712Y480754D01*
X830707Y513156D02*
X833296Y516052D01*
X833882Y516331D02*
X849757Y532206D01*
X852506Y533152D01*
X833882Y516331D02*
X833296Y516052D01*
X906907Y519506D02*
X929132Y497281D01*
X906907Y519506D02*
X840232Y519506D01*
X929132Y497281D02*
X930382Y495206D01*
X840232Y519506D02*
X833296Y516052D01*
X852932Y551256D02*
X865632Y551256D01*
X852932Y551256D02*
X852506Y552152D01*
D17*
X865632Y551256D03*
D16*
X830707Y541731D02*
X830707Y532206D01*
X833882Y532206D01*
X840232Y449656D02*
X894207Y449656D01*
X830707Y541731D02*
X830506Y542652D01*
X894207Y449656D02*
X895382Y450206D01*
D17*
X833882Y532206D03*
X840232Y449656D03*
D16*
X846582Y481406D02*
X849757Y484581D01*
X852932Y484581D01*
X868807Y500456D01*
X894207Y500456D01*
X846582Y481406D02*
X844612Y480754D01*
X894207Y500456D02*
X896366Y500960D01*
X833882Y468706D02*
X811657Y468706D01*
X833882Y468706D02*
X843407Y478231D01*
X844612Y480754D01*
X811657Y468706D02*
X811657Y503631D01*
D17*
X811657Y468706D03*
X811657Y503631D03*
D16*
X938657Y560781D02*
X938657Y573481D01*
X932307Y573481D01*
X930382Y575206D01*
D17*
X938657Y560781D03*
D16*
X938657Y548081D02*
X932307Y541731D01*
X932307Y535381D01*
X930382Y535206D01*
D17*
X938657Y548081D03*
D16*
X938657Y427431D02*
X929132Y417906D01*
X930382Y415206D01*
D17*
X938657Y427431D03*
D16*
X837057Y554431D02*
X795782Y554431D01*
X843407Y570306D02*
X846582Y573481D01*
X862457Y573481D01*
X795782Y554431D02*
X795382Y555206D01*
X862457Y573481D02*
X865382Y575206D01*
D17*
X837057Y554431D03*
X843407Y570306D03*
D16*
X906907Y436956D02*
X897382Y427431D01*
X818007Y570306D02*
X821182Y573481D01*
X827532Y573481D01*
X897382Y427431D02*
X895382Y425206D01*
X827532Y573481D02*
X830382Y575206D01*
D17*
X906907Y436956D03*
X818007Y570306D03*
D16*
X833882Y494106D02*
X849757Y494106D01*
X881507Y567131D02*
X894207Y567131D01*
X833296Y497052D02*
X833882Y494106D01*
X896366Y563960D02*
X894207Y567131D01*
X925957Y563956D02*
X929132Y560781D01*
X925957Y563956D02*
X897382Y563956D01*
X896366Y563960D01*
D17*
X849757Y494106D03*
X881507Y567131D03*
X929132Y560781D03*
D16*
X859282Y509981D02*
X856107Y506806D01*
X859282Y509981D02*
X881507Y509981D01*
X856107Y506806D02*
X855296Y506552D01*
D17*
X881507Y509981D03*
D16*
X104292Y662457D02*
X102705Y664045D01*
X88417Y678332D01*
X104292Y662457D02*
X142392Y662457D01*
X148742Y656107D01*
X88417Y678332D02*
X87122Y680855D01*
X148742Y656107D02*
X149992Y655307D01*
X21742Y659282D02*
X15392Y652932D01*
X21742Y659282D02*
X97942Y659282D01*
X102705Y664045D01*
X15392Y652932D02*
X14992Y650307D01*
X40792Y681507D02*
X40792Y713257D01*
X50317Y713257D01*
X40792Y681507D02*
X41322Y680855D01*
X50317Y713257D02*
X52906Y716153D01*
X53492Y716432D02*
X69367Y732307D01*
X72116Y733253D01*
X53492Y716432D02*
X52906Y716153D01*
X126517Y719607D02*
X148742Y697382D01*
X126517Y719607D02*
X59842Y719607D01*
X148742Y697382D02*
X149992Y695307D01*
X59842Y719607D02*
X52906Y716153D01*
X72542Y751357D02*
X85242Y751357D01*
X72542Y751357D02*
X72116Y752253D01*
D17*
X85242Y751357D03*
D16*
X50317Y741832D02*
X50317Y732307D01*
X53492Y732307D01*
X59842Y649757D02*
X113817Y649757D01*
X50317Y741832D02*
X50116Y742753D01*
X113817Y649757D02*
X114992Y650307D01*
D17*
X53492Y732307D03*
X59842Y649757D03*
D16*
X66192Y681507D02*
X69367Y684682D01*
X72542Y684682D01*
X88417Y700557D01*
X113817Y700557D01*
X66192Y681507D02*
X64222Y680855D01*
X113817Y700557D02*
X115976Y701061D01*
X53492Y668807D02*
X31267Y668807D01*
X53492Y668807D02*
X63017Y678332D01*
X64222Y680855D01*
X31267Y668807D02*
X31267Y703732D01*
D17*
X31267Y668807D03*
X31267Y703732D03*
D16*
X158267Y760882D02*
X158267Y773582D01*
X151917Y773582D01*
X149992Y775307D01*
D17*
X158267Y760882D03*
D16*
X158267Y748182D02*
X151917Y741832D01*
X151917Y735482D01*
X149992Y735307D01*
D17*
X158267Y748182D03*
D16*
X158267Y627532D02*
X148742Y618007D01*
X149992Y615307D01*
D17*
X158267Y627532D03*
D16*
X56667Y754532D02*
X15392Y754532D01*
X63017Y770407D02*
X66192Y773582D01*
X82067Y773582D01*
X15392Y754532D02*
X14992Y755307D01*
X82067Y773582D02*
X84992Y775307D01*
D17*
X56667Y754532D03*
X63017Y770407D03*
D16*
X126517Y637057D02*
X116992Y627532D01*
X37617Y770407D02*
X40792Y773582D01*
X47142Y773582D01*
X116992Y627532D02*
X114992Y625307D01*
X47142Y773582D02*
X49992Y775307D01*
D17*
X126517Y637057D03*
X37617Y770407D03*
D16*
X53492Y694207D02*
X69367Y694207D01*
X101117Y767232D02*
X113817Y767232D01*
X52906Y697153D02*
X53492Y694207D01*
X115976Y764061D02*
X113817Y767232D01*
X145567Y764057D02*
X148742Y760882D01*
X145567Y764057D02*
X116992Y764057D01*
X115976Y764061D01*
D17*
X69367Y694207D03*
X101117Y767232D03*
X148742Y760882D03*
D16*
X78892Y710082D02*
X75717Y706907D01*
X78892Y710082D02*
X101117Y710082D01*
X75717Y706907D02*
X74906Y706653D01*
D17*
X101117Y710082D03*
D16*
X297802Y664045D02*
X299390Y662457D01*
X297802Y664045D02*
X283515Y678332D01*
X299390Y662457D02*
X337490Y662457D01*
X343840Y656107D01*
X283515Y678332D02*
X282220Y680855D01*
X343840Y656107D02*
X345090Y655307D01*
X216840Y659282D02*
X210490Y652932D01*
X216840Y659282D02*
X293040Y659282D01*
X297802Y664045D01*
X210490Y652932D02*
X210090Y650307D01*
X235890Y681507D02*
X235890Y713257D01*
X245415Y713257D01*
X235890Y681507D02*
X236420Y680855D01*
X245415Y713257D02*
X248004Y716153D01*
X248590Y716432D02*
X264465Y732307D01*
X267214Y733253D01*
X248590Y716432D02*
X248004Y716153D01*
X321615Y719607D02*
X343840Y697382D01*
X321615Y719607D02*
X254940Y719607D01*
X343840Y697382D02*
X345090Y695307D01*
X254940Y719607D02*
X248004Y716153D01*
X267640Y751357D02*
X280340Y751357D01*
X267640Y751357D02*
X267214Y752253D01*
D17*
X280340Y751357D03*
D16*
X245415Y741832D02*
X245415Y732307D01*
X248590Y732307D01*
X254940Y649757D02*
X308915Y649757D01*
X245415Y741832D02*
X245214Y742753D01*
X308915Y649757D02*
X310090Y650307D01*
D17*
X248590Y732307D03*
X254940Y649757D03*
D16*
X261290Y681507D02*
X264465Y684682D01*
X267640Y684682D01*
X283515Y700557D01*
X308915Y700557D01*
X261290Y681507D02*
X259320Y680855D01*
X308915Y700557D02*
X311074Y701061D01*
X248590Y668807D02*
X226365Y668807D01*
X248590Y668807D02*
X258115Y678332D01*
X259320Y680855D01*
X226365Y668807D02*
X226365Y703732D01*
D17*
X226365Y668807D03*
X226365Y703732D03*
D16*
X353365Y760882D02*
X353365Y773582D01*
X347015Y773582D01*
X345090Y775307D01*
D17*
X353365Y760882D03*
D16*
X353365Y748182D02*
X347015Y741832D01*
X347015Y735482D01*
X345090Y735307D01*
D17*
X353365Y748182D03*
D16*
X353365Y627532D02*
X343840Y618007D01*
X345090Y615307D01*
D17*
X353365Y627532D03*
D16*
X251765Y754532D02*
X210490Y754532D01*
X258115Y770407D02*
X261290Y773582D01*
X277165Y773582D01*
X210490Y754532D02*
X210090Y755307D01*
X277165Y773582D02*
X280090Y775307D01*
D17*
X251765Y754532D03*
X258115Y770407D03*
D16*
X321615Y637057D02*
X312090Y627532D01*
X232715Y770407D02*
X235890Y773582D01*
X242240Y773582D01*
X312090Y627532D02*
X310090Y625307D01*
X242240Y773582D02*
X245090Y775307D01*
D17*
X321615Y637057D03*
X232715Y770407D03*
D16*
X248590Y694207D02*
X264465Y694207D01*
X296215Y767232D02*
X308915Y767232D01*
X248004Y697153D02*
X248590Y694207D01*
X311074Y764061D02*
X308915Y767232D01*
X340665Y764057D02*
X343840Y760882D01*
X340665Y764057D02*
X312090Y764057D01*
X311074Y764061D01*
D17*
X264465Y694207D03*
X296215Y767232D03*
X343840Y760882D03*
D16*
X273990Y710082D02*
X270815Y706907D01*
X273990Y710082D02*
X296215Y710082D01*
X270815Y706907D02*
X270004Y706653D01*
D17*
X296215Y710082D03*
D16*
X492900Y664045D02*
X494487Y662457D01*
X492900Y664045D02*
X478612Y678332D01*
X494487Y662457D02*
X532587Y662457D01*
X538937Y656107D01*
X478612Y678332D02*
X477317Y680855D01*
X538937Y656107D02*
X540187Y655307D01*
X411937Y659282D02*
X405587Y652932D01*
X411937Y659282D02*
X488137Y659282D01*
X492900Y664045D01*
X405587Y652932D02*
X405187Y650307D01*
X430987Y681507D02*
X430987Y713257D01*
X440512Y713257D01*
X430987Y681507D02*
X431517Y680855D01*
X440512Y713257D02*
X443101Y716153D01*
X443687Y716432D02*
X459562Y732307D01*
X462311Y733253D01*
X443687Y716432D02*
X443101Y716153D01*
X516712Y719607D02*
X538937Y697382D01*
X516712Y719607D02*
X450037Y719607D01*
X538937Y697382D02*
X540187Y695307D01*
X450037Y719607D02*
X443101Y716153D01*
X462737Y751357D02*
X475437Y751357D01*
X462737Y751357D02*
X462311Y752253D01*
D17*
X475437Y751357D03*
D16*
X440512Y741832D02*
X440512Y732307D01*
X443687Y732307D01*
X450037Y649757D02*
X504012Y649757D01*
X440512Y741832D02*
X440311Y742753D01*
X504012Y649757D02*
X505187Y650307D01*
D17*
X443687Y732307D03*
X450037Y649757D03*
D16*
X456387Y681507D02*
X459562Y684682D01*
X462737Y684682D01*
X478612Y700557D01*
X504012Y700557D01*
X456387Y681507D02*
X454417Y680855D01*
X504012Y700557D02*
X506171Y701061D01*
X443687Y668807D02*
X421462Y668807D01*
X443687Y668807D02*
X453212Y678332D01*
X454417Y680855D01*
X421462Y668807D02*
X421462Y703732D01*
D17*
X421462Y668807D03*
X421462Y703732D03*
D16*
X548462Y760882D02*
X548462Y773582D01*
X542112Y773582D01*
X540187Y775307D01*
D17*
X548462Y760882D03*
D16*
X548462Y748182D02*
X542112Y741832D01*
X542112Y735482D01*
X540187Y735307D01*
D17*
X548462Y748182D03*
D16*
X548462Y627532D02*
X538937Y618007D01*
X540187Y615307D01*
D17*
X548462Y627532D03*
D16*
X446862Y754532D02*
X405587Y754532D01*
X453212Y770407D02*
X456387Y773582D01*
X472262Y773582D01*
X405587Y754532D02*
X405187Y755307D01*
X472262Y773582D02*
X475187Y775307D01*
D17*
X446862Y754532D03*
X453212Y770407D03*
D16*
X516712Y637057D02*
X507187Y627532D01*
X427812Y770407D02*
X430987Y773582D01*
X437337Y773582D01*
X507187Y627532D02*
X505187Y625307D01*
X437337Y773582D02*
X440187Y775307D01*
D17*
X516712Y637057D03*
X427812Y770407D03*
D16*
X443687Y694207D02*
X459562Y694207D01*
X491312Y767232D02*
X504012Y767232D01*
X443101Y697153D02*
X443687Y694207D01*
X506171Y764061D02*
X504012Y767232D01*
X535762Y764057D02*
X538937Y760882D01*
X535762Y764057D02*
X507187Y764057D01*
X506171Y764061D01*
D17*
X459562Y694207D03*
X491312Y767232D03*
X538937Y760882D03*
D16*
X469087Y710082D02*
X465912Y706907D01*
X469087Y710082D02*
X491312Y710082D01*
X465912Y706907D02*
X465101Y706653D01*
D17*
X491312Y710082D03*
D16*
X687997Y664045D02*
X689585Y662457D01*
X687997Y664045D02*
X673710Y678332D01*
X689585Y662457D02*
X727685Y662457D01*
X734035Y656107D01*
X673710Y678332D02*
X672415Y680855D01*
X734035Y656107D02*
X735285Y655307D01*
X607035Y659282D02*
X600685Y652932D01*
X607035Y659282D02*
X683235Y659282D01*
X687997Y664045D01*
X600685Y652932D02*
X600285Y650307D01*
X626085Y681507D02*
X626085Y713257D01*
X635610Y713257D01*
X626085Y681507D02*
X626615Y680855D01*
X635610Y713257D02*
X638199Y716153D01*
X638785Y716432D02*
X654660Y732307D01*
X657409Y733253D01*
X638785Y716432D02*
X638199Y716153D01*
X711810Y719607D02*
X734035Y697382D01*
X711810Y719607D02*
X645135Y719607D01*
X734035Y697382D02*
X735285Y695307D01*
X645135Y719607D02*
X638199Y716153D01*
X657835Y751357D02*
X670535Y751357D01*
X657835Y751357D02*
X657409Y752253D01*
D17*
X670535Y751357D03*
D16*
X635610Y741832D02*
X635610Y732307D01*
X638785Y732307D01*
X645135Y649757D02*
X699110Y649757D01*
X635610Y741832D02*
X635409Y742753D01*
X699110Y649757D02*
X700285Y650307D01*
D17*
X638785Y732307D03*
X645135Y649757D03*
D16*
X651485Y681507D02*
X654660Y684682D01*
X657835Y684682D01*
X673710Y700557D01*
X699110Y700557D01*
X651485Y681507D02*
X649515Y680855D01*
X699110Y700557D02*
X701269Y701061D01*
X638785Y668807D02*
X616560Y668807D01*
X638785Y668807D02*
X648310Y678332D01*
X649515Y680855D01*
X616560Y668807D02*
X616560Y703732D01*
D17*
X616560Y668807D03*
X616560Y703732D03*
D16*
X743560Y760882D02*
X743560Y773582D01*
X737210Y773582D01*
X735285Y775307D01*
D17*
X743560Y760882D03*
D16*
X743560Y748182D02*
X737210Y741832D01*
X737210Y735482D01*
X735285Y735307D01*
D17*
X743560Y748182D03*
D16*
X743560Y627532D02*
X734035Y618007D01*
X735285Y615307D01*
D17*
X743560Y627532D03*
D16*
X641960Y754532D02*
X600685Y754532D01*
X648310Y770407D02*
X651485Y773582D01*
X667360Y773582D01*
X600685Y754532D02*
X600285Y755307D01*
X667360Y773582D02*
X670285Y775307D01*
D17*
X641960Y754532D03*
X648310Y770407D03*
D16*
X711810Y637057D02*
X702285Y627532D01*
X622910Y770407D02*
X626085Y773582D01*
X632435Y773582D01*
X702285Y627532D02*
X700285Y625307D01*
X632435Y773582D02*
X635285Y775307D01*
D17*
X711810Y637057D03*
X622910Y770407D03*
D16*
X638785Y694207D02*
X654660Y694207D01*
X686410Y767232D02*
X699110Y767232D01*
X638199Y697153D02*
X638785Y694207D01*
X701269Y764061D02*
X699110Y767232D01*
X730860Y764057D02*
X734035Y760882D01*
X730860Y764057D02*
X702285Y764057D01*
X701269Y764061D01*
D17*
X654660Y694207D03*
X686410Y767232D03*
X734035Y760882D03*
D16*
X664185Y710082D02*
X661010Y706907D01*
X664185Y710082D02*
X686410Y710082D01*
X661010Y706907D02*
X660199Y706653D01*
D17*
X686410Y710082D03*
D16*
X883095Y664045D02*
X884682Y662457D01*
X883095Y664045D02*
X868807Y678332D01*
X884682Y662457D02*
X922782Y662457D01*
X929132Y656107D01*
X868807Y678332D02*
X867512Y680855D01*
X929132Y656107D02*
X930382Y655307D01*
X802132Y659282D02*
X795782Y652932D01*
X802132Y659282D02*
X878332Y659282D01*
X883095Y664045D01*
X795782Y652932D02*
X795382Y650307D01*
X821182Y681507D02*
X821182Y713257D01*
X830707Y713257D01*
X821182Y681507D02*
X821712Y680855D01*
X830707Y713257D02*
X833296Y716153D01*
X833882Y716432D02*
X849757Y732307D01*
X852506Y733253D01*
X833882Y716432D02*
X833296Y716153D01*
X906907Y719607D02*
X929132Y697382D01*
X906907Y719607D02*
X840232Y719607D01*
X929132Y697382D02*
X930382Y695307D01*
X840232Y719607D02*
X833296Y716153D01*
X852932Y751357D02*
X865632Y751357D01*
X852932Y751357D02*
X852506Y752253D01*
D17*
X865632Y751357D03*
D16*
X830707Y741832D02*
X830707Y732307D01*
X833882Y732307D01*
X840232Y649757D02*
X894207Y649757D01*
X830707Y741832D02*
X830506Y742753D01*
X894207Y649757D02*
X895382Y650307D01*
D17*
X833882Y732307D03*
X840232Y649757D03*
D16*
X846582Y681507D02*
X849757Y684682D01*
X852932Y684682D01*
X868807Y700557D01*
X894207Y700557D01*
X846582Y681507D02*
X844612Y680855D01*
X894207Y700557D02*
X896366Y701061D01*
X833882Y668807D02*
X811657Y668807D01*
X833882Y668807D02*
X843407Y678332D01*
X844612Y680855D01*
X811657Y668807D02*
X811657Y703732D01*
D17*
X811657Y668807D03*
X811657Y703732D03*
D16*
X938657Y760882D02*
X938657Y773582D01*
X932307Y773582D01*
X930382Y775307D01*
D17*
X938657Y760882D03*
D16*
X938657Y748182D02*
X932307Y741832D01*
X932307Y735482D01*
X930382Y735307D01*
D17*
X938657Y748182D03*
D16*
X938657Y627532D02*
X929132Y618007D01*
X930382Y615307D01*
D17*
X938657Y627532D03*
D16*
X837057Y754532D02*
X795782Y754532D01*
X843407Y770407D02*
X846582Y773582D01*
X862457Y773582D01*
X795782Y754532D02*
X795382Y755307D01*
X862457Y773582D02*
X865382Y775307D01*
D17*
X837057Y754532D03*
X843407Y770407D03*
D16*
X906907Y637057D02*
X897382Y627532D01*
X818007Y770407D02*
X821182Y773582D01*
X827532Y773582D01*
X897382Y627532D02*
X895382Y625307D01*
X827532Y773582D02*
X830382Y775307D01*
D17*
X906907Y637057D03*
X818007Y770407D03*
D16*
X833882Y694207D02*
X849757Y694207D01*
X881507Y767232D02*
X894207Y767232D01*
X833296Y697153D02*
X833882Y694207D01*
X896366Y764061D02*
X894207Y767232D01*
X925957Y764057D02*
X929132Y760882D01*
X925957Y764057D02*
X897382Y764057D01*
X896366Y764061D01*
D17*
X849757Y694207D03*
X881507Y767232D03*
X929132Y760882D03*
D16*
X859282Y710082D02*
X856107Y706907D01*
X859282Y710082D02*
X881507Y710082D01*
X856107Y706907D02*
X855296Y706653D01*
D17*
X881507Y710082D03*
M02*
