G04 EAGLE Gerber RS-274X export*
G75*
%MOMM*%
%FSLAX34Y34*%
%LPD*%
%INBottom Copper*%
%IPPOS*%
%AMOC8*
5,1,8,0,0,1.08239X$1,22.5*%
G01*
%ADD10R,0.950000X1.300000*%
%ADD11R,3.250000X1.300000*%
%ADD12R,1.000000X1.400000*%
%ADD13R,2.540000X1.270000*%
%ADD14R,1.270000X2.540000*%
%ADD15C,0.508000*%
%ADD16C,0.756400*%


D10*
X56334Y181394D03*
X79234Y181394D03*
X102134Y181394D03*
D11*
X79234Y114394D03*
D12*
X130004Y134004D03*
X139504Y156004D03*
X120504Y156004D03*
D13*
X165004Y55004D03*
X165004Y95004D03*
X25004Y65004D03*
X125004Y65004D03*
X165004Y175004D03*
X165004Y135004D03*
X165004Y15004D03*
X125004Y45004D03*
X25004Y175004D03*
D14*
X50004Y35004D03*
X85004Y35004D03*
D10*
X256435Y181394D03*
X279335Y181394D03*
X302235Y181394D03*
D11*
X279335Y114394D03*
D12*
X330105Y134004D03*
X339605Y156004D03*
X320605Y156004D03*
D13*
X365105Y55004D03*
X365105Y95004D03*
X225105Y65004D03*
X325105Y65004D03*
X365105Y175004D03*
X365105Y135004D03*
X365105Y15004D03*
X325105Y45004D03*
X225105Y175004D03*
D14*
X250105Y35004D03*
X285105Y35004D03*
D10*
X456536Y181394D03*
X479436Y181394D03*
X502336Y181394D03*
D11*
X479436Y114394D03*
D12*
X530206Y134004D03*
X539706Y156004D03*
X520706Y156004D03*
D13*
X565206Y55004D03*
X565206Y95004D03*
X425206Y65004D03*
X525206Y65004D03*
X565206Y175004D03*
X565206Y135004D03*
X565206Y15004D03*
X525206Y45004D03*
X425206Y175004D03*
D14*
X450206Y35004D03*
X485206Y35004D03*
D10*
X656637Y181394D03*
X679537Y181394D03*
X702437Y181394D03*
D11*
X679537Y114394D03*
D12*
X730307Y134004D03*
X739807Y156004D03*
X720807Y156004D03*
D13*
X765307Y55004D03*
X765307Y95004D03*
X625307Y65004D03*
X725307Y65004D03*
X765307Y175004D03*
X765307Y135004D03*
X765307Y15004D03*
X725307Y45004D03*
X625307Y175004D03*
D14*
X650307Y35004D03*
X685307Y35004D03*
D10*
X56334Y401485D03*
X79234Y401485D03*
X102134Y401485D03*
D11*
X79234Y334485D03*
D12*
X130004Y354095D03*
X139504Y376095D03*
X120504Y376095D03*
D13*
X165004Y275095D03*
X165004Y315095D03*
X25004Y285095D03*
X125004Y285095D03*
X165004Y395095D03*
X165004Y355095D03*
X165004Y235095D03*
X125004Y265095D03*
X25004Y395095D03*
D14*
X50004Y255095D03*
X85004Y255095D03*
D10*
X256435Y401485D03*
X279335Y401485D03*
X302235Y401485D03*
D11*
X279335Y334485D03*
D12*
X330105Y354095D03*
X339605Y376095D03*
X320605Y376095D03*
D13*
X365105Y275095D03*
X365105Y315095D03*
X225105Y285095D03*
X325105Y285095D03*
X365105Y395095D03*
X365105Y355095D03*
X365105Y235095D03*
X325105Y265095D03*
X225105Y395095D03*
D14*
X250105Y255095D03*
X285105Y255095D03*
D10*
X456536Y401485D03*
X479436Y401485D03*
X502336Y401485D03*
D11*
X479436Y334485D03*
D12*
X530206Y354095D03*
X539706Y376095D03*
X520706Y376095D03*
D13*
X565206Y275095D03*
X565206Y315095D03*
X425206Y285095D03*
X525206Y285095D03*
X565206Y395095D03*
X565206Y355095D03*
X565206Y235095D03*
X525206Y265095D03*
X425206Y395095D03*
D14*
X450206Y255095D03*
X485206Y255095D03*
D10*
X656637Y401485D03*
X679537Y401485D03*
X702437Y401485D03*
D11*
X679537Y334485D03*
D12*
X730307Y354095D03*
X739807Y376095D03*
X720807Y376095D03*
D13*
X765307Y275095D03*
X765307Y315095D03*
X625307Y285095D03*
X725307Y285095D03*
X765307Y395095D03*
X765307Y355095D03*
X765307Y235095D03*
X725307Y265095D03*
X625307Y395095D03*
D14*
X650307Y255095D03*
X685307Y255095D03*
D10*
X56334Y621601D03*
X79234Y621601D03*
X102134Y621601D03*
D11*
X79234Y554601D03*
D12*
X130004Y574211D03*
X139504Y596211D03*
X120504Y596211D03*
D13*
X165004Y495211D03*
X165004Y535211D03*
X25004Y505211D03*
X125004Y505211D03*
X165004Y615211D03*
X165004Y575211D03*
X165004Y455211D03*
X125004Y485211D03*
X25004Y615211D03*
D14*
X50004Y475211D03*
X85004Y475211D03*
D10*
X256435Y621601D03*
X279335Y621601D03*
X302235Y621601D03*
D11*
X279335Y554601D03*
D12*
X330105Y574211D03*
X339605Y596211D03*
X320605Y596211D03*
D13*
X365105Y495211D03*
X365105Y535211D03*
X225105Y505211D03*
X325105Y505211D03*
X365105Y615211D03*
X365105Y575211D03*
X365105Y455211D03*
X325105Y485211D03*
X225105Y615211D03*
D14*
X250105Y475211D03*
X285105Y475211D03*
D10*
X456536Y621601D03*
X479436Y621601D03*
X502336Y621601D03*
D11*
X479436Y554601D03*
D12*
X530206Y574211D03*
X539706Y596211D03*
X520706Y596211D03*
D13*
X565206Y495211D03*
X565206Y535211D03*
X425206Y505211D03*
X525206Y505211D03*
X565206Y615211D03*
X565206Y575211D03*
X565206Y455211D03*
X525206Y485211D03*
X425206Y615211D03*
D14*
X450206Y475211D03*
X485206Y475211D03*
D10*
X656637Y621601D03*
X679537Y621601D03*
X702437Y621601D03*
D11*
X679537Y554601D03*
D12*
X730307Y574211D03*
X739807Y596211D03*
X720807Y596211D03*
D13*
X765307Y495211D03*
X765307Y535211D03*
X625307Y505211D03*
X725307Y505211D03*
X765307Y615211D03*
X765307Y575211D03*
X765307Y455211D03*
X725307Y485211D03*
X625307Y615211D03*
D14*
X650307Y475211D03*
X685307Y475211D03*
D10*
X56334Y841692D03*
X79234Y841692D03*
X102134Y841692D03*
D11*
X79234Y774692D03*
D12*
X130004Y794302D03*
X139504Y816302D03*
X120504Y816302D03*
D13*
X165004Y715302D03*
X165004Y755302D03*
X25004Y725302D03*
X125004Y725302D03*
X165004Y835302D03*
X165004Y795302D03*
X165004Y675302D03*
X125004Y705302D03*
X25004Y835302D03*
D14*
X50004Y695302D03*
X85004Y695302D03*
D10*
X256435Y841692D03*
X279335Y841692D03*
X302235Y841692D03*
D11*
X279335Y774692D03*
D12*
X330105Y794302D03*
X339605Y816302D03*
X320605Y816302D03*
D13*
X365105Y715302D03*
X365105Y755302D03*
X225105Y725302D03*
X325105Y725302D03*
X365105Y835302D03*
X365105Y795302D03*
X365105Y675302D03*
X325105Y705302D03*
X225105Y835302D03*
D14*
X250105Y695302D03*
X285105Y695302D03*
D10*
X456536Y841692D03*
X479436Y841692D03*
X502336Y841692D03*
D11*
X479436Y774692D03*
D12*
X530206Y794302D03*
X539706Y816302D03*
X520706Y816302D03*
D13*
X565206Y715302D03*
X565206Y755302D03*
X425206Y725302D03*
X525206Y725302D03*
X565206Y835302D03*
X565206Y795302D03*
X565206Y675302D03*
X525206Y705302D03*
X425206Y835302D03*
D14*
X450206Y695302D03*
X485206Y695302D03*
D10*
X656637Y841692D03*
X679537Y841692D03*
X702437Y841692D03*
D11*
X679537Y774692D03*
D12*
X730307Y794302D03*
X739807Y816302D03*
X720807Y816302D03*
D13*
X765307Y715302D03*
X765307Y755302D03*
X625307Y725302D03*
X725307Y725302D03*
X765307Y835302D03*
X765307Y795302D03*
X765307Y675302D03*
X725307Y705302D03*
X625307Y835302D03*
D14*
X650307Y695302D03*
X685307Y695302D03*
D15*
X115004Y180004D02*
X105004Y180004D01*
X145004Y95004D02*
X145004Y75004D01*
X165004Y55004D01*
X105004Y180004D02*
X102134Y181394D01*
X60004Y65004D02*
X25004Y65004D01*
X60004Y65004D02*
X60004Y70004D01*
D16*
X115004Y180004D03*
X145004Y95004D03*
X60004Y70004D03*
D15*
X70004Y170004D02*
X60004Y180004D01*
X70004Y170004D02*
X135004Y170004D01*
X135004Y160004D01*
X60004Y180004D02*
X56334Y181394D01*
X135004Y160004D02*
X139504Y156004D01*
X140004Y120004D02*
X160004Y100004D01*
X140004Y120004D02*
X140004Y155004D01*
X139504Y156004D01*
X160004Y100004D02*
X160004Y80004D01*
X165004Y95004D02*
X160004Y100004D01*
D16*
X160004Y80004D03*
D15*
X90004Y125004D02*
X120004Y155004D01*
X90004Y125004D02*
X40004Y125004D01*
X40004Y120004D01*
X120004Y155004D02*
X120504Y156004D01*
D16*
X40004Y120004D03*
D15*
X125004Y125004D02*
X130004Y130004D01*
X125004Y125004D02*
X125004Y65004D01*
X130004Y130004D02*
X130004Y134004D01*
X160004Y160004D02*
X165004Y165004D01*
X165004Y175004D01*
D16*
X160004Y160004D03*
D15*
X160004Y150004D02*
X165004Y145004D01*
X165004Y135004D01*
D16*
X160004Y150004D03*
D15*
X160004Y30004D02*
X165004Y25004D01*
X165004Y15004D01*
D16*
X160004Y30004D03*
D15*
X90004Y180004D02*
X80004Y180004D01*
X79234Y181394D01*
D16*
X90004Y180004D03*
D15*
X70004Y55004D02*
X50004Y35004D01*
X70004Y55004D02*
X110004Y55004D01*
X120004Y45004D01*
X125004Y45004D01*
X85004Y35004D02*
X65004Y15004D01*
X35004Y15004D01*
X35004Y45004D01*
X45004Y55004D01*
X60004Y55004D01*
X70004Y65004D01*
X70004Y75004D01*
X25004Y120004D01*
X25004Y175004D01*
X305105Y180004D02*
X315105Y180004D01*
X345105Y95004D02*
X345105Y75004D01*
X365105Y55004D01*
X305105Y180004D02*
X302235Y181394D01*
X260105Y65004D02*
X225105Y65004D01*
X260105Y65004D02*
X260105Y70004D01*
D16*
X315105Y180004D03*
X345105Y95004D03*
X260105Y70004D03*
D15*
X270105Y170004D02*
X260105Y180004D01*
X270105Y170004D02*
X335105Y170004D01*
X335105Y160004D01*
X260105Y180004D02*
X256435Y181394D01*
X335105Y160004D02*
X339605Y156004D01*
X340105Y120004D02*
X360105Y100004D01*
X340105Y120004D02*
X340105Y155004D01*
X339605Y156004D01*
X360105Y100004D02*
X360105Y80004D01*
X365105Y95004D02*
X360105Y100004D01*
D16*
X360105Y80004D03*
D15*
X290105Y125004D02*
X320105Y155004D01*
X290105Y125004D02*
X240105Y125004D01*
X240105Y120004D01*
X320105Y155004D02*
X320605Y156004D01*
D16*
X240105Y120004D03*
D15*
X325105Y125004D02*
X330105Y130004D01*
X325105Y125004D02*
X325105Y65004D01*
X330105Y130004D02*
X330105Y134004D01*
X360105Y160004D02*
X365105Y165004D01*
X365105Y175004D01*
D16*
X360105Y160004D03*
D15*
X360105Y150004D02*
X365105Y145004D01*
X365105Y135004D01*
D16*
X360105Y150004D03*
D15*
X360105Y30004D02*
X365105Y25004D01*
X365105Y15004D01*
D16*
X360105Y30004D03*
D15*
X290105Y180004D02*
X280105Y180004D01*
X279335Y181394D01*
D16*
X290105Y180004D03*
D15*
X270105Y55004D02*
X250105Y35004D01*
X270105Y55004D02*
X310105Y55004D01*
X320105Y45004D01*
X325105Y45004D01*
X285105Y35004D02*
X265105Y15004D01*
X235105Y15004D01*
X235105Y45004D01*
X245105Y55004D01*
X260105Y55004D01*
X270105Y65004D01*
X270105Y75004D01*
X225105Y120004D01*
X225105Y175004D01*
X505206Y180004D02*
X515206Y180004D01*
X545206Y95004D02*
X545206Y75004D01*
X565206Y55004D01*
X505206Y180004D02*
X502336Y181394D01*
X460206Y65004D02*
X425206Y65004D01*
X460206Y65004D02*
X460206Y70004D01*
D16*
X515206Y180004D03*
X545206Y95004D03*
X460206Y70004D03*
D15*
X470206Y170004D02*
X460206Y180004D01*
X470206Y170004D02*
X535206Y170004D01*
X535206Y160004D01*
X460206Y180004D02*
X456536Y181394D01*
X535206Y160004D02*
X539706Y156004D01*
X540206Y120004D02*
X560206Y100004D01*
X540206Y120004D02*
X540206Y155004D01*
X539706Y156004D01*
X560206Y100004D02*
X560206Y80004D01*
X565206Y95004D02*
X560206Y100004D01*
D16*
X560206Y80004D03*
D15*
X490206Y125004D02*
X520206Y155004D01*
X490206Y125004D02*
X440206Y125004D01*
X440206Y120004D01*
X520206Y155004D02*
X520706Y156004D01*
D16*
X440206Y120004D03*
D15*
X525206Y125004D02*
X530206Y130004D01*
X525206Y125004D02*
X525206Y65004D01*
X530206Y130004D02*
X530206Y134004D01*
X560206Y160004D02*
X565206Y165004D01*
X565206Y175004D01*
D16*
X560206Y160004D03*
D15*
X560206Y150004D02*
X565206Y145004D01*
X565206Y135004D01*
D16*
X560206Y150004D03*
D15*
X560206Y30004D02*
X565206Y25004D01*
X565206Y15004D01*
D16*
X560206Y30004D03*
D15*
X490206Y180004D02*
X480206Y180004D01*
X479436Y181394D01*
D16*
X490206Y180004D03*
D15*
X470206Y55004D02*
X450206Y35004D01*
X470206Y55004D02*
X510206Y55004D01*
X520206Y45004D01*
X525206Y45004D01*
X485206Y35004D02*
X465206Y15004D01*
X435206Y15004D01*
X435206Y45004D01*
X445206Y55004D01*
X460206Y55004D01*
X470206Y65004D01*
X470206Y75004D01*
X425206Y120004D01*
X425206Y175004D01*
X705307Y180004D02*
X715307Y180004D01*
X745307Y95004D02*
X745307Y75004D01*
X765307Y55004D01*
X705307Y180004D02*
X702437Y181394D01*
X660307Y65004D02*
X625307Y65004D01*
X660307Y65004D02*
X660307Y70004D01*
D16*
X715307Y180004D03*
X745307Y95004D03*
X660307Y70004D03*
D15*
X670307Y170004D02*
X660307Y180004D01*
X670307Y170004D02*
X735307Y170004D01*
X735307Y160004D01*
X660307Y180004D02*
X656637Y181394D01*
X735307Y160004D02*
X739807Y156004D01*
X740307Y120004D02*
X760307Y100004D01*
X740307Y120004D02*
X740307Y155004D01*
X739807Y156004D01*
X760307Y100004D02*
X760307Y80004D01*
X765307Y95004D02*
X760307Y100004D01*
D16*
X760307Y80004D03*
D15*
X690307Y125004D02*
X720307Y155004D01*
X690307Y125004D02*
X640307Y125004D01*
X640307Y120004D01*
X720307Y155004D02*
X720807Y156004D01*
D16*
X640307Y120004D03*
D15*
X725307Y125004D02*
X730307Y130004D01*
X725307Y125004D02*
X725307Y65004D01*
X730307Y130004D02*
X730307Y134004D01*
X760307Y160004D02*
X765307Y165004D01*
X765307Y175004D01*
D16*
X760307Y160004D03*
D15*
X760307Y150004D02*
X765307Y145004D01*
X765307Y135004D01*
D16*
X760307Y150004D03*
D15*
X760307Y30004D02*
X765307Y25004D01*
X765307Y15004D01*
D16*
X760307Y30004D03*
D15*
X690307Y180004D02*
X680307Y180004D01*
X679537Y181394D01*
D16*
X690307Y180004D03*
D15*
X670307Y55004D02*
X650307Y35004D01*
X670307Y55004D02*
X710307Y55004D01*
X720307Y45004D01*
X725307Y45004D01*
X685307Y35004D02*
X665307Y15004D01*
X635307Y15004D01*
X635307Y45004D01*
X645307Y55004D01*
X660307Y55004D01*
X670307Y65004D01*
X670307Y75004D01*
X625307Y120004D01*
X625307Y175004D01*
X115004Y400095D02*
X105004Y400095D01*
X145004Y315095D02*
X145004Y295095D01*
X165004Y275095D01*
X105004Y400095D02*
X102134Y401485D01*
X60004Y285095D02*
X25004Y285095D01*
X60004Y285095D02*
X60004Y290095D01*
D16*
X115004Y400095D03*
X145004Y315095D03*
X60004Y290095D03*
D15*
X70004Y390095D02*
X60004Y400095D01*
X70004Y390095D02*
X135004Y390095D01*
X135004Y380095D01*
X60004Y400095D02*
X56334Y401485D01*
X135004Y380095D02*
X139504Y376095D01*
X140004Y340095D02*
X160004Y320095D01*
X140004Y340095D02*
X140004Y375095D01*
X139504Y376095D01*
X160004Y320095D02*
X160004Y300095D01*
X165004Y315095D02*
X160004Y320095D01*
D16*
X160004Y300095D03*
D15*
X90004Y345095D02*
X120004Y375095D01*
X90004Y345095D02*
X40004Y345095D01*
X40004Y340095D01*
X120004Y375095D02*
X120504Y376095D01*
D16*
X40004Y340095D03*
D15*
X125004Y345095D02*
X130004Y350095D01*
X125004Y345095D02*
X125004Y285095D01*
X130004Y350095D02*
X130004Y354095D01*
X160004Y380095D02*
X165004Y385095D01*
X165004Y395095D01*
D16*
X160004Y380095D03*
D15*
X160004Y370095D02*
X165004Y365095D01*
X165004Y355095D01*
D16*
X160004Y370095D03*
D15*
X160004Y250095D02*
X165004Y245095D01*
X165004Y235095D01*
D16*
X160004Y250095D03*
D15*
X90004Y400095D02*
X80004Y400095D01*
X79234Y401485D01*
D16*
X90004Y400095D03*
D15*
X70004Y275095D02*
X50004Y255095D01*
X70004Y275095D02*
X110004Y275095D01*
X120004Y265095D01*
X125004Y265095D01*
X85004Y255095D02*
X65004Y235095D01*
X35004Y235095D01*
X35004Y265095D01*
X45004Y275095D01*
X60004Y275095D01*
X70004Y285095D01*
X70004Y295095D01*
X25004Y340095D01*
X25004Y395095D01*
X305105Y400095D02*
X315105Y400095D01*
X345105Y315095D02*
X345105Y295095D01*
X365105Y275095D01*
X305105Y400095D02*
X302235Y401485D01*
X260105Y285095D02*
X225105Y285095D01*
X260105Y285095D02*
X260105Y290095D01*
D16*
X315105Y400095D03*
X345105Y315095D03*
X260105Y290095D03*
D15*
X270105Y390095D02*
X260105Y400095D01*
X270105Y390095D02*
X335105Y390095D01*
X335105Y380095D01*
X260105Y400095D02*
X256435Y401485D01*
X335105Y380095D02*
X339605Y376095D01*
X340105Y340095D02*
X360105Y320095D01*
X340105Y340095D02*
X340105Y375095D01*
X339605Y376095D01*
X360105Y320095D02*
X360105Y300095D01*
X365105Y315095D02*
X360105Y320095D01*
D16*
X360105Y300095D03*
D15*
X290105Y345095D02*
X320105Y375095D01*
X290105Y345095D02*
X240105Y345095D01*
X240105Y340095D01*
X320105Y375095D02*
X320605Y376095D01*
D16*
X240105Y340095D03*
D15*
X325105Y345095D02*
X330105Y350095D01*
X325105Y345095D02*
X325105Y285095D01*
X330105Y350095D02*
X330105Y354095D01*
X360105Y380095D02*
X365105Y385095D01*
X365105Y395095D01*
D16*
X360105Y380095D03*
D15*
X360105Y370095D02*
X365105Y365095D01*
X365105Y355095D01*
D16*
X360105Y370095D03*
D15*
X360105Y250095D02*
X365105Y245095D01*
X365105Y235095D01*
D16*
X360105Y250095D03*
D15*
X290105Y400095D02*
X280105Y400095D01*
X279335Y401485D01*
D16*
X290105Y400095D03*
D15*
X270105Y275095D02*
X250105Y255095D01*
X270105Y275095D02*
X310105Y275095D01*
X320105Y265095D01*
X325105Y265095D01*
X285105Y255095D02*
X265105Y235095D01*
X235105Y235095D01*
X235105Y265095D01*
X245105Y275095D01*
X260105Y275095D01*
X270105Y285095D01*
X270105Y295095D01*
X225105Y340095D01*
X225105Y395095D01*
X505206Y400095D02*
X515206Y400095D01*
X545206Y315095D02*
X545206Y295095D01*
X565206Y275095D01*
X505206Y400095D02*
X502336Y401485D01*
X460206Y285095D02*
X425206Y285095D01*
X460206Y285095D02*
X460206Y290095D01*
D16*
X515206Y400095D03*
X545206Y315095D03*
X460206Y290095D03*
D15*
X470206Y390095D02*
X460206Y400095D01*
X470206Y390095D02*
X535206Y390095D01*
X535206Y380095D01*
X460206Y400095D02*
X456536Y401485D01*
X535206Y380095D02*
X539706Y376095D01*
X540206Y340095D02*
X560206Y320095D01*
X540206Y340095D02*
X540206Y375095D01*
X539706Y376095D01*
X560206Y320095D02*
X560206Y300095D01*
X565206Y315095D02*
X560206Y320095D01*
D16*
X560206Y300095D03*
D15*
X490206Y345095D02*
X520206Y375095D01*
X490206Y345095D02*
X440206Y345095D01*
X440206Y340095D01*
X520206Y375095D02*
X520706Y376095D01*
D16*
X440206Y340095D03*
D15*
X525206Y345095D02*
X530206Y350095D01*
X525206Y345095D02*
X525206Y285095D01*
X530206Y350095D02*
X530206Y354095D01*
X560206Y380095D02*
X565206Y385095D01*
X565206Y395095D01*
D16*
X560206Y380095D03*
D15*
X560206Y370095D02*
X565206Y365095D01*
X565206Y355095D01*
D16*
X560206Y370095D03*
D15*
X560206Y250095D02*
X565206Y245095D01*
X565206Y235095D01*
D16*
X560206Y250095D03*
D15*
X490206Y400095D02*
X480206Y400095D01*
X479436Y401485D01*
D16*
X490206Y400095D03*
D15*
X470206Y275095D02*
X450206Y255095D01*
X470206Y275095D02*
X510206Y275095D01*
X520206Y265095D01*
X525206Y265095D01*
X485206Y255095D02*
X465206Y235095D01*
X435206Y235095D01*
X435206Y265095D01*
X445206Y275095D01*
X460206Y275095D01*
X470206Y285095D01*
X470206Y295095D01*
X425206Y340095D01*
X425206Y395095D01*
X705307Y400095D02*
X715307Y400095D01*
X745307Y315095D02*
X745307Y295095D01*
X765307Y275095D01*
X705307Y400095D02*
X702437Y401485D01*
X660307Y285095D02*
X625307Y285095D01*
X660307Y285095D02*
X660307Y290095D01*
D16*
X715307Y400095D03*
X745307Y315095D03*
X660307Y290095D03*
D15*
X670307Y390095D02*
X660307Y400095D01*
X670307Y390095D02*
X735307Y390095D01*
X735307Y380095D01*
X660307Y400095D02*
X656637Y401485D01*
X735307Y380095D02*
X739807Y376095D01*
X740307Y340095D02*
X760307Y320095D01*
X740307Y340095D02*
X740307Y375095D01*
X739807Y376095D01*
X760307Y320095D02*
X760307Y300095D01*
X765307Y315095D02*
X760307Y320095D01*
D16*
X760307Y300095D03*
D15*
X690307Y345095D02*
X720307Y375095D01*
X690307Y345095D02*
X640307Y345095D01*
X640307Y340095D01*
X720307Y375095D02*
X720807Y376095D01*
D16*
X640307Y340095D03*
D15*
X725307Y345095D02*
X730307Y350095D01*
X725307Y345095D02*
X725307Y285095D01*
X730307Y350095D02*
X730307Y354095D01*
X760307Y380095D02*
X765307Y385095D01*
X765307Y395095D01*
D16*
X760307Y380095D03*
D15*
X760307Y370095D02*
X765307Y365095D01*
X765307Y355095D01*
D16*
X760307Y370095D03*
D15*
X760307Y250095D02*
X765307Y245095D01*
X765307Y235095D01*
D16*
X760307Y250095D03*
D15*
X690307Y400095D02*
X680307Y400095D01*
X679537Y401485D01*
D16*
X690307Y400095D03*
D15*
X670307Y275095D02*
X650307Y255095D01*
X670307Y275095D02*
X710307Y275095D01*
X720307Y265095D01*
X725307Y265095D01*
X685307Y255095D02*
X665307Y235095D01*
X635307Y235095D01*
X635307Y265095D01*
X645307Y275095D01*
X660307Y275095D01*
X670307Y285095D01*
X670307Y295095D01*
X625307Y340095D01*
X625307Y395095D01*
X115004Y620211D02*
X105004Y620211D01*
X145004Y535211D02*
X145004Y515211D01*
X165004Y495211D01*
X105004Y620211D02*
X102134Y621601D01*
X60004Y505211D02*
X25004Y505211D01*
X60004Y505211D02*
X60004Y510211D01*
D16*
X115004Y620211D03*
X145004Y535211D03*
X60004Y510211D03*
D15*
X70004Y610211D02*
X60004Y620211D01*
X70004Y610211D02*
X135004Y610211D01*
X135004Y600211D01*
X60004Y620211D02*
X56334Y621601D01*
X135004Y600211D02*
X139504Y596211D01*
X140004Y560211D02*
X160004Y540211D01*
X140004Y560211D02*
X140004Y595211D01*
X139504Y596211D01*
X160004Y540211D02*
X160004Y520211D01*
X165004Y535211D02*
X160004Y540211D01*
D16*
X160004Y520211D03*
D15*
X90004Y565211D02*
X120004Y595211D01*
X90004Y565211D02*
X40004Y565211D01*
X40004Y560211D01*
X120004Y595211D02*
X120504Y596211D01*
D16*
X40004Y560211D03*
D15*
X125004Y565211D02*
X130004Y570211D01*
X125004Y565211D02*
X125004Y505211D01*
X130004Y570211D02*
X130004Y574211D01*
X160004Y600211D02*
X165004Y605211D01*
X165004Y615211D01*
D16*
X160004Y600211D03*
D15*
X160004Y590211D02*
X165004Y585211D01*
X165004Y575211D01*
D16*
X160004Y590211D03*
D15*
X160004Y470211D02*
X165004Y465211D01*
X165004Y455211D01*
D16*
X160004Y470211D03*
D15*
X90004Y620211D02*
X80004Y620211D01*
X79234Y621601D01*
D16*
X90004Y620211D03*
D15*
X70004Y495211D02*
X50004Y475211D01*
X70004Y495211D02*
X110004Y495211D01*
X120004Y485211D01*
X125004Y485211D01*
X85004Y475211D02*
X65004Y455211D01*
X35004Y455211D01*
X35004Y485211D01*
X45004Y495211D01*
X60004Y495211D01*
X70004Y505211D01*
X70004Y515211D01*
X25004Y560211D01*
X25004Y615211D01*
X305105Y620211D02*
X315105Y620211D01*
X345105Y535211D02*
X345105Y515211D01*
X365105Y495211D01*
X305105Y620211D02*
X302235Y621601D01*
X260105Y505211D02*
X225105Y505211D01*
X260105Y505211D02*
X260105Y510211D01*
D16*
X315105Y620211D03*
X345105Y535211D03*
X260105Y510211D03*
D15*
X270105Y610211D02*
X260105Y620211D01*
X270105Y610211D02*
X335105Y610211D01*
X335105Y600211D01*
X260105Y620211D02*
X256435Y621601D01*
X335105Y600211D02*
X339605Y596211D01*
X340105Y560211D02*
X360105Y540211D01*
X340105Y560211D02*
X340105Y595211D01*
X339605Y596211D01*
X360105Y540211D02*
X360105Y520211D01*
X365105Y535211D02*
X360105Y540211D01*
D16*
X360105Y520211D03*
D15*
X290105Y565211D02*
X320105Y595211D01*
X290105Y565211D02*
X240105Y565211D01*
X240105Y560211D01*
X320105Y595211D02*
X320605Y596211D01*
D16*
X240105Y560211D03*
D15*
X325105Y565211D02*
X330105Y570211D01*
X325105Y565211D02*
X325105Y505211D01*
X330105Y570211D02*
X330105Y574211D01*
X360105Y600211D02*
X365105Y605211D01*
X365105Y615211D01*
D16*
X360105Y600211D03*
D15*
X360105Y590211D02*
X365105Y585211D01*
X365105Y575211D01*
D16*
X360105Y590211D03*
D15*
X360105Y470211D02*
X365105Y465211D01*
X365105Y455211D01*
D16*
X360105Y470211D03*
D15*
X290105Y620211D02*
X280105Y620211D01*
X279335Y621601D01*
D16*
X290105Y620211D03*
D15*
X270105Y495211D02*
X250105Y475211D01*
X270105Y495211D02*
X310105Y495211D01*
X320105Y485211D01*
X325105Y485211D01*
X285105Y475211D02*
X265105Y455211D01*
X235105Y455211D01*
X235105Y485211D01*
X245105Y495211D01*
X260105Y495211D01*
X270105Y505211D01*
X270105Y515211D01*
X225105Y560211D01*
X225105Y615211D01*
X505206Y620211D02*
X515206Y620211D01*
X545206Y535211D02*
X545206Y515211D01*
X565206Y495211D01*
X505206Y620211D02*
X502336Y621601D01*
X460206Y505211D02*
X425206Y505211D01*
X460206Y505211D02*
X460206Y510211D01*
D16*
X515206Y620211D03*
X545206Y535211D03*
X460206Y510211D03*
D15*
X470206Y610211D02*
X460206Y620211D01*
X470206Y610211D02*
X535206Y610211D01*
X535206Y600211D01*
X460206Y620211D02*
X456536Y621601D01*
X535206Y600211D02*
X539706Y596211D01*
X540206Y560211D02*
X560206Y540211D01*
X540206Y560211D02*
X540206Y595211D01*
X539706Y596211D01*
X560206Y540211D02*
X560206Y520211D01*
X565206Y535211D02*
X560206Y540211D01*
D16*
X560206Y520211D03*
D15*
X490206Y565211D02*
X520206Y595211D01*
X490206Y565211D02*
X440206Y565211D01*
X440206Y560211D01*
X520206Y595211D02*
X520706Y596211D01*
D16*
X440206Y560211D03*
D15*
X525206Y565211D02*
X530206Y570211D01*
X525206Y565211D02*
X525206Y505211D01*
X530206Y570211D02*
X530206Y574211D01*
X560206Y600211D02*
X565206Y605211D01*
X565206Y615211D01*
D16*
X560206Y600211D03*
D15*
X560206Y590211D02*
X565206Y585211D01*
X565206Y575211D01*
D16*
X560206Y590211D03*
D15*
X560206Y470211D02*
X565206Y465211D01*
X565206Y455211D01*
D16*
X560206Y470211D03*
D15*
X490206Y620211D02*
X480206Y620211D01*
X479436Y621601D01*
D16*
X490206Y620211D03*
D15*
X470206Y495211D02*
X450206Y475211D01*
X470206Y495211D02*
X510206Y495211D01*
X520206Y485211D01*
X525206Y485211D01*
X485206Y475211D02*
X465206Y455211D01*
X435206Y455211D01*
X435206Y485211D01*
X445206Y495211D01*
X460206Y495211D01*
X470206Y505211D01*
X470206Y515211D01*
X425206Y560211D01*
X425206Y615211D01*
X705307Y620211D02*
X715307Y620211D01*
X745307Y535211D02*
X745307Y515211D01*
X765307Y495211D01*
X705307Y620211D02*
X702437Y621601D01*
X660307Y505211D02*
X625307Y505211D01*
X660307Y505211D02*
X660307Y510211D01*
D16*
X715307Y620211D03*
X745307Y535211D03*
X660307Y510211D03*
D15*
X670307Y610211D02*
X660307Y620211D01*
X670307Y610211D02*
X735307Y610211D01*
X735307Y600211D01*
X660307Y620211D02*
X656637Y621601D01*
X735307Y600211D02*
X739807Y596211D01*
X740307Y560211D02*
X760307Y540211D01*
X740307Y560211D02*
X740307Y595211D01*
X739807Y596211D01*
X760307Y540211D02*
X760307Y520211D01*
X765307Y535211D02*
X760307Y540211D01*
D16*
X760307Y520211D03*
D15*
X690307Y565211D02*
X720307Y595211D01*
X690307Y565211D02*
X640307Y565211D01*
X640307Y560211D01*
X720307Y595211D02*
X720807Y596211D01*
D16*
X640307Y560211D03*
D15*
X725307Y565211D02*
X730307Y570211D01*
X725307Y565211D02*
X725307Y505211D01*
X730307Y570211D02*
X730307Y574211D01*
X760307Y600211D02*
X765307Y605211D01*
X765307Y615211D01*
D16*
X760307Y600211D03*
D15*
X760307Y590211D02*
X765307Y585211D01*
X765307Y575211D01*
D16*
X760307Y590211D03*
D15*
X760307Y470211D02*
X765307Y465211D01*
X765307Y455211D01*
D16*
X760307Y470211D03*
D15*
X690307Y620211D02*
X680307Y620211D01*
X679537Y621601D01*
D16*
X690307Y620211D03*
D15*
X670307Y495211D02*
X650307Y475211D01*
X670307Y495211D02*
X710307Y495211D01*
X720307Y485211D01*
X725307Y485211D01*
X685307Y475211D02*
X665307Y455211D01*
X635307Y455211D01*
X635307Y485211D01*
X645307Y495211D01*
X660307Y495211D01*
X670307Y505211D01*
X670307Y515211D01*
X625307Y560211D01*
X625307Y615211D01*
X115004Y840302D02*
X105004Y840302D01*
X145004Y755302D02*
X145004Y735302D01*
X165004Y715302D01*
X105004Y840302D02*
X102134Y841692D01*
X60004Y725302D02*
X25004Y725302D01*
X60004Y725302D02*
X60004Y730302D01*
D16*
X115004Y840302D03*
X145004Y755302D03*
X60004Y730302D03*
D15*
X70004Y830302D02*
X60004Y840302D01*
X70004Y830302D02*
X135004Y830302D01*
X135004Y820302D01*
X60004Y840302D02*
X56334Y841692D01*
X135004Y820302D02*
X139504Y816302D01*
X140004Y780302D02*
X160004Y760302D01*
X140004Y780302D02*
X140004Y815302D01*
X139504Y816302D01*
X160004Y760302D02*
X160004Y740302D01*
X165004Y755302D02*
X160004Y760302D01*
D16*
X160004Y740302D03*
D15*
X90004Y785302D02*
X120004Y815302D01*
X90004Y785302D02*
X40004Y785302D01*
X40004Y780302D01*
X120004Y815302D02*
X120504Y816302D01*
D16*
X40004Y780302D03*
D15*
X125004Y785302D02*
X130004Y790302D01*
X125004Y785302D02*
X125004Y725302D01*
X130004Y790302D02*
X130004Y794302D01*
X160004Y820302D02*
X165004Y825302D01*
X165004Y835302D01*
D16*
X160004Y820302D03*
D15*
X160004Y810302D02*
X165004Y805302D01*
X165004Y795302D01*
D16*
X160004Y810302D03*
D15*
X160004Y690302D02*
X165004Y685302D01*
X165004Y675302D01*
D16*
X160004Y690302D03*
D15*
X90004Y840302D02*
X80004Y840302D01*
X79234Y841692D01*
D16*
X90004Y840302D03*
D15*
X70004Y715302D02*
X50004Y695302D01*
X70004Y715302D02*
X110004Y715302D01*
X120004Y705302D01*
X125004Y705302D01*
X85004Y695302D02*
X65004Y675302D01*
X35004Y675302D01*
X35004Y705302D01*
X45004Y715302D01*
X60004Y715302D01*
X70004Y725302D01*
X70004Y735302D01*
X25004Y780302D01*
X25004Y835302D01*
X305105Y840302D02*
X315105Y840302D01*
X345105Y755302D02*
X345105Y735302D01*
X365105Y715302D01*
X305105Y840302D02*
X302235Y841692D01*
X260105Y725302D02*
X225105Y725302D01*
X260105Y725302D02*
X260105Y730302D01*
D16*
X315105Y840302D03*
X345105Y755302D03*
X260105Y730302D03*
D15*
X270105Y830302D02*
X260105Y840302D01*
X270105Y830302D02*
X335105Y830302D01*
X335105Y820302D01*
X260105Y840302D02*
X256435Y841692D01*
X335105Y820302D02*
X339605Y816302D01*
X340105Y780302D02*
X360105Y760302D01*
X340105Y780302D02*
X340105Y815302D01*
X339605Y816302D01*
X360105Y760302D02*
X360105Y740302D01*
X365105Y755302D02*
X360105Y760302D01*
D16*
X360105Y740302D03*
D15*
X290105Y785302D02*
X320105Y815302D01*
X290105Y785302D02*
X240105Y785302D01*
X240105Y780302D01*
X320105Y815302D02*
X320605Y816302D01*
D16*
X240105Y780302D03*
D15*
X325105Y785302D02*
X330105Y790302D01*
X325105Y785302D02*
X325105Y725302D01*
X330105Y790302D02*
X330105Y794302D01*
X360105Y820302D02*
X365105Y825302D01*
X365105Y835302D01*
D16*
X360105Y820302D03*
D15*
X360105Y810302D02*
X365105Y805302D01*
X365105Y795302D01*
D16*
X360105Y810302D03*
D15*
X360105Y690302D02*
X365105Y685302D01*
X365105Y675302D01*
D16*
X360105Y690302D03*
D15*
X290105Y840302D02*
X280105Y840302D01*
X279335Y841692D01*
D16*
X290105Y840302D03*
D15*
X270105Y715302D02*
X250105Y695302D01*
X270105Y715302D02*
X310105Y715302D01*
X320105Y705302D01*
X325105Y705302D01*
X285105Y695302D02*
X265105Y675302D01*
X235105Y675302D01*
X235105Y705302D01*
X245105Y715302D01*
X260105Y715302D01*
X270105Y725302D01*
X270105Y735302D01*
X225105Y780302D01*
X225105Y835302D01*
X505206Y840302D02*
X515206Y840302D01*
X545206Y755302D02*
X545206Y735302D01*
X565206Y715302D01*
X505206Y840302D02*
X502336Y841692D01*
X460206Y725302D02*
X425206Y725302D01*
X460206Y725302D02*
X460206Y730302D01*
D16*
X515206Y840302D03*
X545206Y755302D03*
X460206Y730302D03*
D15*
X470206Y830302D02*
X460206Y840302D01*
X470206Y830302D02*
X535206Y830302D01*
X535206Y820302D01*
X460206Y840302D02*
X456536Y841692D01*
X535206Y820302D02*
X539706Y816302D01*
X540206Y780302D02*
X560206Y760302D01*
X540206Y780302D02*
X540206Y815302D01*
X539706Y816302D01*
X560206Y760302D02*
X560206Y740302D01*
X565206Y755302D02*
X560206Y760302D01*
D16*
X560206Y740302D03*
D15*
X490206Y785302D02*
X520206Y815302D01*
X490206Y785302D02*
X440206Y785302D01*
X440206Y780302D01*
X520206Y815302D02*
X520706Y816302D01*
D16*
X440206Y780302D03*
D15*
X525206Y785302D02*
X530206Y790302D01*
X525206Y785302D02*
X525206Y725302D01*
X530206Y790302D02*
X530206Y794302D01*
X560206Y820302D02*
X565206Y825302D01*
X565206Y835302D01*
D16*
X560206Y820302D03*
D15*
X560206Y810302D02*
X565206Y805302D01*
X565206Y795302D01*
D16*
X560206Y810302D03*
D15*
X560206Y690302D02*
X565206Y685302D01*
X565206Y675302D01*
D16*
X560206Y690302D03*
D15*
X490206Y840302D02*
X480206Y840302D01*
X479436Y841692D01*
D16*
X490206Y840302D03*
D15*
X470206Y715302D02*
X450206Y695302D01*
X470206Y715302D02*
X510206Y715302D01*
X520206Y705302D01*
X525206Y705302D01*
X485206Y695302D02*
X465206Y675302D01*
X435206Y675302D01*
X435206Y705302D01*
X445206Y715302D01*
X460206Y715302D01*
X470206Y725302D01*
X470206Y735302D01*
X425206Y780302D01*
X425206Y835302D01*
X705307Y840302D02*
X715307Y840302D01*
X745307Y755302D02*
X745307Y735302D01*
X765307Y715302D01*
X705307Y840302D02*
X702437Y841692D01*
X660307Y725302D02*
X625307Y725302D01*
X660307Y725302D02*
X660307Y730302D01*
D16*
X715307Y840302D03*
X745307Y755302D03*
X660307Y730302D03*
D15*
X670307Y830302D02*
X660307Y840302D01*
X670307Y830302D02*
X735307Y830302D01*
X735307Y820302D01*
X660307Y840302D02*
X656637Y841692D01*
X735307Y820302D02*
X739807Y816302D01*
X740307Y780302D02*
X760307Y760302D01*
X740307Y780302D02*
X740307Y815302D01*
X739807Y816302D01*
X760307Y760302D02*
X760307Y740302D01*
X765307Y755302D02*
X760307Y760302D01*
D16*
X760307Y740302D03*
D15*
X690307Y785302D02*
X720307Y815302D01*
X690307Y785302D02*
X640307Y785302D01*
X640307Y780302D01*
X720307Y815302D02*
X720807Y816302D01*
D16*
X640307Y780302D03*
D15*
X725307Y785302D02*
X730307Y790302D01*
X725307Y785302D02*
X725307Y725302D01*
X730307Y790302D02*
X730307Y794302D01*
X760307Y820302D02*
X765307Y825302D01*
X765307Y835302D01*
D16*
X760307Y820302D03*
D15*
X760307Y810302D02*
X765307Y805302D01*
X765307Y795302D01*
D16*
X760307Y810302D03*
D15*
X760307Y690302D02*
X765307Y685302D01*
X765307Y675302D01*
D16*
X760307Y690302D03*
D15*
X690307Y840302D02*
X680307Y840302D01*
X679537Y841692D01*
D16*
X690307Y840302D03*
D15*
X670307Y715302D02*
X650307Y695302D01*
X670307Y715302D02*
X710307Y715302D01*
X720307Y705302D01*
X725307Y705302D01*
X685307Y695302D02*
X665307Y675302D01*
X635307Y675302D01*
X635307Y705302D01*
X645307Y715302D01*
X660307Y715302D01*
X670307Y725302D01*
X670307Y735302D01*
X625307Y780302D01*
X625307Y835302D01*
M02*
