G04 EAGLE Gerber RS-274X export*
G75*
%MOMM*%
%FSLAX34Y34*%
%LPD*%
%INSolderpaste Top*%
%IPPOS*%
%AMOC8*
5,1,8,0,0,1.08239X$1,22.5*%
G01*
%ADD10R,2.000000X1.200000*%
%ADD11R,1.200000X2.000000*%


D10*
X15004Y30004D03*
X15004Y50004D03*
X15004Y70004D03*
X15004Y90004D03*
X15004Y110004D03*
X15004Y130004D03*
X15004Y150004D03*
X15004Y170004D03*
X177004Y30004D03*
X177004Y50004D03*
X177004Y70004D03*
X177004Y90004D03*
X177004Y110004D03*
X177004Y130004D03*
X177004Y150004D03*
X177004Y170004D03*
D11*
X45004Y10004D03*
X65004Y10004D03*
X85004Y10004D03*
X105004Y10004D03*
X125004Y10004D03*
X145004Y10004D03*
D10*
X215105Y30004D03*
X215105Y50004D03*
X215105Y70004D03*
X215105Y90004D03*
X215105Y110004D03*
X215105Y130004D03*
X215105Y150004D03*
X215105Y170004D03*
X377105Y30004D03*
X377105Y50004D03*
X377105Y70004D03*
X377105Y90004D03*
X377105Y110004D03*
X377105Y130004D03*
X377105Y150004D03*
X377105Y170004D03*
D11*
X245105Y10004D03*
X265105Y10004D03*
X285105Y10004D03*
X305105Y10004D03*
X325105Y10004D03*
X345105Y10004D03*
D10*
X415206Y30004D03*
X415206Y50004D03*
X415206Y70004D03*
X415206Y90004D03*
X415206Y110004D03*
X415206Y130004D03*
X415206Y150004D03*
X415206Y170004D03*
X577206Y30004D03*
X577206Y50004D03*
X577206Y70004D03*
X577206Y90004D03*
X577206Y110004D03*
X577206Y130004D03*
X577206Y150004D03*
X577206Y170004D03*
D11*
X445206Y10004D03*
X465206Y10004D03*
X485206Y10004D03*
X505206Y10004D03*
X525206Y10004D03*
X545206Y10004D03*
D10*
X615307Y30004D03*
X615307Y50004D03*
X615307Y70004D03*
X615307Y90004D03*
X615307Y110004D03*
X615307Y130004D03*
X615307Y150004D03*
X615307Y170004D03*
X777307Y30004D03*
X777307Y50004D03*
X777307Y70004D03*
X777307Y90004D03*
X777307Y110004D03*
X777307Y130004D03*
X777307Y150004D03*
X777307Y170004D03*
D11*
X645307Y10004D03*
X665307Y10004D03*
X685307Y10004D03*
X705307Y10004D03*
X725307Y10004D03*
X745307Y10004D03*
D10*
X15004Y250095D03*
X15004Y270095D03*
X15004Y290095D03*
X15004Y310095D03*
X15004Y330095D03*
X15004Y350095D03*
X15004Y370095D03*
X15004Y390095D03*
X177004Y250095D03*
X177004Y270095D03*
X177004Y290095D03*
X177004Y310095D03*
X177004Y330095D03*
X177004Y350095D03*
X177004Y370095D03*
X177004Y390095D03*
D11*
X45004Y230095D03*
X65004Y230095D03*
X85004Y230095D03*
X105004Y230095D03*
X125004Y230095D03*
X145004Y230095D03*
D10*
X215105Y250095D03*
X215105Y270095D03*
X215105Y290095D03*
X215105Y310095D03*
X215105Y330095D03*
X215105Y350095D03*
X215105Y370095D03*
X215105Y390095D03*
X377105Y250095D03*
X377105Y270095D03*
X377105Y290095D03*
X377105Y310095D03*
X377105Y330095D03*
X377105Y350095D03*
X377105Y370095D03*
X377105Y390095D03*
D11*
X245105Y230095D03*
X265105Y230095D03*
X285105Y230095D03*
X305105Y230095D03*
X325105Y230095D03*
X345105Y230095D03*
D10*
X415206Y250095D03*
X415206Y270095D03*
X415206Y290095D03*
X415206Y310095D03*
X415206Y330095D03*
X415206Y350095D03*
X415206Y370095D03*
X415206Y390095D03*
X577206Y250095D03*
X577206Y270095D03*
X577206Y290095D03*
X577206Y310095D03*
X577206Y330095D03*
X577206Y350095D03*
X577206Y370095D03*
X577206Y390095D03*
D11*
X445206Y230095D03*
X465206Y230095D03*
X485206Y230095D03*
X505206Y230095D03*
X525206Y230095D03*
X545206Y230095D03*
D10*
X615307Y250095D03*
X615307Y270095D03*
X615307Y290095D03*
X615307Y310095D03*
X615307Y330095D03*
X615307Y350095D03*
X615307Y370095D03*
X615307Y390095D03*
X777307Y250095D03*
X777307Y270095D03*
X777307Y290095D03*
X777307Y310095D03*
X777307Y330095D03*
X777307Y350095D03*
X777307Y370095D03*
X777307Y390095D03*
D11*
X645307Y230095D03*
X665307Y230095D03*
X685307Y230095D03*
X705307Y230095D03*
X725307Y230095D03*
X745307Y230095D03*
D10*
X15004Y470211D03*
X15004Y490211D03*
X15004Y510211D03*
X15004Y530211D03*
X15004Y550211D03*
X15004Y570211D03*
X15004Y590211D03*
X15004Y610211D03*
X177004Y470211D03*
X177004Y490211D03*
X177004Y510211D03*
X177004Y530211D03*
X177004Y550211D03*
X177004Y570211D03*
X177004Y590211D03*
X177004Y610211D03*
D11*
X45004Y450211D03*
X65004Y450211D03*
X85004Y450211D03*
X105004Y450211D03*
X125004Y450211D03*
X145004Y450211D03*
D10*
X215105Y470211D03*
X215105Y490211D03*
X215105Y510211D03*
X215105Y530211D03*
X215105Y550211D03*
X215105Y570211D03*
X215105Y590211D03*
X215105Y610211D03*
X377105Y470211D03*
X377105Y490211D03*
X377105Y510211D03*
X377105Y530211D03*
X377105Y550211D03*
X377105Y570211D03*
X377105Y590211D03*
X377105Y610211D03*
D11*
X245105Y450211D03*
X265105Y450211D03*
X285105Y450211D03*
X305105Y450211D03*
X325105Y450211D03*
X345105Y450211D03*
D10*
X415206Y470211D03*
X415206Y490211D03*
X415206Y510211D03*
X415206Y530211D03*
X415206Y550211D03*
X415206Y570211D03*
X415206Y590211D03*
X415206Y610211D03*
X577206Y470211D03*
X577206Y490211D03*
X577206Y510211D03*
X577206Y530211D03*
X577206Y550211D03*
X577206Y570211D03*
X577206Y590211D03*
X577206Y610211D03*
D11*
X445206Y450211D03*
X465206Y450211D03*
X485206Y450211D03*
X505206Y450211D03*
X525206Y450211D03*
X545206Y450211D03*
D10*
X615307Y470211D03*
X615307Y490211D03*
X615307Y510211D03*
X615307Y530211D03*
X615307Y550211D03*
X615307Y570211D03*
X615307Y590211D03*
X615307Y610211D03*
X777307Y470211D03*
X777307Y490211D03*
X777307Y510211D03*
X777307Y530211D03*
X777307Y550211D03*
X777307Y570211D03*
X777307Y590211D03*
X777307Y610211D03*
D11*
X645307Y450211D03*
X665307Y450211D03*
X685307Y450211D03*
X705307Y450211D03*
X725307Y450211D03*
X745307Y450211D03*
D10*
X15004Y690302D03*
X15004Y710302D03*
X15004Y730302D03*
X15004Y750302D03*
X15004Y770302D03*
X15004Y790302D03*
X15004Y810302D03*
X15004Y830302D03*
X177004Y690302D03*
X177004Y710302D03*
X177004Y730302D03*
X177004Y750302D03*
X177004Y770302D03*
X177004Y790302D03*
X177004Y810302D03*
X177004Y830302D03*
D11*
X45004Y670302D03*
X65004Y670302D03*
X85004Y670302D03*
X105004Y670302D03*
X125004Y670302D03*
X145004Y670302D03*
D10*
X215105Y690302D03*
X215105Y710302D03*
X215105Y730302D03*
X215105Y750302D03*
X215105Y770302D03*
X215105Y790302D03*
X215105Y810302D03*
X215105Y830302D03*
X377105Y690302D03*
X377105Y710302D03*
X377105Y730302D03*
X377105Y750302D03*
X377105Y770302D03*
X377105Y790302D03*
X377105Y810302D03*
X377105Y830302D03*
D11*
X245105Y670302D03*
X265105Y670302D03*
X285105Y670302D03*
X305105Y670302D03*
X325105Y670302D03*
X345105Y670302D03*
D10*
X415206Y690302D03*
X415206Y710302D03*
X415206Y730302D03*
X415206Y750302D03*
X415206Y770302D03*
X415206Y790302D03*
X415206Y810302D03*
X415206Y830302D03*
X577206Y690302D03*
X577206Y710302D03*
X577206Y730302D03*
X577206Y750302D03*
X577206Y770302D03*
X577206Y790302D03*
X577206Y810302D03*
X577206Y830302D03*
D11*
X445206Y670302D03*
X465206Y670302D03*
X485206Y670302D03*
X505206Y670302D03*
X525206Y670302D03*
X545206Y670302D03*
D10*
X615307Y690302D03*
X615307Y710302D03*
X615307Y730302D03*
X615307Y750302D03*
X615307Y770302D03*
X615307Y790302D03*
X615307Y810302D03*
X615307Y830302D03*
X777307Y690302D03*
X777307Y710302D03*
X777307Y730302D03*
X777307Y750302D03*
X777307Y770302D03*
X777307Y790302D03*
X777307Y810302D03*
X777307Y830302D03*
D11*
X645307Y670302D03*
X665307Y670302D03*
X685307Y670302D03*
X705307Y670302D03*
X725307Y670302D03*
X745307Y670302D03*
M02*
