G04 EAGLE Gerber RS-274X export*
G75*
%MOMM*%
%FSLAX34Y34*%
%LPD*%
%IN*%
%IPPOS*%
%AMOC8*
5,1,8,0,0,1.08239X$1,22.5*%
G01*
%ADD10C,0.254000*%


D10*
X20000Y20000D02*
X90000Y20000D01*
X90000Y130000D01*
X20000Y130000D01*
X20000Y20000D01*
M02*
