G04 EAGLE Gerber RS-274X export*
G75*
%MOMM*%
%FSLAX34Y34*%
%LPD*%
%INSoldermask Top*%
%IPPOS*%
%AMOC8*
5,1,8,0,0,1.08239X$1,22.5*%
G01*
%ADD10R,0.635000X0.635000*%
%ADD11R,1.403200X1.403200*%


D10*
X51463Y110800D03*
X59337Y110800D03*
X51463Y32700D03*
X59337Y32700D03*
D11*
X39500Y60000D03*
X60500Y60000D03*
X39500Y90000D03*
X60500Y90000D03*
M02*
