G04 EAGLE Gerber RS-274X export*
G75*
%MOMM*%
%FSLAX34Y34*%
%LPD*%
%INBottom Copper*%
%IPPOS*%
%AMOC8*
5,1,8,0,0,1.08239X$1,22.5*%
G01*
%ADD10C,1.778000*%
%ADD11P,1.539592X8X292.500000*%
%ADD12R,1.524000X1.524000*%
%ADD13C,1.524000*%
%ADD14P,2.089446X8X22.500000*%
%ADD15P,1.649562X8X22.500000*%
%ADD16C,1.790700*%
%ADD17R,2.500000X2.000000*%
%ADD18C,0.482600*%
%ADD19C,0.756400*%


D10*
X104140Y378460D03*
X129540Y378460D03*
X154940Y378460D03*
X180340Y378460D03*
D11*
X274320Y203200D03*
X274320Y177800D03*
D12*
X168040Y337500D03*
X218040Y337500D03*
X116040Y43500D03*
X270040Y43500D03*
D13*
X231140Y132080D02*
X215900Y132080D01*
X215900Y106680D02*
X231140Y106680D01*
D14*
X147320Y299720D03*
X101600Y299720D03*
X302260Y15240D03*
X157480Y17780D03*
D15*
X218440Y294640D03*
D13*
X223520Y370840D02*
X223520Y386080D01*
X248920Y386080D02*
X248920Y370840D01*
X274320Y370840D02*
X274320Y386080D01*
D10*
X436880Y375920D03*
X436880Y350520D03*
X436880Y325120D03*
X436880Y299720D03*
D16*
X356934Y202000D02*
X339027Y202000D01*
X339027Y152000D02*
X356934Y152000D01*
X356934Y102000D02*
X339027Y102000D01*
X339027Y52000D02*
X356934Y52000D01*
D13*
X391160Y373380D02*
X406400Y373380D01*
X330200Y373380D02*
X314960Y373380D01*
X391160Y271780D02*
X406400Y271780D01*
X406400Y246380D02*
X391160Y246380D01*
X330200Y246380D02*
X314960Y246380D01*
X314960Y271780D02*
X330200Y271780D01*
D17*
X228600Y15240D03*
X198120Y15240D03*
X228600Y55880D03*
X198120Y55880D03*
D18*
X365125Y273050D02*
X396875Y273050D01*
X365125Y273050D02*
X279400Y358775D01*
X269875Y358775D01*
X268288Y360363D02*
X250825Y377825D01*
X268288Y360363D02*
X269875Y358775D01*
X396875Y273050D02*
X398780Y271780D01*
X250825Y377825D02*
X248920Y378460D01*
X180975Y377825D02*
X180975Y349250D01*
X260350Y352425D02*
X268288Y360363D01*
X180975Y377825D02*
X180340Y378460D01*
X273050Y57150D02*
X273050Y44450D01*
X273050Y57150D02*
X333375Y117475D01*
X352425Y117475D01*
X273050Y44450D02*
X270040Y43500D01*
D19*
X180975Y349250D03*
X260350Y352425D03*
X352425Y117475D03*
D18*
X228600Y85725D02*
X228600Y55880D01*
X228600Y85725D02*
X244475Y101600D01*
X244475Y111125D01*
X223520Y132080D01*
X238125Y212725D02*
X203200Y212725D01*
X238125Y212725D02*
X273050Y177800D01*
X274320Y177800D01*
X200025Y212725D02*
X123825Y288925D01*
X200025Y212725D02*
X203200Y212725D01*
D19*
X203200Y212725D03*
X123825Y288925D03*
D18*
X73025Y250825D02*
X158750Y165100D01*
X73025Y250825D02*
X38100Y285750D01*
X234950Y342900D02*
X244475Y342900D01*
X234950Y342900D02*
X228600Y349250D01*
X206375Y349250D01*
X190500Y333375D01*
X190500Y327025D01*
X177800Y314325D01*
X136525Y314325D01*
X73025Y250825D01*
D19*
X38100Y285750D03*
X158750Y165100D03*
X244475Y342900D03*
D18*
X215900Y336550D02*
X209550Y336550D01*
X176213Y303213D02*
X174625Y301625D01*
X176213Y303213D02*
X209550Y336550D01*
X174625Y301625D02*
X149225Y301625D01*
X215900Y336550D02*
X218040Y337500D01*
X149225Y301625D02*
X147320Y299720D01*
X323850Y222250D02*
X323850Y174625D01*
X323850Y222250D02*
X323850Y244475D01*
X323850Y174625D02*
X346075Y152400D01*
X323850Y244475D02*
X322580Y246380D01*
X346075Y152400D02*
X347980Y152000D01*
X177800Y244475D02*
X177800Y301625D01*
X177800Y244475D02*
X200025Y222250D01*
X323850Y222250D01*
X177800Y301625D02*
X176213Y303213D01*
X104775Y377825D02*
X19050Y292100D01*
X104775Y377825D02*
X104140Y378460D01*
D19*
X19050Y292100D03*
D18*
X53975Y288925D02*
X127000Y361950D01*
X127000Y377825D01*
X129540Y378460D01*
D19*
X53975Y288925D03*
D18*
X247650Y120650D02*
X247650Y117475D01*
X250825Y114300D01*
X250825Y38100D01*
X228600Y15875D01*
X228600Y15240D01*
D19*
X247650Y120650D03*
D18*
X146050Y79375D02*
X127000Y79375D01*
X146050Y79375D02*
X212725Y146050D01*
X311150Y146050D01*
X330200Y127000D01*
X352425Y127000D01*
X387350Y161925D01*
X387350Y212725D01*
D19*
X127000Y79375D03*
X387350Y212725D03*
D18*
X190500Y244475D02*
X190500Y285750D01*
X219075Y314325D01*
X314325Y314325D01*
X377825Y250825D01*
X377825Y241300D01*
X387350Y231775D01*
X409575Y231775D01*
X419100Y241300D01*
X419100Y307975D01*
X434975Y323850D01*
X436880Y325120D01*
D19*
X190500Y244475D03*
D18*
X184150Y142875D02*
X161925Y142875D01*
X184150Y142875D02*
X234950Y193675D01*
X241300Y193675D01*
X269875Y165100D01*
X279400Y165100D01*
X314325Y200025D01*
X365125Y317500D02*
X403225Y317500D01*
X434975Y349250D01*
X436880Y350520D01*
D19*
X161925Y142875D03*
X314325Y200025D03*
X365125Y317500D03*
D18*
X180975Y123825D02*
X161925Y123825D01*
X180975Y123825D02*
X209550Y152400D01*
X317500Y152400D01*
X333375Y136525D01*
D19*
X161925Y123825D03*
X333375Y136525D03*
D18*
X327025Y292100D02*
X238125Y292100D01*
X219075Y292100D01*
X327025Y292100D02*
X346075Y273050D01*
X346075Y203200D01*
X219075Y292100D02*
X218440Y294640D01*
X346075Y203200D02*
X347980Y202000D01*
X238125Y292100D02*
X238125Y304800D01*
D19*
X238125Y304800D03*
D18*
X69850Y320675D02*
X57150Y307975D01*
D19*
X69850Y320675D03*
X57150Y307975D03*
D18*
X60325Y279400D02*
X104775Y323850D01*
X177800Y323850D01*
X184150Y330200D01*
X184150Y339725D01*
X222250Y377825D01*
X223520Y378460D01*
D19*
X60325Y279400D03*
D18*
X85725Y111125D02*
X117475Y79375D01*
X117475Y76200D01*
X136525Y57150D01*
X196850Y57150D01*
X198120Y55880D01*
X200025Y53975D02*
X200025Y15875D01*
X198120Y15240D01*
X200025Y53975D02*
X198120Y55880D01*
D19*
X85725Y111125D03*
D18*
X231775Y244475D02*
X295275Y244475D01*
X307975Y231775D01*
X238125Y184150D02*
X215900Y161925D01*
D19*
X231775Y244475D03*
X307975Y231775D03*
X238125Y184150D03*
X215900Y161925D03*
M02*
