G04 EAGLE Gerber RS-274X export*
G75*
%MOMM*%
%FSLAX34Y34*%
%LPD*%
%INSolderpaste Top*%
%IPPOS*%
%AMOC8*
5,1,8,0,0,1.08239X$1,22.5*%
G01*
%ADD10R,0.950000X1.300000*%
%ADD11R,3.250000X1.300000*%
%ADD12C,0.198000*%
%ADD13R,4.000000X4.000000*%
%ADD14R,2.540000X1.270000*%
%ADD15R,1.930400X3.810000*%
%ADD16R,1.219200X1.879600*%
%ADD17R,1.200000X1.200000*%
%ADD18R,0.700000X1.500000*%
%ADD19R,1.000000X0.600000*%
%ADD20R,1.000000X0.800000*%


D10*
X609398Y475410D03*
X632298Y475410D03*
X655198Y475410D03*
D11*
X632298Y542410D03*
D12*
X555150Y674862D02*
X540130Y674862D01*
X555150Y674862D02*
X555150Y667842D01*
X540130Y667842D01*
X540130Y674862D01*
X540130Y669723D02*
X555150Y669723D01*
X555150Y671604D02*
X540130Y671604D01*
X540130Y673485D02*
X555150Y673485D01*
X555150Y662162D02*
X540130Y662162D01*
X555150Y662162D02*
X555150Y655142D01*
X540130Y655142D01*
X540130Y662162D01*
X540130Y657023D02*
X555150Y657023D01*
X555150Y658904D02*
X540130Y658904D01*
X540130Y660785D02*
X555150Y660785D01*
X555150Y649462D02*
X540130Y649462D01*
X555150Y649462D02*
X555150Y642442D01*
X540130Y642442D01*
X540130Y649462D01*
X540130Y644323D02*
X555150Y644323D01*
X555150Y646204D02*
X540130Y646204D01*
X540130Y648085D02*
X555150Y648085D01*
X555150Y636762D02*
X540130Y636762D01*
X555150Y636762D02*
X555150Y629742D01*
X540130Y629742D01*
X540130Y636762D01*
X540130Y631623D02*
X555150Y631623D01*
X555150Y633504D02*
X540130Y633504D01*
X540130Y635385D02*
X555150Y635385D01*
X555150Y624062D02*
X540130Y624062D01*
X555150Y624062D02*
X555150Y617042D01*
X540130Y617042D01*
X540130Y624062D01*
X540130Y618923D02*
X555150Y618923D01*
X555150Y620804D02*
X540130Y620804D01*
X540130Y622685D02*
X555150Y622685D01*
X555150Y611362D02*
X540130Y611362D01*
X555150Y611362D02*
X555150Y604342D01*
X540130Y604342D01*
X540130Y611362D01*
X540130Y606223D02*
X555150Y606223D01*
X555150Y608104D02*
X540130Y608104D01*
X540130Y609985D02*
X555150Y609985D01*
X555150Y598662D02*
X540130Y598662D01*
X555150Y598662D02*
X555150Y591642D01*
X540130Y591642D01*
X540130Y598662D01*
X540130Y593523D02*
X555150Y593523D01*
X555150Y595404D02*
X540130Y595404D01*
X540130Y597285D02*
X555150Y597285D01*
X555150Y585962D02*
X540130Y585962D01*
X555150Y585962D02*
X555150Y578942D01*
X540130Y578942D01*
X540130Y585962D01*
X540130Y580823D02*
X555150Y580823D01*
X555150Y582704D02*
X540130Y582704D01*
X540130Y584585D02*
X555150Y584585D01*
X555150Y573262D02*
X540130Y573262D01*
X555150Y573262D02*
X555150Y566242D01*
X540130Y566242D01*
X540130Y573262D01*
X540130Y568123D02*
X555150Y568123D01*
X555150Y570004D02*
X540130Y570004D01*
X540130Y571885D02*
X555150Y571885D01*
X555150Y560562D02*
X540130Y560562D01*
X555150Y560562D02*
X555150Y553542D01*
X540130Y553542D01*
X540130Y560562D01*
X540130Y555423D02*
X555150Y555423D01*
X555150Y557304D02*
X540130Y557304D01*
X540130Y559185D02*
X555150Y559185D01*
X555150Y547862D02*
X540130Y547862D01*
X555150Y547862D02*
X555150Y540842D01*
X540130Y540842D01*
X540130Y547862D01*
X540130Y542723D02*
X555150Y542723D01*
X555150Y544604D02*
X540130Y544604D01*
X540130Y546485D02*
X555150Y546485D01*
X555150Y535162D02*
X540130Y535162D01*
X555150Y535162D02*
X555150Y528142D01*
X540130Y528142D01*
X540130Y535162D01*
X540130Y530023D02*
X555150Y530023D01*
X555150Y531904D02*
X540130Y531904D01*
X540130Y533785D02*
X555150Y533785D01*
X555150Y522462D02*
X540130Y522462D01*
X555150Y522462D02*
X555150Y515442D01*
X540130Y515442D01*
X540130Y522462D01*
X540130Y517323D02*
X555150Y517323D01*
X555150Y519204D02*
X540130Y519204D01*
X540130Y521085D02*
X555150Y521085D01*
X555150Y509762D02*
X540130Y509762D01*
X555150Y509762D02*
X555150Y502742D01*
X540130Y502742D01*
X540130Y509762D01*
X540130Y504623D02*
X555150Y504623D01*
X555150Y506504D02*
X540130Y506504D01*
X540130Y508385D02*
X555150Y508385D01*
X518300Y498762D02*
X518300Y483742D01*
X511280Y483742D01*
X511280Y498762D01*
X518300Y498762D01*
X518300Y485623D02*
X511280Y485623D01*
X511280Y487504D02*
X518300Y487504D01*
X518300Y489385D02*
X511280Y489385D01*
X511280Y491266D02*
X518300Y491266D01*
X518300Y493147D02*
X511280Y493147D01*
X511280Y495028D02*
X518300Y495028D01*
X518300Y496909D02*
X511280Y496909D01*
X505600Y498762D02*
X505600Y483742D01*
X498580Y483742D01*
X498580Y498762D01*
X505600Y498762D01*
X505600Y485623D02*
X498580Y485623D01*
X498580Y487504D02*
X505600Y487504D01*
X505600Y489385D02*
X498580Y489385D01*
X498580Y491266D02*
X505600Y491266D01*
X505600Y493147D02*
X498580Y493147D01*
X498580Y495028D02*
X505600Y495028D01*
X505600Y496909D02*
X498580Y496909D01*
X492900Y498762D02*
X492900Y483742D01*
X485880Y483742D01*
X485880Y498762D01*
X492900Y498762D01*
X492900Y485623D02*
X485880Y485623D01*
X485880Y487504D02*
X492900Y487504D01*
X492900Y489385D02*
X485880Y489385D01*
X485880Y491266D02*
X492900Y491266D01*
X492900Y493147D02*
X485880Y493147D01*
X485880Y495028D02*
X492900Y495028D01*
X492900Y496909D02*
X485880Y496909D01*
X480200Y498762D02*
X480200Y483742D01*
X473180Y483742D01*
X473180Y498762D01*
X480200Y498762D01*
X480200Y485623D02*
X473180Y485623D01*
X473180Y487504D02*
X480200Y487504D01*
X480200Y489385D02*
X473180Y489385D01*
X473180Y491266D02*
X480200Y491266D01*
X480200Y493147D02*
X473180Y493147D01*
X473180Y495028D02*
X480200Y495028D01*
X480200Y496909D02*
X473180Y496909D01*
X467500Y498762D02*
X467500Y483742D01*
X460480Y483742D01*
X460480Y498762D01*
X467500Y498762D01*
X467500Y485623D02*
X460480Y485623D01*
X460480Y487504D02*
X467500Y487504D01*
X467500Y489385D02*
X460480Y489385D01*
X460480Y491266D02*
X467500Y491266D01*
X467500Y493147D02*
X460480Y493147D01*
X460480Y495028D02*
X467500Y495028D01*
X467500Y496909D02*
X460480Y496909D01*
X454800Y498762D02*
X454800Y483742D01*
X447780Y483742D01*
X447780Y498762D01*
X454800Y498762D01*
X454800Y485623D02*
X447780Y485623D01*
X447780Y487504D02*
X454800Y487504D01*
X454800Y489385D02*
X447780Y489385D01*
X447780Y491266D02*
X454800Y491266D01*
X454800Y493147D02*
X447780Y493147D01*
X447780Y495028D02*
X454800Y495028D01*
X454800Y496909D02*
X447780Y496909D01*
X442100Y498762D02*
X442100Y483742D01*
X435080Y483742D01*
X435080Y498762D01*
X442100Y498762D01*
X442100Y485623D02*
X435080Y485623D01*
X435080Y487504D02*
X442100Y487504D01*
X442100Y489385D02*
X435080Y489385D01*
X435080Y491266D02*
X442100Y491266D01*
X442100Y493147D02*
X435080Y493147D01*
X435080Y495028D02*
X442100Y495028D01*
X442100Y496909D02*
X435080Y496909D01*
X429400Y498762D02*
X429400Y483742D01*
X422380Y483742D01*
X422380Y498762D01*
X429400Y498762D01*
X429400Y485623D02*
X422380Y485623D01*
X422380Y487504D02*
X429400Y487504D01*
X429400Y489385D02*
X422380Y489385D01*
X422380Y491266D02*
X429400Y491266D01*
X429400Y493147D02*
X422380Y493147D01*
X422380Y495028D02*
X429400Y495028D01*
X429400Y496909D02*
X422380Y496909D01*
X416700Y498762D02*
X416700Y483742D01*
X409680Y483742D01*
X409680Y498762D01*
X416700Y498762D01*
X416700Y485623D02*
X409680Y485623D01*
X409680Y487504D02*
X416700Y487504D01*
X416700Y489385D02*
X409680Y489385D01*
X409680Y491266D02*
X416700Y491266D01*
X416700Y493147D02*
X409680Y493147D01*
X409680Y495028D02*
X416700Y495028D01*
X416700Y496909D02*
X409680Y496909D01*
X404000Y498762D02*
X404000Y483742D01*
X396980Y483742D01*
X396980Y498762D01*
X404000Y498762D01*
X404000Y485623D02*
X396980Y485623D01*
X396980Y487504D02*
X404000Y487504D01*
X404000Y489385D02*
X396980Y489385D01*
X396980Y491266D02*
X404000Y491266D01*
X404000Y493147D02*
X396980Y493147D01*
X396980Y495028D02*
X404000Y495028D01*
X404000Y496909D02*
X396980Y496909D01*
X375150Y502742D02*
X360130Y502742D01*
X360130Y509762D01*
X375150Y509762D01*
X375150Y502742D01*
X375150Y504623D02*
X360130Y504623D01*
X360130Y506504D02*
X375150Y506504D01*
X375150Y508385D02*
X360130Y508385D01*
X360130Y515442D02*
X375150Y515442D01*
X360130Y515442D02*
X360130Y522462D01*
X375150Y522462D01*
X375150Y515442D01*
X375150Y517323D02*
X360130Y517323D01*
X360130Y519204D02*
X375150Y519204D01*
X375150Y521085D02*
X360130Y521085D01*
X360130Y528142D02*
X375150Y528142D01*
X360130Y528142D02*
X360130Y535162D01*
X375150Y535162D01*
X375150Y528142D01*
X375150Y530023D02*
X360130Y530023D01*
X360130Y531904D02*
X375150Y531904D01*
X375150Y533785D02*
X360130Y533785D01*
X360130Y540842D02*
X375150Y540842D01*
X360130Y540842D02*
X360130Y547862D01*
X375150Y547862D01*
X375150Y540842D01*
X375150Y542723D02*
X360130Y542723D01*
X360130Y544604D02*
X375150Y544604D01*
X375150Y546485D02*
X360130Y546485D01*
X360130Y553542D02*
X375150Y553542D01*
X360130Y553542D02*
X360130Y560562D01*
X375150Y560562D01*
X375150Y553542D01*
X375150Y555423D02*
X360130Y555423D01*
X360130Y557304D02*
X375150Y557304D01*
X375150Y559185D02*
X360130Y559185D01*
X360130Y566242D02*
X375150Y566242D01*
X360130Y566242D02*
X360130Y573262D01*
X375150Y573262D01*
X375150Y566242D01*
X375150Y568123D02*
X360130Y568123D01*
X360130Y570004D02*
X375150Y570004D01*
X375150Y571885D02*
X360130Y571885D01*
X360130Y578942D02*
X375150Y578942D01*
X360130Y578942D02*
X360130Y585962D01*
X375150Y585962D01*
X375150Y578942D01*
X375150Y580823D02*
X360130Y580823D01*
X360130Y582704D02*
X375150Y582704D01*
X375150Y584585D02*
X360130Y584585D01*
X360130Y591642D02*
X375150Y591642D01*
X360130Y591642D02*
X360130Y598662D01*
X375150Y598662D01*
X375150Y591642D01*
X375150Y593523D02*
X360130Y593523D01*
X360130Y595404D02*
X375150Y595404D01*
X375150Y597285D02*
X360130Y597285D01*
X360130Y604342D02*
X375150Y604342D01*
X360130Y604342D02*
X360130Y611362D01*
X375150Y611362D01*
X375150Y604342D01*
X375150Y606223D02*
X360130Y606223D01*
X360130Y608104D02*
X375150Y608104D01*
X375150Y609985D02*
X360130Y609985D01*
X360130Y617042D02*
X375150Y617042D01*
X360130Y617042D02*
X360130Y624062D01*
X375150Y624062D01*
X375150Y617042D01*
X375150Y618923D02*
X360130Y618923D01*
X360130Y620804D02*
X375150Y620804D01*
X375150Y622685D02*
X360130Y622685D01*
X360130Y629742D02*
X375150Y629742D01*
X360130Y629742D02*
X360130Y636762D01*
X375150Y636762D01*
X375150Y629742D01*
X375150Y631623D02*
X360130Y631623D01*
X360130Y633504D02*
X375150Y633504D01*
X375150Y635385D02*
X360130Y635385D01*
X360130Y642442D02*
X375150Y642442D01*
X360130Y642442D02*
X360130Y649462D01*
X375150Y649462D01*
X375150Y642442D01*
X375150Y644323D02*
X360130Y644323D01*
X360130Y646204D02*
X375150Y646204D01*
X375150Y648085D02*
X360130Y648085D01*
X360130Y655142D02*
X375150Y655142D01*
X360130Y655142D02*
X360130Y662162D01*
X375150Y662162D01*
X375150Y655142D01*
X375150Y657023D02*
X360130Y657023D01*
X360130Y658904D02*
X375150Y658904D01*
X375150Y660785D02*
X360130Y660785D01*
X360130Y667842D02*
X375150Y667842D01*
X360130Y667842D02*
X360130Y674862D01*
X375150Y674862D01*
X375150Y667842D01*
X375150Y669723D02*
X360130Y669723D01*
X360130Y671604D02*
X375150Y671604D01*
X375150Y673485D02*
X360130Y673485D01*
D13*
X450640Y597252D03*
D14*
X61096Y185146D03*
X61096Y165146D03*
X61096Y135146D03*
X231096Y185146D03*
X231096Y165146D03*
X231096Y135146D03*
D15*
X121096Y190146D03*
X166096Y190146D03*
X121096Y145146D03*
X166096Y145146D03*
D14*
X621096Y185146D03*
X621096Y165146D03*
X621096Y135146D03*
X791096Y185146D03*
X791096Y165146D03*
X791096Y135146D03*
D15*
X681096Y190146D03*
X726096Y190146D03*
X681096Y145146D03*
X726096Y145146D03*
D16*
X404586Y335146D03*
X437606Y335146D03*
D17*
X836096Y845646D03*
X836096Y824646D03*
X426096Y270646D03*
X426096Y249646D03*
D18*
X153596Y642646D03*
X168596Y642646D03*
X198596Y642646D03*
D19*
X139596Y670146D03*
D20*
X139596Y649146D03*
D19*
X212596Y670146D03*
D20*
X212596Y649146D03*
M02*
