G04 EAGLE Gerber RS-274X export*
G75*
%MOMM*%
%FSLAX34Y34*%
%LPD*%
%INSoldermask Top*%
%IPPOS*%
%AMOC8*
5,1,8,0,0,1.08239X$1,22.5*%
G01*
%ADD10R,1.153200X1.503200*%
%ADD11R,3.453200X1.503200*%
%ADD12C,0.397150*%
%ADD13R,4.203200X4.203200*%
%ADD14C,1.727200*%
%ADD15C,1.711200*%
%ADD16R,2.743200X1.473200*%
%ADD17R,2.133600X4.013200*%
%ADD18C,2.703200*%
%ADD19R,1.711200X1.711200*%
%ADD20R,3.419200X3.419200*%
%ADD21R,1.611200X1.611200*%
%ADD22C,1.203200*%
%ADD23R,1.422400X2.082800*%
%ADD24R,1.403200X1.403200*%
%ADD25R,3.203200X3.203200*%
%ADD26C,3.203200*%
%ADD27R,2.703200X2.703200*%
%ADD28R,0.903200X1.703200*%
%ADD29R,1.203200X0.803200*%
%ADD30R,1.203200X1.003200*%
%ADD31C,1.103200*%
%ADD32R,1.311200X1.311200*%
%ADD33R,3.919200X3.919200*%
%ADD34C,1.703200*%
%ADD35R,1.711200X1.711200*%
%ADD36C,0.959600*%


D10*
X609398Y475410D03*
X632298Y475410D03*
X655198Y475410D03*
D11*
X632298Y542410D03*
D12*
X555170Y674882D02*
X540110Y674882D01*
X555170Y674882D02*
X555170Y667822D01*
X540110Y667822D01*
X540110Y674882D01*
X540110Y671595D02*
X555170Y671595D01*
X555170Y662182D02*
X540110Y662182D01*
X555170Y662182D02*
X555170Y655122D01*
X540110Y655122D01*
X540110Y662182D01*
X540110Y658895D02*
X555170Y658895D01*
X555170Y649482D02*
X540110Y649482D01*
X555170Y649482D02*
X555170Y642422D01*
X540110Y642422D01*
X540110Y649482D01*
X540110Y646195D02*
X555170Y646195D01*
X555170Y636782D02*
X540110Y636782D01*
X555170Y636782D02*
X555170Y629722D01*
X540110Y629722D01*
X540110Y636782D01*
X540110Y633495D02*
X555170Y633495D01*
X555170Y624082D02*
X540110Y624082D01*
X555170Y624082D02*
X555170Y617022D01*
X540110Y617022D01*
X540110Y624082D01*
X540110Y620795D02*
X555170Y620795D01*
X555170Y611382D02*
X540110Y611382D01*
X555170Y611382D02*
X555170Y604322D01*
X540110Y604322D01*
X540110Y611382D01*
X540110Y608095D02*
X555170Y608095D01*
X555170Y598682D02*
X540110Y598682D01*
X555170Y598682D02*
X555170Y591622D01*
X540110Y591622D01*
X540110Y598682D01*
X540110Y595395D02*
X555170Y595395D01*
X555170Y585982D02*
X540110Y585982D01*
X555170Y585982D02*
X555170Y578922D01*
X540110Y578922D01*
X540110Y585982D01*
X540110Y582695D02*
X555170Y582695D01*
X555170Y573282D02*
X540110Y573282D01*
X555170Y573282D02*
X555170Y566222D01*
X540110Y566222D01*
X540110Y573282D01*
X540110Y569995D02*
X555170Y569995D01*
X555170Y560582D02*
X540110Y560582D01*
X555170Y560582D02*
X555170Y553522D01*
X540110Y553522D01*
X540110Y560582D01*
X540110Y557295D02*
X555170Y557295D01*
X555170Y547882D02*
X540110Y547882D01*
X555170Y547882D02*
X555170Y540822D01*
X540110Y540822D01*
X540110Y547882D01*
X540110Y544595D02*
X555170Y544595D01*
X555170Y535182D02*
X540110Y535182D01*
X555170Y535182D02*
X555170Y528122D01*
X540110Y528122D01*
X540110Y535182D01*
X540110Y531895D02*
X555170Y531895D01*
X555170Y522482D02*
X540110Y522482D01*
X555170Y522482D02*
X555170Y515422D01*
X540110Y515422D01*
X540110Y522482D01*
X540110Y519195D02*
X555170Y519195D01*
X555170Y509782D02*
X540110Y509782D01*
X555170Y509782D02*
X555170Y502722D01*
X540110Y502722D01*
X540110Y509782D01*
X540110Y506495D02*
X555170Y506495D01*
X518320Y498782D02*
X518320Y483722D01*
X511260Y483722D01*
X511260Y498782D01*
X518320Y498782D01*
X518320Y487495D02*
X511260Y487495D01*
X511260Y491268D02*
X518320Y491268D01*
X518320Y495041D02*
X511260Y495041D01*
X505620Y498782D02*
X505620Y483722D01*
X498560Y483722D01*
X498560Y498782D01*
X505620Y498782D01*
X505620Y487495D02*
X498560Y487495D01*
X498560Y491268D02*
X505620Y491268D01*
X505620Y495041D02*
X498560Y495041D01*
X492920Y498782D02*
X492920Y483722D01*
X485860Y483722D01*
X485860Y498782D01*
X492920Y498782D01*
X492920Y487495D02*
X485860Y487495D01*
X485860Y491268D02*
X492920Y491268D01*
X492920Y495041D02*
X485860Y495041D01*
X480220Y498782D02*
X480220Y483722D01*
X473160Y483722D01*
X473160Y498782D01*
X480220Y498782D01*
X480220Y487495D02*
X473160Y487495D01*
X473160Y491268D02*
X480220Y491268D01*
X480220Y495041D02*
X473160Y495041D01*
X467520Y498782D02*
X467520Y483722D01*
X460460Y483722D01*
X460460Y498782D01*
X467520Y498782D01*
X467520Y487495D02*
X460460Y487495D01*
X460460Y491268D02*
X467520Y491268D01*
X467520Y495041D02*
X460460Y495041D01*
X454820Y498782D02*
X454820Y483722D01*
X447760Y483722D01*
X447760Y498782D01*
X454820Y498782D01*
X454820Y487495D02*
X447760Y487495D01*
X447760Y491268D02*
X454820Y491268D01*
X454820Y495041D02*
X447760Y495041D01*
X442120Y498782D02*
X442120Y483722D01*
X435060Y483722D01*
X435060Y498782D01*
X442120Y498782D01*
X442120Y487495D02*
X435060Y487495D01*
X435060Y491268D02*
X442120Y491268D01*
X442120Y495041D02*
X435060Y495041D01*
X429420Y498782D02*
X429420Y483722D01*
X422360Y483722D01*
X422360Y498782D01*
X429420Y498782D01*
X429420Y487495D02*
X422360Y487495D01*
X422360Y491268D02*
X429420Y491268D01*
X429420Y495041D02*
X422360Y495041D01*
X416720Y498782D02*
X416720Y483722D01*
X409660Y483722D01*
X409660Y498782D01*
X416720Y498782D01*
X416720Y487495D02*
X409660Y487495D01*
X409660Y491268D02*
X416720Y491268D01*
X416720Y495041D02*
X409660Y495041D01*
X404020Y498782D02*
X404020Y483722D01*
X396960Y483722D01*
X396960Y498782D01*
X404020Y498782D01*
X404020Y487495D02*
X396960Y487495D01*
X396960Y491268D02*
X404020Y491268D01*
X404020Y495041D02*
X396960Y495041D01*
X375170Y502722D02*
X360110Y502722D01*
X360110Y509782D01*
X375170Y509782D01*
X375170Y502722D01*
X375170Y506495D02*
X360110Y506495D01*
X360110Y515422D02*
X375170Y515422D01*
X360110Y515422D02*
X360110Y522482D01*
X375170Y522482D01*
X375170Y515422D01*
X375170Y519195D02*
X360110Y519195D01*
X360110Y528122D02*
X375170Y528122D01*
X360110Y528122D02*
X360110Y535182D01*
X375170Y535182D01*
X375170Y528122D01*
X375170Y531895D02*
X360110Y531895D01*
X360110Y540822D02*
X375170Y540822D01*
X360110Y540822D02*
X360110Y547882D01*
X375170Y547882D01*
X375170Y540822D01*
X375170Y544595D02*
X360110Y544595D01*
X360110Y553522D02*
X375170Y553522D01*
X360110Y553522D02*
X360110Y560582D01*
X375170Y560582D01*
X375170Y553522D01*
X375170Y557295D02*
X360110Y557295D01*
X360110Y566222D02*
X375170Y566222D01*
X360110Y566222D02*
X360110Y573282D01*
X375170Y573282D01*
X375170Y566222D01*
X375170Y569995D02*
X360110Y569995D01*
X360110Y578922D02*
X375170Y578922D01*
X360110Y578922D02*
X360110Y585982D01*
X375170Y585982D01*
X375170Y578922D01*
X375170Y582695D02*
X360110Y582695D01*
X360110Y591622D02*
X375170Y591622D01*
X360110Y591622D02*
X360110Y598682D01*
X375170Y598682D01*
X375170Y591622D01*
X375170Y595395D02*
X360110Y595395D01*
X360110Y604322D02*
X375170Y604322D01*
X360110Y604322D02*
X360110Y611382D01*
X375170Y611382D01*
X375170Y604322D01*
X375170Y608095D02*
X360110Y608095D01*
X360110Y617022D02*
X375170Y617022D01*
X360110Y617022D02*
X360110Y624082D01*
X375170Y624082D01*
X375170Y617022D01*
X375170Y620795D02*
X360110Y620795D01*
X360110Y629722D02*
X375170Y629722D01*
X360110Y629722D02*
X360110Y636782D01*
X375170Y636782D01*
X375170Y629722D01*
X375170Y633495D02*
X360110Y633495D01*
X360110Y642422D02*
X375170Y642422D01*
X360110Y642422D02*
X360110Y649482D01*
X375170Y649482D01*
X375170Y642422D01*
X375170Y646195D02*
X360110Y646195D01*
X360110Y655122D02*
X375170Y655122D01*
X360110Y655122D02*
X360110Y662182D01*
X375170Y662182D01*
X375170Y655122D01*
X375170Y658895D02*
X360110Y658895D01*
X360110Y667822D02*
X375170Y667822D01*
X360110Y667822D02*
X360110Y674882D01*
X375170Y674882D01*
X375170Y667822D01*
X375170Y671595D02*
X360110Y671595D01*
D13*
X450640Y597252D03*
D14*
X799638Y617828D02*
X814878Y617828D01*
X814878Y592428D02*
X799638Y592428D01*
X799638Y567028D02*
X814878Y567028D01*
X814878Y541628D02*
X799638Y541628D01*
X799638Y516228D02*
X814878Y516228D01*
X814878Y490828D02*
X799638Y490828D01*
X799638Y465428D02*
X814878Y465428D01*
X814878Y440028D02*
X799638Y440028D01*
X799638Y414628D02*
X814878Y414628D01*
X814878Y389228D02*
X799638Y389228D01*
X799638Y363828D02*
X814878Y363828D01*
X814878Y338428D02*
X799638Y338428D01*
D15*
X371296Y64286D02*
X371296Y49206D01*
X396696Y49206D02*
X396696Y64286D01*
X422096Y64286D02*
X422096Y49206D01*
X447496Y49206D02*
X447496Y64286D01*
X472896Y64286D02*
X472896Y49206D01*
D16*
X61096Y185146D03*
X61096Y165146D03*
X61096Y135146D03*
X231096Y185146D03*
X231096Y165146D03*
X231096Y135146D03*
D17*
X121096Y190146D03*
X166096Y190146D03*
X121096Y145146D03*
X166096Y145146D03*
D18*
X95296Y152446D03*
X196896Y152446D03*
D16*
X621096Y185146D03*
X621096Y165146D03*
X621096Y135146D03*
X791096Y185146D03*
X791096Y165146D03*
X791096Y135146D03*
D17*
X681096Y190146D03*
X726096Y190146D03*
X681096Y145146D03*
X726096Y145146D03*
D18*
X655296Y152446D03*
X756896Y152446D03*
D19*
X745096Y714146D03*
X770096Y714146D03*
X795096Y714146D03*
X745096Y859146D03*
X795096Y859146D03*
D20*
X709096Y789146D03*
X831096Y789146D03*
D21*
X341096Y130146D03*
X341096Y155146D03*
X341096Y180146D03*
X341096Y205146D03*
X331096Y235146D03*
X356096Y235146D03*
D22*
X341096Y110146D03*
D18*
X501096Y215146D03*
X501096Y140146D03*
D23*
X404586Y335146D03*
X437606Y335146D03*
D24*
X836096Y845646D03*
X836096Y824646D03*
X426096Y270646D03*
X426096Y249646D03*
D25*
X746296Y405146D03*
D26*
X85896Y405146D03*
D27*
X30446Y460296D03*
X30446Y599996D03*
X259046Y492046D03*
X259046Y568246D03*
X259046Y460296D03*
X259046Y599996D03*
D28*
X153596Y642646D03*
X168596Y642646D03*
X198596Y642646D03*
D29*
X139596Y670146D03*
D30*
X139596Y649146D03*
D29*
X212596Y670146D03*
D30*
X212596Y649146D03*
D31*
X161096Y660146D03*
X191096Y660146D03*
D32*
G36*
X575071Y101454D02*
X564384Y93859D01*
X556789Y104546D01*
X567476Y112141D01*
X575071Y101454D01*
G37*
G36*
X589785Y80750D02*
X579098Y73155D01*
X571503Y83842D01*
X582190Y91437D01*
X589785Y80750D01*
G37*
G36*
X604499Y60046D02*
X593812Y52451D01*
X586217Y63138D01*
X596904Y70733D01*
X604499Y60046D01*
G37*
D33*
G36*
X637552Y294988D02*
X605607Y272285D01*
X582904Y304230D01*
X614849Y326933D01*
X637552Y294988D01*
G37*
G36*
X822922Y34147D02*
X790977Y11444D01*
X768274Y43389D01*
X800219Y66092D01*
X822922Y34147D01*
G37*
D34*
X605098Y99674D03*
X808880Y244495D03*
D32*
G36*
X34401Y74939D02*
X25309Y65493D01*
X15863Y74585D01*
X24955Y84031D01*
X34401Y74939D01*
G37*
G36*
X52703Y57327D02*
X43611Y47881D01*
X34165Y56973D01*
X43257Y66419D01*
X52703Y57327D01*
G37*
G36*
X71005Y39715D02*
X61913Y30269D01*
X52467Y39361D01*
X61559Y48807D01*
X71005Y39715D01*
G37*
D33*
G36*
X59863Y276709D02*
X32688Y248470D01*
X4449Y275645D01*
X31624Y303884D01*
X59863Y276709D01*
G37*
G36*
X290439Y54820D02*
X263264Y26581D01*
X235025Y53756D01*
X262200Y81995D01*
X290439Y54820D01*
G37*
D34*
X64236Y78767D03*
X237587Y258904D03*
D35*
G36*
X219809Y65568D02*
X232241Y53810D01*
X220483Y41378D01*
X208051Y53136D01*
X219809Y65568D01*
G37*
G36*
X237261Y84023D02*
X249693Y72265D01*
X237935Y59833D01*
X225503Y71591D01*
X237261Y84023D01*
G37*
G36*
X254713Y102478D02*
X267145Y90720D01*
X255387Y78288D01*
X242955Y90046D01*
X254713Y102478D01*
G37*
G36*
X26398Y152126D02*
X38830Y140368D01*
X27072Y127936D01*
X14640Y139694D01*
X26398Y152126D01*
G37*
G36*
X163816Y297441D02*
X176248Y285683D01*
X164490Y273251D01*
X152058Y285009D01*
X163816Y297441D01*
G37*
D34*
X221884Y244515D03*
X70724Y84669D03*
D19*
X576374Y194592D03*
X576374Y169192D03*
X576374Y143792D03*
X776374Y264592D03*
X776374Y64592D03*
D34*
X706374Y54592D03*
X706374Y274592D03*
D36*
X679196Y641096D03*
X425196Y590296D03*
X431546Y469646D03*
X628396Y507746D03*
X533146Y660146D03*
X615696Y590296D03*
X698246Y190246D03*
X234696Y152146D03*
X196596Y190246D03*
X742696Y533146D03*
X768096Y507746D03*
X742696Y577596D03*
X742696Y564896D03*
X533146Y558546D03*
X622046Y361696D03*
X507746Y647446D03*
X653796Y348996D03*
X387096Y545846D03*
X406146Y374396D03*
X533146Y501396D03*
X552196Y56896D03*
X418846Y456946D03*
X545846Y456946D03*
X533146Y634746D03*
X533146Y622046D03*
X533146Y609346D03*
X710946Y133096D03*
X145796Y164846D03*
X228346Y298196D03*
X495046Y298196D03*
X609346Y641096D03*
X710946Y171196D03*
X145796Y152146D03*
X272796Y329946D03*
X666496Y387096D03*
X533146Y514096D03*
X602996Y177546D03*
X660146Y107696D03*
X298196Y456946D03*
X634746Y101346D03*
X82296Y183896D03*
X253746Y171196D03*
X215646Y215646D03*
X577596Y488696D03*
X577596Y241046D03*
X107696Y120396D03*
X564896Y507746D03*
X285496Y133096D03*
X323596Y88646D03*
X310896Y558546D03*
X323596Y558546D03*
X533146Y571246D03*
X583946Y596646D03*
X507746Y558546D03*
X564896Y615696D03*
X742696Y615696D03*
X679196Y444246D03*
X329946Y545846D03*
X691896Y698246D03*
X691896Y545846D03*
X412496Y272796D03*
X380746Y495046D03*
X812546Y825246D03*
X698246Y323596D03*
M02*
