G04 EAGLE Gerber RS-274X export*
G75*
%MOMM*%
%FSLAX34Y34*%
%LPD*%
%INSolderpaste Bottom*%
%IPPOS*%
%AMOC8*
5,1,8,0,0,1.08239X$1,22.5*%
G01*
%ADD10R,2.300000X1.600000*%
%ADD11R,1.219200X1.879600*%
%ADD12R,1.600000X2.300000*%


D10*
X655292Y629590D03*
X592292Y629590D03*
D11*
X603482Y589590D03*
X636502Y589590D03*
D12*
X319814Y596478D03*
X319814Y659478D03*
M02*
