G04 EAGLE Gerber RS-274X export*
G75*
%MOMM*%
%FSLAX34Y34*%
%LPD*%
%INTop Copper*%
%IPPOS*%
%AMOC8*
5,1,8,0,0,1.08239X$1,22.5*%
G01*
%ADD10R,1.800000X1.400000*%
%ADD11R,2.300000X1.600000*%
%ADD12R,1.400000X1.800000*%
%ADD13R,1.000000X1.400000*%
%ADD14R,1.930400X1.930400*%
%ADD15C,1.930400*%
%ADD16R,2.000000X1.200000*%
%ADD17R,1.300000X0.950000*%
%ADD18R,1.300000X3.250000*%
%ADD19C,2.000000*%
%ADD20R,2.000000X2.000000*%
%ADD21P,1.429621X8X202.500000*%
%ADD22C,1.981200*%
%ADD23C,1.790700*%
%ADD24C,1.524000*%
%ADD25R,2.400000X1.350000*%
%ADD26R,1.550000X2.100000*%
%ADD27R,2.100000X1.550000*%
%ADD28R,3.500000X1.600000*%
%ADD29P,1.429621X8X22.500000*%
%ADD30R,0.965200X1.524000*%
%ADD31P,1.429621X8X108.600000*%
%ADD32P,1.429621X8X348.500000*%
%ADD33P,1.429621X8X72.000000*%
%ADD34P,1.429621X8X117.800000*%
%ADD35P,1.429621X8X351.500000*%
%ADD36P,1.429621X8X60.700000*%
%ADD37R,1.500000X1.500000*%
%ADD38R,1.270000X0.635000*%
%ADD39R,1.219200X1.879600*%
%ADD40R,0.700000X1.500000*%
%ADD41R,1.000000X0.600000*%
%ADD42R,1.000000X0.800000*%
%ADD43C,0.254000*%
%ADD44C,0.756400*%


D10*
X274800Y602100D03*
X274800Y636100D03*
D11*
G36*
X70922Y227648D02*
X61202Y248492D01*
X75702Y255254D01*
X85422Y234410D01*
X70922Y227648D01*
G37*
G36*
X44298Y284746D02*
X34578Y305590D01*
X49078Y312352D01*
X58798Y291508D01*
X44298Y284746D01*
G37*
D12*
G36*
X313341Y268263D02*
X322451Y257634D01*
X308785Y245921D01*
X299675Y256550D01*
X313341Y268263D01*
G37*
G36*
X291215Y294079D02*
X300325Y283450D01*
X286659Y271737D01*
X277549Y282366D01*
X291215Y294079D01*
G37*
D13*
X371646Y264142D03*
X381146Y242142D03*
X362146Y242142D03*
D14*
G36*
X727306Y295776D02*
X745805Y290261D01*
X740290Y271762D01*
X721791Y277277D01*
X727306Y295776D01*
G37*
D15*
X741054Y308110D03*
X748310Y332451D03*
D12*
X352106Y208730D03*
X386106Y208730D03*
D16*
G36*
X289254Y190945D02*
X302842Y176272D01*
X294038Y168119D01*
X280450Y182792D01*
X289254Y190945D01*
G37*
G36*
X274579Y177356D02*
X288167Y162683D01*
X279363Y154530D01*
X265775Y169203D01*
X274579Y177356D01*
G37*
G36*
X259905Y163768D02*
X273493Y149095D01*
X264689Y140942D01*
X251101Y155615D01*
X259905Y163768D01*
G37*
G36*
X245230Y150179D02*
X258818Y135506D01*
X250014Y127353D01*
X236426Y142026D01*
X245230Y150179D01*
G37*
G36*
X230555Y136590D02*
X244143Y121917D01*
X235339Y113764D01*
X221751Y128437D01*
X230555Y136590D01*
G37*
G36*
X215881Y123001D02*
X229469Y108328D01*
X220665Y100175D01*
X207077Y114848D01*
X215881Y123001D01*
G37*
G36*
X201206Y109412D02*
X214794Y94739D01*
X205990Y86586D01*
X192402Y101259D01*
X201206Y109412D01*
G37*
G36*
X186532Y95823D02*
X200120Y81150D01*
X191316Y72997D01*
X177728Y87670D01*
X186532Y95823D01*
G37*
G36*
X179184Y309809D02*
X192772Y295136D01*
X183968Y286983D01*
X170380Y301656D01*
X179184Y309809D01*
G37*
G36*
X164510Y296221D02*
X178098Y281548D01*
X169294Y273395D01*
X155706Y288068D01*
X164510Y296221D01*
G37*
G36*
X149835Y282632D02*
X163423Y267959D01*
X154619Y259806D01*
X141031Y274479D01*
X149835Y282632D01*
G37*
G36*
X135161Y269043D02*
X148749Y254370D01*
X139945Y246217D01*
X126357Y260890D01*
X135161Y269043D01*
G37*
G36*
X120486Y255454D02*
X134074Y240781D01*
X125270Y232628D01*
X111682Y247301D01*
X120486Y255454D01*
G37*
G36*
X105811Y241865D02*
X119399Y227192D01*
X110595Y219039D01*
X97007Y233712D01*
X105811Y241865D01*
G37*
G36*
X91137Y228276D02*
X104725Y213603D01*
X95921Y205450D01*
X82333Y220123D01*
X91137Y228276D01*
G37*
G36*
X76462Y214688D02*
X90050Y200015D01*
X81246Y191862D01*
X67658Y206535D01*
X76462Y214688D01*
G37*
G36*
X220169Y271439D02*
X234842Y285027D01*
X242995Y276223D01*
X228322Y262635D01*
X220169Y271439D01*
G37*
G36*
X274524Y212741D02*
X289197Y226329D01*
X297350Y217525D01*
X282677Y203937D01*
X274524Y212741D01*
G37*
G36*
X260935Y227416D02*
X275608Y241004D01*
X283761Y232200D01*
X269088Y218612D01*
X260935Y227416D01*
G37*
G36*
X206580Y286114D02*
X221253Y299702D01*
X229406Y290898D01*
X214733Y277310D01*
X206580Y286114D01*
G37*
G36*
X247346Y242090D02*
X262019Y255678D01*
X270172Y246874D01*
X255499Y233286D01*
X247346Y242090D01*
G37*
G36*
X233758Y256765D02*
X248431Y270353D01*
X256584Y261549D01*
X241911Y247961D01*
X233758Y256765D01*
G37*
D17*
X336500Y172900D03*
X336500Y150000D03*
X336500Y127100D03*
D18*
X403500Y150000D03*
D19*
X477290Y626040D03*
D20*
X477290Y493960D03*
D19*
X662710Y626040D03*
X477290Y600640D03*
X662710Y600640D03*
D20*
X477290Y519360D03*
X662710Y493960D03*
X662710Y519360D03*
D21*
X330046Y722700D03*
X279246Y722700D03*
D22*
X270094Y460000D02*
X289906Y460000D01*
X510094Y390000D02*
X529906Y390000D01*
X269906Y390000D02*
X250094Y390000D01*
X500094Y330000D02*
X519906Y330000D01*
X519906Y450000D02*
X500094Y450000D01*
X279906Y330000D02*
X260094Y330000D01*
X579078Y432540D02*
X598890Y432540D01*
X600922Y324506D02*
X581110Y324506D01*
D23*
X319200Y504697D02*
X319200Y522604D01*
X370000Y522604D02*
X370000Y504697D01*
X420800Y504697D02*
X420800Y522604D01*
D24*
X86464Y564341D02*
X74104Y573255D01*
X88962Y593856D02*
X101322Y584942D01*
X116180Y605543D02*
X103820Y614457D01*
X118678Y635058D02*
X131038Y626144D01*
X145896Y646745D02*
X133536Y655659D01*
D25*
X330618Y644470D03*
X330618Y593470D03*
X418118Y593470D03*
X418118Y644470D03*
D26*
X135866Y465254D03*
X161766Y465254D03*
X161766Y554754D03*
X135866Y554754D03*
D27*
X553230Y244832D03*
X553230Y270732D03*
X463730Y270732D03*
X463730Y244832D03*
D26*
X196064Y462968D03*
X221964Y462968D03*
X221964Y552468D03*
X196064Y552468D03*
D27*
X554500Y130786D03*
X554500Y156686D03*
X465000Y156686D03*
X465000Y130786D03*
X554500Y73128D03*
X554500Y99028D03*
X465000Y99028D03*
X465000Y73128D03*
X553484Y187428D03*
X553484Y213328D03*
X463984Y213328D03*
X463984Y187428D03*
D28*
X502714Y700504D03*
X448714Y700504D03*
D29*
X132814Y412722D03*
X183614Y412722D03*
D30*
X151610Y382242D03*
X172438Y382242D03*
X151610Y358366D03*
X172438Y358366D03*
X151610Y334236D03*
X172438Y334236D03*
D31*
X26794Y388875D03*
X28522Y414217D03*
D32*
X267065Y67018D03*
X288123Y52814D03*
D33*
X637392Y137889D03*
X653888Y157203D03*
D34*
X745111Y438176D03*
X742765Y463468D03*
D35*
X551696Y703489D03*
X573468Y690407D03*
D36*
X204876Y683506D03*
X224836Y699214D03*
D37*
G36*
X720694Y215816D02*
X707798Y223474D01*
X715456Y236370D01*
X728352Y228712D01*
X720694Y215816D01*
G37*
G36*
X702824Y185722D02*
X689928Y193380D01*
X697586Y206276D01*
X710482Y198618D01*
X702824Y185722D01*
G37*
D30*
X674850Y259560D03*
X695678Y259560D03*
D22*
X619224Y375638D02*
X599412Y375638D01*
D38*
X734794Y356382D03*
X755794Y356382D03*
X734794Y410382D03*
X755794Y410382D03*
D39*
X313490Y100000D03*
X346510Y100000D03*
D40*
G36*
X700016Y559408D02*
X702952Y553054D01*
X689336Y546762D01*
X686400Y553116D01*
X700016Y559408D01*
G37*
G36*
X706308Y545791D02*
X709244Y539437D01*
X695628Y533145D01*
X692692Y539499D01*
X706308Y545791D01*
G37*
G36*
X718892Y518558D02*
X721828Y512204D01*
X708212Y505912D01*
X705276Y512266D01*
X718892Y518558D01*
G37*
D41*
G36*
X713142Y571531D02*
X708948Y580608D01*
X714394Y583125D01*
X718588Y574048D01*
X713142Y571531D01*
G37*
D42*
G36*
X693171Y562304D02*
X688976Y571381D01*
X696237Y574736D01*
X700432Y565659D01*
X693171Y562304D01*
G37*
D41*
G36*
X743762Y505264D02*
X739568Y514341D01*
X745014Y516858D01*
X749208Y507781D01*
X743762Y505264D01*
G37*
D42*
G36*
X723791Y496036D02*
X719596Y505113D01*
X726857Y508468D01*
X731052Y499391D01*
X723791Y496036D01*
G37*
D43*
X732500Y355000D02*
X732500Y317500D01*
X740000Y310000D01*
X732500Y355000D02*
X734794Y356382D01*
X740000Y310000D02*
X741054Y308110D01*
X717500Y282500D02*
X717500Y227500D01*
X718075Y226093D01*
X755000Y357500D02*
X747500Y365000D01*
X747500Y375000D01*
X755000Y357500D02*
X755794Y356382D01*
X222500Y552500D02*
X222500Y570000D01*
X222500Y552500D02*
X221964Y552468D01*
X160000Y325000D02*
X180000Y305000D01*
X160000Y325000D02*
X152500Y332500D01*
X180000Y305000D02*
X180000Y300000D01*
X152500Y332500D02*
X151610Y334236D01*
X180000Y300000D02*
X181576Y298396D01*
X160000Y372500D02*
X152500Y380000D01*
X160000Y372500D02*
X160000Y325000D01*
X152500Y380000D02*
X151610Y382242D01*
X180000Y297500D02*
X167500Y285000D01*
X166902Y284808D01*
X180000Y297500D02*
X181576Y298396D01*
X182500Y532500D02*
X162500Y552500D01*
X182500Y532500D02*
X182500Y425000D01*
X152500Y395000D01*
X152500Y382500D01*
X162500Y552500D02*
X161766Y554754D01*
X152500Y382500D02*
X151610Y382242D01*
X160000Y555000D02*
X160000Y572500D01*
X160000Y555000D02*
X161766Y554754D01*
X335000Y172500D02*
X315000Y152500D01*
X315000Y100000D01*
X335000Y172500D02*
X336500Y172900D01*
X315000Y100000D02*
X313490Y100000D01*
X450000Y172500D02*
X465000Y157500D01*
X450000Y172500D02*
X437500Y185000D01*
X382500Y240000D01*
X381146Y242142D01*
X465000Y157500D02*
X465000Y156686D01*
X437500Y187500D02*
X450000Y200000D01*
X462500Y212500D01*
X437500Y187500D02*
X437500Y185000D01*
X462500Y212500D02*
X463984Y213328D01*
X450000Y257500D02*
X452500Y260000D01*
X462500Y270000D01*
X450000Y257500D02*
X450000Y200000D01*
X462500Y270000D02*
X463730Y270732D01*
X450000Y115000D02*
X465000Y100000D01*
X450000Y115000D02*
X450000Y172500D01*
X465000Y100000D02*
X465000Y99028D01*
X340000Y177500D02*
X337500Y175000D01*
X340000Y177500D02*
X340000Y237500D01*
X355000Y252500D01*
X380000Y252500D01*
X380000Y242500D01*
X337500Y175000D02*
X336500Y172900D01*
X380000Y242500D02*
X381146Y242142D01*
X97500Y297500D02*
X47500Y297500D01*
X46688Y298549D01*
X447500Y265000D02*
X452500Y260000D01*
X187500Y264209D02*
X166902Y284808D01*
X187500Y264209D02*
X187500Y262500D01*
D44*
X717500Y282500D03*
X747500Y375000D03*
X222500Y570000D03*
X160000Y572500D03*
X97500Y297500D03*
X447500Y265000D03*
X187500Y262500D03*
D43*
X232500Y190000D02*
X232500Y127500D01*
X232947Y125177D01*
X137500Y555000D02*
X145000Y562500D01*
X145000Y580000D01*
X215000Y650000D01*
X215000Y705000D01*
X220000Y710000D01*
X292500Y710000D01*
X292500Y625000D01*
X280000Y612500D01*
X252500Y612500D01*
X252500Y412500D01*
X235000Y395000D01*
X235000Y290000D01*
X247500Y277500D01*
X247500Y275000D01*
X210000Y237500D01*
X210000Y212500D01*
X232500Y190000D01*
X137500Y555000D02*
X135866Y554754D01*
D44*
X232500Y190000D03*
D43*
X257500Y220000D02*
X257500Y242500D01*
X258759Y244482D01*
X465000Y130000D02*
X480000Y115000D01*
X480000Y90000D01*
X477500Y87500D01*
X430000Y87500D01*
X430000Y162500D01*
X397500Y195000D01*
X465000Y130786D02*
X465000Y130000D01*
D44*
X257500Y220000D03*
X397500Y195000D03*
D43*
X262500Y192500D02*
X262500Y152500D01*
X262500Y192500D02*
X232500Y222500D01*
X262500Y152500D02*
X262297Y152355D01*
X197500Y552500D02*
X215000Y570000D01*
X215000Y592500D01*
X235000Y612500D01*
X235000Y637500D01*
X245000Y647500D01*
X287500Y647500D01*
X287500Y627500D01*
X277500Y617500D01*
X247500Y617500D01*
X247500Y512500D01*
X207500Y472500D01*
X207500Y325000D01*
X195000Y312500D01*
X195000Y297500D01*
X197500Y295000D01*
X197500Y112500D01*
X187500Y102500D01*
X187500Y100000D01*
X205000Y82500D01*
X262500Y82500D01*
X262500Y150000D01*
X197500Y552500D02*
X196064Y552468D01*
X262297Y152355D02*
X262500Y150000D01*
D44*
X232500Y222500D03*
D43*
X135000Y232500D02*
X133834Y236085D01*
X122878Y244041D01*
X465000Y242500D02*
X480000Y242500D01*
X465000Y242500D02*
X463730Y244832D01*
D44*
X135000Y232500D03*
X480000Y242500D03*
D43*
X245000Y257500D02*
X242500Y255000D01*
X242500Y222500D01*
X262500Y202500D01*
X245000Y257500D02*
X245171Y259157D01*
X465000Y187500D02*
X480000Y187500D01*
X465000Y187500D02*
X463984Y187428D01*
D44*
X262500Y202500D03*
X480000Y187500D03*
D43*
X310000Y257500D02*
X302500Y265000D01*
X302500Y272500D01*
X132500Y272500D02*
X130000Y275000D01*
X132500Y272500D02*
X132500Y265000D01*
X137500Y260000D01*
X310000Y257500D02*
X311063Y257092D01*
X137553Y257630D02*
X137500Y260000D01*
X97500Y265000D02*
X75000Y242500D01*
X97500Y265000D02*
X132500Y265000D01*
X75000Y242500D02*
X73312Y241451D01*
X132500Y265000D02*
X137553Y257630D01*
X142500Y647500D02*
X140000Y650000D01*
X142500Y647500D02*
X142500Y585000D01*
X125000Y567500D01*
X125000Y495000D01*
X137500Y482500D01*
X140000Y650000D02*
X139716Y651202D01*
D44*
X302500Y272500D03*
X130000Y275000D03*
X137500Y482500D03*
D43*
X372500Y265000D02*
X440000Y265000D01*
X440000Y270000D01*
X452500Y282500D01*
X497500Y282500D01*
X497500Y157500D02*
X497500Y67500D01*
X497500Y157500D02*
X497500Y282500D01*
X497500Y67500D02*
X462500Y32500D01*
X300000Y32500D01*
X300000Y42500D01*
X290000Y52500D01*
X371646Y264142D02*
X372500Y265000D01*
X290000Y52500D02*
X288123Y52814D01*
X642500Y622500D02*
X575000Y690000D01*
X642500Y622500D02*
X642500Y490000D01*
X667500Y465000D01*
X742500Y465000D01*
X575000Y690000D02*
X573468Y690407D01*
X742500Y465000D02*
X742765Y463468D01*
X222500Y607500D02*
X195000Y580000D01*
X222500Y607500D02*
X222500Y697500D01*
X224836Y699214D01*
X642500Y167500D02*
X652500Y157500D01*
X642500Y167500D02*
X642500Y355000D01*
X652500Y157500D02*
X653888Y157203D01*
D44*
X497500Y157500D03*
X195000Y580000D03*
X642500Y355000D03*
D43*
X152500Y215000D02*
X95000Y215000D01*
X152500Y215000D02*
X152500Y257500D01*
X137500Y272500D01*
X137500Y357500D01*
X150000Y402500D02*
X147500Y405000D01*
X147500Y430000D01*
X120000Y457500D01*
X120000Y592500D01*
X127500Y600000D01*
X127500Y627500D01*
X125000Y630000D01*
X93529Y216863D02*
X95000Y215000D01*
X125000Y630000D02*
X124858Y630601D01*
D44*
X137500Y357500D03*
X150000Y402500D03*
D43*
X62500Y220000D02*
X77500Y205000D01*
X62500Y220000D02*
X62500Y237500D01*
X57500Y242500D01*
X57500Y250000D01*
X97500Y290000D01*
X130000Y290000D01*
X130000Y367500D01*
X142500Y380000D01*
X142500Y425000D01*
X112500Y455000D01*
X112500Y607500D01*
X110000Y610000D01*
X77500Y205000D02*
X78854Y203275D01*
X132500Y415000D02*
X82500Y465000D01*
X82500Y567500D01*
X132500Y415000D02*
X132814Y412722D01*
X82500Y567500D02*
X80284Y568798D01*
X290000Y282500D02*
X295000Y277500D01*
X295000Y225000D01*
X302500Y217500D01*
X302500Y190000D01*
X292500Y180000D01*
X290000Y282500D02*
X288937Y282908D01*
X292500Y180000D02*
X291646Y179532D01*
X337500Y150000D02*
X347500Y140000D01*
X347500Y125000D02*
X347500Y100000D01*
X347500Y125000D02*
X347500Y140000D01*
X337500Y150000D02*
X336500Y150000D01*
X346510Y100000D02*
X347500Y100000D01*
X370000Y192500D02*
X385000Y207500D01*
X370000Y192500D02*
X370000Y147500D01*
X347500Y125000D01*
X385000Y207500D02*
X386106Y208730D01*
X302500Y167500D02*
X292500Y177500D01*
X302500Y165000D02*
X302500Y90000D01*
X302500Y165000D02*
X302500Y167500D01*
X302500Y90000D02*
X305000Y87500D01*
X345000Y87500D01*
X345000Y100000D01*
X292500Y177500D02*
X291646Y179532D01*
X345000Y100000D02*
X346510Y100000D01*
X245000Y325000D02*
X245000Y365000D01*
X245000Y325000D02*
X287500Y282500D01*
X288937Y282908D01*
X250000Y100000D02*
X230876Y100000D01*
X218273Y111588D01*
X735000Y410000D02*
X740000Y405000D01*
X740000Y365000D01*
X745000Y360000D01*
X745000Y335000D01*
X747500Y332500D01*
X735000Y410000D02*
X734794Y410382D01*
X747500Y332500D02*
X748310Y332451D01*
X672500Y257500D02*
X650000Y235000D01*
X650000Y200000D01*
X672500Y257500D02*
X674850Y259560D01*
X675000Y277500D02*
X687500Y290000D01*
X675000Y277500D02*
X675000Y260000D01*
X674850Y259560D01*
X305000Y165000D02*
X302500Y165000D01*
D44*
X245000Y365000D03*
X250000Y100000D03*
X650000Y200000D03*
X687500Y290000D03*
X305000Y165000D03*
D43*
X362500Y180000D02*
X362500Y240000D01*
X255000Y175000D02*
X245027Y165027D01*
X362500Y240000D02*
X362146Y242142D01*
X245027Y165027D02*
X247622Y138766D01*
D44*
X362500Y180000D03*
X255000Y175000D03*
D43*
X305000Y570000D02*
X275000Y600000D01*
X305000Y570000D02*
X305000Y500000D01*
X312500Y492500D01*
X335000Y492500D01*
X355000Y512500D01*
X370000Y512500D01*
X275000Y600000D02*
X274800Y602100D01*
X370000Y513650D02*
X370000Y512500D01*
X420000Y515000D02*
X420000Y592500D01*
X418118Y593470D01*
X420000Y515000D02*
X370000Y515000D01*
X370000Y513650D01*
X420000Y515000D02*
X420800Y513650D01*
X590000Y395000D02*
X607500Y377500D01*
X590000Y395000D02*
X590000Y432500D01*
X607500Y377500D02*
X609318Y375638D01*
X590000Y432500D02*
X588984Y432540D01*
X417500Y642500D02*
X320000Y545000D01*
X320000Y515000D01*
X417500Y642500D02*
X418118Y644470D01*
X320000Y515000D02*
X319200Y513650D01*
X352500Y207500D02*
X355000Y205000D01*
X355000Y142500D01*
X352500Y207500D02*
X352106Y208730D01*
X735000Y440000D02*
X745000Y440000D01*
X735000Y440000D02*
X732500Y442500D01*
X635000Y442500D01*
X635000Y140000D01*
X745111Y438176D02*
X745000Y440000D01*
X635000Y140000D02*
X637392Y137889D01*
X562500Y692500D02*
X552500Y702500D01*
X562500Y692500D02*
X562500Y515000D01*
X635000Y442500D01*
X552500Y702500D02*
X551696Y703489D01*
D44*
X355000Y142500D03*
D43*
X332500Y645000D02*
X340000Y652500D01*
X340000Y727500D01*
X335000Y732500D01*
X280000Y732500D01*
X280000Y725000D01*
X330618Y644470D02*
X332500Y645000D01*
X279246Y722700D02*
X280000Y725000D01*
X462500Y742500D02*
X502500Y702500D01*
X462500Y742500D02*
X335000Y742500D01*
X335000Y732500D01*
X502500Y702500D02*
X502714Y700504D01*
X502500Y520000D02*
X477500Y495000D01*
X502500Y520000D02*
X502500Y700000D01*
X477500Y495000D02*
X477290Y493960D01*
X502500Y700000D02*
X502714Y700504D01*
X330000Y595000D02*
X315000Y610000D01*
X315000Y632500D02*
X315000Y707500D01*
X315000Y632500D02*
X315000Y610000D01*
X315000Y707500D02*
X330000Y722500D01*
X330000Y595000D02*
X330618Y593470D01*
X330000Y722500D02*
X330046Y722700D01*
X450000Y700000D02*
X475000Y675000D01*
X475000Y627500D01*
X450000Y700000D02*
X448714Y700504D01*
X475000Y627500D02*
X477290Y626040D01*
X400000Y632500D02*
X315000Y632500D01*
X400000Y632500D02*
X400000Y652500D01*
X447500Y700000D01*
X448714Y700504D01*
X340000Y130000D02*
X337500Y127500D01*
X340000Y130000D02*
X340000Y137500D01*
X592500Y150000D02*
X615000Y172500D01*
X615000Y340000D01*
X557500Y397500D01*
X557500Y682500D01*
X540000Y700000D01*
X540000Y707500D01*
X547500Y715000D01*
X565000Y715000D01*
X647500Y632500D01*
X647500Y577500D01*
X676735Y548265D01*
X337500Y127500D02*
X336500Y127100D01*
X676735Y548265D02*
X694676Y553085D01*
D44*
X340000Y137500D03*
X592500Y150000D03*
D43*
X540000Y87500D02*
X552500Y75000D01*
X540000Y87500D02*
X540000Y117500D01*
X552500Y130000D01*
X552500Y75000D02*
X554500Y73128D01*
X552500Y130000D02*
X554500Y130786D01*
X540000Y172500D02*
X552500Y185000D01*
X540000Y172500D02*
X540000Y117500D01*
X552500Y185000D02*
X553484Y187428D01*
X567500Y230000D02*
X555000Y242500D01*
X567500Y230000D02*
X567500Y200000D01*
X555000Y187500D01*
X555000Y242500D02*
X553230Y244832D01*
X555000Y187500D02*
X553484Y187428D01*
X272500Y635000D02*
X240000Y635000D01*
X240000Y540000D02*
X240000Y512500D01*
X240000Y540000D02*
X240000Y635000D01*
X225000Y497500D02*
X197500Y470000D01*
X225000Y497500D02*
X240000Y512500D01*
X197500Y470000D02*
X197500Y465000D01*
X272500Y635000D02*
X274800Y636100D01*
X197500Y465000D02*
X196064Y462968D01*
X150000Y480000D02*
X137500Y467500D01*
X150000Y480000D02*
X150000Y572500D01*
X157500Y580000D01*
X185000Y580000D01*
X185000Y537500D01*
X225000Y497500D01*
X137500Y467500D02*
X135866Y465254D01*
X555000Y75000D02*
X585000Y105000D01*
X585000Y302500D01*
X550000Y337500D01*
X550000Y482500D01*
X555000Y75000D02*
X554500Y73128D01*
D44*
X550000Y482500D03*
X240000Y540000D03*
D43*
X175000Y465000D02*
X162500Y465000D01*
X161766Y465254D01*
D44*
X175000Y465000D03*
D43*
X222500Y462500D02*
X240000Y445000D01*
X240000Y410000D01*
X222500Y462500D02*
X221964Y462968D01*
D44*
X240000Y410000D03*
D43*
X555000Y100000D02*
X577500Y122500D01*
X577500Y280000D01*
X555000Y100000D02*
X554500Y99028D01*
D44*
X577500Y280000D03*
D43*
X552500Y272500D02*
X545000Y280000D01*
X545000Y415000D01*
X510000Y450000D01*
X552500Y272500D02*
X553230Y270732D01*
X572500Y175000D02*
X555000Y157500D01*
X572500Y175000D02*
X572500Y250000D01*
X562500Y260000D01*
X535000Y260000D01*
X535000Y375000D01*
X520000Y390000D01*
X555000Y157500D02*
X554500Y156686D01*
X552500Y215000D02*
X510000Y257500D01*
X510000Y330000D01*
X552500Y215000D02*
X553484Y213328D01*
X150000Y360000D02*
X142500Y367500D01*
X142500Y370000D01*
X162500Y392500D02*
X170000Y385000D01*
X170000Y382500D01*
X150000Y360000D02*
X151610Y358366D01*
X170000Y382500D02*
X172438Y382242D01*
X202500Y310000D02*
X202500Y100000D01*
X203598Y97999D01*
D44*
X142500Y370000D03*
X162500Y392500D03*
X202500Y310000D03*
D43*
X172500Y335000D02*
X172500Y357500D01*
X172500Y335000D02*
X172438Y334236D01*
X172500Y357500D02*
X172438Y358366D01*
X172500Y360000D02*
X182500Y370000D01*
X182500Y412500D01*
X172500Y360000D02*
X172438Y358366D01*
X182500Y412500D02*
X183614Y412722D01*
X730000Y437500D02*
X755000Y412500D01*
X730000Y437500D02*
X642500Y437500D01*
X642500Y365000D01*
X695000Y312500D01*
X695000Y290000D02*
X695000Y260000D01*
X695000Y290000D02*
X695000Y312500D01*
X755794Y410382D02*
X755000Y412500D01*
X695000Y260000D02*
X695678Y259560D01*
X697500Y200000D02*
X700000Y197500D01*
X697500Y200000D02*
X697500Y257500D01*
X700000Y197500D02*
X700205Y195999D01*
X697500Y257500D02*
X695678Y259560D01*
X107500Y232500D02*
X95000Y245000D01*
X95000Y247500D01*
X107500Y232500D02*
X108203Y230452D01*
X695000Y290000D02*
X732500Y290000D01*
X732500Y285000D01*
X733798Y283769D01*
D44*
X95000Y247500D03*
D43*
X277500Y165000D02*
X297500Y145000D01*
X297500Y87500D01*
X347500Y37500D01*
X460000Y37500D01*
X460000Y62500D02*
X460000Y67500D01*
X460000Y62500D02*
X460000Y37500D01*
X460000Y67500D02*
X465000Y72500D01*
X277500Y165000D02*
X276971Y165943D01*
X465000Y73128D02*
X465000Y72500D01*
X487500Y200000D02*
X490000Y200000D01*
X487500Y200000D02*
X487500Y90000D01*
X460000Y62500D01*
D44*
X490000Y200000D03*
D43*
X665000Y537500D02*
X700000Y537500D01*
X665000Y537500D02*
X665000Y520000D01*
X700000Y537500D02*
X700968Y539468D01*
X665000Y520000D02*
X662710Y519360D01*
X665000Y517500D02*
X665000Y495000D01*
X662710Y493960D01*
X665000Y517500D02*
X662710Y519360D01*
M02*
