G04 EAGLE Gerber RS-274X export*
G75*
%MOMM*%
%FSLAX34Y34*%
%LPD*%
%INTop Copper*%
%IPPOS*%
%AMOC8*
5,1,8,0,0,1.08239X$1,22.5*%
G01*
%ADD10R,1.930400X1.930400*%
%ADD11C,1.930400*%
%ADD12P,1.814519X8X112.500000*%
%ADD13R,2.300000X1.600000*%
%ADD14C,3.516000*%
%ADD15R,1.200000X2.000000*%
%ADD16R,3.000000X1.200000*%
%ADD17R,1.200000X3.000000*%
%ADD18C,1.524000*%
%ADD19R,1.700000X0.450000*%
%ADD20R,2.100000X1.475000*%
%ADD21R,1.900000X2.375000*%
%ADD22P,1.429621X8X22.500000*%
%ADD23P,1.429621X8X112.500000*%
%ADD24C,0.508000*%
%ADD25C,0.756400*%


D10*
X248890Y151296D03*
D11*
X248890Y176696D03*
X248890Y202096D03*
D12*
X53890Y47396D03*
X53890Y98196D03*
D13*
X238890Y230896D03*
X175890Y230896D03*
D14*
X87990Y29996D03*
X201990Y29996D03*
D15*
X179990Y55996D03*
X154990Y55996D03*
X134990Y55996D03*
X109990Y55996D03*
D16*
X71990Y437996D03*
X71990Y417996D03*
X71990Y397996D03*
X71990Y377996D03*
X71990Y357996D03*
X71990Y337996D03*
X71990Y317996D03*
X71990Y297996D03*
X235990Y437996D03*
X235990Y417996D03*
X235990Y377996D03*
X235990Y397996D03*
X235990Y357996D03*
X235990Y337996D03*
X235990Y317996D03*
X235990Y297996D03*
D17*
X186990Y276996D03*
X166990Y276996D03*
X146990Y276996D03*
X126990Y276996D03*
X106990Y276996D03*
X206990Y276996D03*
D18*
X57610Y126896D02*
X42370Y126896D01*
X42370Y152296D02*
X57610Y152296D01*
X57610Y177696D02*
X42370Y177696D01*
X42370Y203096D02*
X57610Y203096D01*
D19*
X221990Y89996D03*
X221990Y83496D03*
X221990Y96496D03*
X221990Y102996D03*
X221990Y76996D03*
D20*
X226990Y64996D03*
X226990Y114996D03*
D21*
X249990Y60496D03*
X249990Y119496D03*
D22*
X87046Y217500D03*
X112446Y217500D03*
D23*
X59106Y472008D03*
X59106Y497408D03*
D22*
X87554Y134696D03*
X112954Y134696D03*
D10*
X518993Y151296D03*
D11*
X518993Y176696D03*
X518993Y202096D03*
D12*
X323993Y47396D03*
X323993Y98196D03*
D13*
X508993Y230896D03*
X445993Y230896D03*
D14*
X358093Y29996D03*
X472093Y29996D03*
D15*
X450093Y55996D03*
X425093Y55996D03*
X405093Y55996D03*
X380093Y55996D03*
D16*
X342093Y437996D03*
X342093Y417996D03*
X342093Y397996D03*
X342093Y377996D03*
X342093Y357996D03*
X342093Y337996D03*
X342093Y317996D03*
X342093Y297996D03*
X506093Y437996D03*
X506093Y417996D03*
X506093Y377996D03*
X506093Y397996D03*
X506093Y357996D03*
X506093Y337996D03*
X506093Y317996D03*
X506093Y297996D03*
D17*
X457093Y276996D03*
X437093Y276996D03*
X417093Y276996D03*
X397093Y276996D03*
X377093Y276996D03*
X477093Y276996D03*
D18*
X327713Y126896D02*
X312473Y126896D01*
X312473Y152296D02*
X327713Y152296D01*
X327713Y177696D02*
X312473Y177696D01*
X312473Y203096D02*
X327713Y203096D01*
D19*
X492093Y89996D03*
X492093Y83496D03*
X492093Y96496D03*
X492093Y102996D03*
X492093Y76996D03*
D20*
X497093Y64996D03*
X497093Y114996D03*
D21*
X520093Y60496D03*
X520093Y119496D03*
D22*
X357149Y217500D03*
X382549Y217500D03*
D23*
X329209Y472008D03*
X329209Y497408D03*
D22*
X357657Y134696D03*
X383057Y134696D03*
D10*
X789097Y151296D03*
D11*
X789097Y176696D03*
X789097Y202096D03*
D12*
X594097Y47396D03*
X594097Y98196D03*
D13*
X779097Y230896D03*
X716097Y230896D03*
D14*
X628197Y29996D03*
X742197Y29996D03*
D15*
X720197Y55996D03*
X695197Y55996D03*
X675197Y55996D03*
X650197Y55996D03*
D16*
X612197Y437996D03*
X612197Y417996D03*
X612197Y397996D03*
X612197Y377996D03*
X612197Y357996D03*
X612197Y337996D03*
X612197Y317996D03*
X612197Y297996D03*
X776197Y437996D03*
X776197Y417996D03*
X776197Y377996D03*
X776197Y397996D03*
X776197Y357996D03*
X776197Y337996D03*
X776197Y317996D03*
X776197Y297996D03*
D17*
X727197Y276996D03*
X707197Y276996D03*
X687197Y276996D03*
X667197Y276996D03*
X647197Y276996D03*
X747197Y276996D03*
D18*
X597817Y126896D02*
X582577Y126896D01*
X582577Y152296D02*
X597817Y152296D01*
X597817Y177696D02*
X582577Y177696D01*
X582577Y203096D02*
X597817Y203096D01*
D19*
X762197Y89996D03*
X762197Y83496D03*
X762197Y96496D03*
X762197Y102996D03*
X762197Y76996D03*
D20*
X767197Y64996D03*
X767197Y114996D03*
D21*
X790197Y60496D03*
X790197Y119496D03*
D22*
X627253Y217500D03*
X652653Y217500D03*
D23*
X599313Y472008D03*
X599313Y497408D03*
D22*
X627761Y134696D03*
X653161Y134696D03*
D24*
X100952Y385521D02*
X91427Y385521D01*
X80315Y396634D01*
X72377Y396634D01*
X71990Y397996D01*
X113652Y307734D02*
X142227Y307734D01*
X113652Y307734D02*
X104127Y298209D01*
X72377Y298209D01*
X71990Y297996D01*
X100952Y317259D02*
X100952Y385521D01*
X100952Y317259D02*
X83490Y299796D01*
X71990Y297996D01*
D25*
X100952Y385521D03*
X142227Y307734D03*
D24*
X156515Y102946D02*
X212077Y102946D01*
X221602Y102946D01*
X127940Y74371D02*
X110477Y56909D01*
X127940Y74371D02*
X156515Y102946D01*
X221602Y102946D02*
X221990Y102996D01*
X110477Y56909D02*
X109990Y55996D01*
X237477Y231534D02*
X237477Y296621D01*
X237477Y231534D02*
X238890Y230896D01*
X237477Y296621D02*
X235990Y297996D01*
X235890Y299796D02*
X235890Y317259D01*
X235990Y317996D01*
X235890Y299796D02*
X235990Y297996D01*
X248590Y182321D02*
X248590Y177559D01*
X248590Y182321D02*
X234302Y196609D01*
X234302Y228359D01*
X235890Y229946D01*
X248590Y177559D02*
X248890Y176696D01*
X235890Y229946D02*
X238890Y230896D01*
X212077Y141046D02*
X212077Y102946D01*
X212077Y141046D02*
X247002Y175971D01*
X248890Y176696D01*
X127940Y74371D02*
X50152Y152159D01*
X49990Y152296D01*
X215252Y396634D02*
X235890Y396634D01*
X235990Y397996D01*
D25*
X215252Y396634D03*
D24*
X88252Y217246D02*
X88252Y134696D01*
X87554Y134696D01*
X88252Y217246D02*
X87046Y217500D01*
X137465Y399809D02*
X159690Y399809D01*
X137465Y399809D02*
X66027Y471246D01*
X59677Y471246D01*
X59106Y472008D01*
D25*
X159690Y399809D03*
D24*
X113652Y217246D02*
X113652Y134696D01*
X112954Y134696D01*
X113652Y217246D02*
X112446Y217500D01*
X80315Y358534D02*
X93015Y371234D01*
X80315Y358534D02*
X72377Y358534D01*
X71990Y357996D01*
D25*
X93015Y371234D03*
D24*
X200965Y255346D02*
X177152Y231534D01*
X204140Y333134D02*
X227952Y356946D01*
X235890Y356946D01*
X177152Y231534D02*
X175890Y230896D01*
X235890Y356946D02*
X235990Y357996D01*
D25*
X200965Y255346D03*
X204140Y333134D03*
D24*
X177152Y68656D02*
X177152Y58496D01*
X177152Y68656D02*
X177152Y95009D01*
X177152Y58496D02*
X178740Y56909D01*
X179990Y55996D01*
D25*
X177152Y95009D03*
D24*
X184931Y76435D02*
X177152Y68656D01*
X184931Y76435D02*
X216078Y76435D01*
X235890Y439496D02*
X113652Y439496D01*
X69202Y483946D01*
X54915Y483946D01*
X43802Y472834D01*
X43802Y209309D01*
X48565Y204546D01*
X235990Y437996D02*
X235890Y439496D01*
X48565Y204546D02*
X49990Y203096D01*
X212077Y417271D02*
X235890Y417271D01*
X212077Y417271D02*
X100952Y306146D01*
X235890Y417271D02*
X235990Y417996D01*
D25*
X100952Y306146D03*
D24*
X70790Y417271D02*
X64440Y417271D01*
X51740Y404571D01*
X51740Y290271D01*
X113652Y228359D01*
X140640Y228359D01*
X70790Y417271D02*
X71990Y417996D01*
D25*
X140640Y228359D03*
D24*
X361531Y385521D02*
X371056Y385521D01*
X361531Y385521D02*
X350418Y396634D01*
X342481Y396634D01*
X342093Y397996D01*
X383756Y307734D02*
X412331Y307734D01*
X383756Y307734D02*
X374231Y298209D01*
X342481Y298209D01*
X342093Y297996D01*
X371056Y317259D02*
X371056Y385521D01*
X371056Y317259D02*
X353593Y299796D01*
X342093Y297996D01*
D25*
X371056Y385521D03*
X412331Y307734D03*
D24*
X426618Y102946D02*
X482181Y102946D01*
X491706Y102946D01*
X398043Y74371D02*
X380581Y56909D01*
X398043Y74371D02*
X426618Y102946D01*
X491706Y102946D02*
X492093Y102996D01*
X380581Y56909D02*
X380093Y55996D01*
X507581Y231534D02*
X507581Y296621D01*
X507581Y231534D02*
X508993Y230896D01*
X507581Y296621D02*
X506093Y297996D01*
X505993Y299796D02*
X505993Y317259D01*
X506093Y317996D01*
X505993Y299796D02*
X506093Y297996D01*
X518693Y182321D02*
X518693Y177559D01*
X518693Y182321D02*
X504406Y196609D01*
X504406Y228359D01*
X505993Y229946D01*
X518693Y177559D02*
X518993Y176696D01*
X505993Y229946D02*
X508993Y230896D01*
X482181Y141046D02*
X482181Y102946D01*
X482181Y141046D02*
X517106Y175971D01*
X518993Y176696D01*
X398043Y74371D02*
X320256Y152159D01*
X320093Y152296D01*
X485356Y396634D02*
X505993Y396634D01*
X506093Y397996D01*
D25*
X485356Y396634D03*
D24*
X358356Y217246D02*
X358356Y134696D01*
X357657Y134696D01*
X358356Y217246D02*
X357149Y217500D01*
X407568Y399809D02*
X429793Y399809D01*
X407568Y399809D02*
X336131Y471246D01*
X329781Y471246D01*
X329209Y472008D01*
D25*
X429793Y399809D03*
D24*
X383756Y217246D02*
X383756Y134696D01*
X383057Y134696D01*
X383756Y217246D02*
X382549Y217500D01*
X350418Y358534D02*
X363118Y371234D01*
X350418Y358534D02*
X342481Y358534D01*
X342093Y357996D01*
D25*
X363118Y371234D03*
D24*
X471068Y255346D02*
X447256Y231534D01*
X474243Y333134D02*
X498056Y356946D01*
X505993Y356946D01*
X447256Y231534D02*
X445993Y230896D01*
X505993Y356946D02*
X506093Y357996D01*
D25*
X471068Y255346D03*
X474243Y333134D03*
D24*
X447256Y68656D02*
X447256Y58496D01*
X447256Y68656D02*
X447256Y95009D01*
X447256Y58496D02*
X448843Y56909D01*
X450093Y55996D01*
D25*
X447256Y95009D03*
D24*
X455035Y76435D02*
X447256Y68656D01*
X455035Y76435D02*
X486181Y76435D01*
X505993Y439496D02*
X383756Y439496D01*
X339306Y483946D01*
X325018Y483946D01*
X313906Y472834D01*
X313906Y209309D01*
X318668Y204546D01*
X506093Y437996D02*
X505993Y439496D01*
X318668Y204546D02*
X320093Y203096D01*
X482181Y417271D02*
X505993Y417271D01*
X482181Y417271D02*
X371056Y306146D01*
X505993Y417271D02*
X506093Y417996D01*
D25*
X371056Y306146D03*
D24*
X340893Y417271D02*
X334543Y417271D01*
X321843Y404571D01*
X321843Y290271D01*
X383756Y228359D01*
X410743Y228359D01*
X340893Y417271D02*
X342093Y417996D01*
D25*
X410743Y228359D03*
D24*
X631635Y385521D02*
X641160Y385521D01*
X631635Y385521D02*
X620522Y396634D01*
X612585Y396634D01*
X612197Y397996D01*
X653860Y307734D02*
X682435Y307734D01*
X653860Y307734D02*
X644335Y298209D01*
X612585Y298209D01*
X612197Y297996D01*
X641160Y317259D02*
X641160Y385521D01*
X641160Y317259D02*
X623697Y299796D01*
X612197Y297996D01*
D25*
X641160Y385521D03*
X682435Y307734D03*
D24*
X696722Y102946D02*
X752285Y102946D01*
X761810Y102946D01*
X668147Y74371D02*
X650685Y56909D01*
X668147Y74371D02*
X696722Y102946D01*
X761810Y102946D02*
X762197Y102996D01*
X650685Y56909D02*
X650197Y55996D01*
X777685Y231534D02*
X777685Y296621D01*
X777685Y231534D02*
X779097Y230896D01*
X777685Y296621D02*
X776197Y297996D01*
X776097Y299796D02*
X776097Y317259D01*
X776197Y317996D01*
X776097Y299796D02*
X776197Y297996D01*
X788797Y182321D02*
X788797Y177559D01*
X788797Y182321D02*
X774510Y196609D01*
X774510Y228359D01*
X776097Y229946D01*
X788797Y177559D02*
X789097Y176696D01*
X776097Y229946D02*
X779097Y230896D01*
X752285Y141046D02*
X752285Y102946D01*
X752285Y141046D02*
X787210Y175971D01*
X789097Y176696D01*
X668147Y74371D02*
X590360Y152159D01*
X590197Y152296D01*
X755460Y396634D02*
X776097Y396634D01*
X776197Y397996D01*
D25*
X755460Y396634D03*
D24*
X628460Y217246D02*
X628460Y134696D01*
X627761Y134696D01*
X628460Y217246D02*
X627253Y217500D01*
X677672Y399809D02*
X699897Y399809D01*
X677672Y399809D02*
X606235Y471246D01*
X599885Y471246D01*
X599313Y472008D01*
D25*
X699897Y399809D03*
D24*
X653860Y217246D02*
X653860Y134696D01*
X653161Y134696D01*
X653860Y217246D02*
X652653Y217500D01*
X620522Y358534D02*
X633222Y371234D01*
X620522Y358534D02*
X612585Y358534D01*
X612197Y357996D01*
D25*
X633222Y371234D03*
D24*
X741172Y255346D02*
X717360Y231534D01*
X744347Y333134D02*
X768160Y356946D01*
X776097Y356946D01*
X717360Y231534D02*
X716097Y230896D01*
X776097Y356946D02*
X776197Y357996D01*
D25*
X741172Y255346D03*
X744347Y333134D03*
D24*
X717360Y68656D02*
X717360Y58496D01*
X717360Y68656D02*
X717360Y95009D01*
X717360Y58496D02*
X718947Y56909D01*
X720197Y55996D01*
D25*
X717360Y95009D03*
D24*
X725139Y76435D02*
X717360Y68656D01*
X725139Y76435D02*
X756285Y76435D01*
X776097Y439496D02*
X653860Y439496D01*
X609410Y483946D01*
X595122Y483946D01*
X584010Y472834D01*
X584010Y209309D01*
X588772Y204546D01*
X776197Y437996D02*
X776097Y439496D01*
X588772Y204546D02*
X590197Y203096D01*
X752285Y417271D02*
X776097Y417271D01*
X752285Y417271D02*
X641160Y306146D01*
X776097Y417271D02*
X776197Y417996D01*
D25*
X641160Y306146D03*
D24*
X610997Y417271D02*
X604647Y417271D01*
X591947Y404571D01*
X591947Y290271D01*
X653860Y228359D01*
X680847Y228359D01*
X610997Y417271D02*
X612197Y417996D01*
D25*
X680847Y228359D03*
M02*
