G04 EAGLE Gerber RS-274X export*
G75*
%MOMM*%
%FSLAX34Y34*%
%LPD*%
%INSolderpaste Top*%
%IPPOS*%
%AMOC8*
5,1,8,0,0,1.08239X$1,22.5*%
G01*
%ADD10R,2.300000X1.600000*%
%ADD11R,1.200000X2.000000*%
%ADD12R,3.000000X1.200000*%
%ADD13R,1.200000X3.000000*%
%ADD14R,1.700000X0.450000*%
%ADD15R,2.100000X1.475000*%
%ADD16R,1.900000X2.375000*%


D10*
X238890Y230896D03*
X175890Y230896D03*
D11*
X179990Y55996D03*
X154990Y55996D03*
X134990Y55996D03*
X109990Y55996D03*
D12*
X71990Y437996D03*
X71990Y417996D03*
X71990Y397996D03*
X71990Y377996D03*
X71990Y357996D03*
X71990Y337996D03*
X71990Y317996D03*
X71990Y297996D03*
X235990Y437996D03*
X235990Y417996D03*
X235990Y377996D03*
X235990Y397996D03*
X235990Y357996D03*
X235990Y337996D03*
X235990Y317996D03*
X235990Y297996D03*
D13*
X186990Y276996D03*
X166990Y276996D03*
X146990Y276996D03*
X126990Y276996D03*
X106990Y276996D03*
X206990Y276996D03*
D14*
X221990Y89996D03*
X221990Y83496D03*
X221990Y96496D03*
X221990Y102996D03*
X221990Y76996D03*
D15*
X226990Y64996D03*
X226990Y114996D03*
D16*
X249990Y60496D03*
X249990Y119496D03*
D10*
X508993Y230896D03*
X445993Y230896D03*
D11*
X450093Y55996D03*
X425093Y55996D03*
X405093Y55996D03*
X380093Y55996D03*
D12*
X342093Y437996D03*
X342093Y417996D03*
X342093Y397996D03*
X342093Y377996D03*
X342093Y357996D03*
X342093Y337996D03*
X342093Y317996D03*
X342093Y297996D03*
X506093Y437996D03*
X506093Y417996D03*
X506093Y377996D03*
X506093Y397996D03*
X506093Y357996D03*
X506093Y337996D03*
X506093Y317996D03*
X506093Y297996D03*
D13*
X457093Y276996D03*
X437093Y276996D03*
X417093Y276996D03*
X397093Y276996D03*
X377093Y276996D03*
X477093Y276996D03*
D14*
X492093Y89996D03*
X492093Y83496D03*
X492093Y96496D03*
X492093Y102996D03*
X492093Y76996D03*
D15*
X497093Y64996D03*
X497093Y114996D03*
D16*
X520093Y60496D03*
X520093Y119496D03*
D10*
X779097Y230896D03*
X716097Y230896D03*
D11*
X720197Y55996D03*
X695197Y55996D03*
X675197Y55996D03*
X650197Y55996D03*
D12*
X612197Y437996D03*
X612197Y417996D03*
X612197Y397996D03*
X612197Y377996D03*
X612197Y357996D03*
X612197Y337996D03*
X612197Y317996D03*
X612197Y297996D03*
X776197Y437996D03*
X776197Y417996D03*
X776197Y377996D03*
X776197Y397996D03*
X776197Y357996D03*
X776197Y337996D03*
X776197Y317996D03*
X776197Y297996D03*
D13*
X727197Y276996D03*
X707197Y276996D03*
X687197Y276996D03*
X667197Y276996D03*
X647197Y276996D03*
X747197Y276996D03*
D14*
X762197Y89996D03*
X762197Y83496D03*
X762197Y96496D03*
X762197Y102996D03*
X762197Y76996D03*
D15*
X767197Y64996D03*
X767197Y114996D03*
D16*
X790197Y60496D03*
X790197Y119496D03*
M02*
