(footprint "CHIPLED_0805" (version 20221018) (generator pcbnew)
  (layer "F.Cu")
  (descr "<b>CHIPLED</b><p>\nSource: http://www.osram.convergy.de/ ... LG_R971.pdf")
  (fp_text reference "REF**" (at -1.27 1.27 90) (layer "F.SilkS")
      (effects (font (size 1.1684 1.1684) (thickness 0.1016)) (justify left bottom))
    (tstamp 8f68bbab-1e35-443c-b641-70903a4a9583)
  )
  (fp_text value "CHIPLED_0805" (at 2.54 1.27 90) (layer "F.Fab")
      (effects (font (size 1.1684 1.1684) (thickness 0.1016)) (justify left bottom))
    (tstamp ce30862d-0fbd-4aeb-838e-f7c13c2b5c40)
  )
  (fp_poly
    (pts
      (xy -0.1 0)
      (xy 0.1 0)
      (xy 0.1 -0.2)
      (xy -0.1 -0.2)
    )

    (stroke (width 0) (type default)) (fill solid) (layer "F.SilkS") (tstamp fde4b368-9ccc-4721-a818-d68d8b2f5082))
  (fp_line (start -0.575 0.5) (end -0.575 -0.925)
    (stroke (width 0.1016) (type solid)) (layer "F.Fab") (tstamp f2b78a9a-7631-4026-b9fb-6b2702893139))
  (fp_line (start 0.575 -0.525) (end 0.575 0.525)
    (stroke (width 0.1016) (type solid)) (layer "F.Fab") (tstamp 985d7cb1-6b6c-44b3-a943-91e5812d4c7d))
  (fp_arc (start -0.35 0.925) (mid -0.000001 0.625027) (end 0.35 0.924998)
    (stroke (width 0.1016) (type solid)) (layer "F.Fab") (tstamp 3f0d3a17-258b-43c7-a4a4-d6a694bca806))
  (fp_arc (start 0.35 -0.924998) (mid -0.000001 -0.625027) (end -0.35 -0.925)
    (stroke (width 0.1016) (type solid)) (layer "F.Fab") (tstamp a10c22ee-ea85-4489-b96e-474524becbeb))
  (fp_circle (center -0.45 -0.85) (end -0.347 -0.85)
    (stroke (width 0.1016) (type solid)) (fill none) (layer "F.Fab") (tstamp edcbe512-66b5-40da-8b6a-9db0f360f1cb))
  (fp_poly
    (pts
      (xy -0.625 -0.925)
      (xy -0.3 -0.925)
      (xy -0.3 -1)
      (xy -0.625 -1)
    )

    (stroke (width 0) (type default)) (fill solid) (layer "F.Fab") (tstamp 1683415d-134f-48e4-88cd-5b0f87fa39c8))
  (fp_poly
    (pts
      (xy -0.625 1)
      (xy -0.3 1)
      (xy -0.3 0.5)
      (xy -0.625 0.5)
    )

    (stroke (width 0) (type default)) (fill solid) (layer "F.Fab") (tstamp 122de795-53e1-4650-a6fc-b1a50406897e))
  (fp_poly
    (pts
      (xy -0.6 -0.5)
      (xy -0.3 -0.5)
      (xy -0.3 -0.8)
      (xy -0.6 -0.8)
    )

    (stroke (width 0) (type default)) (fill solid) (layer "F.Fab") (tstamp 4617d044-c7b5-4cd3-a1ff-6aa8c285454e))
  (fp_poly
    (pts
      (xy -0.325 -0.5)
      (xy -0.175 -0.5)
      (xy -0.175 -0.75)
      (xy -0.325 -0.75)
    )

    (stroke (width 0) (type default)) (fill solid) (layer "F.Fab") (tstamp 1e4f3e8a-c44e-40da-ac5a-f38b6c028997))
  (fp_poly
    (pts
      (xy -0.325 0.75)
      (xy -0.175 0.75)
      (xy -0.175 0.5)
      (xy -0.325 0.5)
    )

    (stroke (width 0) (type default)) (fill solid) (layer "F.Fab") (tstamp 01958cca-ba45-49f2-8ca9-9c0c144f7d17))
  (fp_poly
    (pts
      (xy -0.2 -0.5)
      (xy 0.2 -0.5)
      (xy 0.2 -0.675)
      (xy -0.2 -0.675)
    )

    (stroke (width 0) (type default)) (fill solid) (layer "F.Fab") (tstamp d36d492e-7f37-41e2-9387-999b714db0fa))
  (fp_poly
    (pts
      (xy -0.2 0.675)
      (xy 0.2 0.675)
      (xy 0.2 0.5)
      (xy -0.2 0.5)
    )

    (stroke (width 0) (type default)) (fill solid) (layer "F.Fab") (tstamp dbb8a7f8-7ef9-4315-ab23-777c45a65b37))
  (fp_poly
    (pts
      (xy 0.175 -0.5)
      (xy 0.325 -0.5)
      (xy 0.325 -0.75)
      (xy 0.175 -0.75)
    )

    (stroke (width 0) (type default)) (fill solid) (layer "F.Fab") (tstamp 93384b22-df15-4169-82ed-0286c7a5d145))
  (fp_poly
    (pts
      (xy 0.175 0.75)
      (xy 0.325 0.75)
      (xy 0.325 0.5)
      (xy 0.175 0.5)
    )

    (stroke (width 0) (type default)) (fill solid) (layer "F.Fab") (tstamp 501ed5c0-a31f-42a4-960d-2d9f9b36a88b))
  (fp_poly
    (pts
      (xy 0.3 -0.5)
      (xy 0.625 -0.5)
      (xy 0.625 -1)
      (xy 0.3 -1)
    )

    (stroke (width 0) (type default)) (fill solid) (layer "F.Fab") (tstamp d46c1faf-0576-4161-a04e-8253e43e030e))
  (fp_poly
    (pts
      (xy 0.3 1)
      (xy 0.625 1)
      (xy 0.625 0.5)
      (xy 0.3 0.5)
    )

    (stroke (width 0) (type default)) (fill solid) (layer "F.Fab") (tstamp 2e9ca5a6-aa07-47f8-9555-f4f57a7d47bf))
  (pad "A" smd rect (at 0 1.05) (size 1.2 1.2) (layers "F.Cu" "F.Paste" "F.Mask")
    (solder_mask_margin 0.0508) (thermal_bridge_angle 45) (tstamp b039da68-34e0-4fba-93e3-a96a6f8d4ed6))
  (pad "C" smd rect (at 0 -1.05) (size 1.2 1.2) (layers "F.Cu" "F.Paste" "F.Mask")
    (solder_mask_margin 0.0508) (thermal_bridge_angle 45) (tstamp 8945e29e-114f-4d3e-93a8-01f939792741))
)
