G04 EAGLE Gerber RS-274X export*
G75*
%MOMM*%
%FSLAX34Y34*%
%LPD*%
%INSoldermask Bottom*%
%IPPOS*%
%AMOC8*
5,1,8,0,0,1.08239X$1,22.5*%
G01*
%ADD10R,1.153200X1.503200*%
%ADD11R,3.453200X1.503200*%
%ADD12R,1.603200X1.203200*%
%ADD13R,2.743200X1.473200*%
%ADD14R,1.473200X2.743200*%
%ADD15R,1.803200X2.503200*%
%ADD16C,0.959600*%


D10*
X41322Y80552D03*
X64222Y80552D03*
X87122Y80552D03*
D11*
X64222Y13552D03*
D12*
X50116Y142450D03*
X72116Y132950D03*
X72116Y151950D03*
D13*
X149992Y55004D03*
X149992Y95004D03*
X14992Y50004D03*
X114992Y50004D03*
X149992Y175004D03*
X149992Y135004D03*
X149992Y15004D03*
X14992Y155004D03*
X114992Y25004D03*
D14*
X84992Y175004D03*
X49992Y175004D03*
D15*
X115976Y100758D03*
X115976Y163758D03*
D12*
X74906Y106350D03*
X52906Y115850D03*
X52906Y96850D03*
D10*
X236420Y80552D03*
X259320Y80552D03*
X282220Y80552D03*
D11*
X259320Y13552D03*
D12*
X245214Y142450D03*
X267214Y132950D03*
X267214Y151950D03*
D13*
X345090Y55004D03*
X345090Y95004D03*
X210090Y50004D03*
X310090Y50004D03*
X345090Y175004D03*
X345090Y135004D03*
X345090Y15004D03*
X210090Y155004D03*
X310090Y25004D03*
D14*
X280090Y175004D03*
X245090Y175004D03*
D15*
X311074Y100758D03*
X311074Y163758D03*
D12*
X270004Y106350D03*
X248004Y115850D03*
X248004Y96850D03*
D10*
X431517Y80552D03*
X454417Y80552D03*
X477317Y80552D03*
D11*
X454417Y13552D03*
D12*
X440311Y142450D03*
X462311Y132950D03*
X462311Y151950D03*
D13*
X540187Y55004D03*
X540187Y95004D03*
X405187Y50004D03*
X505187Y50004D03*
X540187Y175004D03*
X540187Y135004D03*
X540187Y15004D03*
X405187Y155004D03*
X505187Y25004D03*
D14*
X475187Y175004D03*
X440187Y175004D03*
D15*
X506171Y100758D03*
X506171Y163758D03*
D12*
X465101Y106350D03*
X443101Y115850D03*
X443101Y96850D03*
D10*
X626615Y80552D03*
X649515Y80552D03*
X672415Y80552D03*
D11*
X649515Y13552D03*
D12*
X635409Y142450D03*
X657409Y132950D03*
X657409Y151950D03*
D13*
X735285Y55004D03*
X735285Y95004D03*
X600285Y50004D03*
X700285Y50004D03*
X735285Y175004D03*
X735285Y135004D03*
X735285Y15004D03*
X600285Y155004D03*
X700285Y25004D03*
D14*
X670285Y175004D03*
X635285Y175004D03*
D15*
X701269Y100758D03*
X701269Y163758D03*
D12*
X660199Y106350D03*
X638199Y115850D03*
X638199Y96850D03*
D10*
X821712Y80552D03*
X844612Y80552D03*
X867512Y80552D03*
D11*
X844612Y13552D03*
D12*
X830506Y142450D03*
X852506Y132950D03*
X852506Y151950D03*
D13*
X930382Y55004D03*
X930382Y95004D03*
X795382Y50004D03*
X895382Y50004D03*
X930382Y175004D03*
X930382Y135004D03*
X930382Y15004D03*
X795382Y155004D03*
X895382Y25004D03*
D14*
X865382Y175004D03*
X830382Y175004D03*
D15*
X896366Y100758D03*
X896366Y163758D03*
D12*
X855296Y106350D03*
X833296Y115850D03*
X833296Y96850D03*
D10*
X41322Y280653D03*
X64222Y280653D03*
X87122Y280653D03*
D11*
X64222Y213653D03*
D12*
X50116Y342551D03*
X72116Y333051D03*
X72116Y352051D03*
D13*
X149992Y255105D03*
X149992Y295105D03*
X14992Y250105D03*
X114992Y250105D03*
X149992Y375105D03*
X149992Y335105D03*
X149992Y215105D03*
X14992Y355105D03*
X114992Y225105D03*
D14*
X84992Y375105D03*
X49992Y375105D03*
D15*
X115976Y300859D03*
X115976Y363859D03*
D12*
X74906Y306451D03*
X52906Y315951D03*
X52906Y296951D03*
D10*
X236420Y280653D03*
X259320Y280653D03*
X282220Y280653D03*
D11*
X259320Y213653D03*
D12*
X245214Y342551D03*
X267214Y333051D03*
X267214Y352051D03*
D13*
X345090Y255105D03*
X345090Y295105D03*
X210090Y250105D03*
X310090Y250105D03*
X345090Y375105D03*
X345090Y335105D03*
X345090Y215105D03*
X210090Y355105D03*
X310090Y225105D03*
D14*
X280090Y375105D03*
X245090Y375105D03*
D15*
X311074Y300859D03*
X311074Y363859D03*
D12*
X270004Y306451D03*
X248004Y315951D03*
X248004Y296951D03*
D10*
X431517Y280653D03*
X454417Y280653D03*
X477317Y280653D03*
D11*
X454417Y213653D03*
D12*
X440311Y342551D03*
X462311Y333051D03*
X462311Y352051D03*
D13*
X540187Y255105D03*
X540187Y295105D03*
X405187Y250105D03*
X505187Y250105D03*
X540187Y375105D03*
X540187Y335105D03*
X540187Y215105D03*
X405187Y355105D03*
X505187Y225105D03*
D14*
X475187Y375105D03*
X440187Y375105D03*
D15*
X506171Y300859D03*
X506171Y363859D03*
D12*
X465101Y306451D03*
X443101Y315951D03*
X443101Y296951D03*
D10*
X626615Y280653D03*
X649515Y280653D03*
X672415Y280653D03*
D11*
X649515Y213653D03*
D12*
X635409Y342551D03*
X657409Y333051D03*
X657409Y352051D03*
D13*
X735285Y255105D03*
X735285Y295105D03*
X600285Y250105D03*
X700285Y250105D03*
X735285Y375105D03*
X735285Y335105D03*
X735285Y215105D03*
X600285Y355105D03*
X700285Y225105D03*
D14*
X670285Y375105D03*
X635285Y375105D03*
D15*
X701269Y300859D03*
X701269Y363859D03*
D12*
X660199Y306451D03*
X638199Y315951D03*
X638199Y296951D03*
D10*
X821712Y280653D03*
X844612Y280653D03*
X867512Y280653D03*
D11*
X844612Y213653D03*
D12*
X830506Y342551D03*
X852506Y333051D03*
X852506Y352051D03*
D13*
X930382Y255105D03*
X930382Y295105D03*
X795382Y250105D03*
X895382Y250105D03*
X930382Y375105D03*
X930382Y335105D03*
X930382Y215105D03*
X795382Y355105D03*
X895382Y225105D03*
D14*
X865382Y375105D03*
X830382Y375105D03*
D15*
X896366Y300859D03*
X896366Y363859D03*
D12*
X855296Y306451D03*
X833296Y315951D03*
X833296Y296951D03*
D10*
X41322Y480754D03*
X64222Y480754D03*
X87122Y480754D03*
D11*
X64222Y413754D03*
D12*
X50116Y542652D03*
X72116Y533152D03*
X72116Y552152D03*
D13*
X149992Y455206D03*
X149992Y495206D03*
X14992Y450206D03*
X114992Y450206D03*
X149992Y575206D03*
X149992Y535206D03*
X149992Y415206D03*
X14992Y555206D03*
X114992Y425206D03*
D14*
X84992Y575206D03*
X49992Y575206D03*
D15*
X115976Y500960D03*
X115976Y563960D03*
D12*
X74906Y506552D03*
X52906Y516052D03*
X52906Y497052D03*
D10*
X236420Y480754D03*
X259320Y480754D03*
X282220Y480754D03*
D11*
X259320Y413754D03*
D12*
X245214Y542652D03*
X267214Y533152D03*
X267214Y552152D03*
D13*
X345090Y455206D03*
X345090Y495206D03*
X210090Y450206D03*
X310090Y450206D03*
X345090Y575206D03*
X345090Y535206D03*
X345090Y415206D03*
X210090Y555206D03*
X310090Y425206D03*
D14*
X280090Y575206D03*
X245090Y575206D03*
D15*
X311074Y500960D03*
X311074Y563960D03*
D12*
X270004Y506552D03*
X248004Y516052D03*
X248004Y497052D03*
D10*
X431517Y480754D03*
X454417Y480754D03*
X477317Y480754D03*
D11*
X454417Y413754D03*
D12*
X440311Y542652D03*
X462311Y533152D03*
X462311Y552152D03*
D13*
X540187Y455206D03*
X540187Y495206D03*
X405187Y450206D03*
X505187Y450206D03*
X540187Y575206D03*
X540187Y535206D03*
X540187Y415206D03*
X405187Y555206D03*
X505187Y425206D03*
D14*
X475187Y575206D03*
X440187Y575206D03*
D15*
X506171Y500960D03*
X506171Y563960D03*
D12*
X465101Y506552D03*
X443101Y516052D03*
X443101Y497052D03*
D10*
X626615Y480754D03*
X649515Y480754D03*
X672415Y480754D03*
D11*
X649515Y413754D03*
D12*
X635409Y542652D03*
X657409Y533152D03*
X657409Y552152D03*
D13*
X735285Y455206D03*
X735285Y495206D03*
X600285Y450206D03*
X700285Y450206D03*
X735285Y575206D03*
X735285Y535206D03*
X735285Y415206D03*
X600285Y555206D03*
X700285Y425206D03*
D14*
X670285Y575206D03*
X635285Y575206D03*
D15*
X701269Y500960D03*
X701269Y563960D03*
D12*
X660199Y506552D03*
X638199Y516052D03*
X638199Y497052D03*
D10*
X821712Y480754D03*
X844612Y480754D03*
X867512Y480754D03*
D11*
X844612Y413754D03*
D12*
X830506Y542652D03*
X852506Y533152D03*
X852506Y552152D03*
D13*
X930382Y455206D03*
X930382Y495206D03*
X795382Y450206D03*
X895382Y450206D03*
X930382Y575206D03*
X930382Y535206D03*
X930382Y415206D03*
X795382Y555206D03*
X895382Y425206D03*
D14*
X865382Y575206D03*
X830382Y575206D03*
D15*
X896366Y500960D03*
X896366Y563960D03*
D12*
X855296Y506552D03*
X833296Y516052D03*
X833296Y497052D03*
D10*
X41322Y680855D03*
X64222Y680855D03*
X87122Y680855D03*
D11*
X64222Y613855D03*
D12*
X50116Y742753D03*
X72116Y733253D03*
X72116Y752253D03*
D13*
X149992Y655307D03*
X149992Y695307D03*
X14992Y650307D03*
X114992Y650307D03*
X149992Y775307D03*
X149992Y735307D03*
X149992Y615307D03*
X14992Y755307D03*
X114992Y625307D03*
D14*
X84992Y775307D03*
X49992Y775307D03*
D15*
X115976Y701061D03*
X115976Y764061D03*
D12*
X74906Y706653D03*
X52906Y716153D03*
X52906Y697153D03*
D10*
X236420Y680855D03*
X259320Y680855D03*
X282220Y680855D03*
D11*
X259320Y613855D03*
D12*
X245214Y742753D03*
X267214Y733253D03*
X267214Y752253D03*
D13*
X345090Y655307D03*
X345090Y695307D03*
X210090Y650307D03*
X310090Y650307D03*
X345090Y775307D03*
X345090Y735307D03*
X345090Y615307D03*
X210090Y755307D03*
X310090Y625307D03*
D14*
X280090Y775307D03*
X245090Y775307D03*
D15*
X311074Y701061D03*
X311074Y764061D03*
D12*
X270004Y706653D03*
X248004Y716153D03*
X248004Y697153D03*
D10*
X431517Y680855D03*
X454417Y680855D03*
X477317Y680855D03*
D11*
X454417Y613855D03*
D12*
X440311Y742753D03*
X462311Y733253D03*
X462311Y752253D03*
D13*
X540187Y655307D03*
X540187Y695307D03*
X405187Y650307D03*
X505187Y650307D03*
X540187Y775307D03*
X540187Y735307D03*
X540187Y615307D03*
X405187Y755307D03*
X505187Y625307D03*
D14*
X475187Y775307D03*
X440187Y775307D03*
D15*
X506171Y701061D03*
X506171Y764061D03*
D12*
X465101Y706653D03*
X443101Y716153D03*
X443101Y697153D03*
D10*
X626615Y680855D03*
X649515Y680855D03*
X672415Y680855D03*
D11*
X649515Y613855D03*
D12*
X635409Y742753D03*
X657409Y733253D03*
X657409Y752253D03*
D13*
X735285Y655307D03*
X735285Y695307D03*
X600285Y650307D03*
X700285Y650307D03*
X735285Y775307D03*
X735285Y735307D03*
X735285Y615307D03*
X600285Y755307D03*
X700285Y625307D03*
D14*
X670285Y775307D03*
X635285Y775307D03*
D15*
X701269Y701061D03*
X701269Y764061D03*
D12*
X660199Y706653D03*
X638199Y716153D03*
X638199Y697153D03*
D10*
X821712Y680855D03*
X844612Y680855D03*
X867512Y680855D03*
D11*
X844612Y613855D03*
D12*
X830506Y742753D03*
X852506Y733253D03*
X852506Y752253D03*
D13*
X930382Y655307D03*
X930382Y695307D03*
X795382Y650307D03*
X895382Y650307D03*
X930382Y775307D03*
X930382Y735307D03*
X930382Y615307D03*
X795382Y755307D03*
X895382Y625307D03*
D14*
X865382Y775307D03*
X830382Y775307D03*
D15*
X896366Y701061D03*
X896366Y764061D03*
D12*
X855296Y706653D03*
X833296Y716153D03*
X833296Y697153D03*
D16*
X85242Y151054D03*
X53492Y132004D03*
X59842Y49454D03*
X31267Y68504D03*
X31267Y103429D03*
X158267Y160579D03*
X158267Y147879D03*
X158267Y27229D03*
X56667Y154229D03*
X63017Y170104D03*
X126517Y36754D03*
X37617Y170104D03*
X69367Y93904D03*
X101117Y166929D03*
X148742Y160579D03*
X101117Y109779D03*
X280340Y151054D03*
X248590Y132004D03*
X254940Y49454D03*
X226365Y68504D03*
X226365Y103429D03*
X353365Y160579D03*
X353365Y147879D03*
X353365Y27229D03*
X251765Y154229D03*
X258115Y170104D03*
X321615Y36754D03*
X232715Y170104D03*
X264465Y93904D03*
X296215Y166929D03*
X343840Y160579D03*
X296215Y109779D03*
X475437Y151054D03*
X443687Y132004D03*
X450037Y49454D03*
X421462Y68504D03*
X421462Y103429D03*
X548462Y160579D03*
X548462Y147879D03*
X548462Y27229D03*
X446862Y154229D03*
X453212Y170104D03*
X516712Y36754D03*
X427812Y170104D03*
X459562Y93904D03*
X491312Y166929D03*
X538937Y160579D03*
X491312Y109779D03*
X670535Y151054D03*
X638785Y132004D03*
X645135Y49454D03*
X616560Y68504D03*
X616560Y103429D03*
X743560Y160579D03*
X743560Y147879D03*
X743560Y27229D03*
X641960Y154229D03*
X648310Y170104D03*
X711810Y36754D03*
X622910Y170104D03*
X654660Y93904D03*
X686410Y166929D03*
X734035Y160579D03*
X686410Y109779D03*
X865632Y151054D03*
X833882Y132004D03*
X840232Y49454D03*
X811657Y68504D03*
X811657Y103429D03*
X938657Y160579D03*
X938657Y147879D03*
X938657Y27229D03*
X837057Y154229D03*
X843407Y170104D03*
X906907Y36754D03*
X818007Y170104D03*
X849757Y93904D03*
X881507Y166929D03*
X929132Y160579D03*
X881507Y109779D03*
X85242Y351155D03*
X53492Y332105D03*
X59842Y249555D03*
X31267Y268605D03*
X31267Y303530D03*
X158267Y360680D03*
X158267Y347980D03*
X158267Y227330D03*
X56667Y354330D03*
X63017Y370205D03*
X126517Y236855D03*
X37617Y370205D03*
X69367Y294005D03*
X101117Y367030D03*
X148742Y360680D03*
X101117Y309880D03*
X280340Y351155D03*
X248590Y332105D03*
X254940Y249555D03*
X226365Y268605D03*
X226365Y303530D03*
X353365Y360680D03*
X353365Y347980D03*
X353365Y227330D03*
X251765Y354330D03*
X258115Y370205D03*
X321615Y236855D03*
X232715Y370205D03*
X264465Y294005D03*
X296215Y367030D03*
X343840Y360680D03*
X296215Y309880D03*
X475437Y351155D03*
X443687Y332105D03*
X450037Y249555D03*
X421462Y268605D03*
X421462Y303530D03*
X548462Y360680D03*
X548462Y347980D03*
X548462Y227330D03*
X446862Y354330D03*
X453212Y370205D03*
X516712Y236855D03*
X427812Y370205D03*
X459562Y294005D03*
X491312Y367030D03*
X538937Y360680D03*
X491312Y309880D03*
X670535Y351155D03*
X638785Y332105D03*
X645135Y249555D03*
X616560Y268605D03*
X616560Y303530D03*
X743560Y360680D03*
X743560Y347980D03*
X743560Y227330D03*
X641960Y354330D03*
X648310Y370205D03*
X711810Y236855D03*
X622910Y370205D03*
X654660Y294005D03*
X686410Y367030D03*
X734035Y360680D03*
X686410Y309880D03*
X865632Y351155D03*
X833882Y332105D03*
X840232Y249555D03*
X811657Y268605D03*
X811657Y303530D03*
X938657Y360680D03*
X938657Y347980D03*
X938657Y227330D03*
X837057Y354330D03*
X843407Y370205D03*
X906907Y236855D03*
X818007Y370205D03*
X849757Y294005D03*
X881507Y367030D03*
X929132Y360680D03*
X881507Y309880D03*
X85242Y551256D03*
X53492Y532206D03*
X59842Y449656D03*
X31267Y468706D03*
X31267Y503631D03*
X158267Y560781D03*
X158267Y548081D03*
X158267Y427431D03*
X56667Y554431D03*
X63017Y570306D03*
X126517Y436956D03*
X37617Y570306D03*
X69367Y494106D03*
X101117Y567131D03*
X148742Y560781D03*
X101117Y509981D03*
X280340Y551256D03*
X248590Y532206D03*
X254940Y449656D03*
X226365Y468706D03*
X226365Y503631D03*
X353365Y560781D03*
X353365Y548081D03*
X353365Y427431D03*
X251765Y554431D03*
X258115Y570306D03*
X321615Y436956D03*
X232715Y570306D03*
X264465Y494106D03*
X296215Y567131D03*
X343840Y560781D03*
X296215Y509981D03*
X475437Y551256D03*
X443687Y532206D03*
X450037Y449656D03*
X421462Y468706D03*
X421462Y503631D03*
X548462Y560781D03*
X548462Y548081D03*
X548462Y427431D03*
X446862Y554431D03*
X453212Y570306D03*
X516712Y436956D03*
X427812Y570306D03*
X459562Y494106D03*
X491312Y567131D03*
X538937Y560781D03*
X491312Y509981D03*
X670535Y551256D03*
X638785Y532206D03*
X645135Y449656D03*
X616560Y468706D03*
X616560Y503631D03*
X743560Y560781D03*
X743560Y548081D03*
X743560Y427431D03*
X641960Y554431D03*
X648310Y570306D03*
X711810Y436956D03*
X622910Y570306D03*
X654660Y494106D03*
X686410Y567131D03*
X734035Y560781D03*
X686410Y509981D03*
X865632Y551256D03*
X833882Y532206D03*
X840232Y449656D03*
X811657Y468706D03*
X811657Y503631D03*
X938657Y560781D03*
X938657Y548081D03*
X938657Y427431D03*
X837057Y554431D03*
X843407Y570306D03*
X906907Y436956D03*
X818007Y570306D03*
X849757Y494106D03*
X881507Y567131D03*
X929132Y560781D03*
X881507Y509981D03*
X85242Y751357D03*
X53492Y732307D03*
X59842Y649757D03*
X31267Y668807D03*
X31267Y703732D03*
X158267Y760882D03*
X158267Y748182D03*
X158267Y627532D03*
X56667Y754532D03*
X63017Y770407D03*
X126517Y637057D03*
X37617Y770407D03*
X69367Y694207D03*
X101117Y767232D03*
X148742Y760882D03*
X101117Y710082D03*
X280340Y751357D03*
X248590Y732307D03*
X254940Y649757D03*
X226365Y668807D03*
X226365Y703732D03*
X353365Y760882D03*
X353365Y748182D03*
X353365Y627532D03*
X251765Y754532D03*
X258115Y770407D03*
X321615Y637057D03*
X232715Y770407D03*
X264465Y694207D03*
X296215Y767232D03*
X343840Y760882D03*
X296215Y710082D03*
X475437Y751357D03*
X443687Y732307D03*
X450037Y649757D03*
X421462Y668807D03*
X421462Y703732D03*
X548462Y760882D03*
X548462Y748182D03*
X548462Y627532D03*
X446862Y754532D03*
X453212Y770407D03*
X516712Y637057D03*
X427812Y770407D03*
X459562Y694207D03*
X491312Y767232D03*
X538937Y760882D03*
X491312Y710082D03*
X670535Y751357D03*
X638785Y732307D03*
X645135Y649757D03*
X616560Y668807D03*
X616560Y703732D03*
X743560Y760882D03*
X743560Y748182D03*
X743560Y627532D03*
X641960Y754532D03*
X648310Y770407D03*
X711810Y637057D03*
X622910Y770407D03*
X654660Y694207D03*
X686410Y767232D03*
X734035Y760882D03*
X686410Y710082D03*
X865632Y751357D03*
X833882Y732307D03*
X840232Y649757D03*
X811657Y668807D03*
X811657Y703732D03*
X938657Y760882D03*
X938657Y748182D03*
X938657Y627532D03*
X837057Y754532D03*
X843407Y770407D03*
X906907Y637057D03*
X818007Y770407D03*
X849757Y694207D03*
X881507Y767232D03*
X929132Y760882D03*
X881507Y710082D03*
M02*
