G04 EAGLE Gerber RS-274X export*
G75*
%MOMM*%
%FSLAX34Y34*%
%LPD*%
%INSolderpaste Bottom*%
%IPPOS*%
%AMOC8*
5,1,8,0,0,1.08239X$1,22.5*%
G01*
%ADD10R,0.950000X1.300000*%
%ADD11R,3.250000X1.300000*%
%ADD12R,1.400000X1.000000*%
%ADD13R,2.540000X1.270000*%
%ADD14R,1.270000X2.540000*%
%ADD15R,1.600000X2.300000*%


D10*
X41322Y80552D03*
X64222Y80552D03*
X87122Y80552D03*
D11*
X64222Y13552D03*
D12*
X50116Y142450D03*
X72116Y132950D03*
X72116Y151950D03*
D13*
X149992Y55004D03*
X149992Y95004D03*
X14992Y50004D03*
X114992Y50004D03*
X149992Y175004D03*
X149992Y135004D03*
X149992Y15004D03*
X14992Y155004D03*
X114992Y25004D03*
D14*
X84992Y175004D03*
X49992Y175004D03*
D15*
X115976Y100758D03*
X115976Y163758D03*
D12*
X74906Y106350D03*
X52906Y115850D03*
X52906Y96850D03*
D10*
X236420Y80552D03*
X259320Y80552D03*
X282220Y80552D03*
D11*
X259320Y13552D03*
D12*
X245214Y142450D03*
X267214Y132950D03*
X267214Y151950D03*
D13*
X345090Y55004D03*
X345090Y95004D03*
X210090Y50004D03*
X310090Y50004D03*
X345090Y175004D03*
X345090Y135004D03*
X345090Y15004D03*
X210090Y155004D03*
X310090Y25004D03*
D14*
X280090Y175004D03*
X245090Y175004D03*
D15*
X311074Y100758D03*
X311074Y163758D03*
D12*
X270004Y106350D03*
X248004Y115850D03*
X248004Y96850D03*
D10*
X431517Y80552D03*
X454417Y80552D03*
X477317Y80552D03*
D11*
X454417Y13552D03*
D12*
X440311Y142450D03*
X462311Y132950D03*
X462311Y151950D03*
D13*
X540187Y55004D03*
X540187Y95004D03*
X405187Y50004D03*
X505187Y50004D03*
X540187Y175004D03*
X540187Y135004D03*
X540187Y15004D03*
X405187Y155004D03*
X505187Y25004D03*
D14*
X475187Y175004D03*
X440187Y175004D03*
D15*
X506171Y100758D03*
X506171Y163758D03*
D12*
X465101Y106350D03*
X443101Y115850D03*
X443101Y96850D03*
D10*
X626615Y80552D03*
X649515Y80552D03*
X672415Y80552D03*
D11*
X649515Y13552D03*
D12*
X635409Y142450D03*
X657409Y132950D03*
X657409Y151950D03*
D13*
X735285Y55004D03*
X735285Y95004D03*
X600285Y50004D03*
X700285Y50004D03*
X735285Y175004D03*
X735285Y135004D03*
X735285Y15004D03*
X600285Y155004D03*
X700285Y25004D03*
D14*
X670285Y175004D03*
X635285Y175004D03*
D15*
X701269Y100758D03*
X701269Y163758D03*
D12*
X660199Y106350D03*
X638199Y115850D03*
X638199Y96850D03*
D10*
X821712Y80552D03*
X844612Y80552D03*
X867512Y80552D03*
D11*
X844612Y13552D03*
D12*
X830506Y142450D03*
X852506Y132950D03*
X852506Y151950D03*
D13*
X930382Y55004D03*
X930382Y95004D03*
X795382Y50004D03*
X895382Y50004D03*
X930382Y175004D03*
X930382Y135004D03*
X930382Y15004D03*
X795382Y155004D03*
X895382Y25004D03*
D14*
X865382Y175004D03*
X830382Y175004D03*
D15*
X896366Y100758D03*
X896366Y163758D03*
D12*
X855296Y106350D03*
X833296Y115850D03*
X833296Y96850D03*
D10*
X41322Y280653D03*
X64222Y280653D03*
X87122Y280653D03*
D11*
X64222Y213653D03*
D12*
X50116Y342551D03*
X72116Y333051D03*
X72116Y352051D03*
D13*
X149992Y255105D03*
X149992Y295105D03*
X14992Y250105D03*
X114992Y250105D03*
X149992Y375105D03*
X149992Y335105D03*
X149992Y215105D03*
X14992Y355105D03*
X114992Y225105D03*
D14*
X84992Y375105D03*
X49992Y375105D03*
D15*
X115976Y300859D03*
X115976Y363859D03*
D12*
X74906Y306451D03*
X52906Y315951D03*
X52906Y296951D03*
D10*
X236420Y280653D03*
X259320Y280653D03*
X282220Y280653D03*
D11*
X259320Y213653D03*
D12*
X245214Y342551D03*
X267214Y333051D03*
X267214Y352051D03*
D13*
X345090Y255105D03*
X345090Y295105D03*
X210090Y250105D03*
X310090Y250105D03*
X345090Y375105D03*
X345090Y335105D03*
X345090Y215105D03*
X210090Y355105D03*
X310090Y225105D03*
D14*
X280090Y375105D03*
X245090Y375105D03*
D15*
X311074Y300859D03*
X311074Y363859D03*
D12*
X270004Y306451D03*
X248004Y315951D03*
X248004Y296951D03*
D10*
X431517Y280653D03*
X454417Y280653D03*
X477317Y280653D03*
D11*
X454417Y213653D03*
D12*
X440311Y342551D03*
X462311Y333051D03*
X462311Y352051D03*
D13*
X540187Y255105D03*
X540187Y295105D03*
X405187Y250105D03*
X505187Y250105D03*
X540187Y375105D03*
X540187Y335105D03*
X540187Y215105D03*
X405187Y355105D03*
X505187Y225105D03*
D14*
X475187Y375105D03*
X440187Y375105D03*
D15*
X506171Y300859D03*
X506171Y363859D03*
D12*
X465101Y306451D03*
X443101Y315951D03*
X443101Y296951D03*
D10*
X626615Y280653D03*
X649515Y280653D03*
X672415Y280653D03*
D11*
X649515Y213653D03*
D12*
X635409Y342551D03*
X657409Y333051D03*
X657409Y352051D03*
D13*
X735285Y255105D03*
X735285Y295105D03*
X600285Y250105D03*
X700285Y250105D03*
X735285Y375105D03*
X735285Y335105D03*
X735285Y215105D03*
X600285Y355105D03*
X700285Y225105D03*
D14*
X670285Y375105D03*
X635285Y375105D03*
D15*
X701269Y300859D03*
X701269Y363859D03*
D12*
X660199Y306451D03*
X638199Y315951D03*
X638199Y296951D03*
D10*
X821712Y280653D03*
X844612Y280653D03*
X867512Y280653D03*
D11*
X844612Y213653D03*
D12*
X830506Y342551D03*
X852506Y333051D03*
X852506Y352051D03*
D13*
X930382Y255105D03*
X930382Y295105D03*
X795382Y250105D03*
X895382Y250105D03*
X930382Y375105D03*
X930382Y335105D03*
X930382Y215105D03*
X795382Y355105D03*
X895382Y225105D03*
D14*
X865382Y375105D03*
X830382Y375105D03*
D15*
X896366Y300859D03*
X896366Y363859D03*
D12*
X855296Y306451D03*
X833296Y315951D03*
X833296Y296951D03*
D10*
X41322Y480754D03*
X64222Y480754D03*
X87122Y480754D03*
D11*
X64222Y413754D03*
D12*
X50116Y542652D03*
X72116Y533152D03*
X72116Y552152D03*
D13*
X149992Y455206D03*
X149992Y495206D03*
X14992Y450206D03*
X114992Y450206D03*
X149992Y575206D03*
X149992Y535206D03*
X149992Y415206D03*
X14992Y555206D03*
X114992Y425206D03*
D14*
X84992Y575206D03*
X49992Y575206D03*
D15*
X115976Y500960D03*
X115976Y563960D03*
D12*
X74906Y506552D03*
X52906Y516052D03*
X52906Y497052D03*
D10*
X236420Y480754D03*
X259320Y480754D03*
X282220Y480754D03*
D11*
X259320Y413754D03*
D12*
X245214Y542652D03*
X267214Y533152D03*
X267214Y552152D03*
D13*
X345090Y455206D03*
X345090Y495206D03*
X210090Y450206D03*
X310090Y450206D03*
X345090Y575206D03*
X345090Y535206D03*
X345090Y415206D03*
X210090Y555206D03*
X310090Y425206D03*
D14*
X280090Y575206D03*
X245090Y575206D03*
D15*
X311074Y500960D03*
X311074Y563960D03*
D12*
X270004Y506552D03*
X248004Y516052D03*
X248004Y497052D03*
D10*
X431517Y480754D03*
X454417Y480754D03*
X477317Y480754D03*
D11*
X454417Y413754D03*
D12*
X440311Y542652D03*
X462311Y533152D03*
X462311Y552152D03*
D13*
X540187Y455206D03*
X540187Y495206D03*
X405187Y450206D03*
X505187Y450206D03*
X540187Y575206D03*
X540187Y535206D03*
X540187Y415206D03*
X405187Y555206D03*
X505187Y425206D03*
D14*
X475187Y575206D03*
X440187Y575206D03*
D15*
X506171Y500960D03*
X506171Y563960D03*
D12*
X465101Y506552D03*
X443101Y516052D03*
X443101Y497052D03*
D10*
X626615Y480754D03*
X649515Y480754D03*
X672415Y480754D03*
D11*
X649515Y413754D03*
D12*
X635409Y542652D03*
X657409Y533152D03*
X657409Y552152D03*
D13*
X735285Y455206D03*
X735285Y495206D03*
X600285Y450206D03*
X700285Y450206D03*
X735285Y575206D03*
X735285Y535206D03*
X735285Y415206D03*
X600285Y555206D03*
X700285Y425206D03*
D14*
X670285Y575206D03*
X635285Y575206D03*
D15*
X701269Y500960D03*
X701269Y563960D03*
D12*
X660199Y506552D03*
X638199Y516052D03*
X638199Y497052D03*
D10*
X821712Y480754D03*
X844612Y480754D03*
X867512Y480754D03*
D11*
X844612Y413754D03*
D12*
X830506Y542652D03*
X852506Y533152D03*
X852506Y552152D03*
D13*
X930382Y455206D03*
X930382Y495206D03*
X795382Y450206D03*
X895382Y450206D03*
X930382Y575206D03*
X930382Y535206D03*
X930382Y415206D03*
X795382Y555206D03*
X895382Y425206D03*
D14*
X865382Y575206D03*
X830382Y575206D03*
D15*
X896366Y500960D03*
X896366Y563960D03*
D12*
X855296Y506552D03*
X833296Y516052D03*
X833296Y497052D03*
D10*
X41322Y680855D03*
X64222Y680855D03*
X87122Y680855D03*
D11*
X64222Y613855D03*
D12*
X50116Y742753D03*
X72116Y733253D03*
X72116Y752253D03*
D13*
X149992Y655307D03*
X149992Y695307D03*
X14992Y650307D03*
X114992Y650307D03*
X149992Y775307D03*
X149992Y735307D03*
X149992Y615307D03*
X14992Y755307D03*
X114992Y625307D03*
D14*
X84992Y775307D03*
X49992Y775307D03*
D15*
X115976Y701061D03*
X115976Y764061D03*
D12*
X74906Y706653D03*
X52906Y716153D03*
X52906Y697153D03*
D10*
X236420Y680855D03*
X259320Y680855D03*
X282220Y680855D03*
D11*
X259320Y613855D03*
D12*
X245214Y742753D03*
X267214Y733253D03*
X267214Y752253D03*
D13*
X345090Y655307D03*
X345090Y695307D03*
X210090Y650307D03*
X310090Y650307D03*
X345090Y775307D03*
X345090Y735307D03*
X345090Y615307D03*
X210090Y755307D03*
X310090Y625307D03*
D14*
X280090Y775307D03*
X245090Y775307D03*
D15*
X311074Y701061D03*
X311074Y764061D03*
D12*
X270004Y706653D03*
X248004Y716153D03*
X248004Y697153D03*
D10*
X431517Y680855D03*
X454417Y680855D03*
X477317Y680855D03*
D11*
X454417Y613855D03*
D12*
X440311Y742753D03*
X462311Y733253D03*
X462311Y752253D03*
D13*
X540187Y655307D03*
X540187Y695307D03*
X405187Y650307D03*
X505187Y650307D03*
X540187Y775307D03*
X540187Y735307D03*
X540187Y615307D03*
X405187Y755307D03*
X505187Y625307D03*
D14*
X475187Y775307D03*
X440187Y775307D03*
D15*
X506171Y701061D03*
X506171Y764061D03*
D12*
X465101Y706653D03*
X443101Y716153D03*
X443101Y697153D03*
D10*
X626615Y680855D03*
X649515Y680855D03*
X672415Y680855D03*
D11*
X649515Y613855D03*
D12*
X635409Y742753D03*
X657409Y733253D03*
X657409Y752253D03*
D13*
X735285Y655307D03*
X735285Y695307D03*
X600285Y650307D03*
X700285Y650307D03*
X735285Y775307D03*
X735285Y735307D03*
X735285Y615307D03*
X600285Y755307D03*
X700285Y625307D03*
D14*
X670285Y775307D03*
X635285Y775307D03*
D15*
X701269Y701061D03*
X701269Y764061D03*
D12*
X660199Y706653D03*
X638199Y716153D03*
X638199Y697153D03*
D10*
X821712Y680855D03*
X844612Y680855D03*
X867512Y680855D03*
D11*
X844612Y613855D03*
D12*
X830506Y742753D03*
X852506Y733253D03*
X852506Y752253D03*
D13*
X930382Y655307D03*
X930382Y695307D03*
X795382Y650307D03*
X895382Y650307D03*
X930382Y775307D03*
X930382Y735307D03*
X930382Y615307D03*
X795382Y755307D03*
X895382Y625307D03*
D14*
X865382Y775307D03*
X830382Y775307D03*
D15*
X896366Y701061D03*
X896366Y764061D03*
D12*
X855296Y706653D03*
X833296Y716153D03*
X833296Y697153D03*
M02*
