%TF.GenerationSoftware,KiCad,Pcbnew,7.0.2-0*%
%TF.CreationDate,2023-08-06T21:01:32-06:00*%
%TF.ProjectId,panel_soil2,70616e65-6c5f-4736-9f69-6c322e6b6963,rev?*%
%TF.SameCoordinates,Original*%
%TF.FileFunction,Copper,L2,Bot*%
%TF.FilePolarity,Positive*%
%FSLAX46Y46*%
G04 Gerber Fmt 4.6, Leading zero omitted, Abs format (unit mm)*
G04 Created by KiCad (PCBNEW 7.0.2-0) date 2023-08-06 21:01:32*
%MOMM*%
%LPD*%
G01*
G04 APERTURE LIST*
G04 Aperture macros list*
%AMHorizOval*
0 Thick line with rounded ends*
0 $1 width*
0 $2 $3 position (X,Y) of the first rounded end (center of the circle)*
0 $4 $5 position (X,Y) of the second rounded end (center of the circle)*
0 Add line between two ends*
20,1,$1,$2,$3,$4,$5,0*
0 Add two circle primitives to create the rounded ends*
1,1,$1,$2,$3*
1,1,$1,$4,$5*%
%AMRotRect*
0 Rectangle, with rotation*
0 The origin of the aperture is its center*
0 $1 length*
0 $2 width*
0 $3 Rotation angle, in degrees counterclockwise*
0 Add horizontal line*
21,1,$1,$2,0,0,$3*%
G04 Aperture macros list end*
%TA.AperFunction,ComponentPad*%
%ADD10R,1.700000X1.700000*%
%TD*%
%TA.AperFunction,ComponentPad*%
%ADD11O,1.524000X3.048000*%
%TD*%
%TA.AperFunction,ComponentPad*%
%ADD12RotRect,1.700000X1.700000X30.000000*%
%TD*%
%TA.AperFunction,ComponentPad*%
%ADD13HorizOval,1.700000X0.000000X0.000000X0.000000X0.000000X0*%
%TD*%
%TA.AperFunction,ComponentPad*%
%ADD14O,1.700000X1.700000*%
%TD*%
%TA.AperFunction,ViaPad*%
%ADD15C,0.600000*%
%TD*%
%TA.AperFunction,Conductor*%
%ADD16C,0.200000*%
%TD*%
G04 APERTURE END LIST*
D10*
%TO.P,J4,1,Pin_1*%
%TO.N,Board_11-/VCC33*%
X196582800Y-77646406D03*
%TD*%
D11*
%TO.P,-_13_10_+0,1,1*%
%TO.N,Board_1-/GND*%
X129405000Y-38646404D03*
%TO.P,-_13_10_+0,2,2*%
%TO.N,Board_1-/P013*%
X131945000Y-38646404D03*
%TO.P,-_13_10_+0,3,3*%
%TO.N,Board_1-/P010*%
X134485000Y-38646404D03*
%TO.P,-_13_10_+0,4,4*%
%TO.N,Board_1-/VCC33*%
X137025000Y-38646404D03*
%TD*%
D10*
%TO.P,J4,1,Pin_1*%
%TO.N,Board_14-/VCC33*%
X167448900Y-105146407D03*
%TD*%
D11*
%TO.P,-_13_10_+0,1,1*%
%TO.N,Board_15-/GND*%
X187672800Y-121146407D03*
%TO.P,-_13_10_+0,2,2*%
%TO.N,Board_15-/P013*%
X190212800Y-121146407D03*
%TO.P,-_13_10_+0,3,3*%
%TO.N,Board_15-/P010*%
X192752800Y-121146407D03*
%TO.P,-_13_10_+0,4,4*%
%TO.N,Board_15-/VCC33*%
X195292800Y-121146407D03*
%TD*%
D10*
%TO.P,J5,1,Pin_1*%
%TO.N,Board_2-/GND*%
X158948900Y-41846404D03*
%TD*%
D12*
%TO.P,J1,1,Pin_1*%
%TO.N,Board_7-Net-(J1-Pin_1)*%
X180782800Y-61455505D03*
D13*
%TO.P,J1,2,Pin_2*%
%TO.N,Board_7-Net-(J1-Pin_2)*%
X182052800Y-63655210D03*
%TO.P,J1,3,Pin_3*%
%TO.N,Board_7-/VCC33*%
X183322800Y-65854914D03*
%TO.P,J1,4,Pin_4*%
%TO.N,Board_7-/GND*%
X184592800Y-68054619D03*
%TD*%
D11*
%TO.P,-_13_10_+0,1,1*%
%TO.N,Board_0-/GND*%
X100271100Y-38646404D03*
%TO.P,-_13_10_+0,2,2*%
%TO.N,Board_0-/P013*%
X102811100Y-38646404D03*
%TO.P,-_13_10_+0,3,3*%
%TO.N,Board_0-/P010*%
X105351100Y-38646404D03*
%TO.P,-_13_10_+0,4,4*%
%TO.N,Board_0-/VCC33*%
X107891100Y-38646404D03*
%TD*%
%TO.P,-_13_10_+0,1,1*%
%TO.N,Board_11-/GND*%
X187672800Y-93646406D03*
%TO.P,-_13_10_+0,2,2*%
%TO.N,Board_11-/P013*%
X190212800Y-93646406D03*
%TO.P,-_13_10_+0,3,3*%
%TO.N,Board_11-/P010*%
X192752800Y-93646406D03*
%TO.P,-_13_10_+0,4,4*%
%TO.N,Board_11-/VCC33*%
X195292800Y-93646406D03*
%TD*%
%TO.P,-_13_10_+0,1,1*%
%TO.N,Board_10-/GND*%
X158538900Y-93646406D03*
%TO.P,-_13_10_+0,2,2*%
%TO.N,Board_10-/P013*%
X161078900Y-93646406D03*
%TO.P,-_13_10_+0,3,3*%
%TO.N,Board_10-/P010*%
X163618900Y-93646406D03*
%TO.P,-_13_10_+0,4,4*%
%TO.N,Board_10-/VCC33*%
X166158900Y-93646406D03*
%TD*%
D10*
%TO.P,J4,1,Pin_1*%
%TO.N,Board_9-/VCC33*%
X138315000Y-77646406D03*
%TD*%
D12*
%TO.P,J1,1,Pin_1*%
%TO.N,Board_1-Net-(J1-Pin_1)*%
X122515000Y-33955504D03*
D13*
%TO.P,J1,2,Pin_2*%
%TO.N,Board_1-Net-(J1-Pin_2)*%
X123785000Y-36155209D03*
%TO.P,J1,3,Pin_3*%
%TO.N,Board_1-/VCC33*%
X125055000Y-38354913D03*
%TO.P,J1,4,Pin_4*%
%TO.N,Board_1-/GND*%
X126325000Y-40554618D03*
%TD*%
D10*
%TO.P,J4,1,Pin_1*%
%TO.N,Board_5-/VCC33*%
X138315000Y-50146405D03*
%TD*%
%TO.P,J3,1,Pin_1*%
%TO.N,Board_12-/GND*%
X99881100Y-105646407D03*
D14*
%TO.P,J3,2,Pin_2*%
%TO.N,Board_12-/VCC33*%
X102421100Y-105646407D03*
%TO.P,J3,3,Pin_3*%
%TO.N,Board_12-Net-(J3-Pin_3)*%
X104961100Y-105646407D03*
%TD*%
D10*
%TO.P,J3,1,Pin_1*%
%TO.N,Board_15-/GND*%
X187282800Y-105646407D03*
D14*
%TO.P,J3,2,Pin_2*%
%TO.N,Board_15-/VCC33*%
X189822800Y-105646407D03*
%TO.P,J3,3,Pin_3*%
%TO.N,Board_15-Net-(J3-Pin_3)*%
X192362800Y-105646407D03*
%TD*%
D11*
%TO.P,-_13_10_+0,1,1*%
%TO.N,Board_6-/GND*%
X158538900Y-66146405D03*
%TO.P,-_13_10_+0,2,2*%
%TO.N,Board_6-/P013*%
X161078900Y-66146405D03*
%TO.P,-_13_10_+0,3,3*%
%TO.N,Board_6-/P010*%
X163618900Y-66146405D03*
%TO.P,-_13_10_+0,4,4*%
%TO.N,Board_6-/VCC33*%
X166158900Y-66146405D03*
%TD*%
D10*
%TO.P,J3,1,Pin_1*%
%TO.N,Board_6-/GND*%
X158148900Y-50646405D03*
D14*
%TO.P,J3,2,Pin_2*%
%TO.N,Board_6-/VCC33*%
X160688900Y-50646405D03*
%TO.P,J3,3,Pin_3*%
%TO.N,Board_6-Net-(J3-Pin_3)*%
X163228900Y-50646405D03*
%TD*%
D11*
%TO.P,-_13_10_+0,1,1*%
%TO.N,Board_4-/GND*%
X100271100Y-66146405D03*
%TO.P,-_13_10_+0,2,2*%
%TO.N,Board_4-/P013*%
X102811100Y-66146405D03*
%TO.P,-_13_10_+0,3,3*%
%TO.N,Board_4-/P010*%
X105351100Y-66146405D03*
%TO.P,-_13_10_+0,4,4*%
%TO.N,Board_4-/VCC33*%
X107891100Y-66146405D03*
%TD*%
D12*
%TO.P,J1,1,Pin_1*%
%TO.N,Board_4-Net-(J1-Pin_1)*%
X93381100Y-61455505D03*
D13*
%TO.P,J1,2,Pin_2*%
%TO.N,Board_4-Net-(J1-Pin_2)*%
X94651100Y-63655210D03*
%TO.P,J1,3,Pin_3*%
%TO.N,Board_4-/VCC33*%
X95921100Y-65854914D03*
%TO.P,J1,4,Pin_4*%
%TO.N,Board_4-/GND*%
X97191100Y-68054619D03*
%TD*%
D10*
%TO.P,J4,1,Pin_1*%
%TO.N,Board_15-/VCC33*%
X196582800Y-105146407D03*
%TD*%
%TO.P,J3,1,Pin_1*%
%TO.N,Board_1-/GND*%
X129015000Y-23146404D03*
D14*
%TO.P,J3,2,Pin_2*%
%TO.N,Board_1-/VCC33*%
X131555000Y-23146404D03*
%TO.P,J3,3,Pin_3*%
%TO.N,Board_1-Net-(J3-Pin_3)*%
X134095000Y-23146404D03*
%TD*%
D12*
%TO.P,J1,1,Pin_1*%
%TO.N,Board_12-Net-(J1-Pin_1)*%
X93381100Y-116455507D03*
D13*
%TO.P,J1,2,Pin_2*%
%TO.N,Board_12-Net-(J1-Pin_2)*%
X94651100Y-118655212D03*
%TO.P,J1,3,Pin_3*%
%TO.N,Board_12-/VCC33*%
X95921100Y-120854916D03*
%TO.P,J1,4,Pin_4*%
%TO.N,Board_12-/GND*%
X97191100Y-123054621D03*
%TD*%
D11*
%TO.P,-_13_10_+0,1,1*%
%TO.N,Board_8-/GND*%
X100271100Y-93646406D03*
%TO.P,-_13_10_+0,2,2*%
%TO.N,Board_8-/P013*%
X102811100Y-93646406D03*
%TO.P,-_13_10_+0,3,3*%
%TO.N,Board_8-/P010*%
X105351100Y-93646406D03*
%TO.P,-_13_10_+0,4,4*%
%TO.N,Board_8-/VCC33*%
X107891100Y-93646406D03*
%TD*%
%TO.P,-_13_10_+0,1,1*%
%TO.N,Board_13-/GND*%
X129405000Y-121146407D03*
%TO.P,-_13_10_+0,2,2*%
%TO.N,Board_13-/P013*%
X131945000Y-121146407D03*
%TO.P,-_13_10_+0,3,3*%
%TO.N,Board_13-/P010*%
X134485000Y-121146407D03*
%TO.P,-_13_10_+0,4,4*%
%TO.N,Board_13-/VCC33*%
X137025000Y-121146407D03*
%TD*%
D10*
%TO.P,J4,1,Pin_1*%
%TO.N,Board_1-/VCC33*%
X138315000Y-22646404D03*
%TD*%
%TO.P,J4,1,Pin_1*%
%TO.N,Board_12-/VCC33*%
X109181100Y-105146407D03*
%TD*%
%TO.P,J5,1,Pin_1*%
%TO.N,Board_8-/GND*%
X100681100Y-96846406D03*
%TD*%
D11*
%TO.P,-_13_10_+0,1,1*%
%TO.N,Board_3-/GND*%
X187672800Y-38646404D03*
%TO.P,-_13_10_+0,2,2*%
%TO.N,Board_3-/P013*%
X190212800Y-38646404D03*
%TO.P,-_13_10_+0,3,3*%
%TO.N,Board_3-/P010*%
X192752800Y-38646404D03*
%TO.P,-_13_10_+0,4,4*%
%TO.N,Board_3-/VCC33*%
X195292800Y-38646404D03*
%TD*%
D10*
%TO.P,J3,1,Pin_1*%
%TO.N,Board_9-/GND*%
X129015000Y-78146406D03*
D14*
%TO.P,J3,2,Pin_2*%
%TO.N,Board_9-/VCC33*%
X131555000Y-78146406D03*
%TO.P,J3,3,Pin_3*%
%TO.N,Board_9-Net-(J3-Pin_3)*%
X134095000Y-78146406D03*
%TD*%
D10*
%TO.P,J3,1,Pin_1*%
%TO.N,Board_0-/GND*%
X99881100Y-23146404D03*
D14*
%TO.P,J3,2,Pin_2*%
%TO.N,Board_0-/VCC33*%
X102421100Y-23146404D03*
%TO.P,J3,3,Pin_3*%
%TO.N,Board_0-Net-(J3-Pin_3)*%
X104961100Y-23146404D03*
%TD*%
D10*
%TO.P,J3,1,Pin_1*%
%TO.N,Board_13-/GND*%
X129015000Y-105646407D03*
D14*
%TO.P,J3,2,Pin_2*%
%TO.N,Board_13-/VCC33*%
X131555000Y-105646407D03*
%TO.P,J3,3,Pin_3*%
%TO.N,Board_13-Net-(J3-Pin_3)*%
X134095000Y-105646407D03*
%TD*%
D10*
%TO.P,J5,1,Pin_1*%
%TO.N,Board_15-/GND*%
X188082800Y-124346407D03*
%TD*%
D12*
%TO.P,J1,1,Pin_1*%
%TO.N,Board_11-Net-(J1-Pin_1)*%
X180782800Y-88955506D03*
D13*
%TO.P,J1,2,Pin_2*%
%TO.N,Board_11-Net-(J1-Pin_2)*%
X182052800Y-91155211D03*
%TO.P,J1,3,Pin_3*%
%TO.N,Board_11-/VCC33*%
X183322800Y-93354915D03*
%TO.P,J1,4,Pin_4*%
%TO.N,Board_11-/GND*%
X184592800Y-95554620D03*
%TD*%
D10*
%TO.P,J5,1,Pin_1*%
%TO.N,Board_14-/GND*%
X158948900Y-124346407D03*
%TD*%
D12*
%TO.P,J1,1,Pin_1*%
%TO.N,Board_15-Net-(J1-Pin_1)*%
X180782800Y-116455507D03*
D13*
%TO.P,J1,2,Pin_2*%
%TO.N,Board_15-Net-(J1-Pin_2)*%
X182052800Y-118655212D03*
%TO.P,J1,3,Pin_3*%
%TO.N,Board_15-/VCC33*%
X183322800Y-120854916D03*
%TO.P,J1,4,Pin_4*%
%TO.N,Board_15-/GND*%
X184592800Y-123054621D03*
%TD*%
D10*
%TO.P,J5,1,Pin_1*%
%TO.N,Board_3-/GND*%
X188082800Y-41846404D03*
%TD*%
%TO.P,J5,1,Pin_1*%
%TO.N,Board_13-/GND*%
X129815000Y-124346407D03*
%TD*%
%TO.P,J4,1,Pin_1*%
%TO.N,Board_13-/VCC33*%
X138315000Y-105146407D03*
%TD*%
D11*
%TO.P,-_13_10_+0,1,1*%
%TO.N,Board_7-/GND*%
X187672800Y-66146405D03*
%TO.P,-_13_10_+0,2,2*%
%TO.N,Board_7-/P013*%
X190212800Y-66146405D03*
%TO.P,-_13_10_+0,3,3*%
%TO.N,Board_7-/P010*%
X192752800Y-66146405D03*
%TO.P,-_13_10_+0,4,4*%
%TO.N,Board_7-/VCC33*%
X195292800Y-66146405D03*
%TD*%
D10*
%TO.P,J5,1,Pin_1*%
%TO.N,Board_12-/GND*%
X100681100Y-124346407D03*
%TD*%
D12*
%TO.P,J1,1,Pin_1*%
%TO.N,Board_14-Net-(J1-Pin_1)*%
X151648900Y-116455507D03*
D13*
%TO.P,J1,2,Pin_2*%
%TO.N,Board_14-Net-(J1-Pin_2)*%
X152918900Y-118655212D03*
%TO.P,J1,3,Pin_3*%
%TO.N,Board_14-/VCC33*%
X154188900Y-120854916D03*
%TO.P,J1,4,Pin_4*%
%TO.N,Board_14-/GND*%
X155458900Y-123054621D03*
%TD*%
D11*
%TO.P,-_13_10_+0,1,1*%
%TO.N,Board_5-/GND*%
X129405000Y-66146405D03*
%TO.P,-_13_10_+0,2,2*%
%TO.N,Board_5-/P013*%
X131945000Y-66146405D03*
%TO.P,-_13_10_+0,3,3*%
%TO.N,Board_5-/P010*%
X134485000Y-66146405D03*
%TO.P,-_13_10_+0,4,4*%
%TO.N,Board_5-/VCC33*%
X137025000Y-66146405D03*
%TD*%
D12*
%TO.P,J1,1,Pin_1*%
%TO.N,Board_3-Net-(J1-Pin_1)*%
X180782800Y-33955504D03*
D13*
%TO.P,J1,2,Pin_2*%
%TO.N,Board_3-Net-(J1-Pin_2)*%
X182052800Y-36155209D03*
%TO.P,J1,3,Pin_3*%
%TO.N,Board_3-/VCC33*%
X183322800Y-38354913D03*
%TO.P,J1,4,Pin_4*%
%TO.N,Board_3-/GND*%
X184592800Y-40554618D03*
%TD*%
D10*
%TO.P,J3,1,Pin_1*%
%TO.N,Board_11-/GND*%
X187282800Y-78146406D03*
D14*
%TO.P,J3,2,Pin_2*%
%TO.N,Board_11-/VCC33*%
X189822800Y-78146406D03*
%TO.P,J3,3,Pin_3*%
%TO.N,Board_11-Net-(J3-Pin_3)*%
X192362800Y-78146406D03*
%TD*%
D10*
%TO.P,J3,1,Pin_1*%
%TO.N,Board_8-/GND*%
X99881100Y-78146406D03*
D14*
%TO.P,J3,2,Pin_2*%
%TO.N,Board_8-/VCC33*%
X102421100Y-78146406D03*
%TO.P,J3,3,Pin_3*%
%TO.N,Board_8-Net-(J3-Pin_3)*%
X104961100Y-78146406D03*
%TD*%
D12*
%TO.P,J1,1,Pin_1*%
%TO.N,Board_6-Net-(J1-Pin_1)*%
X151648900Y-61455505D03*
D13*
%TO.P,J1,2,Pin_2*%
%TO.N,Board_6-Net-(J1-Pin_2)*%
X152918900Y-63655210D03*
%TO.P,J1,3,Pin_3*%
%TO.N,Board_6-/VCC33*%
X154188900Y-65854914D03*
%TO.P,J1,4,Pin_4*%
%TO.N,Board_6-/GND*%
X155458900Y-68054619D03*
%TD*%
D10*
%TO.P,J4,1,Pin_1*%
%TO.N,Board_4-/VCC33*%
X109181100Y-50146405D03*
%TD*%
%TO.P,J5,1,Pin_1*%
%TO.N,Board_10-/GND*%
X158948900Y-96846406D03*
%TD*%
%TO.P,J4,1,Pin_1*%
%TO.N,Board_2-/VCC33*%
X167448900Y-22646404D03*
%TD*%
%TO.P,J3,1,Pin_1*%
%TO.N,Board_3-/GND*%
X187282800Y-23146404D03*
D14*
%TO.P,J3,2,Pin_2*%
%TO.N,Board_3-/VCC33*%
X189822800Y-23146404D03*
%TO.P,J3,3,Pin_3*%
%TO.N,Board_3-Net-(J3-Pin_3)*%
X192362800Y-23146404D03*
%TD*%
D10*
%TO.P,J5,1,Pin_1*%
%TO.N,Board_0-/GND*%
X100681100Y-41846404D03*
%TD*%
%TO.P,J3,1,Pin_1*%
%TO.N,Board_10-/GND*%
X158148900Y-78146406D03*
D14*
%TO.P,J3,2,Pin_2*%
%TO.N,Board_10-/VCC33*%
X160688900Y-78146406D03*
%TO.P,J3,3,Pin_3*%
%TO.N,Board_10-Net-(J3-Pin_3)*%
X163228900Y-78146406D03*
%TD*%
D10*
%TO.P,J3,1,Pin_1*%
%TO.N,Board_14-/GND*%
X158148900Y-105646407D03*
D14*
%TO.P,J3,2,Pin_2*%
%TO.N,Board_14-/VCC33*%
X160688900Y-105646407D03*
%TO.P,J3,3,Pin_3*%
%TO.N,Board_14-Net-(J3-Pin_3)*%
X163228900Y-105646407D03*
%TD*%
D10*
%TO.P,J4,1,Pin_1*%
%TO.N,Board_0-/VCC33*%
X109181100Y-22646404D03*
%TD*%
D12*
%TO.P,J1,1,Pin_1*%
%TO.N,Board_0-Net-(J1-Pin_1)*%
X93381100Y-33955504D03*
D13*
%TO.P,J1,2,Pin_2*%
%TO.N,Board_0-Net-(J1-Pin_2)*%
X94651100Y-36155209D03*
%TO.P,J1,3,Pin_3*%
%TO.N,Board_0-/VCC33*%
X95921100Y-38354913D03*
%TO.P,J1,4,Pin_4*%
%TO.N,Board_0-/GND*%
X97191100Y-40554618D03*
%TD*%
D11*
%TO.P,-_13_10_+0,1,1*%
%TO.N,Board_12-/GND*%
X100271100Y-121146407D03*
%TO.P,-_13_10_+0,2,2*%
%TO.N,Board_12-/P013*%
X102811100Y-121146407D03*
%TO.P,-_13_10_+0,3,3*%
%TO.N,Board_12-/P010*%
X105351100Y-121146407D03*
%TO.P,-_13_10_+0,4,4*%
%TO.N,Board_12-/VCC33*%
X107891100Y-121146407D03*
%TD*%
D10*
%TO.P,J5,1,Pin_1*%
%TO.N,Board_11-/GND*%
X188082800Y-96846406D03*
%TD*%
D12*
%TO.P,J1,1,Pin_1*%
%TO.N,Board_9-Net-(J1-Pin_1)*%
X122515000Y-88955506D03*
D13*
%TO.P,J1,2,Pin_2*%
%TO.N,Board_9-Net-(J1-Pin_2)*%
X123785000Y-91155211D03*
%TO.P,J1,3,Pin_3*%
%TO.N,Board_9-/VCC33*%
X125055000Y-93354915D03*
%TO.P,J1,4,Pin_4*%
%TO.N,Board_9-/GND*%
X126325000Y-95554620D03*
%TD*%
D10*
%TO.P,J3,1,Pin_1*%
%TO.N,Board_2-/GND*%
X158148900Y-23146404D03*
D14*
%TO.P,J3,2,Pin_2*%
%TO.N,Board_2-/VCC33*%
X160688900Y-23146404D03*
%TO.P,J3,3,Pin_3*%
%TO.N,Board_2-Net-(J3-Pin_3)*%
X163228900Y-23146404D03*
%TD*%
D10*
%TO.P,J4,1,Pin_1*%
%TO.N,Board_8-/VCC33*%
X109181100Y-77646406D03*
%TD*%
%TO.P,J5,1,Pin_1*%
%TO.N,Board_5-/GND*%
X129815000Y-69346405D03*
%TD*%
%TO.P,J3,1,Pin_1*%
%TO.N,Board_4-/GND*%
X99881100Y-50646405D03*
D14*
%TO.P,J3,2,Pin_2*%
%TO.N,Board_4-/VCC33*%
X102421100Y-50646405D03*
%TO.P,J3,3,Pin_3*%
%TO.N,Board_4-Net-(J3-Pin_3)*%
X104961100Y-50646405D03*
%TD*%
D11*
%TO.P,-_13_10_+0,1,1*%
%TO.N,Board_2-/GND*%
X158538900Y-38646404D03*
%TO.P,-_13_10_+0,2,2*%
%TO.N,Board_2-/P013*%
X161078900Y-38646404D03*
%TO.P,-_13_10_+0,3,3*%
%TO.N,Board_2-/P010*%
X163618900Y-38646404D03*
%TO.P,-_13_10_+0,4,4*%
%TO.N,Board_2-/VCC33*%
X166158900Y-38646404D03*
%TD*%
%TO.P,-_13_10_+0,1,1*%
%TO.N,Board_14-/GND*%
X158538900Y-121146407D03*
%TO.P,-_13_10_+0,2,2*%
%TO.N,Board_14-/P013*%
X161078900Y-121146407D03*
%TO.P,-_13_10_+0,3,3*%
%TO.N,Board_14-/P010*%
X163618900Y-121146407D03*
%TO.P,-_13_10_+0,4,4*%
%TO.N,Board_14-/VCC33*%
X166158900Y-121146407D03*
%TD*%
D12*
%TO.P,J1,1,Pin_1*%
%TO.N,Board_13-Net-(J1-Pin_1)*%
X122515000Y-116455507D03*
D13*
%TO.P,J1,2,Pin_2*%
%TO.N,Board_13-Net-(J1-Pin_2)*%
X123785000Y-118655212D03*
%TO.P,J1,3,Pin_3*%
%TO.N,Board_13-/VCC33*%
X125055000Y-120854916D03*
%TO.P,J1,4,Pin_4*%
%TO.N,Board_13-/GND*%
X126325000Y-123054621D03*
%TD*%
D11*
%TO.P,-_13_10_+0,1,1*%
%TO.N,Board_9-/GND*%
X129405000Y-93646406D03*
%TO.P,-_13_10_+0,2,2*%
%TO.N,Board_9-/P013*%
X131945000Y-93646406D03*
%TO.P,-_13_10_+0,3,3*%
%TO.N,Board_9-/P010*%
X134485000Y-93646406D03*
%TO.P,-_13_10_+0,4,4*%
%TO.N,Board_9-/VCC33*%
X137025000Y-93646406D03*
%TD*%
D10*
%TO.P,J3,1,Pin_1*%
%TO.N,Board_7-/GND*%
X187282800Y-50646405D03*
D14*
%TO.P,J3,2,Pin_2*%
%TO.N,Board_7-/VCC33*%
X189822800Y-50646405D03*
%TO.P,J3,3,Pin_3*%
%TO.N,Board_7-Net-(J3-Pin_3)*%
X192362800Y-50646405D03*
%TD*%
D10*
%TO.P,J4,1,Pin_1*%
%TO.N,Board_7-/VCC33*%
X196582800Y-50146405D03*
%TD*%
D12*
%TO.P,J1,1,Pin_1*%
%TO.N,Board_10-Net-(J1-Pin_1)*%
X151648900Y-88955506D03*
D13*
%TO.P,J1,2,Pin_2*%
%TO.N,Board_10-Net-(J1-Pin_2)*%
X152918900Y-91155211D03*
%TO.P,J1,3,Pin_3*%
%TO.N,Board_10-/VCC33*%
X154188900Y-93354915D03*
%TO.P,J1,4,Pin_4*%
%TO.N,Board_10-/GND*%
X155458900Y-95554620D03*
%TD*%
D10*
%TO.P,J5,1,Pin_1*%
%TO.N,Board_1-/GND*%
X129815000Y-41846404D03*
%TD*%
D12*
%TO.P,J1,1,Pin_1*%
%TO.N,Board_5-Net-(J1-Pin_1)*%
X122515000Y-61455505D03*
D13*
%TO.P,J1,2,Pin_2*%
%TO.N,Board_5-Net-(J1-Pin_2)*%
X123785000Y-63655210D03*
%TO.P,J1,3,Pin_3*%
%TO.N,Board_5-/VCC33*%
X125055000Y-65854914D03*
%TO.P,J1,4,Pin_4*%
%TO.N,Board_5-/GND*%
X126325000Y-68054619D03*
%TD*%
D10*
%TO.P,J5,1,Pin_1*%
%TO.N,Board_9-/GND*%
X129815000Y-96846406D03*
%TD*%
D12*
%TO.P,J1,1,Pin_1*%
%TO.N,Board_2-Net-(J1-Pin_1)*%
X151648900Y-33955504D03*
D13*
%TO.P,J1,2,Pin_2*%
%TO.N,Board_2-Net-(J1-Pin_2)*%
X152918900Y-36155209D03*
%TO.P,J1,3,Pin_3*%
%TO.N,Board_2-/VCC33*%
X154188900Y-38354913D03*
%TO.P,J1,4,Pin_4*%
%TO.N,Board_2-/GND*%
X155458900Y-40554618D03*
%TD*%
D10*
%TO.P,J5,1,Pin_1*%
%TO.N,Board_4-/GND*%
X100681100Y-69346405D03*
%TD*%
%TO.P,J5,1,Pin_1*%
%TO.N,Board_7-/GND*%
X188082800Y-69346405D03*
%TD*%
%TO.P,J5,1,Pin_1*%
%TO.N,Board_6-/GND*%
X158948900Y-69346405D03*
%TD*%
%TO.P,J4,1,Pin_1*%
%TO.N,Board_3-/VCC33*%
X196582800Y-22646404D03*
%TD*%
%TO.P,J4,1,Pin_1*%
%TO.N,Board_6-/VCC33*%
X167448900Y-50146405D03*
%TD*%
D12*
%TO.P,J1,1,Pin_1*%
%TO.N,Board_8-Net-(J1-Pin_1)*%
X93381100Y-88955506D03*
D13*
%TO.P,J1,2,Pin_2*%
%TO.N,Board_8-Net-(J1-Pin_2)*%
X94651100Y-91155211D03*
%TO.P,J1,3,Pin_3*%
%TO.N,Board_8-/VCC33*%
X95921100Y-93354915D03*
%TO.P,J1,4,Pin_4*%
%TO.N,Board_8-/GND*%
X97191100Y-95554620D03*
%TD*%
D10*
%TO.P,J4,1,Pin_1*%
%TO.N,Board_10-/VCC33*%
X167448900Y-77646406D03*
%TD*%
%TO.P,J3,1,Pin_1*%
%TO.N,Board_5-/GND*%
X129015000Y-50646405D03*
D14*
%TO.P,J3,2,Pin_2*%
%TO.N,Board_5-/VCC33*%
X131555000Y-50646405D03*
%TO.P,J3,3,Pin_3*%
%TO.N,Board_5-Net-(J3-Pin_3)*%
X134095000Y-50646405D03*
%TD*%
D15*
%TO.N,Board_0-/GND*%
X110881100Y-35046404D03*
X96781100Y-26846404D03*
%TO.N,Board_0-/P010*%
X103081100Y-35794504D03*
%TO.N,Board_0-/P013*%
X104081100Y-35794504D03*
%TO.N,Board_0-/VCC33*%
X97981100Y-23946404D03*
%TO.N,Board_0-Net-(J1-Pin_1)*%
X107281100Y-34846404D03*
%TO.N,Board_0-Net-(J1-Pin_2)*%
X97381100Y-35746404D03*
%TO.N,Board_0-Net-(J3-Pin_3)*%
X96881100Y-30846404D03*
%TO.N,Board_1-/GND*%
X140015000Y-35046404D03*
X125915000Y-26846404D03*
%TO.N,Board_1-/P010*%
X132215000Y-35794504D03*
%TO.N,Board_1-/P013*%
X133215000Y-35794504D03*
%TO.N,Board_1-/VCC33*%
X127115000Y-23946404D03*
%TO.N,Board_1-Net-(J1-Pin_1)*%
X136415000Y-34846404D03*
%TO.N,Board_1-Net-(J1-Pin_2)*%
X126515000Y-35746404D03*
%TO.N,Board_1-Net-(J3-Pin_3)*%
X126015000Y-30846404D03*
%TO.N,Board_2-/GND*%
X155048900Y-26846404D03*
X169148900Y-35046404D03*
%TO.N,Board_2-/P010*%
X161348900Y-35794504D03*
%TO.N,Board_2-/P013*%
X162348900Y-35794504D03*
%TO.N,Board_2-/VCC33*%
X156248900Y-23946404D03*
%TO.N,Board_2-Net-(J1-Pin_1)*%
X165548900Y-34846404D03*
%TO.N,Board_2-Net-(J1-Pin_2)*%
X155648900Y-35746404D03*
%TO.N,Board_2-Net-(J3-Pin_3)*%
X155148900Y-30846404D03*
%TO.N,Board_3-/GND*%
X184182800Y-26846404D03*
X198282800Y-35046404D03*
%TO.N,Board_3-/P010*%
X190482800Y-35794504D03*
%TO.N,Board_3-/P013*%
X191482800Y-35794504D03*
%TO.N,Board_3-/VCC33*%
X185382800Y-23946404D03*
%TO.N,Board_3-Net-(J1-Pin_1)*%
X194682800Y-34846404D03*
%TO.N,Board_3-Net-(J1-Pin_2)*%
X184782800Y-35746404D03*
%TO.N,Board_3-Net-(J3-Pin_3)*%
X184282800Y-30846404D03*
%TO.N,Board_4-/GND*%
X96781100Y-54346405D03*
X110881100Y-62546405D03*
%TO.N,Board_4-/P010*%
X103081100Y-63294505D03*
%TO.N,Board_4-/P013*%
X104081100Y-63294505D03*
%TO.N,Board_4-/VCC33*%
X97981100Y-51446405D03*
%TO.N,Board_4-Net-(J1-Pin_1)*%
X107281100Y-62346405D03*
%TO.N,Board_4-Net-(J1-Pin_2)*%
X97381100Y-63246405D03*
%TO.N,Board_4-Net-(J3-Pin_3)*%
X96881100Y-58346405D03*
%TO.N,Board_5-/GND*%
X140015000Y-62546405D03*
X125915000Y-54346405D03*
%TO.N,Board_5-/P010*%
X132215000Y-63294505D03*
%TO.N,Board_5-/P013*%
X133215000Y-63294505D03*
%TO.N,Board_5-/VCC33*%
X127115000Y-51446405D03*
%TO.N,Board_5-Net-(J1-Pin_1)*%
X136415000Y-62346405D03*
%TO.N,Board_5-Net-(J1-Pin_2)*%
X126515000Y-63246405D03*
%TO.N,Board_5-Net-(J3-Pin_3)*%
X126015000Y-58346405D03*
%TO.N,Board_6-/GND*%
X155048900Y-54346405D03*
X169148900Y-62546405D03*
%TO.N,Board_6-/P010*%
X161348900Y-63294505D03*
%TO.N,Board_6-/P013*%
X162348900Y-63294505D03*
%TO.N,Board_6-/VCC33*%
X156248900Y-51446405D03*
%TO.N,Board_6-Net-(J1-Pin_1)*%
X165548900Y-62346405D03*
%TO.N,Board_6-Net-(J1-Pin_2)*%
X155648900Y-63246405D03*
%TO.N,Board_6-Net-(J3-Pin_3)*%
X155148900Y-58346405D03*
%TO.N,Board_7-/GND*%
X198282800Y-62546405D03*
X184182800Y-54346405D03*
%TO.N,Board_7-/P010*%
X190482800Y-63294505D03*
%TO.N,Board_7-/P013*%
X191482800Y-63294505D03*
%TO.N,Board_7-/VCC33*%
X185382800Y-51446405D03*
%TO.N,Board_7-Net-(J1-Pin_1)*%
X194682800Y-62346405D03*
%TO.N,Board_7-Net-(J1-Pin_2)*%
X184782800Y-63246405D03*
%TO.N,Board_7-Net-(J3-Pin_3)*%
X184282800Y-58346405D03*
%TO.N,Board_8-/GND*%
X110881100Y-90046406D03*
X96781100Y-81846406D03*
%TO.N,Board_8-/P010*%
X103081100Y-90794506D03*
%TO.N,Board_8-/P013*%
X104081100Y-90794506D03*
%TO.N,Board_8-/VCC33*%
X97981100Y-78946406D03*
%TO.N,Board_8-Net-(J1-Pin_1)*%
X107281100Y-89846406D03*
%TO.N,Board_8-Net-(J1-Pin_2)*%
X97381100Y-90746406D03*
%TO.N,Board_8-Net-(J3-Pin_3)*%
X96881100Y-85846406D03*
%TO.N,Board_9-/GND*%
X140015000Y-90046406D03*
X125915000Y-81846406D03*
%TO.N,Board_9-/P010*%
X132215000Y-90794506D03*
%TO.N,Board_9-/P013*%
X133215000Y-90794506D03*
%TO.N,Board_9-/VCC33*%
X127115000Y-78946406D03*
%TO.N,Board_9-Net-(J1-Pin_1)*%
X136415000Y-89846406D03*
%TO.N,Board_9-Net-(J1-Pin_2)*%
X126515000Y-90746406D03*
%TO.N,Board_9-Net-(J3-Pin_3)*%
X126015000Y-85846406D03*
%TO.N,Board_10-/GND*%
X155048900Y-81846406D03*
X169148900Y-90046406D03*
%TO.N,Board_10-/P010*%
X161348900Y-90794506D03*
%TO.N,Board_10-/P013*%
X162348900Y-90794506D03*
%TO.N,Board_10-/VCC33*%
X156248900Y-78946406D03*
%TO.N,Board_10-Net-(J1-Pin_1)*%
X165548900Y-89846406D03*
%TO.N,Board_10-Net-(J1-Pin_2)*%
X155648900Y-90746406D03*
%TO.N,Board_10-Net-(J3-Pin_3)*%
X155148900Y-85846406D03*
%TO.N,Board_11-/GND*%
X198282800Y-90046406D03*
X184182800Y-81846406D03*
%TO.N,Board_11-/P010*%
X190482800Y-90794506D03*
%TO.N,Board_11-/P013*%
X191482800Y-90794506D03*
%TO.N,Board_11-/VCC33*%
X185382800Y-78946406D03*
%TO.N,Board_11-Net-(J1-Pin_1)*%
X194682800Y-89846406D03*
%TO.N,Board_11-Net-(J1-Pin_2)*%
X184782800Y-90746406D03*
%TO.N,Board_11-Net-(J3-Pin_3)*%
X184282800Y-85846406D03*
%TO.N,Board_12-/GND*%
X110881100Y-117546407D03*
X96781100Y-109346407D03*
%TO.N,Board_12-/P010*%
X103081100Y-118294507D03*
%TO.N,Board_12-/P013*%
X104081100Y-118294507D03*
%TO.N,Board_12-/VCC33*%
X97981100Y-106446407D03*
%TO.N,Board_12-Net-(J1-Pin_1)*%
X107281100Y-117346407D03*
%TO.N,Board_12-Net-(J1-Pin_2)*%
X97381100Y-118246407D03*
%TO.N,Board_12-Net-(J3-Pin_3)*%
X96881100Y-113346407D03*
%TO.N,Board_13-/GND*%
X140015000Y-117546407D03*
X125915000Y-109346407D03*
%TO.N,Board_13-/P010*%
X132215000Y-118294507D03*
%TO.N,Board_13-/P013*%
X133215000Y-118294507D03*
%TO.N,Board_13-/VCC33*%
X127115000Y-106446407D03*
%TO.N,Board_13-Net-(J1-Pin_1)*%
X136415000Y-117346407D03*
%TO.N,Board_13-Net-(J1-Pin_2)*%
X126515000Y-118246407D03*
%TO.N,Board_13-Net-(J3-Pin_3)*%
X126015000Y-113346407D03*
%TO.N,Board_14-/GND*%
X155048900Y-109346407D03*
X169148900Y-117546407D03*
%TO.N,Board_14-/P010*%
X161348900Y-118294507D03*
%TO.N,Board_14-/P013*%
X162348900Y-118294507D03*
%TO.N,Board_14-/VCC33*%
X156248900Y-106446407D03*
%TO.N,Board_14-Net-(J1-Pin_1)*%
X165548900Y-117346407D03*
%TO.N,Board_14-Net-(J1-Pin_2)*%
X155648900Y-118246407D03*
%TO.N,Board_14-Net-(J3-Pin_3)*%
X155148900Y-113346407D03*
%TO.N,Board_15-/GND*%
X184182800Y-109346407D03*
X198282800Y-117546407D03*
%TO.N,Board_15-/P010*%
X190482800Y-118294507D03*
%TO.N,Board_15-/P013*%
X191482800Y-118294507D03*
%TO.N,Board_15-/VCC33*%
X185382800Y-106446407D03*
%TO.N,Board_15-Net-(J1-Pin_1)*%
X194682800Y-117346407D03*
%TO.N,Board_15-Net-(J1-Pin_2)*%
X184782800Y-118246407D03*
%TO.N,Board_15-Net-(J3-Pin_3)*%
X184282800Y-113346407D03*
%TD*%
D16*
%TO.N,Board_0-/GND*%
X107887678Y-40846404D02*
X110881100Y-37852982D01*
X102271100Y-40846404D02*
X107887678Y-40846404D01*
X110881100Y-37852982D02*
X110881100Y-35046404D01*
X97191100Y-40554618D02*
X99099314Y-38646404D01*
X100271100Y-38846404D02*
X102271100Y-40846404D01*
X99881100Y-23146404D02*
X96781100Y-26246404D01*
X96781100Y-26246404D02*
X96781100Y-26846404D01*
X100271100Y-38646404D02*
X100271100Y-38846404D01*
X99099314Y-38646404D02*
X100271100Y-38646404D01*
%TO.N,Board_0-/P010*%
X105351100Y-38646404D02*
X105351100Y-38064504D01*
X105351100Y-38064504D02*
X103081100Y-35794504D01*
%TO.N,Board_0-/P013*%
X102947988Y-35146404D02*
X103433000Y-35146404D01*
X102528700Y-35565692D02*
X102947988Y-35146404D01*
X103433000Y-35146404D02*
X104081100Y-35794504D01*
X102811100Y-38646404D02*
X102528700Y-38364004D01*
X102528700Y-38364004D02*
X102528700Y-35565692D01*
%TO.N,Board_0-/VCC33*%
X102421100Y-23146404D02*
X101318700Y-22044004D01*
X97981100Y-22946404D02*
X97981100Y-23946404D01*
X101318700Y-22044004D02*
X98883500Y-22044004D01*
X98883500Y-22044004D02*
X97981100Y-22946404D01*
X106114700Y-40422804D02*
X107891100Y-38646404D01*
X101796700Y-37464226D02*
X101796700Y-39828582D01*
X101202478Y-36870004D02*
X101796700Y-37464226D01*
X102390922Y-40422804D02*
X106114700Y-40422804D01*
X95921100Y-38354913D02*
X97406009Y-36870004D01*
X97406009Y-36870004D02*
X101202478Y-36870004D01*
X101796700Y-39828582D02*
X102390922Y-40422804D01*
%TO.N,Board_0-Net-(J1-Pin_1)*%
X93675200Y-34249604D02*
X106684300Y-34249604D01*
X106684300Y-34249604D02*
X107281100Y-34846404D01*
X93381100Y-33955504D02*
X93675200Y-34249604D01*
%TO.N,Board_0-Net-(J1-Pin_2)*%
X96972295Y-36155209D02*
X94651100Y-36155209D01*
X97381100Y-35746404D02*
X96972295Y-36155209D01*
%TO.N,Board_0-Net-(J3-Pin_3)*%
X98737532Y-21691604D02*
X96228700Y-24200436D01*
X101464669Y-21691604D02*
X98737532Y-21691604D01*
X103691916Y-21877220D02*
X101650284Y-21877220D01*
X104961100Y-23146404D02*
X103691916Y-21877220D01*
X96228700Y-24200436D02*
X96228700Y-28294004D01*
X96881100Y-28946404D02*
X96881100Y-30846404D01*
X96228700Y-28294004D02*
X96881100Y-28946404D01*
X101650284Y-21877220D02*
X101464669Y-21691604D01*
%TO.N,Board_1-/GND*%
X131405000Y-40846404D02*
X137021578Y-40846404D01*
X129015000Y-23146404D02*
X125915000Y-26246404D01*
X126325000Y-40554618D02*
X128233214Y-38646404D01*
X128233214Y-38646404D02*
X129405000Y-38646404D01*
X125915000Y-26246404D02*
X125915000Y-26846404D01*
X129405000Y-38846404D02*
X131405000Y-40846404D01*
X137021578Y-40846404D02*
X140015000Y-37852982D01*
X129405000Y-38646404D02*
X129405000Y-38846404D01*
X140015000Y-37852982D02*
X140015000Y-35046404D01*
%TO.N,Board_1-/P010*%
X134485000Y-38646404D02*
X134485000Y-38064504D01*
X134485000Y-38064504D02*
X132215000Y-35794504D01*
%TO.N,Board_1-/P013*%
X131662600Y-35565692D02*
X132081888Y-35146404D01*
X131662600Y-38364004D02*
X131662600Y-35565692D01*
X131945000Y-38646404D02*
X131662600Y-38364004D01*
X132566900Y-35146404D02*
X133215000Y-35794504D01*
X132081888Y-35146404D02*
X132566900Y-35146404D01*
%TO.N,Board_1-/VCC33*%
X130336378Y-36870004D02*
X130930600Y-37464226D01*
X130930600Y-39828582D02*
X131524822Y-40422804D01*
X128017400Y-22044004D02*
X127115000Y-22946404D01*
X127115000Y-22946404D02*
X127115000Y-23946404D01*
X131555000Y-23146404D02*
X130452600Y-22044004D01*
X125055000Y-38354913D02*
X126539909Y-36870004D01*
X126539909Y-36870004D02*
X130336378Y-36870004D01*
X131524822Y-40422804D02*
X135248600Y-40422804D01*
X130452600Y-22044004D02*
X128017400Y-22044004D01*
X135248600Y-40422804D02*
X137025000Y-38646404D01*
X130930600Y-37464226D02*
X130930600Y-39828582D01*
%TO.N,Board_1-Net-(J1-Pin_1)*%
X122809100Y-34249604D02*
X135818200Y-34249604D01*
X122515000Y-33955504D02*
X122809100Y-34249604D01*
X135818200Y-34249604D02*
X136415000Y-34846404D01*
%TO.N,Board_1-Net-(J1-Pin_2)*%
X126106195Y-36155209D02*
X123785000Y-36155209D01*
X126515000Y-35746404D02*
X126106195Y-36155209D01*
%TO.N,Board_1-Net-(J3-Pin_3)*%
X132825816Y-21877220D02*
X130784184Y-21877220D01*
X134095000Y-23146404D02*
X132825816Y-21877220D01*
X126015000Y-28946404D02*
X126015000Y-30846404D01*
X130598569Y-21691604D02*
X127871432Y-21691604D01*
X127871432Y-21691604D02*
X125362600Y-24200436D01*
X125362600Y-28294004D02*
X126015000Y-28946404D01*
X125362600Y-24200436D02*
X125362600Y-28294004D01*
X130784184Y-21877220D02*
X130598569Y-21691604D01*
%TO.N,Board_2-/GND*%
X157367114Y-38646404D02*
X158538900Y-38646404D01*
X169148900Y-37852982D02*
X169148900Y-35046404D01*
X158538900Y-38646404D02*
X158538900Y-38846404D01*
X155458900Y-40554618D02*
X157367114Y-38646404D01*
X160538900Y-40846404D02*
X166155478Y-40846404D01*
X155048900Y-26246404D02*
X155048900Y-26846404D01*
X158148900Y-23146404D02*
X155048900Y-26246404D01*
X158538900Y-38846404D02*
X160538900Y-40846404D01*
X166155478Y-40846404D02*
X169148900Y-37852982D01*
%TO.N,Board_2-/P010*%
X163618900Y-38646404D02*
X163618900Y-38064504D01*
X163618900Y-38064504D02*
X161348900Y-35794504D01*
%TO.N,Board_2-/P013*%
X160796500Y-35565692D02*
X161215788Y-35146404D01*
X160796500Y-38364004D02*
X160796500Y-35565692D01*
X161078900Y-38646404D02*
X160796500Y-38364004D01*
X161215788Y-35146404D02*
X161700800Y-35146404D01*
X161700800Y-35146404D02*
X162348900Y-35794504D01*
%TO.N,Board_2-/VCC33*%
X160688900Y-23146404D02*
X159586500Y-22044004D01*
X155673809Y-36870004D02*
X159470278Y-36870004D01*
X164382500Y-40422804D02*
X166158900Y-38646404D01*
X160658722Y-40422804D02*
X164382500Y-40422804D01*
X156248900Y-22946404D02*
X156248900Y-23946404D01*
X159586500Y-22044004D02*
X157151300Y-22044004D01*
X160064500Y-39828582D02*
X160658722Y-40422804D01*
X159470278Y-36870004D02*
X160064500Y-37464226D01*
X157151300Y-22044004D02*
X156248900Y-22946404D01*
X154188900Y-38354913D02*
X155673809Y-36870004D01*
X160064500Y-37464226D02*
X160064500Y-39828582D01*
%TO.N,Board_2-Net-(J1-Pin_1)*%
X151648900Y-33955504D02*
X151943000Y-34249604D01*
X164952100Y-34249604D02*
X165548900Y-34846404D01*
X151943000Y-34249604D02*
X164952100Y-34249604D01*
%TO.N,Board_2-Net-(J1-Pin_2)*%
X155648900Y-35746404D02*
X155240095Y-36155209D01*
X155240095Y-36155209D02*
X152918900Y-36155209D01*
%TO.N,Board_2-Net-(J3-Pin_3)*%
X154496500Y-24200436D02*
X154496500Y-28294004D01*
X155148900Y-28946404D02*
X155148900Y-30846404D01*
X161959716Y-21877220D02*
X159918084Y-21877220D01*
X159918084Y-21877220D02*
X159732469Y-21691604D01*
X163228900Y-23146404D02*
X161959716Y-21877220D01*
X154496500Y-28294004D02*
X155148900Y-28946404D01*
X157005332Y-21691604D02*
X154496500Y-24200436D01*
X159732469Y-21691604D02*
X157005332Y-21691604D01*
%TO.N,Board_3-/GND*%
X187672800Y-38846404D02*
X189672800Y-40846404D01*
X187672800Y-38646404D02*
X187672800Y-38846404D01*
X187282800Y-23146404D02*
X184182800Y-26246404D01*
X186501014Y-38646404D02*
X187672800Y-38646404D01*
X198282800Y-37852982D02*
X198282800Y-35046404D01*
X184182800Y-26246404D02*
X184182800Y-26846404D01*
X195289378Y-40846404D02*
X198282800Y-37852982D01*
X189672800Y-40846404D02*
X195289378Y-40846404D01*
X184592800Y-40554618D02*
X186501014Y-38646404D01*
%TO.N,Board_3-/P010*%
X192752800Y-38646404D02*
X192752800Y-38064504D01*
X192752800Y-38064504D02*
X190482800Y-35794504D01*
%TO.N,Board_3-/P013*%
X190834700Y-35146404D02*
X191482800Y-35794504D01*
X189930400Y-38364004D02*
X189930400Y-35565692D01*
X190349688Y-35146404D02*
X190834700Y-35146404D01*
X189930400Y-35565692D02*
X190349688Y-35146404D01*
X190212800Y-38646404D02*
X189930400Y-38364004D01*
%TO.N,Board_3-/VCC33*%
X193516400Y-40422804D02*
X195292800Y-38646404D01*
X189198400Y-39828582D02*
X189792622Y-40422804D01*
X188604178Y-36870004D02*
X189198400Y-37464226D01*
X183322800Y-38354913D02*
X184807709Y-36870004D01*
X185382800Y-22946404D02*
X185382800Y-23946404D01*
X189198400Y-37464226D02*
X189198400Y-39828582D01*
X188720400Y-22044004D02*
X186285200Y-22044004D01*
X184807709Y-36870004D02*
X188604178Y-36870004D01*
X189792622Y-40422804D02*
X193516400Y-40422804D01*
X189822800Y-23146404D02*
X188720400Y-22044004D01*
X186285200Y-22044004D02*
X185382800Y-22946404D01*
%TO.N,Board_3-Net-(J1-Pin_1)*%
X180782800Y-33955504D02*
X181076900Y-34249604D01*
X181076900Y-34249604D02*
X194086000Y-34249604D01*
X194086000Y-34249604D02*
X194682800Y-34846404D01*
%TO.N,Board_3-Net-(J1-Pin_2)*%
X184782800Y-35746404D02*
X184373995Y-36155209D01*
X184373995Y-36155209D02*
X182052800Y-36155209D01*
%TO.N,Board_3-Net-(J3-Pin_3)*%
X183630400Y-24200436D02*
X183630400Y-28294004D01*
X192362800Y-23146404D02*
X191093616Y-21877220D01*
X183630400Y-28294004D02*
X184282800Y-28946404D01*
X191093616Y-21877220D02*
X189051984Y-21877220D01*
X188866369Y-21691604D02*
X186139232Y-21691604D01*
X186139232Y-21691604D02*
X183630400Y-24200436D01*
X184282800Y-28946404D02*
X184282800Y-30846404D01*
X189051984Y-21877220D02*
X188866369Y-21691604D01*
%TO.N,Board_4-/GND*%
X110881100Y-65352983D02*
X110881100Y-62546405D01*
X107887678Y-68346405D02*
X110881100Y-65352983D01*
X97191100Y-68054619D02*
X99099314Y-66146405D01*
X100271100Y-66346405D02*
X102271100Y-68346405D01*
X99099314Y-66146405D02*
X100271100Y-66146405D01*
X99881100Y-50646405D02*
X96781100Y-53746405D01*
X96781100Y-53746405D02*
X96781100Y-54346405D01*
X100271100Y-66146405D02*
X100271100Y-66346405D01*
X102271100Y-68346405D02*
X107887678Y-68346405D01*
%TO.N,Board_4-/P010*%
X105351100Y-66146405D02*
X105351100Y-65564505D01*
X105351100Y-65564505D02*
X103081100Y-63294505D01*
%TO.N,Board_4-/P013*%
X102528700Y-65864005D02*
X102528700Y-63065693D01*
X103433000Y-62646405D02*
X104081100Y-63294505D01*
X102811100Y-66146405D02*
X102528700Y-65864005D01*
X102947988Y-62646405D02*
X103433000Y-62646405D01*
X102528700Y-63065693D02*
X102947988Y-62646405D01*
%TO.N,Board_4-/VCC33*%
X97981100Y-50446405D02*
X97981100Y-51446405D01*
X106114700Y-67922805D02*
X107891100Y-66146405D01*
X97406009Y-64370005D02*
X101202478Y-64370005D01*
X101202478Y-64370005D02*
X101796700Y-64964227D01*
X102421100Y-50646405D02*
X101318700Y-49544005D01*
X101796700Y-67328583D02*
X102390922Y-67922805D01*
X101318700Y-49544005D02*
X98883500Y-49544005D01*
X101796700Y-64964227D02*
X101796700Y-67328583D01*
X95921100Y-65854914D02*
X97406009Y-64370005D01*
X98883500Y-49544005D02*
X97981100Y-50446405D01*
X102390922Y-67922805D02*
X106114700Y-67922805D01*
%TO.N,Board_4-Net-(J1-Pin_1)*%
X93675200Y-61749605D02*
X106684300Y-61749605D01*
X106684300Y-61749605D02*
X107281100Y-62346405D01*
X93381100Y-61455505D02*
X93675200Y-61749605D01*
%TO.N,Board_4-Net-(J1-Pin_2)*%
X97381100Y-63246405D02*
X96972295Y-63655210D01*
X96972295Y-63655210D02*
X94651100Y-63655210D01*
%TO.N,Board_4-Net-(J3-Pin_3)*%
X103691916Y-49377221D02*
X101650284Y-49377221D01*
X98737532Y-49191605D02*
X96228700Y-51700437D01*
X101650284Y-49377221D02*
X101464669Y-49191605D01*
X104961100Y-50646405D02*
X103691916Y-49377221D01*
X101464669Y-49191605D02*
X98737532Y-49191605D01*
X96881100Y-56446405D02*
X96881100Y-58346405D01*
X96228700Y-51700437D02*
X96228700Y-55794005D01*
X96228700Y-55794005D02*
X96881100Y-56446405D01*
%TO.N,Board_5-/GND*%
X131405000Y-68346405D02*
X137021578Y-68346405D01*
X140015000Y-65352983D02*
X140015000Y-62546405D01*
X129015000Y-50646405D02*
X125915000Y-53746405D01*
X137021578Y-68346405D02*
X140015000Y-65352983D01*
X128233214Y-66146405D02*
X129405000Y-66146405D01*
X126325000Y-68054619D02*
X128233214Y-66146405D01*
X125915000Y-53746405D02*
X125915000Y-54346405D01*
X129405000Y-66146405D02*
X129405000Y-66346405D01*
X129405000Y-66346405D02*
X131405000Y-68346405D01*
%TO.N,Board_5-/P010*%
X134485000Y-65564505D02*
X132215000Y-63294505D01*
X134485000Y-66146405D02*
X134485000Y-65564505D01*
%TO.N,Board_5-/P013*%
X132566900Y-62646405D02*
X133215000Y-63294505D01*
X131945000Y-66146405D02*
X131662600Y-65864005D01*
X132081888Y-62646405D02*
X132566900Y-62646405D01*
X131662600Y-65864005D02*
X131662600Y-63065693D01*
X131662600Y-63065693D02*
X132081888Y-62646405D01*
%TO.N,Board_5-/VCC33*%
X125055000Y-65854914D02*
X126539909Y-64370005D01*
X130930600Y-64964227D02*
X130930600Y-67328583D01*
X128017400Y-49544005D02*
X127115000Y-50446405D01*
X131524822Y-67922805D02*
X135248600Y-67922805D01*
X135248600Y-67922805D02*
X137025000Y-66146405D01*
X130452600Y-49544005D02*
X128017400Y-49544005D01*
X130930600Y-67328583D02*
X131524822Y-67922805D01*
X126539909Y-64370005D02*
X130336378Y-64370005D01*
X130336378Y-64370005D02*
X130930600Y-64964227D01*
X127115000Y-50446405D02*
X127115000Y-51446405D01*
X131555000Y-50646405D02*
X130452600Y-49544005D01*
%TO.N,Board_5-Net-(J1-Pin_1)*%
X135818200Y-61749605D02*
X136415000Y-62346405D01*
X122515000Y-61455505D02*
X122809100Y-61749605D01*
X122809100Y-61749605D02*
X135818200Y-61749605D01*
%TO.N,Board_5-Net-(J1-Pin_2)*%
X126106195Y-63655210D02*
X123785000Y-63655210D01*
X126515000Y-63246405D02*
X126106195Y-63655210D01*
%TO.N,Board_5-Net-(J3-Pin_3)*%
X132825816Y-49377221D02*
X130784184Y-49377221D01*
X130598569Y-49191605D02*
X127871432Y-49191605D01*
X130784184Y-49377221D02*
X130598569Y-49191605D01*
X125362600Y-55794005D02*
X126015000Y-56446405D01*
X134095000Y-50646405D02*
X132825816Y-49377221D01*
X127871432Y-49191605D02*
X125362600Y-51700437D01*
X126015000Y-56446405D02*
X126015000Y-58346405D01*
X125362600Y-51700437D02*
X125362600Y-55794005D01*
%TO.N,Board_6-/GND*%
X155458900Y-68054619D02*
X157367114Y-66146405D01*
X160538900Y-68346405D02*
X166155478Y-68346405D01*
X158538900Y-66346405D02*
X160538900Y-68346405D01*
X157367114Y-66146405D02*
X158538900Y-66146405D01*
X166155478Y-68346405D02*
X169148900Y-65352983D01*
X158538900Y-66146405D02*
X158538900Y-66346405D01*
X155048900Y-53746405D02*
X155048900Y-54346405D01*
X169148900Y-65352983D02*
X169148900Y-62546405D01*
X158148900Y-50646405D02*
X155048900Y-53746405D01*
%TO.N,Board_6-/P010*%
X163618900Y-66146405D02*
X163618900Y-65564505D01*
X163618900Y-65564505D02*
X161348900Y-63294505D01*
%TO.N,Board_6-/P013*%
X160796500Y-63065693D02*
X161215788Y-62646405D01*
X160796500Y-65864005D02*
X160796500Y-63065693D01*
X161078900Y-66146405D02*
X160796500Y-65864005D01*
X161700800Y-62646405D02*
X162348900Y-63294505D01*
X161215788Y-62646405D02*
X161700800Y-62646405D01*
%TO.N,Board_6-/VCC33*%
X159586500Y-49544005D02*
X157151300Y-49544005D01*
X160688900Y-50646405D02*
X159586500Y-49544005D01*
X164382500Y-67922805D02*
X166158900Y-66146405D01*
X157151300Y-49544005D02*
X156248900Y-50446405D01*
X160064500Y-67328583D02*
X160658722Y-67922805D01*
X160064500Y-64964227D02*
X160064500Y-67328583D01*
X155673809Y-64370005D02*
X159470278Y-64370005D01*
X160658722Y-67922805D02*
X164382500Y-67922805D01*
X159470278Y-64370005D02*
X160064500Y-64964227D01*
X156248900Y-50446405D02*
X156248900Y-51446405D01*
X154188900Y-65854914D02*
X155673809Y-64370005D01*
%TO.N,Board_6-Net-(J1-Pin_1)*%
X151943000Y-61749605D02*
X164952100Y-61749605D01*
X164952100Y-61749605D02*
X165548900Y-62346405D01*
X151648900Y-61455505D02*
X151943000Y-61749605D01*
%TO.N,Board_6-Net-(J1-Pin_2)*%
X155240095Y-63655210D02*
X152918900Y-63655210D01*
X155648900Y-63246405D02*
X155240095Y-63655210D01*
%TO.N,Board_6-Net-(J3-Pin_3)*%
X159918084Y-49377221D02*
X159732469Y-49191605D01*
X163228900Y-50646405D02*
X161959716Y-49377221D01*
X154496500Y-55794005D02*
X155148900Y-56446405D01*
X154496500Y-51700437D02*
X154496500Y-55794005D01*
X157005332Y-49191605D02*
X154496500Y-51700437D01*
X161959716Y-49377221D02*
X159918084Y-49377221D01*
X159732469Y-49191605D02*
X157005332Y-49191605D01*
X155148900Y-56446405D02*
X155148900Y-58346405D01*
%TO.N,Board_7-/GND*%
X186501014Y-66146405D02*
X187672800Y-66146405D01*
X187672800Y-66146405D02*
X187672800Y-66346405D01*
X189672800Y-68346405D02*
X195289378Y-68346405D01*
X198282800Y-65352983D02*
X198282800Y-62546405D01*
X184592800Y-68054619D02*
X186501014Y-66146405D01*
X187672800Y-66346405D02*
X189672800Y-68346405D01*
X187282800Y-50646405D02*
X184182800Y-53746405D01*
X195289378Y-68346405D02*
X198282800Y-65352983D01*
X184182800Y-53746405D02*
X184182800Y-54346405D01*
%TO.N,Board_7-/P010*%
X192752800Y-66146405D02*
X192752800Y-65564505D01*
X192752800Y-65564505D02*
X190482800Y-63294505D01*
%TO.N,Board_7-/P013*%
X190349688Y-62646405D02*
X190834700Y-62646405D01*
X189930400Y-63065693D02*
X190349688Y-62646405D01*
X189930400Y-65864005D02*
X189930400Y-63065693D01*
X190212800Y-66146405D02*
X189930400Y-65864005D01*
X190834700Y-62646405D02*
X191482800Y-63294505D01*
%TO.N,Board_7-/VCC33*%
X183322800Y-65854914D02*
X184807709Y-64370005D01*
X185382800Y-50446405D02*
X185382800Y-51446405D01*
X186285200Y-49544005D02*
X185382800Y-50446405D01*
X193516400Y-67922805D02*
X195292800Y-66146405D01*
X188720400Y-49544005D02*
X186285200Y-49544005D01*
X189822800Y-50646405D02*
X188720400Y-49544005D01*
X184807709Y-64370005D02*
X188604178Y-64370005D01*
X189198400Y-67328583D02*
X189792622Y-67922805D01*
X188604178Y-64370005D02*
X189198400Y-64964227D01*
X189198400Y-64964227D02*
X189198400Y-67328583D01*
X189792622Y-67922805D02*
X193516400Y-67922805D01*
%TO.N,Board_7-Net-(J1-Pin_1)*%
X194086000Y-61749605D02*
X194682800Y-62346405D01*
X181076900Y-61749605D02*
X194086000Y-61749605D01*
X180782800Y-61455505D02*
X181076900Y-61749605D01*
%TO.N,Board_7-Net-(J1-Pin_2)*%
X184782800Y-63246405D02*
X184373995Y-63655210D01*
X184373995Y-63655210D02*
X182052800Y-63655210D01*
%TO.N,Board_7-Net-(J3-Pin_3)*%
X183630400Y-55794005D02*
X184282800Y-56446405D01*
X189051984Y-49377221D02*
X188866369Y-49191605D01*
X191093616Y-49377221D02*
X189051984Y-49377221D01*
X192362800Y-50646405D02*
X191093616Y-49377221D01*
X183630400Y-51700437D02*
X183630400Y-55794005D01*
X184282800Y-56446405D02*
X184282800Y-58346405D01*
X186139232Y-49191605D02*
X183630400Y-51700437D01*
X188866369Y-49191605D02*
X186139232Y-49191605D01*
%TO.N,Board_8-/GND*%
X99099314Y-93646406D02*
X100271100Y-93646406D01*
X110881100Y-92852984D02*
X110881100Y-90046406D01*
X99881100Y-78146406D02*
X96781100Y-81246406D01*
X100271100Y-93846406D02*
X102271100Y-95846406D01*
X102271100Y-95846406D02*
X107887678Y-95846406D01*
X97191100Y-95554620D02*
X99099314Y-93646406D01*
X100271100Y-93646406D02*
X100271100Y-93846406D01*
X96781100Y-81246406D02*
X96781100Y-81846406D01*
X107887678Y-95846406D02*
X110881100Y-92852984D01*
%TO.N,Board_8-/P010*%
X105351100Y-93064506D02*
X103081100Y-90794506D01*
X105351100Y-93646406D02*
X105351100Y-93064506D01*
%TO.N,Board_8-/P013*%
X103433000Y-90146406D02*
X104081100Y-90794506D01*
X102947988Y-90146406D02*
X103433000Y-90146406D01*
X102528700Y-90565694D02*
X102947988Y-90146406D01*
X102811100Y-93646406D02*
X102528700Y-93364006D01*
X102528700Y-93364006D02*
X102528700Y-90565694D01*
%TO.N,Board_8-/VCC33*%
X101796700Y-94828584D02*
X102390922Y-95422806D01*
X101318700Y-77044006D02*
X98883500Y-77044006D01*
X102390922Y-95422806D02*
X106114700Y-95422806D01*
X101796700Y-92464228D02*
X101796700Y-94828584D01*
X98883500Y-77044006D02*
X97981100Y-77946406D01*
X102421100Y-78146406D02*
X101318700Y-77044006D01*
X97406009Y-91870006D02*
X101202478Y-91870006D01*
X97981100Y-77946406D02*
X97981100Y-78946406D01*
X101202478Y-91870006D02*
X101796700Y-92464228D01*
X106114700Y-95422806D02*
X107891100Y-93646406D01*
X95921100Y-93354915D02*
X97406009Y-91870006D01*
%TO.N,Board_8-Net-(J1-Pin_1)*%
X106684300Y-89249606D02*
X107281100Y-89846406D01*
X93381100Y-88955506D02*
X93675200Y-89249606D01*
X93675200Y-89249606D02*
X106684300Y-89249606D01*
%TO.N,Board_8-Net-(J1-Pin_2)*%
X96972295Y-91155211D02*
X94651100Y-91155211D01*
X97381100Y-90746406D02*
X96972295Y-91155211D01*
%TO.N,Board_8-Net-(J3-Pin_3)*%
X103691916Y-76877222D02*
X101650284Y-76877222D01*
X96881100Y-83946406D02*
X96881100Y-85846406D01*
X101464669Y-76691606D02*
X98737532Y-76691606D01*
X98737532Y-76691606D02*
X96228700Y-79200438D01*
X104961100Y-78146406D02*
X103691916Y-76877222D01*
X96228700Y-79200438D02*
X96228700Y-83294006D01*
X96228700Y-83294006D02*
X96881100Y-83946406D01*
X101650284Y-76877222D02*
X101464669Y-76691606D01*
%TO.N,Board_9-/GND*%
X126325000Y-95554620D02*
X128233214Y-93646406D01*
X129015000Y-78146406D02*
X125915000Y-81246406D01*
X129405000Y-93846406D02*
X131405000Y-95846406D01*
X131405000Y-95846406D02*
X137021578Y-95846406D01*
X128233214Y-93646406D02*
X129405000Y-93646406D01*
X125915000Y-81246406D02*
X125915000Y-81846406D01*
X129405000Y-93646406D02*
X129405000Y-93846406D01*
X137021578Y-95846406D02*
X140015000Y-92852984D01*
X140015000Y-92852984D02*
X140015000Y-90046406D01*
%TO.N,Board_9-/P010*%
X134485000Y-93646406D02*
X134485000Y-93064506D01*
X134485000Y-93064506D02*
X132215000Y-90794506D01*
%TO.N,Board_9-/P013*%
X132566900Y-90146406D02*
X133215000Y-90794506D01*
X131662600Y-90565694D02*
X132081888Y-90146406D01*
X131945000Y-93646406D02*
X131662600Y-93364006D01*
X131662600Y-93364006D02*
X131662600Y-90565694D01*
X132081888Y-90146406D02*
X132566900Y-90146406D01*
%TO.N,Board_9-/VCC33*%
X131555000Y-78146406D02*
X130452600Y-77044006D01*
X126539909Y-91870006D02*
X130336378Y-91870006D01*
X125055000Y-93354915D02*
X126539909Y-91870006D01*
X127115000Y-77946406D02*
X127115000Y-78946406D01*
X130930600Y-92464228D02*
X130930600Y-94828584D01*
X128017400Y-77044006D02*
X127115000Y-77946406D01*
X135248600Y-95422806D02*
X137025000Y-93646406D01*
X130930600Y-94828584D02*
X131524822Y-95422806D01*
X130336378Y-91870006D02*
X130930600Y-92464228D01*
X130452600Y-77044006D02*
X128017400Y-77044006D01*
X131524822Y-95422806D02*
X135248600Y-95422806D01*
%TO.N,Board_9-Net-(J1-Pin_1)*%
X122809100Y-89249606D02*
X135818200Y-89249606D01*
X122515000Y-88955506D02*
X122809100Y-89249606D01*
X135818200Y-89249606D02*
X136415000Y-89846406D01*
%TO.N,Board_9-Net-(J1-Pin_2)*%
X126515000Y-90746406D02*
X126106195Y-91155211D01*
X126106195Y-91155211D02*
X123785000Y-91155211D01*
%TO.N,Board_9-Net-(J3-Pin_3)*%
X126015000Y-83946406D02*
X126015000Y-85846406D01*
X125362600Y-83294006D02*
X126015000Y-83946406D01*
X130784184Y-76877222D02*
X130598569Y-76691606D01*
X134095000Y-78146406D02*
X132825816Y-76877222D01*
X130598569Y-76691606D02*
X127871432Y-76691606D01*
X127871432Y-76691606D02*
X125362600Y-79200438D01*
X132825816Y-76877222D02*
X130784184Y-76877222D01*
X125362600Y-79200438D02*
X125362600Y-83294006D01*
%TO.N,Board_10-/GND*%
X166155478Y-95846406D02*
X169148900Y-92852984D01*
X155048900Y-81246406D02*
X155048900Y-81846406D01*
X158148900Y-78146406D02*
X155048900Y-81246406D01*
X160538900Y-95846406D02*
X166155478Y-95846406D01*
X169148900Y-92852984D02*
X169148900Y-90046406D01*
X157367114Y-93646406D02*
X158538900Y-93646406D01*
X155458900Y-95554620D02*
X157367114Y-93646406D01*
X158538900Y-93846406D02*
X160538900Y-95846406D01*
X158538900Y-93646406D02*
X158538900Y-93846406D01*
%TO.N,Board_10-/P010*%
X163618900Y-93646406D02*
X163618900Y-93064506D01*
X163618900Y-93064506D02*
X161348900Y-90794506D01*
%TO.N,Board_10-/P013*%
X161700800Y-90146406D02*
X162348900Y-90794506D01*
X161078900Y-93646406D02*
X160796500Y-93364006D01*
X160796500Y-90565694D02*
X161215788Y-90146406D01*
X161215788Y-90146406D02*
X161700800Y-90146406D01*
X160796500Y-93364006D02*
X160796500Y-90565694D01*
%TO.N,Board_10-/VCC33*%
X164382500Y-95422806D02*
X166158900Y-93646406D01*
X155673809Y-91870006D02*
X159470278Y-91870006D01*
X159586500Y-77044006D02*
X157151300Y-77044006D01*
X160064500Y-94828584D02*
X160658722Y-95422806D01*
X154188900Y-93354915D02*
X155673809Y-91870006D01*
X156248900Y-77946406D02*
X156248900Y-78946406D01*
X157151300Y-77044006D02*
X156248900Y-77946406D01*
X160064500Y-92464228D02*
X160064500Y-94828584D01*
X160688900Y-78146406D02*
X159586500Y-77044006D01*
X160658722Y-95422806D02*
X164382500Y-95422806D01*
X159470278Y-91870006D02*
X160064500Y-92464228D01*
%TO.N,Board_10-Net-(J1-Pin_1)*%
X164952100Y-89249606D02*
X165548900Y-89846406D01*
X151648900Y-88955506D02*
X151943000Y-89249606D01*
X151943000Y-89249606D02*
X164952100Y-89249606D01*
%TO.N,Board_10-Net-(J1-Pin_2)*%
X155648900Y-90746406D02*
X155240095Y-91155211D01*
X155240095Y-91155211D02*
X152918900Y-91155211D01*
%TO.N,Board_10-Net-(J3-Pin_3)*%
X157005332Y-76691606D02*
X154496500Y-79200438D01*
X161959716Y-76877222D02*
X159918084Y-76877222D01*
X163228900Y-78146406D02*
X161959716Y-76877222D01*
X155148900Y-83946406D02*
X155148900Y-85846406D01*
X154496500Y-79200438D02*
X154496500Y-83294006D01*
X154496500Y-83294006D02*
X155148900Y-83946406D01*
X159732469Y-76691606D02*
X157005332Y-76691606D01*
X159918084Y-76877222D02*
X159732469Y-76691606D01*
%TO.N,Board_11-/GND*%
X186501014Y-93646406D02*
X187672800Y-93646406D01*
X198282800Y-92852984D02*
X198282800Y-90046406D01*
X189672800Y-95846406D02*
X195289378Y-95846406D01*
X187282800Y-78146406D02*
X184182800Y-81246406D01*
X187672800Y-93646406D02*
X187672800Y-93846406D01*
X184592800Y-95554620D02*
X186501014Y-93646406D01*
X187672800Y-93846406D02*
X189672800Y-95846406D01*
X195289378Y-95846406D02*
X198282800Y-92852984D01*
X184182800Y-81246406D02*
X184182800Y-81846406D01*
%TO.N,Board_11-/P010*%
X192752800Y-93064506D02*
X190482800Y-90794506D01*
X192752800Y-93646406D02*
X192752800Y-93064506D01*
%TO.N,Board_11-/P013*%
X190834700Y-90146406D02*
X191482800Y-90794506D01*
X190349688Y-90146406D02*
X190834700Y-90146406D01*
X189930400Y-93364006D02*
X189930400Y-90565694D01*
X189930400Y-90565694D02*
X190349688Y-90146406D01*
X190212800Y-93646406D02*
X189930400Y-93364006D01*
%TO.N,Board_11-/VCC33*%
X188720400Y-77044006D02*
X186285200Y-77044006D01*
X183322800Y-93354915D02*
X184807709Y-91870006D01*
X189198400Y-92464228D02*
X189198400Y-94828584D01*
X184807709Y-91870006D02*
X188604178Y-91870006D01*
X185382800Y-77946406D02*
X185382800Y-78946406D01*
X186285200Y-77044006D02*
X185382800Y-77946406D01*
X188604178Y-91870006D02*
X189198400Y-92464228D01*
X189198400Y-94828584D02*
X189792622Y-95422806D01*
X189822800Y-78146406D02*
X188720400Y-77044006D01*
X193516400Y-95422806D02*
X195292800Y-93646406D01*
X189792622Y-95422806D02*
X193516400Y-95422806D01*
%TO.N,Board_11-Net-(J1-Pin_1)*%
X194086000Y-89249606D02*
X194682800Y-89846406D01*
X180782800Y-88955506D02*
X181076900Y-89249606D01*
X181076900Y-89249606D02*
X194086000Y-89249606D01*
%TO.N,Board_11-Net-(J1-Pin_2)*%
X184373995Y-91155211D02*
X182052800Y-91155211D01*
X184782800Y-90746406D02*
X184373995Y-91155211D01*
%TO.N,Board_11-Net-(J3-Pin_3)*%
X192362800Y-78146406D02*
X191093616Y-76877222D01*
X186139232Y-76691606D02*
X183630400Y-79200438D01*
X183630400Y-79200438D02*
X183630400Y-83294006D01*
X184282800Y-83946406D02*
X184282800Y-85846406D01*
X191093616Y-76877222D02*
X189051984Y-76877222D01*
X183630400Y-83294006D02*
X184282800Y-83946406D01*
X189051984Y-76877222D02*
X188866369Y-76691606D01*
X188866369Y-76691606D02*
X186139232Y-76691606D01*
%TO.N,Board_12-/GND*%
X107887678Y-123346407D02*
X110881100Y-120352985D01*
X96781100Y-108746407D02*
X96781100Y-109346407D01*
X110881100Y-120352985D02*
X110881100Y-117546407D01*
X99881100Y-105646407D02*
X96781100Y-108746407D01*
X97191100Y-123054621D02*
X99099314Y-121146407D01*
X99099314Y-121146407D02*
X100271100Y-121146407D01*
X102271100Y-123346407D02*
X107887678Y-123346407D01*
X100271100Y-121346407D02*
X102271100Y-123346407D01*
X100271100Y-121146407D02*
X100271100Y-121346407D01*
%TO.N,Board_12-/P010*%
X105351100Y-120564507D02*
X103081100Y-118294507D01*
X105351100Y-121146407D02*
X105351100Y-120564507D01*
%TO.N,Board_12-/P013*%
X103433000Y-117646407D02*
X104081100Y-118294507D01*
X102528700Y-118065695D02*
X102947988Y-117646407D01*
X102811100Y-121146407D02*
X102528700Y-120864007D01*
X102947988Y-117646407D02*
X103433000Y-117646407D01*
X102528700Y-120864007D02*
X102528700Y-118065695D01*
%TO.N,Board_12-/VCC33*%
X102390922Y-122922807D02*
X106114700Y-122922807D01*
X95921100Y-120854916D02*
X97406009Y-119370007D01*
X101796700Y-122328585D02*
X102390922Y-122922807D01*
X106114700Y-122922807D02*
X107891100Y-121146407D01*
X98883500Y-104544007D02*
X97981100Y-105446407D01*
X97981100Y-105446407D02*
X97981100Y-106446407D01*
X102421100Y-105646407D02*
X101318700Y-104544007D01*
X101796700Y-119964229D02*
X101796700Y-122328585D01*
X97406009Y-119370007D02*
X101202478Y-119370007D01*
X101318700Y-104544007D02*
X98883500Y-104544007D01*
X101202478Y-119370007D02*
X101796700Y-119964229D01*
%TO.N,Board_12-Net-(J1-Pin_1)*%
X93675200Y-116749607D02*
X106684300Y-116749607D01*
X106684300Y-116749607D02*
X107281100Y-117346407D01*
X93381100Y-116455507D02*
X93675200Y-116749607D01*
%TO.N,Board_12-Net-(J1-Pin_2)*%
X96972295Y-118655212D02*
X94651100Y-118655212D01*
X97381100Y-118246407D02*
X96972295Y-118655212D01*
%TO.N,Board_12-Net-(J3-Pin_3)*%
X96228700Y-110794007D02*
X96881100Y-111446407D01*
X96881100Y-111446407D02*
X96881100Y-113346407D01*
X103691916Y-104377223D02*
X101650284Y-104377223D01*
X98737532Y-104191607D02*
X96228700Y-106700439D01*
X101650284Y-104377223D02*
X101464669Y-104191607D01*
X104961100Y-105646407D02*
X103691916Y-104377223D01*
X101464669Y-104191607D02*
X98737532Y-104191607D01*
X96228700Y-106700439D02*
X96228700Y-110794007D01*
%TO.N,Board_13-/GND*%
X140015000Y-120352985D02*
X140015000Y-117546407D01*
X125915000Y-108746407D02*
X125915000Y-109346407D01*
X129405000Y-121346407D02*
X131405000Y-123346407D01*
X126325000Y-123054621D02*
X128233214Y-121146407D01*
X128233214Y-121146407D02*
X129405000Y-121146407D01*
X129015000Y-105646407D02*
X125915000Y-108746407D01*
X131405000Y-123346407D02*
X137021578Y-123346407D01*
X137021578Y-123346407D02*
X140015000Y-120352985D01*
X129405000Y-121146407D02*
X129405000Y-121346407D01*
%TO.N,Board_13-/P010*%
X134485000Y-121146407D02*
X134485000Y-120564507D01*
X134485000Y-120564507D02*
X132215000Y-118294507D01*
%TO.N,Board_13-/P013*%
X131662600Y-120864007D02*
X131662600Y-118065695D01*
X132081888Y-117646407D02*
X132566900Y-117646407D01*
X131662600Y-118065695D02*
X132081888Y-117646407D01*
X131945000Y-121146407D02*
X131662600Y-120864007D01*
X132566900Y-117646407D02*
X133215000Y-118294507D01*
%TO.N,Board_13-/VCC33*%
X131524822Y-122922807D02*
X135248600Y-122922807D01*
X127115000Y-105446407D02*
X127115000Y-106446407D01*
X130452600Y-104544007D02*
X128017400Y-104544007D01*
X131555000Y-105646407D02*
X130452600Y-104544007D01*
X130336378Y-119370007D02*
X130930600Y-119964229D01*
X130930600Y-122328585D02*
X131524822Y-122922807D01*
X135248600Y-122922807D02*
X137025000Y-121146407D01*
X125055000Y-120854916D02*
X126539909Y-119370007D01*
X128017400Y-104544007D02*
X127115000Y-105446407D01*
X126539909Y-119370007D02*
X130336378Y-119370007D01*
X130930600Y-119964229D02*
X130930600Y-122328585D01*
%TO.N,Board_13-Net-(J1-Pin_1)*%
X135818200Y-116749607D02*
X136415000Y-117346407D01*
X122515000Y-116455507D02*
X122809100Y-116749607D01*
X122809100Y-116749607D02*
X135818200Y-116749607D01*
%TO.N,Board_13-Net-(J1-Pin_2)*%
X126106195Y-118655212D02*
X123785000Y-118655212D01*
X126515000Y-118246407D02*
X126106195Y-118655212D01*
%TO.N,Board_13-Net-(J3-Pin_3)*%
X125362600Y-110794007D02*
X126015000Y-111446407D01*
X132825816Y-104377223D02*
X130784184Y-104377223D01*
X126015000Y-111446407D02*
X126015000Y-113346407D01*
X130598569Y-104191607D02*
X127871432Y-104191607D01*
X130784184Y-104377223D02*
X130598569Y-104191607D01*
X134095000Y-105646407D02*
X132825816Y-104377223D01*
X125362600Y-106700439D02*
X125362600Y-110794007D01*
X127871432Y-104191607D02*
X125362600Y-106700439D01*
%TO.N,Board_14-/GND*%
X160538900Y-123346407D02*
X166155478Y-123346407D01*
X158148900Y-105646407D02*
X155048900Y-108746407D01*
X155458900Y-123054621D02*
X157367114Y-121146407D01*
X155048900Y-108746407D02*
X155048900Y-109346407D01*
X158538900Y-121346407D02*
X160538900Y-123346407D01*
X166155478Y-123346407D02*
X169148900Y-120352985D01*
X157367114Y-121146407D02*
X158538900Y-121146407D01*
X169148900Y-120352985D02*
X169148900Y-117546407D01*
X158538900Y-121146407D02*
X158538900Y-121346407D01*
%TO.N,Board_14-/P010*%
X163618900Y-120564507D02*
X161348900Y-118294507D01*
X163618900Y-121146407D02*
X163618900Y-120564507D01*
%TO.N,Board_14-/P013*%
X161700800Y-117646407D02*
X162348900Y-118294507D01*
X161215788Y-117646407D02*
X161700800Y-117646407D01*
X160796500Y-120864007D02*
X160796500Y-118065695D01*
X160796500Y-118065695D02*
X161215788Y-117646407D01*
X161078900Y-121146407D02*
X160796500Y-120864007D01*
%TO.N,Board_14-/VCC33*%
X159470278Y-119370007D02*
X160064500Y-119964229D01*
X160064500Y-119964229D02*
X160064500Y-122328585D01*
X160688900Y-105646407D02*
X159586500Y-104544007D01*
X160658722Y-122922807D02*
X164382500Y-122922807D01*
X160064500Y-122328585D02*
X160658722Y-122922807D01*
X159586500Y-104544007D02*
X157151300Y-104544007D01*
X155673809Y-119370007D02*
X159470278Y-119370007D01*
X164382500Y-122922807D02*
X166158900Y-121146407D01*
X157151300Y-104544007D02*
X156248900Y-105446407D01*
X156248900Y-105446407D02*
X156248900Y-106446407D01*
X154188900Y-120854916D02*
X155673809Y-119370007D01*
%TO.N,Board_14-Net-(J1-Pin_1)*%
X151648900Y-116455507D02*
X151943000Y-116749607D01*
X151943000Y-116749607D02*
X164952100Y-116749607D01*
X164952100Y-116749607D02*
X165548900Y-117346407D01*
%TO.N,Board_14-Net-(J1-Pin_2)*%
X155648900Y-118246407D02*
X155240095Y-118655212D01*
X155240095Y-118655212D02*
X152918900Y-118655212D01*
%TO.N,Board_14-Net-(J3-Pin_3)*%
X163228900Y-105646407D02*
X161959716Y-104377223D01*
X159918084Y-104377223D02*
X159732469Y-104191607D01*
X154496500Y-106700439D02*
X154496500Y-110794007D01*
X154496500Y-110794007D02*
X155148900Y-111446407D01*
X157005332Y-104191607D02*
X154496500Y-106700439D01*
X159732469Y-104191607D02*
X157005332Y-104191607D01*
X155148900Y-111446407D02*
X155148900Y-113346407D01*
X161959716Y-104377223D02*
X159918084Y-104377223D01*
%TO.N,Board_15-/GND*%
X187672800Y-121346407D02*
X189672800Y-123346407D01*
X184592800Y-123054621D02*
X186501014Y-121146407D01*
X195289378Y-123346407D02*
X198282800Y-120352985D01*
X187282800Y-105646407D02*
X184182800Y-108746407D01*
X198282800Y-120352985D02*
X198282800Y-117546407D01*
X189672800Y-123346407D02*
X195289378Y-123346407D01*
X186501014Y-121146407D02*
X187672800Y-121146407D01*
X187672800Y-121146407D02*
X187672800Y-121346407D01*
X184182800Y-108746407D02*
X184182800Y-109346407D01*
%TO.N,Board_15-/P010*%
X192752800Y-121146407D02*
X192752800Y-120564507D01*
X192752800Y-120564507D02*
X190482800Y-118294507D01*
%TO.N,Board_15-/P013*%
X190349688Y-117646407D02*
X190834700Y-117646407D01*
X189930400Y-120864007D02*
X189930400Y-118065695D01*
X189930400Y-118065695D02*
X190349688Y-117646407D01*
X190212800Y-121146407D02*
X189930400Y-120864007D01*
X190834700Y-117646407D02*
X191482800Y-118294507D01*
%TO.N,Board_15-/VCC33*%
X193516400Y-122922807D02*
X195292800Y-121146407D01*
X186285200Y-104544007D02*
X185382800Y-105446407D01*
X189792622Y-122922807D02*
X193516400Y-122922807D01*
X188720400Y-104544007D02*
X186285200Y-104544007D01*
X189198400Y-119964229D02*
X189198400Y-122328585D01*
X183322800Y-120854916D02*
X184807709Y-119370007D01*
X189198400Y-122328585D02*
X189792622Y-122922807D01*
X188604178Y-119370007D02*
X189198400Y-119964229D01*
X189822800Y-105646407D02*
X188720400Y-104544007D01*
X184807709Y-119370007D02*
X188604178Y-119370007D01*
X185382800Y-105446407D02*
X185382800Y-106446407D01*
%TO.N,Board_15-Net-(J1-Pin_1)*%
X181076900Y-116749607D02*
X194086000Y-116749607D01*
X180782800Y-116455507D02*
X181076900Y-116749607D01*
X194086000Y-116749607D02*
X194682800Y-117346407D01*
%TO.N,Board_15-Net-(J1-Pin_2)*%
X184373995Y-118655212D02*
X182052800Y-118655212D01*
X184782800Y-118246407D02*
X184373995Y-118655212D01*
%TO.N,Board_15-Net-(J3-Pin_3)*%
X186139232Y-104191607D02*
X183630400Y-106700439D01*
X191093616Y-104377223D02*
X189051984Y-104377223D01*
X188866369Y-104191607D02*
X186139232Y-104191607D01*
X184282800Y-111446407D02*
X184282800Y-113346407D01*
X192362800Y-105646407D02*
X191093616Y-104377223D01*
X189051984Y-104377223D02*
X188866369Y-104191607D01*
X183630400Y-110794007D02*
X184282800Y-111446407D01*
X183630400Y-106700439D02*
X183630400Y-110794007D01*
%TD*%
M02*
