%TF.GenerationSoftware,KiCad,Pcbnew,7.0.2-0*%
%TF.CreationDate,2023-05-22T12:18:36-06:00*%
%TF.ProjectId,panel,70616e65-6c2e-46b6-9963-61645f706362,rev?*%
%TF.SameCoordinates,Original*%
%TF.FileFunction,Copper,L2,Bot*%
%TF.FilePolarity,Positive*%
%FSLAX46Y46*%
G04 Gerber Fmt 4.6, Leading zero omitted, Abs format (unit mm)*
G04 Created by KiCad (PCBNEW 7.0.2-0) date 2023-05-22 12:18:36*
%MOMM*%
%LPD*%
G01*
G04 APERTURE LIST*
%TA.AperFunction,ComponentPad*%
%ADD10O,1.524000X3.048000*%
%TD*%
%TA.AperFunction,ComponentPad*%
%ADD11C,5.080000*%
%TD*%
%TA.AperFunction,ComponentPad*%
%ADD12C,3.175000*%
%TD*%
%TA.AperFunction,Conductor*%
%ADD13C,0.152400*%
%TD*%
G04 APERTURE END LIST*
D10*
%TO.P,-_13_10_+0,1*%
%TO.N,Board_2-GND*%
X175940000Y-38500003D03*
%TO.P,-_13_10_+0,2*%
%TO.N,Board_2-P013*%
X178480000Y-38500003D03*
%TO.P,-_13_10_+0,3*%
%TO.N,Board_2-P010*%
X181020000Y-38500003D03*
%TO.P,-_13_10_+0,4*%
%TO.N,Board_2-VCC33*%
X183560000Y-38500003D03*
%TD*%
%TO.P,-_13_10_+0,1*%
%TO.N,Board_5-GND*%
X175940000Y-65000004D03*
%TO.P,-_13_10_+0,2*%
%TO.N,Board_5-P013*%
X178480000Y-65000004D03*
%TO.P,-_13_10_+0,3*%
%TO.N,Board_5-P010*%
X181020000Y-65000004D03*
%TO.P,-_13_10_+0,4*%
%TO.N,Board_5-VCC33*%
X183560000Y-65000004D03*
%TD*%
%TO.P,-_13_10_+0,1*%
%TO.N,Board_0-GND*%
X122940000Y-38500003D03*
%TO.P,-_13_10_+0,2*%
%TO.N,Board_0-P013*%
X125480000Y-38500003D03*
%TO.P,-_13_10_+0,3*%
%TO.N,Board_0-P010*%
X128020000Y-38500003D03*
%TO.P,-_13_10_+0,4*%
%TO.N,Board_0-VCC33*%
X130560000Y-38500003D03*
%TD*%
D11*
%TO.P,U$1,+3V*%
%TO.N,Board_5-VCC33*%
X179974347Y-47434222D03*
D12*
%TO.P,U$1,GND*%
%TO.N,Board_5-GND*%
X171734418Y-66205305D03*
%TD*%
D10*
%TO.P,-_13_10_+0,1*%
%TO.N,Board_1-GND*%
X149440000Y-38500003D03*
%TO.P,-_13_10_+0,2*%
%TO.N,Board_1-P013*%
X151980000Y-38500003D03*
%TO.P,-_13_10_+0,3*%
%TO.N,Board_1-P010*%
X154520000Y-38500003D03*
%TO.P,-_13_10_+0,4*%
%TO.N,Board_1-VCC33*%
X157060000Y-38500003D03*
%TD*%
%TO.P,-_13_10_+0,1*%
%TO.N,Board_6-GND*%
X122940000Y-91500005D03*
%TO.P,-_13_10_+0,2*%
%TO.N,Board_6-P013*%
X125480000Y-91500005D03*
%TO.P,-_13_10_+0,3*%
%TO.N,Board_6-P010*%
X128020000Y-91500005D03*
%TO.P,-_13_10_+0,4*%
%TO.N,Board_6-VCC33*%
X130560000Y-91500005D03*
%TD*%
%TO.P,-_13_10_+0,1*%
%TO.N,Board_3-GND*%
X122940000Y-65000004D03*
%TO.P,-_13_10_+0,2*%
%TO.N,Board_3-P013*%
X125480000Y-65000004D03*
%TO.P,-_13_10_+0,3*%
%TO.N,Board_3-P010*%
X128020000Y-65000004D03*
%TO.P,-_13_10_+0,4*%
%TO.N,Board_3-VCC33*%
X130560000Y-65000004D03*
%TD*%
%TO.P,-_13_10_+0,1*%
%TO.N,Board_8-GND*%
X175940000Y-91500005D03*
%TO.P,-_13_10_+0,2*%
%TO.N,Board_8-P013*%
X178480000Y-91500005D03*
%TO.P,-_13_10_+0,3*%
%TO.N,Board_8-P010*%
X181020000Y-91500005D03*
%TO.P,-_13_10_+0,4*%
%TO.N,Board_8-VCC33*%
X183560000Y-91500005D03*
%TD*%
D11*
%TO.P,U$1,+3V*%
%TO.N,Board_1-VCC33*%
X153474347Y-20934221D03*
D12*
%TO.P,U$1,GND*%
%TO.N,Board_1-GND*%
X145234418Y-39705304D03*
%TD*%
D11*
%TO.P,U$1,+3V*%
%TO.N,Board_8-VCC33*%
X179974347Y-73934223D03*
D12*
%TO.P,U$1,GND*%
%TO.N,Board_8-GND*%
X171734418Y-92705306D03*
%TD*%
D11*
%TO.P,U$1,+3V*%
%TO.N,Board_7-VCC33*%
X153474347Y-73934223D03*
D12*
%TO.P,U$1,GND*%
%TO.N,Board_7-GND*%
X145234418Y-92705306D03*
%TD*%
D10*
%TO.P,-_13_10_+0,1*%
%TO.N,Board_7-GND*%
X149440000Y-91500005D03*
%TO.P,-_13_10_+0,2*%
%TO.N,Board_7-P013*%
X151980000Y-91500005D03*
%TO.P,-_13_10_+0,3*%
%TO.N,Board_7-P010*%
X154520000Y-91500005D03*
%TO.P,-_13_10_+0,4*%
%TO.N,Board_7-VCC33*%
X157060000Y-91500005D03*
%TD*%
D11*
%TO.P,U$1,+3V*%
%TO.N,Board_4-VCC33*%
X153474347Y-47434222D03*
D12*
%TO.P,U$1,GND*%
%TO.N,Board_4-GND*%
X145234418Y-66205305D03*
%TD*%
D10*
%TO.P,-_13_10_+0,1*%
%TO.N,Board_4-GND*%
X149440000Y-65000004D03*
%TO.P,-_13_10_+0,2*%
%TO.N,Board_4-P013*%
X151980000Y-65000004D03*
%TO.P,-_13_10_+0,3*%
%TO.N,Board_4-P010*%
X154520000Y-65000004D03*
%TO.P,-_13_10_+0,4*%
%TO.N,Board_4-VCC33*%
X157060000Y-65000004D03*
%TD*%
D11*
%TO.P,U$1,+3V*%
%TO.N,Board_6-VCC33*%
X126974347Y-73934223D03*
D12*
%TO.P,U$1,GND*%
%TO.N,Board_6-GND*%
X118734418Y-92705306D03*
%TD*%
D11*
%TO.P,U$1,+3V*%
%TO.N,Board_3-VCC33*%
X126974347Y-47434222D03*
D12*
%TO.P,U$1,GND*%
%TO.N,Board_3-GND*%
X118734418Y-66205305D03*
%TD*%
D11*
%TO.P,U$1,+3V*%
%TO.N,Board_2-VCC33*%
X179974347Y-20934221D03*
D12*
%TO.P,U$1,GND*%
%TO.N,Board_2-GND*%
X171734418Y-39705304D03*
%TD*%
D11*
%TO.P,U$1,+3V*%
%TO.N,Board_0-VCC33*%
X126974347Y-20934221D03*
D12*
%TO.P,U$1,GND*%
%TO.N,Board_0-GND*%
X118734418Y-39705304D03*
%TD*%
D13*
%TO.N,Board_0-GND*%
X118750000Y-39500003D02*
X121750000Y-39500003D01*
X122750000Y-38500003D02*
X122940000Y-38500003D01*
X121750000Y-39500003D02*
X122750000Y-38500003D01*
X118750000Y-39500003D02*
X118734415Y-39705307D01*
%TO.N,Board_1-GND*%
X148250000Y-39500003D02*
X149250000Y-38500003D01*
X149250000Y-38500003D02*
X149440000Y-38500003D01*
X145250000Y-39500003D02*
X148250000Y-39500003D01*
X145250000Y-39500003D02*
X145234415Y-39705307D01*
%TO.N,Board_2-GND*%
X175750000Y-38500003D02*
X175940000Y-38500003D01*
X171750000Y-39500003D02*
X171734415Y-39705307D01*
X171750000Y-39500003D02*
X174750000Y-39500003D01*
X174750000Y-39500003D02*
X175750000Y-38500003D01*
%TO.N,Board_3-GND*%
X118750000Y-66000004D02*
X118734415Y-66205308D01*
X118750000Y-66000004D02*
X121750000Y-66000004D01*
X121750000Y-66000004D02*
X122750000Y-65000004D01*
X122750000Y-65000004D02*
X122940000Y-65000004D01*
%TO.N,Board_4-GND*%
X145250000Y-66000004D02*
X148250000Y-66000004D01*
X149250000Y-65000004D02*
X149440000Y-65000004D01*
X145250000Y-66000004D02*
X145234415Y-66205308D01*
X148250000Y-66000004D02*
X149250000Y-65000004D01*
%TO.N,Board_5-GND*%
X171750000Y-66000004D02*
X171734415Y-66205308D01*
X174750000Y-66000004D02*
X175750000Y-65000004D01*
X175750000Y-65000004D02*
X175940000Y-65000004D01*
X171750000Y-66000004D02*
X174750000Y-66000004D01*
%TO.N,Board_6-GND*%
X121750000Y-92500005D02*
X122750000Y-91500005D01*
X118750000Y-92500005D02*
X121750000Y-92500005D01*
X118750000Y-92500005D02*
X118734415Y-92705309D01*
X122750000Y-91500005D02*
X122940000Y-91500005D01*
%TO.N,Board_7-GND*%
X145250000Y-92500005D02*
X145234415Y-92705309D01*
X148250000Y-92500005D02*
X149250000Y-91500005D01*
X149250000Y-91500005D02*
X149440000Y-91500005D01*
X145250000Y-92500005D02*
X148250000Y-92500005D01*
%TO.N,Board_8-GND*%
X174750000Y-92500005D02*
X175750000Y-91500005D01*
X171750000Y-92500005D02*
X171734415Y-92705309D01*
X171750000Y-92500005D02*
X174750000Y-92500005D01*
X175750000Y-91500005D02*
X175940000Y-91500005D01*
%TD*%
M02*
