%TF.GenerationSoftware,KiCad,Pcbnew,7.0.2-0*%
%TF.CreationDate,2023-05-22T12:18:36-06:00*%
%TF.ProjectId,panel,70616e65-6c2e-46b6-9963-61645f706362,rev?*%
%TF.SameCoordinates,Original*%
%TF.FileFunction,Legend,Top*%
%TF.FilePolarity,Positive*%
%FSLAX46Y46*%
G04 Gerber Fmt 4.6, Leading zero omitted, Abs format (unit mm)*
G04 Created by KiCad (PCBNEW 7.0.2-0) date 2023-05-22 12:18:36*
%MOMM*%
%LPD*%
G01*
G04 APERTURE LIST*
%ADD10C,0.127000*%
%ADD11C,0.217932*%
%ADD12C,0.152400*%
%ADD13C,0.200000*%
G04 APERTURE END LIST*
D10*
%TO.C,-_13_10_+0*%
X174397857Y-38995121D02*
X173744714Y-38995121D01*
X174071285Y-38995121D02*
X174071285Y-37852121D01*
X174071285Y-37852121D02*
X173962428Y-38015407D01*
X173962428Y-38015407D02*
X173853571Y-38124264D01*
X173853571Y-38124264D02*
X173744714Y-38178693D01*
X185846000Y-38233121D02*
X185846000Y-38995121D01*
X185573857Y-37797693D02*
X185301714Y-38614121D01*
X185301714Y-38614121D02*
X186009285Y-38614121D01*
X174397857Y-65495122D02*
X173744714Y-65495122D01*
X174071285Y-65495122D02*
X174071285Y-64352122D01*
X174071285Y-64352122D02*
X173962428Y-64515408D01*
X173962428Y-64515408D02*
X173853571Y-64624265D01*
X173853571Y-64624265D02*
X173744714Y-64678694D01*
X185846000Y-64733122D02*
X185846000Y-65495122D01*
X185573857Y-64297694D02*
X185301714Y-65114122D01*
X185301714Y-65114122D02*
X186009285Y-65114122D01*
X132846000Y-38233121D02*
X132846000Y-38995121D01*
X132573857Y-37797693D02*
X132301714Y-38614121D01*
X132301714Y-38614121D02*
X133009285Y-38614121D01*
X121397857Y-38995121D02*
X120744714Y-38995121D01*
X121071285Y-38995121D02*
X121071285Y-37852121D01*
X121071285Y-37852121D02*
X120962428Y-38015407D01*
X120962428Y-38015407D02*
X120853571Y-38124264D01*
X120853571Y-38124264D02*
X120744714Y-38178693D01*
D11*
%TO.C,U$1*%
X175245710Y-59904612D02*
X175281388Y-59996121D01*
X175281388Y-59996121D02*
X175261235Y-60214817D01*
X175261235Y-60214817D02*
X175205403Y-60342005D01*
X175205403Y-60342005D02*
X175058063Y-60504870D01*
X175058063Y-60504870D02*
X174875045Y-60576225D01*
X174875045Y-60576225D02*
X174719942Y-60583988D01*
X174719942Y-60583988D02*
X174437652Y-60535919D01*
X174437652Y-60535919D02*
X174246871Y-60452172D01*
X174246871Y-60452172D02*
X174020413Y-60276916D01*
X174020413Y-60276916D02*
X173921141Y-60157491D01*
X173921141Y-60157491D02*
X173849785Y-59974473D01*
X173849785Y-59974473D02*
X173869939Y-59755777D01*
X173869939Y-59755777D02*
X173925770Y-59628589D01*
X173925770Y-59628589D02*
X174073110Y-59465724D01*
X174073110Y-59465724D02*
X174164620Y-59430046D01*
X175959125Y-58624979D02*
X175127780Y-58790977D01*
X175624138Y-59388101D02*
X174288673Y-58801873D01*
X174288673Y-58801873D02*
X174511998Y-58293125D01*
X174511998Y-58293125D02*
X174631423Y-58193853D01*
X174631423Y-58193853D02*
X174722932Y-58158175D01*
X174722932Y-58158175D02*
X174878035Y-58150413D01*
X174878035Y-58150413D02*
X175068815Y-58234160D01*
X175068815Y-58234160D02*
X175168087Y-58353585D01*
X175168087Y-58353585D02*
X175203765Y-58445094D01*
X175203765Y-58445094D02*
X175211527Y-58600197D01*
X175211527Y-58600197D02*
X174988202Y-59108945D01*
X174974173Y-57585833D02*
X174938495Y-57494324D01*
X174938495Y-57494324D02*
X174930732Y-57339222D01*
X174930732Y-57339222D02*
X175070310Y-57021254D01*
X175070310Y-57021254D02*
X175189735Y-56921982D01*
X175189735Y-56921982D02*
X175281244Y-56886304D01*
X175281244Y-56886304D02*
X175436347Y-56878542D01*
X175436347Y-56878542D02*
X175563534Y-56934373D01*
X175563534Y-56934373D02*
X175726399Y-57081714D01*
X175726399Y-57081714D02*
X176154534Y-58179824D01*
X176154534Y-58179824D02*
X176517437Y-57353108D01*
X176129609Y-55817605D02*
X177019918Y-56208424D01*
X175481282Y-55912248D02*
X176295607Y-56648950D01*
X176295607Y-56648950D02*
X176658510Y-55822234D01*
X175935694Y-55049854D02*
X176326513Y-54159544D01*
X176326513Y-54159544D02*
X177410737Y-55318114D01*
X176494007Y-53777983D02*
X176884825Y-52887673D01*
X176884825Y-52887673D02*
X177969049Y-54046243D01*
D10*
%TO.C,-_13_10_+0*%
X147897857Y-38995121D02*
X147244714Y-38995121D01*
X147571285Y-38995121D02*
X147571285Y-37852121D01*
X147571285Y-37852121D02*
X147462428Y-38015407D01*
X147462428Y-38015407D02*
X147353571Y-38124264D01*
X147353571Y-38124264D02*
X147244714Y-38178693D01*
X159346000Y-38233121D02*
X159346000Y-38995121D01*
X159073857Y-37797693D02*
X158801714Y-38614121D01*
X158801714Y-38614121D02*
X159509285Y-38614121D01*
X132846000Y-91233123D02*
X132846000Y-91995123D01*
X132573857Y-90797695D02*
X132301714Y-91614123D01*
X132301714Y-91614123D02*
X133009285Y-91614123D01*
X121397857Y-91995123D02*
X120744714Y-91995123D01*
X121071285Y-91995123D02*
X121071285Y-90852123D01*
X121071285Y-90852123D02*
X120962428Y-91015409D01*
X120962428Y-91015409D02*
X120853571Y-91124266D01*
X120853571Y-91124266D02*
X120744714Y-91178695D01*
X132846000Y-64733122D02*
X132846000Y-65495122D01*
X132573857Y-64297694D02*
X132301714Y-65114122D01*
X132301714Y-65114122D02*
X133009285Y-65114122D01*
X121397857Y-65495122D02*
X120744714Y-65495122D01*
X121071285Y-65495122D02*
X121071285Y-64352122D01*
X121071285Y-64352122D02*
X120962428Y-64515408D01*
X120962428Y-64515408D02*
X120853571Y-64624265D01*
X120853571Y-64624265D02*
X120744714Y-64678694D01*
X174397857Y-91995123D02*
X173744714Y-91995123D01*
X174071285Y-91995123D02*
X174071285Y-90852123D01*
X174071285Y-90852123D02*
X173962428Y-91015409D01*
X173962428Y-91015409D02*
X173853571Y-91124266D01*
X173853571Y-91124266D02*
X173744714Y-91178695D01*
X185846000Y-91233123D02*
X185846000Y-91995123D01*
X185573857Y-90797695D02*
X185301714Y-91614123D01*
X185301714Y-91614123D02*
X186009285Y-91614123D01*
D11*
%TO.C,U$1*%
X148745710Y-33404611D02*
X148781388Y-33496120D01*
X148781388Y-33496120D02*
X148761235Y-33714816D01*
X148761235Y-33714816D02*
X148705403Y-33842004D01*
X148705403Y-33842004D02*
X148558063Y-34004869D01*
X148558063Y-34004869D02*
X148375045Y-34076224D01*
X148375045Y-34076224D02*
X148219942Y-34083987D01*
X148219942Y-34083987D02*
X147937652Y-34035918D01*
X147937652Y-34035918D02*
X147746871Y-33952171D01*
X147746871Y-33952171D02*
X147520413Y-33776915D01*
X147520413Y-33776915D02*
X147421141Y-33657490D01*
X147421141Y-33657490D02*
X147349785Y-33474472D01*
X147349785Y-33474472D02*
X147369939Y-33255776D01*
X147369939Y-33255776D02*
X147425770Y-33128588D01*
X147425770Y-33128588D02*
X147573110Y-32965723D01*
X147573110Y-32965723D02*
X147664620Y-32930045D01*
X149459125Y-32124978D02*
X148627780Y-32290976D01*
X149124138Y-32888100D02*
X147788673Y-32301872D01*
X147788673Y-32301872D02*
X148011998Y-31793124D01*
X148011998Y-31793124D02*
X148131423Y-31693852D01*
X148131423Y-31693852D02*
X148222932Y-31658174D01*
X148222932Y-31658174D02*
X148378035Y-31650412D01*
X148378035Y-31650412D02*
X148568815Y-31734159D01*
X148568815Y-31734159D02*
X148668087Y-31853584D01*
X148668087Y-31853584D02*
X148703765Y-31945093D01*
X148703765Y-31945093D02*
X148711527Y-32100196D01*
X148711527Y-32100196D02*
X148488202Y-32608944D01*
X148474173Y-31085832D02*
X148438495Y-30994323D01*
X148438495Y-30994323D02*
X148430732Y-30839221D01*
X148430732Y-30839221D02*
X148570310Y-30521253D01*
X148570310Y-30521253D02*
X148689735Y-30421981D01*
X148689735Y-30421981D02*
X148781244Y-30386303D01*
X148781244Y-30386303D02*
X148936347Y-30378541D01*
X148936347Y-30378541D02*
X149063534Y-30434372D01*
X149063534Y-30434372D02*
X149226399Y-30581713D01*
X149226399Y-30581713D02*
X149654534Y-31679823D01*
X149654534Y-31679823D02*
X150017437Y-30853107D01*
X149629609Y-29317604D02*
X150519918Y-29708423D01*
X148981282Y-29412247D02*
X149795607Y-30148949D01*
X149795607Y-30148949D02*
X150158510Y-29322233D01*
X149435694Y-28549853D02*
X149826513Y-27659543D01*
X149826513Y-27659543D02*
X150910737Y-28818113D01*
X149994007Y-27277982D02*
X150384825Y-26387672D01*
X150384825Y-26387672D02*
X151469049Y-27546242D01*
X175245710Y-86404613D02*
X175281388Y-86496122D01*
X175281388Y-86496122D02*
X175261235Y-86714818D01*
X175261235Y-86714818D02*
X175205403Y-86842006D01*
X175205403Y-86842006D02*
X175058063Y-87004871D01*
X175058063Y-87004871D02*
X174875045Y-87076226D01*
X174875045Y-87076226D02*
X174719942Y-87083989D01*
X174719942Y-87083989D02*
X174437652Y-87035920D01*
X174437652Y-87035920D02*
X174246871Y-86952173D01*
X174246871Y-86952173D02*
X174020413Y-86776917D01*
X174020413Y-86776917D02*
X173921141Y-86657492D01*
X173921141Y-86657492D02*
X173849785Y-86474474D01*
X173849785Y-86474474D02*
X173869939Y-86255778D01*
X173869939Y-86255778D02*
X173925770Y-86128590D01*
X173925770Y-86128590D02*
X174073110Y-85965725D01*
X174073110Y-85965725D02*
X174164620Y-85930047D01*
X175959125Y-85124980D02*
X175127780Y-85290978D01*
X175624138Y-85888102D02*
X174288673Y-85301874D01*
X174288673Y-85301874D02*
X174511998Y-84793126D01*
X174511998Y-84793126D02*
X174631423Y-84693854D01*
X174631423Y-84693854D02*
X174722932Y-84658176D01*
X174722932Y-84658176D02*
X174878035Y-84650414D01*
X174878035Y-84650414D02*
X175068815Y-84734161D01*
X175068815Y-84734161D02*
X175168087Y-84853586D01*
X175168087Y-84853586D02*
X175203765Y-84945095D01*
X175203765Y-84945095D02*
X175211527Y-85100198D01*
X175211527Y-85100198D02*
X174988202Y-85608946D01*
X174974173Y-84085834D02*
X174938495Y-83994325D01*
X174938495Y-83994325D02*
X174930732Y-83839223D01*
X174930732Y-83839223D02*
X175070310Y-83521255D01*
X175070310Y-83521255D02*
X175189735Y-83421983D01*
X175189735Y-83421983D02*
X175281244Y-83386305D01*
X175281244Y-83386305D02*
X175436347Y-83378543D01*
X175436347Y-83378543D02*
X175563534Y-83434374D01*
X175563534Y-83434374D02*
X175726399Y-83581715D01*
X175726399Y-83581715D02*
X176154534Y-84679825D01*
X176154534Y-84679825D02*
X176517437Y-83853109D01*
X176129609Y-82317606D02*
X177019918Y-82708425D01*
X175481282Y-82412249D02*
X176295607Y-83148951D01*
X176295607Y-83148951D02*
X176658510Y-82322235D01*
X175935694Y-81549855D02*
X176326513Y-80659545D01*
X176326513Y-80659545D02*
X177410737Y-81818115D01*
X176494007Y-80277984D02*
X176884825Y-79387674D01*
X176884825Y-79387674D02*
X177969049Y-80546244D01*
X148745710Y-86404613D02*
X148781388Y-86496122D01*
X148781388Y-86496122D02*
X148761235Y-86714818D01*
X148761235Y-86714818D02*
X148705403Y-86842006D01*
X148705403Y-86842006D02*
X148558063Y-87004871D01*
X148558063Y-87004871D02*
X148375045Y-87076226D01*
X148375045Y-87076226D02*
X148219942Y-87083989D01*
X148219942Y-87083989D02*
X147937652Y-87035920D01*
X147937652Y-87035920D02*
X147746871Y-86952173D01*
X147746871Y-86952173D02*
X147520413Y-86776917D01*
X147520413Y-86776917D02*
X147421141Y-86657492D01*
X147421141Y-86657492D02*
X147349785Y-86474474D01*
X147349785Y-86474474D02*
X147369939Y-86255778D01*
X147369939Y-86255778D02*
X147425770Y-86128590D01*
X147425770Y-86128590D02*
X147573110Y-85965725D01*
X147573110Y-85965725D02*
X147664620Y-85930047D01*
X149459125Y-85124980D02*
X148627780Y-85290978D01*
X149124138Y-85888102D02*
X147788673Y-85301874D01*
X147788673Y-85301874D02*
X148011998Y-84793126D01*
X148011998Y-84793126D02*
X148131423Y-84693854D01*
X148131423Y-84693854D02*
X148222932Y-84658176D01*
X148222932Y-84658176D02*
X148378035Y-84650414D01*
X148378035Y-84650414D02*
X148568815Y-84734161D01*
X148568815Y-84734161D02*
X148668087Y-84853586D01*
X148668087Y-84853586D02*
X148703765Y-84945095D01*
X148703765Y-84945095D02*
X148711527Y-85100198D01*
X148711527Y-85100198D02*
X148488202Y-85608946D01*
X148474173Y-84085834D02*
X148438495Y-83994325D01*
X148438495Y-83994325D02*
X148430732Y-83839223D01*
X148430732Y-83839223D02*
X148570310Y-83521255D01*
X148570310Y-83521255D02*
X148689735Y-83421983D01*
X148689735Y-83421983D02*
X148781244Y-83386305D01*
X148781244Y-83386305D02*
X148936347Y-83378543D01*
X148936347Y-83378543D02*
X149063534Y-83434374D01*
X149063534Y-83434374D02*
X149226399Y-83581715D01*
X149226399Y-83581715D02*
X149654534Y-84679825D01*
X149654534Y-84679825D02*
X150017437Y-83853109D01*
X149629609Y-82317606D02*
X150519918Y-82708425D01*
X148981282Y-82412249D02*
X149795607Y-83148951D01*
X149795607Y-83148951D02*
X150158510Y-82322235D01*
X149435694Y-81549855D02*
X149826513Y-80659545D01*
X149826513Y-80659545D02*
X150910737Y-81818115D01*
X149994007Y-80277984D02*
X150384825Y-79387674D01*
X150384825Y-79387674D02*
X151469049Y-80546244D01*
D10*
%TO.C,-_13_10_+0*%
X147897857Y-91995123D02*
X147244714Y-91995123D01*
X147571285Y-91995123D02*
X147571285Y-90852123D01*
X147571285Y-90852123D02*
X147462428Y-91015409D01*
X147462428Y-91015409D02*
X147353571Y-91124266D01*
X147353571Y-91124266D02*
X147244714Y-91178695D01*
X159346000Y-91233123D02*
X159346000Y-91995123D01*
X159073857Y-90797695D02*
X158801714Y-91614123D01*
X158801714Y-91614123D02*
X159509285Y-91614123D01*
D11*
%TO.C,U$1*%
X148745710Y-59904612D02*
X148781388Y-59996121D01*
X148781388Y-59996121D02*
X148761235Y-60214817D01*
X148761235Y-60214817D02*
X148705403Y-60342005D01*
X148705403Y-60342005D02*
X148558063Y-60504870D01*
X148558063Y-60504870D02*
X148375045Y-60576225D01*
X148375045Y-60576225D02*
X148219942Y-60583988D01*
X148219942Y-60583988D02*
X147937652Y-60535919D01*
X147937652Y-60535919D02*
X147746871Y-60452172D01*
X147746871Y-60452172D02*
X147520413Y-60276916D01*
X147520413Y-60276916D02*
X147421141Y-60157491D01*
X147421141Y-60157491D02*
X147349785Y-59974473D01*
X147349785Y-59974473D02*
X147369939Y-59755777D01*
X147369939Y-59755777D02*
X147425770Y-59628589D01*
X147425770Y-59628589D02*
X147573110Y-59465724D01*
X147573110Y-59465724D02*
X147664620Y-59430046D01*
X149459125Y-58624979D02*
X148627780Y-58790977D01*
X149124138Y-59388101D02*
X147788673Y-58801873D01*
X147788673Y-58801873D02*
X148011998Y-58293125D01*
X148011998Y-58293125D02*
X148131423Y-58193853D01*
X148131423Y-58193853D02*
X148222932Y-58158175D01*
X148222932Y-58158175D02*
X148378035Y-58150413D01*
X148378035Y-58150413D02*
X148568815Y-58234160D01*
X148568815Y-58234160D02*
X148668087Y-58353585D01*
X148668087Y-58353585D02*
X148703765Y-58445094D01*
X148703765Y-58445094D02*
X148711527Y-58600197D01*
X148711527Y-58600197D02*
X148488202Y-59108945D01*
X148474173Y-57585833D02*
X148438495Y-57494324D01*
X148438495Y-57494324D02*
X148430732Y-57339222D01*
X148430732Y-57339222D02*
X148570310Y-57021254D01*
X148570310Y-57021254D02*
X148689735Y-56921982D01*
X148689735Y-56921982D02*
X148781244Y-56886304D01*
X148781244Y-56886304D02*
X148936347Y-56878542D01*
X148936347Y-56878542D02*
X149063534Y-56934373D01*
X149063534Y-56934373D02*
X149226399Y-57081714D01*
X149226399Y-57081714D02*
X149654534Y-58179824D01*
X149654534Y-58179824D02*
X150017437Y-57353108D01*
X149629609Y-55817605D02*
X150519918Y-56208424D01*
X148981282Y-55912248D02*
X149795607Y-56648950D01*
X149795607Y-56648950D02*
X150158510Y-55822234D01*
X149435694Y-55049854D02*
X149826513Y-54159544D01*
X149826513Y-54159544D02*
X150910737Y-55318114D01*
X149994007Y-53777983D02*
X150384825Y-52887673D01*
X150384825Y-52887673D02*
X151469049Y-54046243D01*
D10*
%TO.C,-_13_10_+0*%
X147897857Y-65495122D02*
X147244714Y-65495122D01*
X147571285Y-65495122D02*
X147571285Y-64352122D01*
X147571285Y-64352122D02*
X147462428Y-64515408D01*
X147462428Y-64515408D02*
X147353571Y-64624265D01*
X147353571Y-64624265D02*
X147244714Y-64678694D01*
X159346000Y-64733122D02*
X159346000Y-65495122D01*
X159073857Y-64297694D02*
X158801714Y-65114122D01*
X158801714Y-65114122D02*
X159509285Y-65114122D01*
D11*
%TO.C,U$1*%
X122245710Y-86404613D02*
X122281388Y-86496122D01*
X122281388Y-86496122D02*
X122261235Y-86714818D01*
X122261235Y-86714818D02*
X122205403Y-86842006D01*
X122205403Y-86842006D02*
X122058063Y-87004871D01*
X122058063Y-87004871D02*
X121875045Y-87076226D01*
X121875045Y-87076226D02*
X121719942Y-87083989D01*
X121719942Y-87083989D02*
X121437652Y-87035920D01*
X121437652Y-87035920D02*
X121246871Y-86952173D01*
X121246871Y-86952173D02*
X121020413Y-86776917D01*
X121020413Y-86776917D02*
X120921141Y-86657492D01*
X120921141Y-86657492D02*
X120849785Y-86474474D01*
X120849785Y-86474474D02*
X120869939Y-86255778D01*
X120869939Y-86255778D02*
X120925770Y-86128590D01*
X120925770Y-86128590D02*
X121073110Y-85965725D01*
X121073110Y-85965725D02*
X121164620Y-85930047D01*
X122959125Y-85124980D02*
X122127780Y-85290978D01*
X122624138Y-85888102D02*
X121288673Y-85301874D01*
X121288673Y-85301874D02*
X121511998Y-84793126D01*
X121511998Y-84793126D02*
X121631423Y-84693854D01*
X121631423Y-84693854D02*
X121722932Y-84658176D01*
X121722932Y-84658176D02*
X121878035Y-84650414D01*
X121878035Y-84650414D02*
X122068815Y-84734161D01*
X122068815Y-84734161D02*
X122168087Y-84853586D01*
X122168087Y-84853586D02*
X122203765Y-84945095D01*
X122203765Y-84945095D02*
X122211527Y-85100198D01*
X122211527Y-85100198D02*
X121988202Y-85608946D01*
X121974173Y-84085834D02*
X121938495Y-83994325D01*
X121938495Y-83994325D02*
X121930732Y-83839223D01*
X121930732Y-83839223D02*
X122070310Y-83521255D01*
X122070310Y-83521255D02*
X122189735Y-83421983D01*
X122189735Y-83421983D02*
X122281244Y-83386305D01*
X122281244Y-83386305D02*
X122436347Y-83378543D01*
X122436347Y-83378543D02*
X122563534Y-83434374D01*
X122563534Y-83434374D02*
X122726399Y-83581715D01*
X122726399Y-83581715D02*
X123154534Y-84679825D01*
X123154534Y-84679825D02*
X123517437Y-83853109D01*
X123129609Y-82317606D02*
X124019918Y-82708425D01*
X122481282Y-82412249D02*
X123295607Y-83148951D01*
X123295607Y-83148951D02*
X123658510Y-82322235D01*
X122935694Y-81549855D02*
X123326513Y-80659545D01*
X123326513Y-80659545D02*
X124410737Y-81818115D01*
X123494007Y-80277984D02*
X123884825Y-79387674D01*
X123884825Y-79387674D02*
X124969049Y-80546244D01*
X122245710Y-59904612D02*
X122281388Y-59996121D01*
X122281388Y-59996121D02*
X122261235Y-60214817D01*
X122261235Y-60214817D02*
X122205403Y-60342005D01*
X122205403Y-60342005D02*
X122058063Y-60504870D01*
X122058063Y-60504870D02*
X121875045Y-60576225D01*
X121875045Y-60576225D02*
X121719942Y-60583988D01*
X121719942Y-60583988D02*
X121437652Y-60535919D01*
X121437652Y-60535919D02*
X121246871Y-60452172D01*
X121246871Y-60452172D02*
X121020413Y-60276916D01*
X121020413Y-60276916D02*
X120921141Y-60157491D01*
X120921141Y-60157491D02*
X120849785Y-59974473D01*
X120849785Y-59974473D02*
X120869939Y-59755777D01*
X120869939Y-59755777D02*
X120925770Y-59628589D01*
X120925770Y-59628589D02*
X121073110Y-59465724D01*
X121073110Y-59465724D02*
X121164620Y-59430046D01*
X122959125Y-58624979D02*
X122127780Y-58790977D01*
X122624138Y-59388101D02*
X121288673Y-58801873D01*
X121288673Y-58801873D02*
X121511998Y-58293125D01*
X121511998Y-58293125D02*
X121631423Y-58193853D01*
X121631423Y-58193853D02*
X121722932Y-58158175D01*
X121722932Y-58158175D02*
X121878035Y-58150413D01*
X121878035Y-58150413D02*
X122068815Y-58234160D01*
X122068815Y-58234160D02*
X122168087Y-58353585D01*
X122168087Y-58353585D02*
X122203765Y-58445094D01*
X122203765Y-58445094D02*
X122211527Y-58600197D01*
X122211527Y-58600197D02*
X121988202Y-59108945D01*
X121974173Y-57585833D02*
X121938495Y-57494324D01*
X121938495Y-57494324D02*
X121930732Y-57339222D01*
X121930732Y-57339222D02*
X122070310Y-57021254D01*
X122070310Y-57021254D02*
X122189735Y-56921982D01*
X122189735Y-56921982D02*
X122281244Y-56886304D01*
X122281244Y-56886304D02*
X122436347Y-56878542D01*
X122436347Y-56878542D02*
X122563534Y-56934373D01*
X122563534Y-56934373D02*
X122726399Y-57081714D01*
X122726399Y-57081714D02*
X123154534Y-58179824D01*
X123154534Y-58179824D02*
X123517437Y-57353108D01*
X123129609Y-55817605D02*
X124019918Y-56208424D01*
X122481282Y-55912248D02*
X123295607Y-56648950D01*
X123295607Y-56648950D02*
X123658510Y-55822234D01*
X122935694Y-55049854D02*
X123326513Y-54159544D01*
X123326513Y-54159544D02*
X124410737Y-55318114D01*
X123494007Y-53777983D02*
X123884825Y-52887673D01*
X123884825Y-52887673D02*
X124969049Y-54046243D01*
X175245710Y-33404611D02*
X175281388Y-33496120D01*
X175281388Y-33496120D02*
X175261235Y-33714816D01*
X175261235Y-33714816D02*
X175205403Y-33842004D01*
X175205403Y-33842004D02*
X175058063Y-34004869D01*
X175058063Y-34004869D02*
X174875045Y-34076224D01*
X174875045Y-34076224D02*
X174719942Y-34083987D01*
X174719942Y-34083987D02*
X174437652Y-34035918D01*
X174437652Y-34035918D02*
X174246871Y-33952171D01*
X174246871Y-33952171D02*
X174020413Y-33776915D01*
X174020413Y-33776915D02*
X173921141Y-33657490D01*
X173921141Y-33657490D02*
X173849785Y-33474472D01*
X173849785Y-33474472D02*
X173869939Y-33255776D01*
X173869939Y-33255776D02*
X173925770Y-33128588D01*
X173925770Y-33128588D02*
X174073110Y-32965723D01*
X174073110Y-32965723D02*
X174164620Y-32930045D01*
X175959125Y-32124978D02*
X175127780Y-32290976D01*
X175624138Y-32888100D02*
X174288673Y-32301872D01*
X174288673Y-32301872D02*
X174511998Y-31793124D01*
X174511998Y-31793124D02*
X174631423Y-31693852D01*
X174631423Y-31693852D02*
X174722932Y-31658174D01*
X174722932Y-31658174D02*
X174878035Y-31650412D01*
X174878035Y-31650412D02*
X175068815Y-31734159D01*
X175068815Y-31734159D02*
X175168087Y-31853584D01*
X175168087Y-31853584D02*
X175203765Y-31945093D01*
X175203765Y-31945093D02*
X175211527Y-32100196D01*
X175211527Y-32100196D02*
X174988202Y-32608944D01*
X174974173Y-31085832D02*
X174938495Y-30994323D01*
X174938495Y-30994323D02*
X174930732Y-30839221D01*
X174930732Y-30839221D02*
X175070310Y-30521253D01*
X175070310Y-30521253D02*
X175189735Y-30421981D01*
X175189735Y-30421981D02*
X175281244Y-30386303D01*
X175281244Y-30386303D02*
X175436347Y-30378541D01*
X175436347Y-30378541D02*
X175563534Y-30434372D01*
X175563534Y-30434372D02*
X175726399Y-30581713D01*
X175726399Y-30581713D02*
X176154534Y-31679823D01*
X176154534Y-31679823D02*
X176517437Y-30853107D01*
X176129609Y-29317604D02*
X177019918Y-29708423D01*
X175481282Y-29412247D02*
X176295607Y-30148949D01*
X176295607Y-30148949D02*
X176658510Y-29322233D01*
X175935694Y-28549853D02*
X176326513Y-27659543D01*
X176326513Y-27659543D02*
X177410737Y-28818113D01*
X176494007Y-27277982D02*
X176884825Y-26387672D01*
X176884825Y-26387672D02*
X177969049Y-27546242D01*
X122245710Y-33404611D02*
X122281388Y-33496120D01*
X122281388Y-33496120D02*
X122261235Y-33714816D01*
X122261235Y-33714816D02*
X122205403Y-33842004D01*
X122205403Y-33842004D02*
X122058063Y-34004869D01*
X122058063Y-34004869D02*
X121875045Y-34076224D01*
X121875045Y-34076224D02*
X121719942Y-34083987D01*
X121719942Y-34083987D02*
X121437652Y-34035918D01*
X121437652Y-34035918D02*
X121246871Y-33952171D01*
X121246871Y-33952171D02*
X121020413Y-33776915D01*
X121020413Y-33776915D02*
X120921141Y-33657490D01*
X120921141Y-33657490D02*
X120849785Y-33474472D01*
X120849785Y-33474472D02*
X120869939Y-33255776D01*
X120869939Y-33255776D02*
X120925770Y-33128588D01*
X120925770Y-33128588D02*
X121073110Y-32965723D01*
X121073110Y-32965723D02*
X121164620Y-32930045D01*
X122959125Y-32124978D02*
X122127780Y-32290976D01*
X122624138Y-32888100D02*
X121288673Y-32301872D01*
X121288673Y-32301872D02*
X121511998Y-31793124D01*
X121511998Y-31793124D02*
X121631423Y-31693852D01*
X121631423Y-31693852D02*
X121722932Y-31658174D01*
X121722932Y-31658174D02*
X121878035Y-31650412D01*
X121878035Y-31650412D02*
X122068815Y-31734159D01*
X122068815Y-31734159D02*
X122168087Y-31853584D01*
X122168087Y-31853584D02*
X122203765Y-31945093D01*
X122203765Y-31945093D02*
X122211527Y-32100196D01*
X122211527Y-32100196D02*
X121988202Y-32608944D01*
X121974173Y-31085832D02*
X121938495Y-30994323D01*
X121938495Y-30994323D02*
X121930732Y-30839221D01*
X121930732Y-30839221D02*
X122070310Y-30521253D01*
X122070310Y-30521253D02*
X122189735Y-30421981D01*
X122189735Y-30421981D02*
X122281244Y-30386303D01*
X122281244Y-30386303D02*
X122436347Y-30378541D01*
X122436347Y-30378541D02*
X122563534Y-30434372D01*
X122563534Y-30434372D02*
X122726399Y-30581713D01*
X122726399Y-30581713D02*
X123154534Y-31679823D01*
X123154534Y-31679823D02*
X123517437Y-30853107D01*
X123129609Y-29317604D02*
X124019918Y-29708423D01*
X122481282Y-29412247D02*
X123295607Y-30148949D01*
X123295607Y-30148949D02*
X123658510Y-29322233D01*
X122935694Y-28549853D02*
X123326513Y-27659543D01*
X123326513Y-27659543D02*
X124410737Y-28818113D01*
X123494007Y-27277982D02*
X123884825Y-26387672D01*
X123884825Y-26387672D02*
X124969049Y-27546242D01*
D12*
%TO.C,-_13_10_+0*%
X174670000Y-37865003D02*
X174670000Y-39135003D01*
X174670000Y-39135003D02*
X175305000Y-39770003D01*
X175305000Y-37230003D02*
X174670000Y-37865003D01*
X175305000Y-37230003D02*
X176575000Y-37230003D01*
X176575000Y-37230003D02*
X177210000Y-37865003D01*
X176575000Y-39770003D02*
X175305000Y-39770003D01*
X177210000Y-37865003D02*
X177845000Y-37230003D01*
X177210000Y-39135003D02*
X176575000Y-39770003D01*
X177845000Y-37230003D02*
X179115000Y-37230003D01*
X177845000Y-39770003D02*
X177210000Y-39135003D01*
X179115000Y-37230003D02*
X179750000Y-37865003D01*
X179115000Y-39770003D02*
X177845000Y-39770003D01*
X179750000Y-37865003D02*
X180385000Y-37230003D01*
X179750000Y-39135003D02*
X179115000Y-39770003D01*
X180385000Y-37230003D02*
X181655000Y-37230003D01*
X180385000Y-39770003D02*
X179750000Y-39135003D01*
X181655000Y-37230003D02*
X182290000Y-37865003D01*
X181655000Y-39770003D02*
X180385000Y-39770003D01*
X182290000Y-39135003D02*
X181655000Y-39770003D01*
X182290000Y-39135003D02*
X182925000Y-39770003D01*
X182925000Y-37230003D02*
X182290000Y-37865003D01*
X182925000Y-37230003D02*
X184195000Y-37230003D01*
X184195000Y-37230003D02*
X184830000Y-37865003D01*
X184195000Y-39770003D02*
X182925000Y-39770003D01*
X184830000Y-37865003D02*
X184830000Y-39135003D01*
X184830000Y-39135003D02*
X184195000Y-39770003D01*
D10*
%TO.C,U1*%
X140830000Y-24550003D02*
X140830000Y-33650003D01*
X140830000Y-33650003D02*
X155380000Y-33650003D01*
X155380000Y-24550003D02*
X140830000Y-24550003D01*
X155380000Y-33650003D02*
X155380000Y-24550003D01*
X155380000Y-33650003D02*
X159330000Y-33650003D01*
X159330000Y-24550003D02*
X155380000Y-24550003D01*
X159330000Y-33650003D02*
X159330000Y-24550003D01*
X114330000Y-24550003D02*
X114330000Y-33650003D01*
X114330000Y-33650003D02*
X128880000Y-33650003D01*
X128880000Y-24550003D02*
X114330000Y-24550003D01*
X128880000Y-33650003D02*
X128880000Y-24550003D01*
X128880000Y-33650003D02*
X132830000Y-33650003D01*
X132830000Y-24550003D02*
X128880000Y-24550003D01*
X132830000Y-33650003D02*
X132830000Y-24550003D01*
D12*
%TO.C,-_13_10_+0*%
X174670000Y-64365004D02*
X174670000Y-65635004D01*
X174670000Y-65635004D02*
X175305000Y-66270004D01*
X175305000Y-63730004D02*
X174670000Y-64365004D01*
X175305000Y-63730004D02*
X176575000Y-63730004D01*
X176575000Y-63730004D02*
X177210000Y-64365004D01*
X176575000Y-66270004D02*
X175305000Y-66270004D01*
X177210000Y-64365004D02*
X177845000Y-63730004D01*
X177210000Y-65635004D02*
X176575000Y-66270004D01*
X177845000Y-63730004D02*
X179115000Y-63730004D01*
X177845000Y-66270004D02*
X177210000Y-65635004D01*
X179115000Y-63730004D02*
X179750000Y-64365004D01*
X179115000Y-66270004D02*
X177845000Y-66270004D01*
X179750000Y-64365004D02*
X180385000Y-63730004D01*
X179750000Y-65635004D02*
X179115000Y-66270004D01*
X180385000Y-63730004D02*
X181655000Y-63730004D01*
X180385000Y-66270004D02*
X179750000Y-65635004D01*
X181655000Y-63730004D02*
X182290000Y-64365004D01*
X181655000Y-66270004D02*
X180385000Y-66270004D01*
X182290000Y-65635004D02*
X181655000Y-66270004D01*
X182290000Y-65635004D02*
X182925000Y-66270004D01*
X182925000Y-63730004D02*
X182290000Y-64365004D01*
X182925000Y-63730004D02*
X184195000Y-63730004D01*
X184195000Y-63730004D02*
X184830000Y-64365004D01*
X184195000Y-66270004D02*
X182925000Y-66270004D01*
X184830000Y-64365004D02*
X184830000Y-65635004D01*
X184830000Y-65635004D02*
X184195000Y-66270004D01*
X121670000Y-37865003D02*
X121670000Y-39135003D01*
X121670000Y-39135003D02*
X122305000Y-39770003D01*
X122305000Y-37230003D02*
X121670000Y-37865003D01*
X122305000Y-37230003D02*
X123575000Y-37230003D01*
X123575000Y-37230003D02*
X124210000Y-37865003D01*
X123575000Y-39770003D02*
X122305000Y-39770003D01*
X124210000Y-37865003D02*
X124845000Y-37230003D01*
X124210000Y-39135003D02*
X123575000Y-39770003D01*
X124845000Y-37230003D02*
X126115000Y-37230003D01*
X124845000Y-39770003D02*
X124210000Y-39135003D01*
X126115000Y-37230003D02*
X126750000Y-37865003D01*
X126115000Y-39770003D02*
X124845000Y-39770003D01*
X126750000Y-37865003D02*
X127385000Y-37230003D01*
X126750000Y-39135003D02*
X126115000Y-39770003D01*
X127385000Y-37230003D02*
X128655000Y-37230003D01*
X127385000Y-39770003D02*
X126750000Y-39135003D01*
X128655000Y-37230003D02*
X129290000Y-37865003D01*
X128655000Y-39770003D02*
X127385000Y-39770003D01*
X129290000Y-39135003D02*
X128655000Y-39770003D01*
X129290000Y-39135003D02*
X129925000Y-39770003D01*
X129925000Y-37230003D02*
X129290000Y-37865003D01*
X129925000Y-37230003D02*
X131195000Y-37230003D01*
X131195000Y-37230003D02*
X131830000Y-37865003D01*
X131195000Y-39770003D02*
X129925000Y-39770003D01*
X131830000Y-37865003D02*
X131830000Y-39135003D01*
X131830000Y-39135003D02*
X131195000Y-39770003D01*
D13*
%TO.C,U$1*%
X172538313Y-64373980D02*
X173342209Y-62542654D01*
X178165582Y-51554703D02*
X178969478Y-49723378D01*
X177651867Y-50237093D02*
X179483193Y-51040988D01*
X187250000Y-58880004D02*
G75*
G03*
X187250000Y-58880004I-12300000J0D01*
G01*
D12*
%TO.C,-_13_10_+0*%
X148170000Y-37865003D02*
X148170000Y-39135003D01*
X148170000Y-39135003D02*
X148805000Y-39770003D01*
X148805000Y-37230003D02*
X148170000Y-37865003D01*
X148805000Y-37230003D02*
X150075000Y-37230003D01*
X150075000Y-37230003D02*
X150710000Y-37865003D01*
X150075000Y-39770003D02*
X148805000Y-39770003D01*
X150710000Y-37865003D02*
X151345000Y-37230003D01*
X150710000Y-39135003D02*
X150075000Y-39770003D01*
X151345000Y-37230003D02*
X152615000Y-37230003D01*
X151345000Y-39770003D02*
X150710000Y-39135003D01*
X152615000Y-37230003D02*
X153250000Y-37865003D01*
X152615000Y-39770003D02*
X151345000Y-39770003D01*
X153250000Y-37865003D02*
X153885000Y-37230003D01*
X153250000Y-39135003D02*
X152615000Y-39770003D01*
X153885000Y-37230003D02*
X155155000Y-37230003D01*
X153885000Y-39770003D02*
X153250000Y-39135003D01*
X155155000Y-37230003D02*
X155790000Y-37865003D01*
X155155000Y-39770003D02*
X153885000Y-39770003D01*
X155790000Y-39135003D02*
X155155000Y-39770003D01*
X155790000Y-39135003D02*
X156425000Y-39770003D01*
X156425000Y-37230003D02*
X155790000Y-37865003D01*
X156425000Y-37230003D02*
X157695000Y-37230003D01*
X157695000Y-37230003D02*
X158330000Y-37865003D01*
X157695000Y-39770003D02*
X156425000Y-39770003D01*
X158330000Y-37865003D02*
X158330000Y-39135003D01*
X158330000Y-39135003D02*
X157695000Y-39770003D01*
X121670000Y-90865005D02*
X121670000Y-92135005D01*
X121670000Y-92135005D02*
X122305000Y-92770005D01*
X122305000Y-90230005D02*
X121670000Y-90865005D01*
X122305000Y-90230005D02*
X123575000Y-90230005D01*
X123575000Y-90230005D02*
X124210000Y-90865005D01*
X123575000Y-92770005D02*
X122305000Y-92770005D01*
X124210000Y-90865005D02*
X124845000Y-90230005D01*
X124210000Y-92135005D02*
X123575000Y-92770005D01*
X124845000Y-90230005D02*
X126115000Y-90230005D01*
X124845000Y-92770005D02*
X124210000Y-92135005D01*
X126115000Y-90230005D02*
X126750000Y-90865005D01*
X126115000Y-92770005D02*
X124845000Y-92770005D01*
X126750000Y-90865005D02*
X127385000Y-90230005D01*
X126750000Y-92135005D02*
X126115000Y-92770005D01*
X127385000Y-90230005D02*
X128655000Y-90230005D01*
X127385000Y-92770005D02*
X126750000Y-92135005D01*
X128655000Y-90230005D02*
X129290000Y-90865005D01*
X128655000Y-92770005D02*
X127385000Y-92770005D01*
X129290000Y-92135005D02*
X128655000Y-92770005D01*
X129290000Y-92135005D02*
X129925000Y-92770005D01*
X129925000Y-90230005D02*
X129290000Y-90865005D01*
X129925000Y-90230005D02*
X131195000Y-90230005D01*
X131195000Y-90230005D02*
X131830000Y-90865005D01*
X131195000Y-92770005D02*
X129925000Y-92770005D01*
X131830000Y-90865005D02*
X131830000Y-92135005D01*
X131830000Y-92135005D02*
X131195000Y-92770005D01*
X121670000Y-64365004D02*
X121670000Y-65635004D01*
X121670000Y-65635004D02*
X122305000Y-66270004D01*
X122305000Y-63730004D02*
X121670000Y-64365004D01*
X122305000Y-63730004D02*
X123575000Y-63730004D01*
X123575000Y-63730004D02*
X124210000Y-64365004D01*
X123575000Y-66270004D02*
X122305000Y-66270004D01*
X124210000Y-64365004D02*
X124845000Y-63730004D01*
X124210000Y-65635004D02*
X123575000Y-66270004D01*
X124845000Y-63730004D02*
X126115000Y-63730004D01*
X124845000Y-66270004D02*
X124210000Y-65635004D01*
X126115000Y-63730004D02*
X126750000Y-64365004D01*
X126115000Y-66270004D02*
X124845000Y-66270004D01*
X126750000Y-64365004D02*
X127385000Y-63730004D01*
X126750000Y-65635004D02*
X126115000Y-66270004D01*
X127385000Y-63730004D02*
X128655000Y-63730004D01*
X127385000Y-66270004D02*
X126750000Y-65635004D01*
X128655000Y-63730004D02*
X129290000Y-64365004D01*
X128655000Y-66270004D02*
X127385000Y-66270004D01*
X129290000Y-65635004D02*
X128655000Y-66270004D01*
X129290000Y-65635004D02*
X129925000Y-66270004D01*
X129925000Y-63730004D02*
X129290000Y-64365004D01*
X129925000Y-63730004D02*
X131195000Y-63730004D01*
X131195000Y-63730004D02*
X131830000Y-64365004D01*
X131195000Y-66270004D02*
X129925000Y-66270004D01*
X131830000Y-64365004D02*
X131830000Y-65635004D01*
X131830000Y-65635004D02*
X131195000Y-66270004D01*
X174670000Y-90865005D02*
X174670000Y-92135005D01*
X174670000Y-92135005D02*
X175305000Y-92770005D01*
X175305000Y-90230005D02*
X174670000Y-90865005D01*
X175305000Y-90230005D02*
X176575000Y-90230005D01*
X176575000Y-90230005D02*
X177210000Y-90865005D01*
X176575000Y-92770005D02*
X175305000Y-92770005D01*
X177210000Y-90865005D02*
X177845000Y-90230005D01*
X177210000Y-92135005D02*
X176575000Y-92770005D01*
X177845000Y-90230005D02*
X179115000Y-90230005D01*
X177845000Y-92770005D02*
X177210000Y-92135005D01*
X179115000Y-90230005D02*
X179750000Y-90865005D01*
X179115000Y-92770005D02*
X177845000Y-92770005D01*
X179750000Y-90865005D02*
X180385000Y-90230005D01*
X179750000Y-92135005D02*
X179115000Y-92770005D01*
X180385000Y-90230005D02*
X181655000Y-90230005D01*
X180385000Y-92770005D02*
X179750000Y-92135005D01*
X181655000Y-90230005D02*
X182290000Y-90865005D01*
X181655000Y-92770005D02*
X180385000Y-92770005D01*
X182290000Y-92135005D02*
X181655000Y-92770005D01*
X182290000Y-92135005D02*
X182925000Y-92770005D01*
X182925000Y-90230005D02*
X182290000Y-90865005D01*
X182925000Y-90230005D02*
X184195000Y-90230005D01*
X184195000Y-90230005D02*
X184830000Y-90865005D01*
X184195000Y-92770005D02*
X182925000Y-92770005D01*
X184830000Y-90865005D02*
X184830000Y-92135005D01*
X184830000Y-92135005D02*
X184195000Y-92770005D01*
D13*
%TO.C,U$1*%
X146038313Y-37873979D02*
X146842209Y-36042653D01*
X151665582Y-25054702D02*
X152469478Y-23223377D01*
X151151867Y-23737092D02*
X152983193Y-24540987D01*
X160750000Y-32380003D02*
G75*
G03*
X160750000Y-32380003I-12300000J0D01*
G01*
D10*
%TO.C,U1*%
X167330000Y-77550005D02*
X167330000Y-86650005D01*
X167330000Y-86650005D02*
X181880000Y-86650005D01*
X181880000Y-77550005D02*
X167330000Y-77550005D01*
X181880000Y-86650005D02*
X181880000Y-77550005D01*
X181880000Y-86650005D02*
X185830000Y-86650005D01*
X185830000Y-77550005D02*
X181880000Y-77550005D01*
X185830000Y-86650005D02*
X185830000Y-77550005D01*
X167330000Y-51050004D02*
X167330000Y-60150004D01*
X167330000Y-60150004D02*
X181880000Y-60150004D01*
X181880000Y-51050004D02*
X167330000Y-51050004D01*
X181880000Y-60150004D02*
X181880000Y-51050004D01*
X181880000Y-60150004D02*
X185830000Y-60150004D01*
X185830000Y-51050004D02*
X181880000Y-51050004D01*
X185830000Y-60150004D02*
X185830000Y-51050004D01*
X140830000Y-51050004D02*
X140830000Y-60150004D01*
X140830000Y-60150004D02*
X155380000Y-60150004D01*
X155380000Y-51050004D02*
X140830000Y-51050004D01*
X155380000Y-60150004D02*
X155380000Y-51050004D01*
X155380000Y-60150004D02*
X159330000Y-60150004D01*
X159330000Y-51050004D02*
X155380000Y-51050004D01*
X159330000Y-60150004D02*
X159330000Y-51050004D01*
D13*
%TO.C,U$1*%
X172538313Y-90873981D02*
X173342209Y-89042655D01*
X178165582Y-78054704D02*
X178969478Y-76223379D01*
X177651867Y-76737094D02*
X179483193Y-77540989D01*
X187250000Y-85380005D02*
G75*
G03*
X187250000Y-85380005I-12300000J0D01*
G01*
X146038313Y-90873981D02*
X146842209Y-89042655D01*
X151665582Y-78054704D02*
X152469478Y-76223379D01*
X151151867Y-76737094D02*
X152983193Y-77540989D01*
X160750000Y-85380005D02*
G75*
G03*
X160750000Y-85380005I-12300000J0D01*
G01*
D12*
%TO.C,-_13_10_+0*%
X148170000Y-90865005D02*
X148170000Y-92135005D01*
X148170000Y-92135005D02*
X148805000Y-92770005D01*
X148805000Y-90230005D02*
X148170000Y-90865005D01*
X148805000Y-90230005D02*
X150075000Y-90230005D01*
X150075000Y-90230005D02*
X150710000Y-90865005D01*
X150075000Y-92770005D02*
X148805000Y-92770005D01*
X150710000Y-90865005D02*
X151345000Y-90230005D01*
X150710000Y-92135005D02*
X150075000Y-92770005D01*
X151345000Y-90230005D02*
X152615000Y-90230005D01*
X151345000Y-92770005D02*
X150710000Y-92135005D01*
X152615000Y-90230005D02*
X153250000Y-90865005D01*
X152615000Y-92770005D02*
X151345000Y-92770005D01*
X153250000Y-90865005D02*
X153885000Y-90230005D01*
X153250000Y-92135005D02*
X152615000Y-92770005D01*
X153885000Y-90230005D02*
X155155000Y-90230005D01*
X153885000Y-92770005D02*
X153250000Y-92135005D01*
X155155000Y-90230005D02*
X155790000Y-90865005D01*
X155155000Y-92770005D02*
X153885000Y-92770005D01*
X155790000Y-92135005D02*
X155155000Y-92770005D01*
X155790000Y-92135005D02*
X156425000Y-92770005D01*
X156425000Y-90230005D02*
X155790000Y-90865005D01*
X156425000Y-90230005D02*
X157695000Y-90230005D01*
X157695000Y-90230005D02*
X158330000Y-90865005D01*
X157695000Y-92770005D02*
X156425000Y-92770005D01*
X158330000Y-90865005D02*
X158330000Y-92135005D01*
X158330000Y-92135005D02*
X157695000Y-92770005D01*
D13*
%TO.C,U$1*%
X146038313Y-64373980D02*
X146842209Y-62542654D01*
X151665582Y-51554703D02*
X152469478Y-49723378D01*
X151151867Y-50237093D02*
X152983193Y-51040988D01*
X160750000Y-58880004D02*
G75*
G03*
X160750000Y-58880004I-12300000J0D01*
G01*
D10*
%TO.C,U1*%
X167330000Y-24550003D02*
X167330000Y-33650003D01*
X167330000Y-33650003D02*
X181880000Y-33650003D01*
X181880000Y-24550003D02*
X167330000Y-24550003D01*
X181880000Y-33650003D02*
X181880000Y-24550003D01*
X181880000Y-33650003D02*
X185830000Y-33650003D01*
X185830000Y-24550003D02*
X181880000Y-24550003D01*
X185830000Y-33650003D02*
X185830000Y-24550003D01*
D12*
%TO.C,-_13_10_+0*%
X148170000Y-64365004D02*
X148170000Y-65635004D01*
X148170000Y-65635004D02*
X148805000Y-66270004D01*
X148805000Y-63730004D02*
X148170000Y-64365004D01*
X148805000Y-63730004D02*
X150075000Y-63730004D01*
X150075000Y-63730004D02*
X150710000Y-64365004D01*
X150075000Y-66270004D02*
X148805000Y-66270004D01*
X150710000Y-64365004D02*
X151345000Y-63730004D01*
X150710000Y-65635004D02*
X150075000Y-66270004D01*
X151345000Y-63730004D02*
X152615000Y-63730004D01*
X151345000Y-66270004D02*
X150710000Y-65635004D01*
X152615000Y-63730004D02*
X153250000Y-64365004D01*
X152615000Y-66270004D02*
X151345000Y-66270004D01*
X153250000Y-64365004D02*
X153885000Y-63730004D01*
X153250000Y-65635004D02*
X152615000Y-66270004D01*
X153885000Y-63730004D02*
X155155000Y-63730004D01*
X153885000Y-66270004D02*
X153250000Y-65635004D01*
X155155000Y-63730004D02*
X155790000Y-64365004D01*
X155155000Y-66270004D02*
X153885000Y-66270004D01*
X155790000Y-65635004D02*
X155155000Y-66270004D01*
X155790000Y-65635004D02*
X156425000Y-66270004D01*
X156425000Y-63730004D02*
X155790000Y-64365004D01*
X156425000Y-63730004D02*
X157695000Y-63730004D01*
X157695000Y-63730004D02*
X158330000Y-64365004D01*
X157695000Y-66270004D02*
X156425000Y-66270004D01*
X158330000Y-64365004D02*
X158330000Y-65635004D01*
X158330000Y-65635004D02*
X157695000Y-66270004D01*
D10*
%TO.C,U1*%
X114330000Y-77550005D02*
X114330000Y-86650005D01*
X114330000Y-86650005D02*
X128880000Y-86650005D01*
X128880000Y-77550005D02*
X114330000Y-77550005D01*
X128880000Y-86650005D02*
X128880000Y-77550005D01*
X128880000Y-86650005D02*
X132830000Y-86650005D01*
X132830000Y-77550005D02*
X128880000Y-77550005D01*
X132830000Y-86650005D02*
X132830000Y-77550005D01*
X114330000Y-51050004D02*
X114330000Y-60150004D01*
X114330000Y-60150004D02*
X128880000Y-60150004D01*
X128880000Y-51050004D02*
X114330000Y-51050004D01*
X128880000Y-60150004D02*
X128880000Y-51050004D01*
X128880000Y-60150004D02*
X132830000Y-60150004D01*
X132830000Y-51050004D02*
X128880000Y-51050004D01*
X132830000Y-60150004D02*
X132830000Y-51050004D01*
D13*
%TO.C,U$1*%
X119538313Y-90873981D02*
X120342209Y-89042655D01*
X125165582Y-78054704D02*
X125969478Y-76223379D01*
X124651867Y-76737094D02*
X126483193Y-77540989D01*
X134250000Y-85380005D02*
G75*
G03*
X134250000Y-85380005I-12300000J0D01*
G01*
X119538313Y-64373980D02*
X120342209Y-62542654D01*
X125165582Y-51554703D02*
X125969478Y-49723378D01*
X124651867Y-50237093D02*
X126483193Y-51040988D01*
X134250000Y-58880004D02*
G75*
G03*
X134250000Y-58880004I-12300000J0D01*
G01*
X172538313Y-37873979D02*
X173342209Y-36042653D01*
X178165582Y-25054702D02*
X178969478Y-23223377D01*
X177651867Y-23737092D02*
X179483193Y-24540987D01*
X187250000Y-32380003D02*
G75*
G03*
X187250000Y-32380003I-12300000J0D01*
G01*
X119538313Y-37873979D02*
X120342209Y-36042653D01*
X125165582Y-25054702D02*
X125969478Y-23223377D01*
X124651867Y-23737092D02*
X126483193Y-24540987D01*
X134250000Y-32380003D02*
G75*
G03*
X134250000Y-32380003I-12300000J0D01*
G01*
D10*
%TO.C,U1*%
X140830000Y-77550005D02*
X140830000Y-86650005D01*
X140830000Y-86650005D02*
X155380000Y-86650005D01*
X155380000Y-77550005D02*
X140830000Y-77550005D01*
X155380000Y-86650005D02*
X155380000Y-77550005D01*
X155380000Y-86650005D02*
X159330000Y-86650005D01*
X159330000Y-77550005D02*
X155380000Y-77550005D01*
X159330000Y-86650005D02*
X159330000Y-77550005D01*
%TD*%
M02*
