%TF.GenerationSoftware,KiCad,Pcbnew,7.0.2-0*%
%TF.CreationDate,2023-08-06T21:01:32-06:00*%
%TF.ProjectId,panel_soil2,70616e65-6c5f-4736-9f69-6c322e6b6963,rev?*%
%TF.SameCoordinates,Original*%
%TF.FileFunction,Soldermask,Top*%
%TF.FilePolarity,Negative*%
%FSLAX46Y46*%
G04 Gerber Fmt 4.6, Leading zero omitted, Abs format (unit mm)*
G04 Created by KiCad (PCBNEW 7.0.2-0) date 2023-08-06 21:01:32*
%MOMM*%
%LPD*%
G01*
G04 APERTURE LIST*
G04 Aperture macros list*
%AMRoundRect*
0 Rectangle with rounded corners*
0 $1 Rounding radius*
0 $2 $3 $4 $5 $6 $7 $8 $9 X,Y pos of 4 corners*
0 Add a 4 corners polygon primitive as box body*
4,1,4,$2,$3,$4,$5,$6,$7,$8,$9,$2,$3,0*
0 Add four circle primitives for the rounded corners*
1,1,$1+$1,$2,$3*
1,1,$1+$1,$4,$5*
1,1,$1+$1,$6,$7*
1,1,$1+$1,$8,$9*
0 Add four rect primitives between the rounded corners*
20,1,$1+$1,$2,$3,$4,$5,0*
20,1,$1+$1,$4,$5,$6,$7,0*
20,1,$1+$1,$6,$7,$8,$9,0*
20,1,$1+$1,$8,$9,$2,$3,0*%
%AMHorizOval*
0 Thick line with rounded ends*
0 $1 width*
0 $2 $3 position (X,Y) of the first rounded end (center of the circle)*
0 $4 $5 position (X,Y) of the second rounded end (center of the circle)*
0 Add line between two ends*
20,1,$1,$2,$3,$4,$5,0*
0 Add two circle primitives to create the rounded ends*
1,1,$1,$2,$3*
1,1,$1,$4,$5*%
%AMRotRect*
0 Rectangle, with rotation*
0 The origin of the aperture is its center*
0 $1 length*
0 $2 width*
0 $3 Rotation angle, in degrees counterclockwise*
0 Add horizontal line*
21,1,$1,$2,0,0,$3*%
G04 Aperture macros list end*
%ADD10C,0.500000*%
%ADD11R,1.700000X1.700000*%
%ADD12O,1.727200X3.251200*%
%ADD13RoundRect,0.101600X-0.635000X-0.250000X0.635000X-0.250000X0.635000X0.250000X-0.635000X0.250000X0*%
%ADD14RoundRect,0.101600X-0.250000X0.635000X-0.250000X-0.635000X0.250000X-0.635000X0.250000X0.635000X0*%
%ADD15RotRect,1.700000X1.700000X30.000000*%
%ADD16HorizOval,1.700000X0.000000X0.000000X0.000000X0.000000X0*%
%ADD17O,1.700000X1.700000*%
G04 APERTURE END LIST*
D10*
%TO.C,REF\u002A\u002A*%
X192188995Y-71800004D03*
%TD*%
%TO.C,REF\u002A\u002A*%
X150200031Y-61250000D03*
%TD*%
%TO.C,REF\u002A\u002A*%
X150200031Y-33749999D03*
%TD*%
D11*
%TO.C,J4*%
X196582800Y-77646406D03*
%TD*%
D10*
%TO.C,REF\u002A\u002A*%
X150200014Y-87261932D03*
%TD*%
D12*
%TO.C,-_13_10_+0*%
X129405000Y-38646404D03*
X131945000Y-38646404D03*
X134485000Y-38646404D03*
X137025000Y-38646404D03*
%TD*%
D10*
%TO.C,REF\u002A\u002A*%
X117666100Y-113250004D03*
%TD*%
D11*
%TO.C,J4*%
X167448900Y-105146407D03*
%TD*%
D13*
%TO.C,U1*%
X185582800Y-53346405D03*
X185582800Y-54346405D03*
X185582800Y-55346405D03*
X185582800Y-56346405D03*
X185582800Y-57346405D03*
X185582800Y-58346405D03*
D14*
X189471800Y-62335405D03*
X190471800Y-62335405D03*
X191471800Y-62335405D03*
X192471800Y-62335405D03*
X193471800Y-62335405D03*
X199371800Y-62335405D03*
X200521800Y-62335405D03*
%TD*%
D10*
%TO.C,REF\u002A\u002A*%
X133921195Y-71800004D03*
%TD*%
%TO.C,REF\u002A\u002A*%
X164532626Y-47795800D03*
%TD*%
D13*
%TO.C,U1*%
X185582800Y-80846406D03*
X185582800Y-81846406D03*
X185582800Y-82846406D03*
X185582800Y-83846406D03*
X185582800Y-84846406D03*
X185582800Y-85846406D03*
D14*
X189471800Y-89835406D03*
X190471800Y-89835406D03*
X191471800Y-89835406D03*
X192471800Y-89835406D03*
X193471800Y-89835406D03*
X199371800Y-89835406D03*
X200521800Y-89835406D03*
%TD*%
D10*
%TO.C,REF\u002A\u002A*%
X133920028Y-102700004D03*
%TD*%
%TO.C,REF\u002A\u002A*%
X175933900Y-33750001D03*
%TD*%
%TO.C,REF\u002A\u002A*%
X192187828Y-75200003D03*
%TD*%
%TO.C,REF\u002A\u002A*%
X163055095Y-71800004D03*
%TD*%
D12*
%TO.C,-_13_10_+0*%
X187672800Y-121146407D03*
X190212800Y-121146407D03*
X192752800Y-121146407D03*
X195292800Y-121146407D03*
%TD*%
D11*
%TO.C,J5*%
X158948900Y-41846404D03*
%TD*%
D10*
%TO.C,REF\u002A\u002A*%
X103299150Y-102700002D03*
%TD*%
%TO.C,REF\u002A\u002A*%
X117666100Y-114250004D03*
%TD*%
D15*
%TO.C,J1*%
X180782800Y-61455505D03*
D16*
X182052800Y-63655210D03*
X183322800Y-65854914D03*
X184592800Y-68054619D03*
%TD*%
D10*
%TO.C,REF\u002A\u002A*%
X175933900Y-88750003D03*
%TD*%
%TO.C,REF\u002A\u002A*%
X179333914Y-114761933D03*
%TD*%
D12*
%TO.C,-_13_10_+0*%
X100271100Y-38646404D03*
X102811100Y-38646404D03*
X105351100Y-38646404D03*
X107891100Y-38646404D03*
%TD*%
%TO.C,-_13_10_+0*%
X187672800Y-93646406D03*
X190212800Y-93646406D03*
X192752800Y-93646406D03*
X195292800Y-93646406D03*
%TD*%
%TO.C,-_13_10_+0*%
X158538900Y-93646406D03*
X161078900Y-93646406D03*
X163618900Y-93646406D03*
X166158900Y-93646406D03*
%TD*%
D13*
%TO.C,U1*%
X98181100Y-108346407D03*
X98181100Y-109346407D03*
X98181100Y-110346407D03*
X98181100Y-111346407D03*
X98181100Y-112346407D03*
X98181100Y-113346407D03*
D14*
X102070100Y-117335407D03*
X103070100Y-117335407D03*
X104070100Y-117335407D03*
X105070100Y-117335407D03*
X106070100Y-117335407D03*
X111970100Y-117335407D03*
X113120100Y-117335407D03*
%TD*%
D10*
%TO.C,REF\u002A\u002A*%
X163053928Y-75200003D03*
%TD*%
D11*
%TO.C,J4*%
X138315000Y-77646406D03*
%TD*%
D10*
%TO.C,REF\u002A\u002A*%
X117666100Y-61250002D03*
%TD*%
%TO.C,REF\u002A\u002A*%
X179333914Y-59761931D03*
%TD*%
D15*
%TO.C,J1*%
X122515000Y-33955504D03*
D16*
X123785000Y-36155209D03*
X125055000Y-38354913D03*
X126325000Y-40554618D03*
%TD*%
D11*
%TO.C,J4*%
X138315000Y-50146405D03*
%TD*%
D10*
%TO.C,REF\u002A\u002A*%
X121066114Y-114761933D03*
%TD*%
D11*
%TO.C,J3*%
X99881100Y-105646407D03*
D17*
X102421100Y-105646407D03*
X104961100Y-105646407D03*
%TD*%
D10*
%TO.C,REF\u002A\u002A*%
X150200014Y-114761933D03*
%TD*%
D13*
%TO.C,U1*%
X127315000Y-108346407D03*
X127315000Y-109346407D03*
X127315000Y-110346407D03*
X127315000Y-111346407D03*
X127315000Y-112346407D03*
X127315000Y-113346407D03*
D14*
X131204000Y-117335407D03*
X132204000Y-117335407D03*
X133204000Y-117335407D03*
X134204000Y-117335407D03*
X135204000Y-117335407D03*
X141104000Y-117335407D03*
X142254000Y-117335407D03*
%TD*%
D11*
%TO.C,J3*%
X187282800Y-105646407D03*
D17*
X189822800Y-105646407D03*
X192362800Y-105646407D03*
%TD*%
D12*
%TO.C,-_13_10_+0*%
X158538900Y-66146405D03*
X161078900Y-66146405D03*
X163618900Y-66146405D03*
X166158900Y-66146405D03*
%TD*%
D11*
%TO.C,J3*%
X158148900Y-50646405D03*
D17*
X160688900Y-50646405D03*
X163228900Y-50646405D03*
%TD*%
D10*
%TO.C,REF\u002A\u002A*%
X117666100Y-58250002D03*
%TD*%
%TO.C,REF\u002A\u002A*%
X146800000Y-85750003D03*
%TD*%
D12*
%TO.C,-_13_10_+0*%
X100271100Y-66146405D03*
X102811100Y-66146405D03*
X105351100Y-66146405D03*
X107891100Y-66146405D03*
%TD*%
D10*
%TO.C,REF\u002A\u002A*%
X121097030Y-30775871D03*
%TD*%
D15*
%TO.C,J1*%
X93381100Y-61455505D03*
D16*
X94651100Y-63655210D03*
X95921100Y-65854914D03*
X97191100Y-68054619D03*
%TD*%
D10*
%TO.C,REF\u002A\u002A*%
X192188995Y-44300003D03*
%TD*%
%TO.C,REF\u002A\u002A*%
X121066131Y-116250002D03*
%TD*%
D11*
%TO.C,J4*%
X196582800Y-105146407D03*
%TD*%
D10*
%TO.C,REF\u002A\u002A*%
X117666100Y-30750002D03*
%TD*%
%TO.C,REF\u002A\u002A*%
X164536904Y-44216124D03*
%TD*%
D11*
%TO.C,J3*%
X129015000Y-23146404D03*
D17*
X131555000Y-23146404D03*
X134095000Y-23146404D03*
%TD*%
D13*
%TO.C,U1*%
X98181100Y-53346405D03*
X98181100Y-54346405D03*
X98181100Y-55346405D03*
X98181100Y-56346405D03*
X98181100Y-57346405D03*
X98181100Y-58346405D03*
D14*
X102070100Y-62335405D03*
X103070100Y-62335405D03*
X104070100Y-62335405D03*
X105070100Y-62335405D03*
X106070100Y-62335405D03*
X111970100Y-62335405D03*
X113120100Y-62335405D03*
%TD*%
D15*
%TO.C,J1*%
X93381100Y-116455507D03*
D16*
X94651100Y-118655212D03*
X95921100Y-120854916D03*
X97191100Y-123054621D03*
%TD*%
D10*
%TO.C,REF\u002A\u002A*%
X146800000Y-113250004D03*
%TD*%
%TO.C,REF\u002A\u002A*%
X175933900Y-60250002D03*
%TD*%
%TO.C,REF\u002A\u002A*%
X104786129Y-75200003D03*
%TD*%
D12*
%TO.C,-_13_10_+0*%
X100271100Y-93646406D03*
X102811100Y-93646406D03*
X105351100Y-93646406D03*
X107891100Y-93646406D03*
%TD*%
%TO.C,-_13_10_+0*%
X129405000Y-121146407D03*
X131945000Y-121146407D03*
X134485000Y-121146407D03*
X137025000Y-121146407D03*
%TD*%
D13*
%TO.C,U1*%
X98181100Y-25846404D03*
X98181100Y-26846404D03*
X98181100Y-27846404D03*
X98181100Y-28846404D03*
X98181100Y-29846404D03*
X98181100Y-30846404D03*
D14*
X102070100Y-34835404D03*
X103070100Y-34835404D03*
X104070100Y-34835404D03*
X105070100Y-34835404D03*
X106070100Y-34835404D03*
X111970100Y-34835404D03*
X113120100Y-34835404D03*
%TD*%
D13*
%TO.C,U1*%
X185582800Y-25846404D03*
X185582800Y-26846404D03*
X185582800Y-27846404D03*
X185582800Y-28846404D03*
X185582800Y-29846404D03*
X185582800Y-30846404D03*
D14*
X189471800Y-34835404D03*
X190471800Y-34835404D03*
X191471800Y-34835404D03*
X192471800Y-34835404D03*
X193471800Y-34835404D03*
X199371800Y-34835404D03*
X200521800Y-34835404D03*
%TD*%
D10*
%TO.C,REF\u002A\u002A*%
X163053928Y-47700002D03*
%TD*%
D13*
%TO.C,U1*%
X156448900Y-108346407D03*
X156448900Y-109346407D03*
X156448900Y-110346407D03*
X156448900Y-111346407D03*
X156448900Y-112346407D03*
X156448900Y-113346407D03*
D14*
X160337900Y-117335407D03*
X161337900Y-117335407D03*
X162337900Y-117335407D03*
X163337900Y-117335407D03*
X164337900Y-117335407D03*
X170237900Y-117335407D03*
X171387900Y-117335407D03*
%TD*%
D10*
%TO.C,REF\u002A\u002A*%
X150200031Y-116250002D03*
%TD*%
%TO.C,REF\u002A\u002A*%
X161566949Y-44300003D03*
%TD*%
D11*
%TO.C,J4*%
X138315000Y-22646404D03*
%TD*%
D10*
%TO.C,REF\u002A\u002A*%
X117666100Y-87750003D03*
%TD*%
%TO.C,REF\u002A\u002A*%
X192187828Y-102700004D03*
%TD*%
%TO.C,REF\u002A\u002A*%
X193670804Y-44216124D03*
%TD*%
D11*
%TO.C,J4*%
X109181100Y-105146407D03*
%TD*%
%TO.C,J5*%
X100681100Y-96846406D03*
%TD*%
D10*
%TO.C,REF\u002A\u002A*%
X163055095Y-44300003D03*
%TD*%
%TO.C,REF\u002A\u002A*%
X190700849Y-75200001D03*
%TD*%
%TO.C,REF\u002A\u002A*%
X164536904Y-99216126D03*
%TD*%
%TO.C,REF\u002A\u002A*%
X135403004Y-71716125D03*
%TD*%
D12*
%TO.C,-_13_10_+0*%
X187672800Y-38646404D03*
X190212800Y-38646404D03*
X192752800Y-38646404D03*
X195292800Y-38646404D03*
%TD*%
D10*
%TO.C,REF\u002A\u002A*%
X146800000Y-115250004D03*
%TD*%
%TO.C,REF\u002A\u002A*%
X161566949Y-99300005D03*
%TD*%
D11*
%TO.C,J3*%
X129015000Y-78146406D03*
D17*
X131555000Y-78146406D03*
X134095000Y-78146406D03*
%TD*%
D13*
%TO.C,U1*%
X127315000Y-25846404D03*
X127315000Y-26846404D03*
X127315000Y-27846404D03*
X127315000Y-28846404D03*
X127315000Y-29846404D03*
X127315000Y-30846404D03*
D14*
X131204000Y-34835404D03*
X132204000Y-34835404D03*
X133204000Y-34835404D03*
X134204000Y-34835404D03*
X135204000Y-34835404D03*
X141104000Y-34835404D03*
X142254000Y-34835404D03*
%TD*%
D10*
%TO.C,REF\u002A\u002A*%
X161566949Y-102700002D03*
%TD*%
%TO.C,REF\u002A\u002A*%
X106269104Y-44216124D03*
%TD*%
D11*
%TO.C,J3*%
X99881100Y-23146404D03*
D17*
X102421100Y-23146404D03*
X104961100Y-23146404D03*
%TD*%
D10*
%TO.C,REF\u002A\u002A*%
X179333914Y-87261932D03*
%TD*%
D11*
%TO.C,J3*%
X129015000Y-105646407D03*
D17*
X131555000Y-105646407D03*
X134095000Y-105646407D03*
%TD*%
D10*
%TO.C,REF\u002A\u002A*%
X117666100Y-59250002D03*
%TD*%
D11*
%TO.C,J5*%
X188082800Y-124346407D03*
%TD*%
D15*
%TO.C,J1*%
X180782800Y-88955506D03*
D16*
X182052800Y-91155211D03*
X183322800Y-93354915D03*
X184592800Y-95554620D03*
%TD*%
D10*
%TO.C,REF\u002A\u002A*%
X179333931Y-33749999D03*
%TD*%
%TO.C,REF\u002A\u002A*%
X190700849Y-44300003D03*
%TD*%
%TO.C,REF\u002A\u002A*%
X146800000Y-30750002D03*
%TD*%
%TO.C,REF\u002A\u002A*%
X135398726Y-102795802D03*
%TD*%
D11*
%TO.C,J5*%
X158948900Y-124346407D03*
%TD*%
D10*
%TO.C,REF\u002A\u002A*%
X121066131Y-61250000D03*
%TD*%
D15*
%TO.C,J1*%
X180782800Y-116455507D03*
D16*
X182052800Y-118655212D03*
X183322800Y-120854916D03*
X184592800Y-123054621D03*
%TD*%
D11*
%TO.C,J5*%
X188082800Y-41846404D03*
%TD*%
%TO.C,J5*%
X129815000Y-124346407D03*
%TD*%
D10*
%TO.C,REF\u002A\u002A*%
X150200014Y-32261930D03*
%TD*%
D11*
%TO.C,J4*%
X138315000Y-105146407D03*
%TD*%
D10*
%TO.C,REF\u002A\u002A*%
X103299150Y-75200001D03*
%TD*%
%TO.C,REF\u002A\u002A*%
X175933900Y-86750003D03*
%TD*%
%TO.C,REF\u002A\u002A*%
X135398726Y-47795800D03*
%TD*%
%TO.C,REF\u002A\u002A*%
X175933900Y-31750002D03*
%TD*%
%TO.C,REF\u002A\u002A*%
X175933900Y-59250002D03*
%TD*%
%TO.C,REF\u002A\u002A*%
X135398726Y-75295801D03*
%TD*%
%TO.C,REF\u002A\u002A*%
X193666526Y-102795802D03*
%TD*%
%TO.C,REF\u002A\u002A*%
X121066114Y-32261930D03*
%TD*%
D12*
%TO.C,-_13_10_+0*%
X187672800Y-66146405D03*
X190212800Y-66146405D03*
X192752800Y-66146405D03*
X195292800Y-66146405D03*
%TD*%
D10*
%TO.C,REF\u002A\u002A*%
X163055095Y-99300005D03*
%TD*%
%TO.C,REF\u002A\u002A*%
X192188995Y-99300005D03*
%TD*%
%TO.C,REF\u002A\u002A*%
X179333914Y-32261930D03*
%TD*%
D11*
%TO.C,J5*%
X100681100Y-124346407D03*
%TD*%
D10*
%TO.C,REF\u002A\u002A*%
X175933900Y-115250004D03*
%TD*%
%TO.C,REF\u002A\u002A*%
X121097030Y-113275873D03*
%TD*%
%TO.C,REF\u002A\u002A*%
X104786129Y-102700004D03*
%TD*%
%TO.C,REF\u002A\u002A*%
X104786129Y-47700002D03*
%TD*%
D13*
%TO.C,U1*%
X156448900Y-80846406D03*
X156448900Y-81846406D03*
X156448900Y-82846406D03*
X156448900Y-83846406D03*
X156448900Y-84846406D03*
X156448900Y-85846406D03*
D14*
X160337900Y-89835406D03*
X161337900Y-89835406D03*
X162337900Y-89835406D03*
X163337900Y-89835406D03*
X164337900Y-89835406D03*
X170237900Y-89835406D03*
X171387900Y-89835406D03*
%TD*%
D10*
%TO.C,REF\u002A\u002A*%
X104787296Y-44300003D03*
%TD*%
%TO.C,REF\u002A\u002A*%
X146800000Y-116250004D03*
%TD*%
D15*
%TO.C,J1*%
X151648900Y-116455507D03*
D16*
X152918900Y-118655212D03*
X154188900Y-120854916D03*
X155458900Y-123054621D03*
%TD*%
D12*
%TO.C,-_13_10_+0*%
X129405000Y-66146405D03*
X131945000Y-66146405D03*
X134485000Y-66146405D03*
X137025000Y-66146405D03*
%TD*%
D10*
%TO.C,REF\u002A\u002A*%
X121066131Y-88750001D03*
%TD*%
D15*
%TO.C,J1*%
X180782800Y-33955504D03*
D16*
X182052800Y-36155209D03*
X183322800Y-38354913D03*
X184592800Y-40554618D03*
%TD*%
D11*
%TO.C,J3*%
X187282800Y-78146406D03*
D17*
X189822800Y-78146406D03*
X192362800Y-78146406D03*
%TD*%
D13*
%TO.C,U1*%
X127315000Y-53346405D03*
X127315000Y-54346405D03*
X127315000Y-55346405D03*
X127315000Y-56346405D03*
X127315000Y-57346405D03*
X127315000Y-58346405D03*
D14*
X131204000Y-62335405D03*
X132204000Y-62335405D03*
X133204000Y-62335405D03*
X134204000Y-62335405D03*
X135204000Y-62335405D03*
X141104000Y-62335405D03*
X142254000Y-62335405D03*
%TD*%
D11*
%TO.C,J3*%
X99881100Y-78146406D03*
D17*
X102421100Y-78146406D03*
X104961100Y-78146406D03*
%TD*%
D10*
%TO.C,REF\u002A\u002A*%
X193666526Y-75295801D03*
%TD*%
%TO.C,REF\u002A\u002A*%
X135403004Y-44216124D03*
%TD*%
%TO.C,REF\u002A\u002A*%
X146800000Y-58250002D03*
%TD*%
D15*
%TO.C,J1*%
X151648900Y-61455505D03*
D16*
X152918900Y-63655210D03*
X154188900Y-65854914D03*
X155458900Y-68054619D03*
%TD*%
D10*
%TO.C,REF\u002A\u002A*%
X193670804Y-71716125D03*
%TD*%
D11*
%TO.C,J4*%
X109181100Y-50146405D03*
%TD*%
D10*
%TO.C,REF\u002A\u002A*%
X106269104Y-71716125D03*
%TD*%
D11*
%TO.C,J5*%
X158948900Y-96846406D03*
%TD*%
D10*
%TO.C,REF\u002A\u002A*%
X133920028Y-75200003D03*
%TD*%
%TO.C,REF\u002A\u002A*%
X133921195Y-44300003D03*
%TD*%
%TO.C,REF\u002A\u002A*%
X190700849Y-47700000D03*
%TD*%
D11*
%TO.C,J4*%
X167448900Y-22646404D03*
%TD*%
%TO.C,J3*%
X187282800Y-23146404D03*
D17*
X189822800Y-23146404D03*
X192362800Y-23146404D03*
%TD*%
D10*
%TO.C,REF\u002A\u002A*%
X121066131Y-33749999D03*
%TD*%
%TO.C,REF\u002A\u002A*%
X164536904Y-71716125D03*
%TD*%
D11*
%TO.C,J5*%
X100681100Y-41846404D03*
%TD*%
D10*
%TO.C,REF\u002A\u002A*%
X164532626Y-75295801D03*
%TD*%
%TO.C,REF\u002A\u002A*%
X132433049Y-44300003D03*
%TD*%
%TO.C,REF\u002A\u002A*%
X175933900Y-114250004D03*
%TD*%
D11*
%TO.C,J3*%
X158148900Y-78146406D03*
D17*
X160688900Y-78146406D03*
X163228900Y-78146406D03*
%TD*%
D10*
%TO.C,REF\u002A\u002A*%
X121097030Y-85775872D03*
%TD*%
D11*
%TO.C,J3*%
X158148900Y-105646407D03*
D17*
X160688900Y-105646407D03*
X163228900Y-105646407D03*
%TD*%
D10*
%TO.C,REF\u002A\u002A*%
X104787296Y-71800004D03*
%TD*%
%TO.C,REF\u002A\u002A*%
X150230930Y-113275873D03*
%TD*%
%TO.C,REF\u002A\u002A*%
X190700849Y-71800004D03*
%TD*%
%TO.C,REF\u002A\u002A*%
X146800000Y-86750003D03*
%TD*%
%TO.C,REF\u002A\u002A*%
X175933900Y-87750003D03*
%TD*%
%TO.C,REF\u002A\u002A*%
X121066114Y-87261932D03*
%TD*%
%TO.C,REF\u002A\u002A*%
X146800000Y-61250002D03*
%TD*%
D13*
%TO.C,U1*%
X98181100Y-80846406D03*
X98181100Y-81846406D03*
X98181100Y-82846406D03*
X98181100Y-83846406D03*
X98181100Y-84846406D03*
X98181100Y-85846406D03*
D14*
X102070100Y-89835406D03*
X103070100Y-89835406D03*
X104070100Y-89835406D03*
X105070100Y-89835406D03*
X106070100Y-89835406D03*
X111970100Y-89835406D03*
X113120100Y-89835406D03*
%TD*%
D10*
%TO.C,REF\u002A\u002A*%
X190700849Y-102700002D03*
%TD*%
D11*
%TO.C,J4*%
X109181100Y-22646404D03*
%TD*%
D10*
%TO.C,REF\u002A\u002A*%
X135403004Y-99216126D03*
%TD*%
%TO.C,REF\u002A\u002A*%
X150200014Y-59761931D03*
%TD*%
D15*
%TO.C,J1*%
X93381100Y-33955504D03*
D16*
X94651100Y-36155209D03*
X95921100Y-38354913D03*
X97191100Y-40554618D03*
%TD*%
D10*
%TO.C,REF\u002A\u002A*%
X103299150Y-71800004D03*
%TD*%
%TO.C,REF\u002A\u002A*%
X117666100Y-85750003D03*
%TD*%
%TO.C,REF\u002A\u002A*%
X146800000Y-88750003D03*
%TD*%
%TO.C,REF\u002A\u002A*%
X179364830Y-85775872D03*
%TD*%
%TO.C,REF\u002A\u002A*%
X175933900Y-58250002D03*
%TD*%
%TO.C,REF\u002A\u002A*%
X103299150Y-99300005D03*
%TD*%
%TO.C,REF\u002A\u002A*%
X175933900Y-85750003D03*
%TD*%
%TO.C,REF\u002A\u002A*%
X146800000Y-114250004D03*
%TD*%
%TO.C,REF\u002A\u002A*%
X133921195Y-99300005D03*
%TD*%
%TO.C,REF\u002A\u002A*%
X117666100Y-116250004D03*
%TD*%
D12*
%TO.C,-_13_10_+0*%
X100271100Y-121146407D03*
X102811100Y-121146407D03*
X105351100Y-121146407D03*
X107891100Y-121146407D03*
%TD*%
D10*
%TO.C,REF\u002A\u002A*%
X192187828Y-47700002D03*
%TD*%
D11*
%TO.C,J5*%
X188082800Y-96846406D03*
%TD*%
D15*
%TO.C,J1*%
X122515000Y-88955506D03*
D16*
X123785000Y-91155211D03*
X125055000Y-93354915D03*
X126325000Y-95554620D03*
%TD*%
D10*
%TO.C,REF\u002A\u002A*%
X132433049Y-99300005D03*
%TD*%
%TO.C,REF\u002A\u002A*%
X106264826Y-47795800D03*
%TD*%
%TO.C,REF\u002A\u002A*%
X150230930Y-58275871D03*
%TD*%
%TO.C,REF\u002A\u002A*%
X179364830Y-58275871D03*
%TD*%
%TO.C,REF\u002A\u002A*%
X175933900Y-32750001D03*
%TD*%
D11*
%TO.C,J3*%
X158148900Y-23146404D03*
D17*
X160688900Y-23146404D03*
X163228900Y-23146404D03*
%TD*%
D10*
%TO.C,REF\u002A\u002A*%
X175933900Y-61250002D03*
%TD*%
D11*
%TO.C,J4*%
X109181100Y-77646406D03*
%TD*%
%TO.C,J5*%
X129815000Y-69346405D03*
%TD*%
D10*
%TO.C,REF\u002A\u002A*%
X150200031Y-88750001D03*
%TD*%
D11*
%TO.C,J3*%
X99881100Y-50646405D03*
D17*
X102421100Y-50646405D03*
X104961100Y-50646405D03*
%TD*%
D10*
%TO.C,REF\u002A\u002A*%
X179364830Y-113275873D03*
%TD*%
D12*
%TO.C,-_13_10_+0*%
X158538900Y-38646404D03*
X161078900Y-38646404D03*
X163618900Y-38646404D03*
X166158900Y-38646404D03*
%TD*%
%TO.C,-_13_10_+0*%
X158538900Y-121146407D03*
X161078900Y-121146407D03*
X163618900Y-121146407D03*
X166158900Y-121146407D03*
%TD*%
D15*
%TO.C,J1*%
X122515000Y-116455507D03*
D16*
X123785000Y-118655212D03*
X125055000Y-120854916D03*
X126325000Y-123054621D03*
%TD*%
D10*
%TO.C,REF\u002A\u002A*%
X175933900Y-116250004D03*
%TD*%
%TO.C,REF\u002A\u002A*%
X133920028Y-47700002D03*
%TD*%
%TO.C,REF\u002A\u002A*%
X161566949Y-47700000D03*
%TD*%
%TO.C,REF\u002A\u002A*%
X150230930Y-30775871D03*
%TD*%
%TO.C,REF\u002A\u002A*%
X106264826Y-102795802D03*
%TD*%
%TO.C,REF\u002A\u002A*%
X190700849Y-99300005D03*
%TD*%
%TO.C,REF\u002A\u002A*%
X121097030Y-58275871D03*
%TD*%
%TO.C,REF\u002A\u002A*%
X117666100Y-86750003D03*
%TD*%
D12*
%TO.C,-_13_10_+0*%
X129405000Y-93646406D03*
X131945000Y-93646406D03*
X134485000Y-93646406D03*
X137025000Y-93646406D03*
%TD*%
D10*
%TO.C,REF\u002A\u002A*%
X117666100Y-60250002D03*
%TD*%
D11*
%TO.C,J3*%
X187282800Y-50646405D03*
D17*
X189822800Y-50646405D03*
X192362800Y-50646405D03*
%TD*%
D10*
%TO.C,REF\u002A\u002A*%
X117666100Y-115250004D03*
%TD*%
%TO.C,REF\u002A\u002A*%
X164532626Y-102795802D03*
%TD*%
D11*
%TO.C,J4*%
X196582800Y-50146405D03*
%TD*%
D10*
%TO.C,REF\u002A\u002A*%
X132433049Y-102700002D03*
%TD*%
%TO.C,REF\u002A\u002A*%
X163053928Y-102700004D03*
%TD*%
D15*
%TO.C,J1*%
X151648900Y-88955506D03*
D16*
X152918900Y-91155211D03*
X154188900Y-93354915D03*
X155458900Y-95554620D03*
%TD*%
D13*
%TO.C,U1*%
X156448900Y-25846404D03*
X156448900Y-26846404D03*
X156448900Y-27846404D03*
X156448900Y-28846404D03*
X156448900Y-29846404D03*
X156448900Y-30846404D03*
D14*
X160337900Y-34835404D03*
X161337900Y-34835404D03*
X162337900Y-34835404D03*
X163337900Y-34835404D03*
X164337900Y-34835404D03*
X170237900Y-34835404D03*
X171387900Y-34835404D03*
%TD*%
D10*
%TO.C,REF\u002A\u002A*%
X146800000Y-60250002D03*
%TD*%
D11*
%TO.C,J5*%
X129815000Y-41846404D03*
%TD*%
D10*
%TO.C,REF\u002A\u002A*%
X121066114Y-59761931D03*
%TD*%
D13*
%TO.C,U1*%
X156448900Y-53346405D03*
X156448900Y-54346405D03*
X156448900Y-55346405D03*
X156448900Y-56346405D03*
X156448900Y-57346405D03*
X156448900Y-58346405D03*
D14*
X160337900Y-62335405D03*
X161337900Y-62335405D03*
X162337900Y-62335405D03*
X163337900Y-62335405D03*
X164337900Y-62335405D03*
X170237900Y-62335405D03*
X171387900Y-62335405D03*
%TD*%
D10*
%TO.C,REF\u002A\u002A*%
X175933900Y-113250004D03*
%TD*%
D15*
%TO.C,J1*%
X122515000Y-61455505D03*
D16*
X123785000Y-63655210D03*
X125055000Y-65854914D03*
X126325000Y-68054619D03*
%TD*%
D10*
%TO.C,REF\u002A\u002A*%
X161566949Y-71800004D03*
%TD*%
%TO.C,REF\u002A\u002A*%
X104787296Y-99300005D03*
%TD*%
%TO.C,REF\u002A\u002A*%
X106264826Y-75295801D03*
%TD*%
%TO.C,REF\u002A\u002A*%
X132433049Y-47700000D03*
%TD*%
%TO.C,REF\u002A\u002A*%
X179364830Y-30775871D03*
%TD*%
%TO.C,REF\u002A\u002A*%
X161566949Y-75200001D03*
%TD*%
%TO.C,REF\u002A\u002A*%
X146800000Y-31750002D03*
%TD*%
%TO.C,REF\u002A\u002A*%
X146800000Y-59250002D03*
%TD*%
D11*
%TO.C,J5*%
X129815000Y-96846406D03*
%TD*%
D10*
%TO.C,REF\u002A\u002A*%
X150230930Y-85775872D03*
%TD*%
%TO.C,REF\u002A\u002A*%
X146800000Y-32750001D03*
%TD*%
%TO.C,REF\u002A\u002A*%
X179333931Y-61250000D03*
%TD*%
%TO.C,REF\u002A\u002A*%
X179333931Y-88750001D03*
%TD*%
%TO.C,REF\u002A\u002A*%
X103299150Y-47700000D03*
%TD*%
%TO.C,REF\u002A\u002A*%
X106269104Y-99216126D03*
%TD*%
D15*
%TO.C,J1*%
X151648900Y-33955504D03*
D16*
X152918900Y-36155209D03*
X154188900Y-38354913D03*
X155458900Y-40554618D03*
%TD*%
D13*
%TO.C,U1*%
X185582800Y-108346407D03*
X185582800Y-109346407D03*
X185582800Y-110346407D03*
X185582800Y-111346407D03*
X185582800Y-112346407D03*
X185582800Y-113346407D03*
D14*
X189471800Y-117335407D03*
X190471800Y-117335407D03*
X191471800Y-117335407D03*
X192471800Y-117335407D03*
X193471800Y-117335407D03*
X199371800Y-117335407D03*
X200521800Y-117335407D03*
%TD*%
D10*
%TO.C,REF\u002A\u002A*%
X103299150Y-44300003D03*
%TD*%
D13*
%TO.C,U1*%
X127315000Y-80846406D03*
X127315000Y-81846406D03*
X127315000Y-82846406D03*
X127315000Y-83846406D03*
X127315000Y-84846406D03*
X127315000Y-85846406D03*
D14*
X131204000Y-89835406D03*
X132204000Y-89835406D03*
X133204000Y-89835406D03*
X134204000Y-89835406D03*
X135204000Y-89835406D03*
X141104000Y-89835406D03*
X142254000Y-89835406D03*
%TD*%
D10*
%TO.C,REF\u002A\u002A*%
X146800000Y-87750003D03*
%TD*%
%TO.C,REF\u002A\u002A*%
X117666100Y-33750001D03*
%TD*%
%TO.C,REF\u002A\u002A*%
X175933900Y-30750002D03*
%TD*%
%TO.C,REF\u002A\u002A*%
X179333931Y-116250002D03*
%TD*%
%TO.C,REF\u002A\u002A*%
X117666100Y-32750001D03*
%TD*%
%TO.C,REF\u002A\u002A*%
X193670804Y-99216126D03*
%TD*%
%TO.C,REF\u002A\u002A*%
X132433049Y-75200001D03*
%TD*%
D11*
%TO.C,J5*%
X100681100Y-69346405D03*
%TD*%
D10*
%TO.C,REF\u002A\u002A*%
X117666100Y-88750003D03*
%TD*%
D11*
%TO.C,J5*%
X188082800Y-69346405D03*
%TD*%
%TO.C,J5*%
X158948900Y-69346405D03*
%TD*%
D10*
%TO.C,REF\u002A\u002A*%
X132433049Y-71800004D03*
%TD*%
D11*
%TO.C,J4*%
X196582800Y-22646404D03*
%TD*%
%TO.C,J4*%
X167448900Y-50146405D03*
%TD*%
D15*
%TO.C,J1*%
X93381100Y-88955506D03*
D16*
X94651100Y-91155211D03*
X95921100Y-93354915D03*
X97191100Y-95554620D03*
%TD*%
D11*
%TO.C,J4*%
X167448900Y-77646406D03*
%TD*%
%TO.C,J3*%
X129015000Y-50646405D03*
D17*
X131555000Y-50646405D03*
X134095000Y-50646405D03*
%TD*%
D10*
%TO.C,REF\u002A\u002A*%
X146800000Y-33750001D03*
%TD*%
%TO.C,REF\u002A\u002A*%
X117666100Y-31750002D03*
%TD*%
%TO.C,REF\u002A\u002A*%
X193666526Y-47795800D03*
%TD*%
M02*
