M48
; DRILL file {KiCad 7.0.2-0} date 2023 June 16, Friday 20:31:27
; FORMAT={-:-/ absolute / inch / decimal}
; #@! TF.CreationDate,2023-06-16T20:31:27-06:00
; #@! TF.GenerationSoftware,Kicad,Pcbnew,7.0.2-0
; #@! TF.FileFunction,Plated,1,2,PTH
FMAT,2
INCH
; #@! TA.AperFunction,Plated,PTH,ViaDrill
T1C0.0118
; #@! TA.AperFunction,Plated,PTH,ComponentDrill
T2C0.0394
; #@! TA.AperFunction,Plated,PTH,ComponentDrill
T3C0.0400
; #@! TA.AperFunction,Plated,PTH,ComponentDrill
T4C0.0787
; #@! TA.AperFunction,Plated,PTH,ComponentDrill
T5C0.1181
%
G90
G05
T1
X4.7686Y-1.382
X4.7686Y-2.4253
X4.7686Y-3.4686
X4.805Y-1.3368
X4.805Y-2.3801
X4.805Y-3.4234
X5.8119Y-1.382
X5.8119Y-2.4253
X5.8119Y-3.4686
X5.8483Y-1.3368
X5.8483Y-2.3801
X5.8483Y-3.4234
X6.8552Y-1.382
X6.8552Y-2.4253
X6.8552Y-3.4686
X6.8916Y-1.3368
X6.8916Y-2.3801
X6.8916Y-3.4234
T2
X4.3858Y-1.3368
X4.3858Y-2.3801
X4.3858Y-3.4234
X4.4358Y-1.4234
X4.4358Y-2.4667
X4.4358Y-3.51
X4.4858Y-1.51
X4.4858Y-2.5533
X4.4858Y-3.5967
X4.5358Y-1.5966
X4.5358Y-2.6399
X4.5358Y-3.6833
X5.4291Y-1.3368
X5.4291Y-2.3801
X5.4291Y-3.4234
X5.4791Y-1.4234
X5.4791Y-2.4667
X5.4791Y-3.51
X5.5291Y-1.51
X5.5291Y-2.5533
X5.5291Y-3.5967
X5.5791Y-1.5966
X5.5791Y-2.6399
X5.5791Y-3.6833
X6.4724Y-1.3368
X6.4724Y-2.3801
X6.4724Y-3.4234
X6.5224Y-1.4234
X6.5224Y-2.4667
X6.5224Y-3.51
X6.5724Y-1.51
X6.5724Y-2.5533
X6.5724Y-3.5967
X6.6224Y-1.5966
X6.6224Y-2.6399
X6.6224Y-3.6833
T3
X4.8402Y-1.5157
X4.8402Y-2.5591
X4.8402Y-3.6024
X4.9402Y-1.5157
X4.9402Y-2.5591
X4.9402Y-3.6024
X5.0402Y-1.5157
X5.0402Y-2.5591
X5.0402Y-3.6024
X5.1402Y-1.5157
X5.1402Y-2.5591
X5.1402Y-3.6024
X5.8835Y-1.5157
X5.8835Y-2.5591
X5.8835Y-3.6024
X5.9835Y-1.5157
X5.9835Y-2.5591
X5.9835Y-3.6024
X6.0835Y-1.5157
X6.0835Y-2.5591
X6.0835Y-3.6024
X6.1835Y-1.5157
X6.1835Y-2.5591
X6.1835Y-3.6024
X6.9268Y-1.5157
X6.9268Y-2.5591
X6.9268Y-3.6024
X7.0268Y-1.5157
X7.0268Y-2.5591
X7.0268Y-3.6024
X7.1268Y-1.5157
X7.1268Y-2.5591
X7.1268Y-3.6024
X7.2268Y-1.5157
X7.2268Y-2.5591
X7.2268Y-3.6024
T4
X4.6731Y-1.5625
X4.6731Y-2.6058
X4.6731Y-3.6491
X5.7164Y-1.5625
X5.7164Y-2.6058
X5.7164Y-3.6491
X6.7597Y-1.5625
X6.7597Y-2.6058
X6.7597Y-3.6491
T5
X5.0013Y-0.8252
X5.0013Y-1.8685
X5.0013Y-2.9118
X6.0447Y-0.8252
X6.0447Y-1.8685
X6.0447Y-2.9118
X7.088Y-0.8252
X7.088Y-1.8685
X7.088Y-2.9118
T0
M30
