%TF.GenerationSoftware,KiCad,Pcbnew,7.0.2-0*%
%TF.CreationDate,2023-11-25T12:34:43-06:00*%
%TF.ProjectId,nrf51x_cr2_kicad,6e726635-3178-45f6-9372-325f6b696361,rev?*%
%TF.SameCoordinates,Original*%
%TF.FileFunction,Profile,NP*%
%FSLAX46Y46*%
G04 Gerber Fmt 4.6, Leading zero omitted, Abs format (unit mm)*
G04 Created by KiCad (PCBNEW 7.0.2-0) date 2023-11-25 12:34:43*
%MOMM*%
%LPD*%
G01*
G04 APERTURE LIST*
%TA.AperFunction,Profile*%
%ADD10C,0.100000*%
%TD*%
G04 APERTURE END LIST*
D10*
X147800000Y-84200000D02*
X175800000Y-84200000D01*
X175800000Y-100200000D02*
X147800000Y-100200000D01*
X142800000Y-95200000D02*
G75*
G03*
X147800000Y-100200000I5000000J0D01*
G01*
X142800000Y-95200000D02*
X142800000Y-89200000D01*
X147800000Y-84200000D02*
G75*
G03*
X142800000Y-89200000I0J-5000000D01*
G01*
X175800000Y-100200000D02*
G75*
G03*
X180800000Y-95200000I0J5000000D01*
G01*
X180800000Y-89200000D02*
X180800000Y-95200000D01*
X180800000Y-89200000D02*
G75*
G03*
X175800000Y-84200000I-5000000J0D01*
G01*
M02*
