G04 EAGLE Gerber RS-274X export*
G75*
%MOMM*%
%FSLAX34Y34*%
%LPD*%
%INBottom Copper*%
%IPPOS*%
%AMOC8*
5,1,8,0,0,1.08239X$1,22.5*%
G01*
%ADD10R,1.560000X1.560000*%
%ADD11C,1.560000*%
%ADD12P,1.814519X8X112.500000*%
%ADD13C,1.408000*%
%ADD14C,1.524000*%
%ADD15C,1.508000*%
%ADD16C,0.660400*%
%ADD17C,0.756400*%


D10*
X186266Y547724D03*
D11*
X186266Y522324D03*
X186266Y90524D03*
X186266Y496924D03*
X186266Y471524D03*
X186266Y446124D03*
X186266Y420724D03*
X186266Y395324D03*
X186266Y369924D03*
X186266Y344524D03*
X186266Y319124D03*
X186266Y293724D03*
X186266Y268324D03*
X186266Y242924D03*
X186266Y217524D03*
X186266Y192124D03*
X186266Y166724D03*
X186266Y141324D03*
X186266Y115924D03*
X440266Y547724D03*
X440266Y522324D03*
X440266Y496924D03*
X440266Y471524D03*
X440266Y446124D03*
X440266Y420724D03*
X440266Y395324D03*
X440266Y369924D03*
X440266Y344524D03*
X440266Y319124D03*
X440266Y293724D03*
X440266Y268324D03*
X440266Y242924D03*
X440266Y217524D03*
X440266Y192124D03*
X440266Y166724D03*
X440266Y141324D03*
X440266Y115924D03*
X440266Y90524D03*
D12*
X68666Y391124D03*
X43266Y391124D03*
X68666Y416524D03*
X43266Y416524D03*
X68666Y441924D03*
X43266Y441924D03*
X68666Y467324D03*
X43266Y467324D03*
D13*
X399166Y380924D03*
X373766Y380924D03*
X348366Y380924D03*
X322966Y380924D03*
X297566Y380924D03*
X272166Y380924D03*
X246766Y380924D03*
X221366Y380924D03*
X221366Y507924D03*
X246766Y507924D03*
X272166Y507924D03*
X297566Y507924D03*
X322966Y507924D03*
X348366Y507924D03*
X373766Y507924D03*
X399166Y507924D03*
X399166Y133424D03*
X373766Y133424D03*
X348366Y133424D03*
X322966Y133424D03*
X297566Y133424D03*
X272166Y133424D03*
X246766Y133424D03*
X221366Y133424D03*
X221366Y260424D03*
X246766Y260424D03*
X272166Y260424D03*
X297566Y260424D03*
X322966Y260424D03*
X348366Y260424D03*
X373766Y260424D03*
X399166Y260424D03*
D14*
X570766Y496504D02*
X570766Y511744D01*
X545366Y511744D02*
X545366Y496504D01*
X519966Y496504D02*
X519966Y511744D01*
X494566Y511744D02*
X494566Y496504D01*
X570766Y436944D02*
X570766Y421704D01*
X545366Y421704D02*
X545366Y436944D01*
X519966Y436944D02*
X519966Y421704D01*
X494566Y421704D02*
X494566Y436944D01*
X494666Y187544D02*
X494666Y172304D01*
X520066Y172304D02*
X520066Y187544D01*
X545466Y187544D02*
X545466Y172304D01*
D15*
X357366Y672384D02*
X357366Y687464D01*
X382766Y687464D02*
X382766Y672384D01*
X257366Y672384D02*
X257366Y687464D01*
X282766Y687464D02*
X282766Y672384D01*
X187366Y672384D02*
X187366Y687464D01*
X212766Y687464D02*
X212766Y672384D01*
X417366Y672384D02*
X417366Y687464D01*
X442766Y687464D02*
X442766Y672384D01*
D14*
X494666Y127544D02*
X494666Y112304D01*
X520066Y112304D02*
X520066Y127544D01*
X545466Y127544D02*
X545466Y112304D01*
X494666Y582304D02*
X494666Y597544D01*
X520066Y597544D02*
X520066Y582304D01*
X545466Y582304D02*
X545466Y597544D01*
X494666Y642304D02*
X494666Y657544D01*
X520066Y657544D02*
X520066Y642304D01*
X545466Y642304D02*
X545466Y657544D01*
X494666Y357544D02*
X494666Y342304D01*
X520066Y342304D02*
X520066Y357544D01*
X545466Y357544D02*
X545466Y342304D01*
X494666Y297544D02*
X494666Y282304D01*
X520066Y282304D02*
X520066Y297544D01*
X545466Y297544D02*
X545466Y282304D01*
X494666Y237544D02*
X494666Y222304D01*
X520066Y222304D02*
X520066Y237544D01*
X545466Y237544D02*
X545466Y222304D01*
D16*
X170066Y573674D02*
X156316Y559924D01*
X170066Y573674D02*
X361316Y573674D01*
D17*
X156316Y559924D03*
X361316Y573674D03*
D16*
X441316Y242424D02*
X441316Y237424D01*
X480066Y198674D01*
X480066Y106174D01*
X493816Y92424D01*
X493816Y74924D01*
X460066Y41174D01*
X218816Y41174D01*
X440266Y242924D02*
X441316Y242424D01*
D17*
X218816Y41174D03*
D16*
X441316Y187424D02*
X441316Y191174D01*
X441316Y187424D02*
X468816Y159924D01*
X468816Y102424D01*
X482566Y88674D01*
X482566Y78674D01*
X456316Y52424D01*
X191316Y52424D01*
X137566Y101174D02*
X137566Y421174D01*
X440266Y192124D02*
X441316Y191174D01*
D17*
X191316Y52424D03*
X137566Y101174D03*
X137566Y421174D03*
D16*
X225066Y529924D02*
X246316Y508674D01*
X225066Y529924D02*
X225066Y531174D01*
X208816Y547424D01*
X186316Y547424D01*
X246316Y508674D02*
X246766Y507924D01*
X186316Y547424D02*
X186266Y547724D01*
X222566Y259924D02*
X222566Y247424D01*
X246316Y223674D01*
X336316Y223674D01*
X372566Y259924D01*
X222566Y259924D02*
X221366Y260424D01*
X372566Y259924D02*
X373766Y260424D01*
X187566Y679924D02*
X187566Y683674D01*
X206316Y702424D01*
X233816Y702424D01*
X256316Y679924D01*
X187566Y679924D02*
X187366Y679924D01*
X256316Y679924D02*
X257366Y679924D01*
X402566Y478674D02*
X402566Y397424D01*
X402566Y478674D02*
X373816Y507424D01*
X373766Y507924D01*
D17*
X402566Y397424D03*
D16*
X398816Y133674D02*
X393816Y133674D01*
X351941Y175549D02*
X338816Y188674D01*
X351941Y175549D02*
X393816Y133674D01*
X338816Y188674D02*
X273816Y188674D01*
X398816Y133674D02*
X399166Y133424D01*
X411316Y268674D02*
X411316Y356174D01*
X411316Y268674D02*
X413816Y266174D01*
X413816Y237424D01*
X351941Y175549D01*
D17*
X273816Y188674D03*
X411316Y356174D03*
D16*
X221316Y357424D02*
X221316Y379924D01*
X221316Y357424D02*
X186316Y322424D01*
X186316Y319924D01*
X221316Y379924D02*
X221366Y380924D01*
X186316Y319924D02*
X186266Y319124D01*
X221316Y132424D02*
X221316Y103674D01*
X192566Y74924D01*
X180066Y74924D01*
X171316Y83674D01*
X171316Y329924D01*
X185066Y343674D01*
X221366Y133424D02*
X221316Y132424D01*
X185066Y343674D02*
X186266Y344524D01*
X246316Y206174D02*
X246316Y133674D01*
X246316Y206174D02*
X185066Y267424D01*
X246316Y133674D02*
X246766Y133424D01*
X185066Y267424D02*
X186266Y268324D01*
X386316Y158674D02*
X393816Y158674D01*
X413816Y138674D01*
X413816Y81174D01*
X431316Y63674D01*
X451316Y63674D01*
X471316Y83674D01*
X471316Y278674D02*
X471316Y406174D01*
D17*
X386316Y158674D03*
X471316Y83674D03*
X471316Y278674D03*
X471316Y406174D03*
D16*
X322566Y259924D02*
X317566Y259924D01*
X292566Y234924D01*
X251316Y234924D01*
X226316Y209924D02*
X226316Y158674D01*
X206316Y138674D01*
X206316Y112424D01*
X503816Y49924D02*
X577566Y123674D01*
X577566Y217424D01*
X322966Y260424D02*
X322566Y259924D01*
D17*
X251316Y234924D03*
X226316Y209924D03*
X206316Y112424D03*
X503816Y49924D03*
X577566Y217424D03*
D16*
X425066Y127424D02*
X425066Y84924D01*
X435066Y74924D01*
X446316Y74924D01*
X455066Y83674D01*
X455066Y278674D02*
X455066Y434924D01*
D17*
X425066Y127424D03*
X455066Y83674D03*
X455066Y278674D03*
X455066Y434924D03*
D16*
X271316Y261174D02*
X206316Y326174D01*
X206316Y429924D02*
X206316Y516174D01*
X215066Y524924D01*
X233816Y584924D02*
X196316Y584924D01*
X233816Y584924D02*
X362566Y713674D01*
X510066Y713674D01*
X585066Y638674D01*
X585066Y533674D01*
X597566Y521174D01*
X597566Y354924D01*
X566316Y323674D01*
X566316Y363674D02*
X566316Y424924D01*
X570066Y428674D01*
X272166Y260424D02*
X271316Y261174D01*
X570066Y428674D02*
X570766Y429324D01*
D17*
X206316Y326174D03*
X206316Y429924D03*
X215066Y524924D03*
X196316Y584924D03*
X566316Y323674D03*
X566316Y363674D03*
D16*
X376316Y536174D02*
X348816Y508674D01*
X378816Y558674D02*
X430066Y558674D01*
X433816Y562424D01*
X446316Y562424D01*
X493816Y514924D01*
X493816Y504924D01*
X348816Y508674D02*
X348366Y507924D01*
X493816Y504924D02*
X494566Y504124D01*
D17*
X376316Y536174D03*
X378816Y558674D03*
D16*
X425066Y524924D02*
X425066Y419924D01*
X425066Y524924D02*
X413816Y536174D01*
X430066Y573674D02*
X453816Y573674D01*
X518816Y508674D01*
X518816Y504924D01*
X519966Y504124D01*
D17*
X425066Y419924D03*
X413816Y536174D03*
X430066Y573674D03*
D16*
X425066Y408674D02*
X425066Y266174D01*
X360066Y201174D02*
X270066Y201174D01*
X257566Y188674D01*
D17*
X425066Y408674D03*
X425066Y266174D03*
X360066Y201174D03*
X257566Y188674D03*
D16*
X272566Y508674D02*
X277566Y508674D01*
X305066Y536174D01*
X337566Y536174D01*
X480066Y603674D02*
X488816Y612424D01*
X551316Y612424D01*
X562566Y601174D01*
X562566Y554924D01*
X272566Y508674D02*
X272166Y507924D01*
D17*
X337566Y536174D03*
X480066Y603674D03*
X562566Y554924D03*
D16*
X546316Y202424D02*
X546316Y179924D01*
X546316Y202424D02*
X608816Y264924D01*
X608816Y526174D01*
X596316Y538674D01*
X530066Y554924D02*
X505066Y554924D01*
X497566Y562424D01*
X545466Y179924D02*
X546316Y179924D01*
D17*
X596316Y538674D03*
X530066Y554924D03*
X497566Y562424D03*
D16*
X357566Y676174D02*
X357566Y679924D01*
X357566Y676174D02*
X402566Y631174D01*
X418816Y614924D02*
X428816Y614924D01*
X506316Y537424D01*
X357566Y679924D02*
X357366Y679924D01*
D17*
X402566Y631174D03*
X418816Y614924D03*
X506316Y537424D03*
D16*
X363816Y559924D02*
X287566Y559924D01*
D17*
X287566Y559924D03*
X363816Y559924D03*
D16*
X400066Y361174D02*
X400066Y261174D01*
X400066Y361174D02*
X413816Y374924D01*
X413816Y493674D01*
X400066Y507424D01*
X400066Y261174D02*
X399166Y260424D01*
X400066Y507424D02*
X399166Y507924D01*
X416316Y628674D02*
X416316Y679924D01*
X416316Y628674D02*
X390066Y602424D01*
X390066Y569924D01*
X416316Y679924D02*
X417366Y679924D01*
D17*
X390066Y569924D03*
D16*
X545066Y119924D02*
X545066Y111174D01*
X463816Y29924D01*
X197566Y29924D01*
X160066Y67424D01*
X160066Y344924D01*
X185066Y369924D01*
X545066Y119924D02*
X545466Y119924D01*
X186266Y369924D02*
X185066Y369924D01*
X382766Y679924D02*
X388816Y679924D01*
X411316Y702424D01*
X448816Y702424D01*
X480066Y671174D01*
X480066Y636174D01*
X492566Y623674D01*
X555066Y623674D01*
X573816Y604924D01*
X573816Y543674D01*
X575066Y481174D02*
X517566Y481174D01*
X477566Y441174D01*
D17*
X573816Y543674D03*
X575066Y481174D03*
X477566Y441174D03*
D16*
X145066Y571174D02*
X145066Y576174D01*
X226316Y657424D01*
X291316Y657424D01*
X358816Y724924D01*
D17*
X145066Y571174D03*
X358816Y724924D03*
D16*
X478816Y229924D02*
X494666Y229924D01*
X478816Y229924D02*
X441316Y267424D01*
X440266Y268324D01*
X47566Y389924D02*
X43816Y389924D01*
X47566Y389924D02*
X62566Y374924D01*
X75066Y374924D01*
X167566Y467424D01*
X43266Y391124D02*
X43816Y389924D01*
X520066Y581174D02*
X520066Y589924D01*
X520066Y581174D02*
X573816Y527424D01*
X576316Y527424D01*
X586316Y517424D01*
X586316Y359924D01*
X520066Y293674D01*
X520066Y289924D01*
D17*
X167566Y467424D03*
D16*
X495066Y183674D02*
X495066Y179924D01*
X495066Y183674D02*
X518816Y207424D01*
X526316Y207424D01*
X545066Y226174D01*
X545066Y229924D01*
X495066Y179924D02*
X494666Y179924D01*
X545066Y229924D02*
X545466Y229924D01*
X42566Y417424D02*
X42566Y419924D01*
X27566Y434924D01*
X27566Y473674D01*
X38816Y484924D01*
X97566Y484924D01*
X175066Y562424D01*
X268816Y562424D01*
X283816Y547424D01*
X440066Y547424D01*
X43266Y416524D02*
X42566Y417424D01*
X440066Y547424D02*
X440266Y547724D01*
X545066Y353674D02*
X545066Y349924D01*
X545066Y353674D02*
X492566Y406174D01*
X488816Y406174D01*
X466316Y428674D01*
X466316Y519924D01*
X441316Y544924D01*
X545066Y349924D02*
X545466Y349924D01*
X441316Y544924D02*
X440266Y547724D01*
M02*
