G04 EAGLE Gerber RS-274X export*
G75*
%MOMM*%
%FSLAX34Y34*%
%LPD*%
%INSoldermask Top*%
%IPPOS*%
%AMOC8*
5,1,8,0,0,1.08239X$1,22.5*%
G01*
%ADD10R,1.763200X1.763200*%
%ADD11C,1.763200*%
%ADD12P,2.034460X8X112.500000*%
%ADD13C,1.611200*%
%ADD14C,1.727200*%
%ADD15C,1.711200*%
%ADD16R,1.203200X1.603200*%
%ADD17R,1.703200X0.903200*%
%ADD18R,0.803200X1.203200*%
%ADD19R,1.003200X1.203200*%
%ADD20C,1.103200*%
%ADD21C,0.959600*%


D10*
X186266Y547724D03*
D11*
X186266Y522324D03*
X186266Y90524D03*
X186266Y496924D03*
X186266Y471524D03*
X186266Y446124D03*
X186266Y420724D03*
X186266Y395324D03*
X186266Y369924D03*
X186266Y344524D03*
X186266Y319124D03*
X186266Y293724D03*
X186266Y268324D03*
X186266Y242924D03*
X186266Y217524D03*
X186266Y192124D03*
X186266Y166724D03*
X186266Y141324D03*
X186266Y115924D03*
X440266Y547724D03*
X440266Y522324D03*
X440266Y496924D03*
X440266Y471524D03*
X440266Y446124D03*
X440266Y420724D03*
X440266Y395324D03*
X440266Y369924D03*
X440266Y344524D03*
X440266Y319124D03*
X440266Y293724D03*
X440266Y268324D03*
X440266Y242924D03*
X440266Y217524D03*
X440266Y192124D03*
X440266Y166724D03*
X440266Y141324D03*
X440266Y115924D03*
X440266Y90524D03*
D12*
X68666Y391124D03*
X43266Y391124D03*
X68666Y416524D03*
X43266Y416524D03*
X68666Y441924D03*
X43266Y441924D03*
X68666Y467324D03*
X43266Y467324D03*
D13*
X399166Y380924D03*
X373766Y380924D03*
X348366Y380924D03*
X322966Y380924D03*
X297566Y380924D03*
X272166Y380924D03*
X246766Y380924D03*
X221366Y380924D03*
X221366Y507924D03*
X246766Y507924D03*
X272166Y507924D03*
X297566Y507924D03*
X322966Y507924D03*
X348366Y507924D03*
X373766Y507924D03*
X399166Y507924D03*
X399166Y133424D03*
X373766Y133424D03*
X348366Y133424D03*
X322966Y133424D03*
X297566Y133424D03*
X272166Y133424D03*
X246766Y133424D03*
X221366Y133424D03*
X221366Y260424D03*
X246766Y260424D03*
X272166Y260424D03*
X297566Y260424D03*
X322966Y260424D03*
X348366Y260424D03*
X373766Y260424D03*
X399166Y260424D03*
D14*
X570766Y496504D02*
X570766Y511744D01*
X545366Y511744D02*
X545366Y496504D01*
X519966Y496504D02*
X519966Y511744D01*
X494566Y511744D02*
X494566Y496504D01*
X570766Y436944D02*
X570766Y421704D01*
X545366Y421704D02*
X545366Y436944D01*
X519966Y436944D02*
X519966Y421704D01*
X494566Y421704D02*
X494566Y436944D01*
X494666Y187544D02*
X494666Y172304D01*
X520066Y172304D02*
X520066Y187544D01*
X545466Y187544D02*
X545466Y172304D01*
D15*
X357366Y672384D02*
X357366Y687464D01*
X382766Y687464D02*
X382766Y672384D01*
X257366Y672384D02*
X257366Y687464D01*
X282766Y687464D02*
X282766Y672384D01*
X187366Y672384D02*
X187366Y687464D01*
X212766Y687464D02*
X212766Y672384D01*
X417366Y672384D02*
X417366Y687464D01*
X442766Y687464D02*
X442766Y672384D01*
D16*
X310066Y580924D03*
X319566Y558924D03*
X300566Y558924D03*
D14*
X494666Y127544D02*
X494666Y112304D01*
X520066Y112304D02*
X520066Y127544D01*
X545466Y127544D02*
X545466Y112304D01*
X494666Y582304D02*
X494666Y597544D01*
X520066Y597544D02*
X520066Y582304D01*
X545466Y582304D02*
X545466Y597544D01*
X494666Y642304D02*
X494666Y657544D01*
X520066Y657544D02*
X520066Y642304D01*
X545466Y642304D02*
X545466Y657544D01*
D17*
X137566Y537424D03*
X137566Y552424D03*
X137566Y582424D03*
D18*
X110066Y523424D03*
D19*
X131066Y523424D03*
D18*
X110066Y596424D03*
D19*
X131066Y596424D03*
D20*
X120066Y544924D03*
X120066Y574924D03*
D14*
X494666Y357544D02*
X494666Y342304D01*
X520066Y342304D02*
X520066Y357544D01*
X545466Y357544D02*
X545466Y342304D01*
X494666Y297544D02*
X494666Y282304D01*
X520066Y282304D02*
X520066Y297544D01*
X545466Y297544D02*
X545466Y282304D01*
X494666Y237544D02*
X494666Y222304D01*
X520066Y222304D02*
X520066Y237544D01*
X545466Y237544D02*
X545466Y222304D01*
D21*
X156316Y559924D03*
X361316Y573674D03*
X218816Y41174D03*
X191316Y52424D03*
X137566Y101174D03*
X137566Y421174D03*
X402566Y397424D03*
X273816Y188674D03*
X411316Y356174D03*
X386316Y158674D03*
X471316Y83674D03*
X471316Y278674D03*
X471316Y406174D03*
X251316Y234924D03*
X226316Y209924D03*
X206316Y112424D03*
X503816Y49924D03*
X577566Y217424D03*
X425066Y127424D03*
X455066Y83674D03*
X455066Y278674D03*
X455066Y434924D03*
X206316Y326174D03*
X206316Y429924D03*
X215066Y524924D03*
X196316Y584924D03*
X566316Y323674D03*
X566316Y363674D03*
X376316Y536174D03*
X378816Y558674D03*
X425066Y419924D03*
X413816Y536174D03*
X430066Y573674D03*
X425066Y408674D03*
X425066Y266174D03*
X360066Y201174D03*
X257566Y188674D03*
X337566Y536174D03*
X480066Y603674D03*
X562566Y554924D03*
X596316Y538674D03*
X530066Y554924D03*
X497566Y562424D03*
X402566Y631174D03*
X418816Y614924D03*
X506316Y537424D03*
X287566Y559924D03*
X363816Y559924D03*
X390066Y569924D03*
X573816Y543674D03*
X575066Y481174D03*
X477566Y441174D03*
X145066Y571174D03*
X358816Y724924D03*
X167566Y467424D03*
M02*
