G04 EAGLE Gerber RS-274X export*
G75*
%MOMM*%
%FSLAX34Y34*%
%LPD*%
%INTop Copper*%
%IPPOS*%
%AMOC8*
5,1,8,0,0,1.08239X$1,22.5*%
G01*
%ADD10C,1.524000*%
%ADD11C,1.408000*%
%ADD12C,0.889000*%
%ADD13C,0.756400*%


D10*
X186200Y335820D02*
X186200Y320580D01*
X160800Y320580D02*
X160800Y335820D01*
X135400Y335820D02*
X135400Y320580D01*
X110000Y320580D02*
X110000Y335820D01*
X109000Y91120D02*
X109000Y75880D01*
X134400Y75880D02*
X134400Y91120D01*
X159800Y91120D02*
X159800Y75880D01*
X185200Y75880D02*
X185200Y91120D01*
D11*
X316900Y137700D03*
X342300Y137700D03*
X367700Y137700D03*
X393100Y137700D03*
X418500Y137700D03*
X443900Y137700D03*
X469300Y137700D03*
X494700Y137700D03*
X494700Y264700D03*
X469300Y264700D03*
X443900Y264700D03*
X418500Y264700D03*
X393100Y264700D03*
X367700Y264700D03*
X342300Y264700D03*
X316900Y264700D03*
X248000Y269300D03*
X222600Y269300D03*
X197200Y269300D03*
X171800Y269300D03*
X146400Y269300D03*
X121000Y269300D03*
X95600Y269300D03*
X70200Y269300D03*
X70200Y142300D03*
X95600Y142300D03*
X121000Y142300D03*
X146400Y142300D03*
X171800Y142300D03*
X197200Y142300D03*
X222600Y142300D03*
X248000Y142300D03*
D12*
X234315Y125730D02*
X222885Y137160D01*
X234315Y125730D02*
X251460Y125730D01*
X337185Y211455D01*
X337185Y262890D01*
X222600Y142300D02*
X222885Y137160D01*
X337185Y262890D02*
X342300Y264700D01*
X91440Y137160D02*
X91440Y68580D01*
X102870Y57150D01*
X211455Y57150D01*
X400050Y245745D01*
X451485Y245745D01*
X468630Y262890D01*
X95600Y142300D02*
X91440Y137160D01*
X468630Y262890D02*
X469300Y264700D01*
X342900Y165735D02*
X320040Y142875D01*
X316900Y137700D01*
D13*
X342900Y165735D03*
D12*
X371475Y142875D02*
X474345Y245745D01*
X497205Y245745D01*
X514350Y262890D01*
X514350Y268605D01*
X428625Y354330D01*
X102870Y354330D01*
X91440Y342900D01*
X91440Y314325D01*
X120015Y285750D01*
X182880Y285750D01*
X194310Y274320D01*
X371475Y142875D02*
X367700Y137700D01*
X197200Y269300D02*
X194310Y274320D01*
X291465Y217170D02*
X314325Y217170D01*
X291465Y217170D02*
X268605Y194310D01*
D13*
X314325Y217170D03*
X268605Y194310D03*
D12*
X251460Y200025D02*
X251460Y142875D01*
X251460Y200025D02*
X314325Y262890D01*
X251460Y142875D02*
X248000Y142300D01*
X314325Y262890D02*
X316900Y264700D01*
X182880Y251460D02*
X74295Y142875D01*
X182880Y251460D02*
X274320Y251460D01*
X291465Y268605D01*
X74295Y142875D02*
X70200Y142300D01*
D13*
X291465Y268605D03*
D12*
X120015Y137160D02*
X120015Y97155D01*
X108585Y85725D01*
X120015Y137160D02*
X121000Y142300D01*
X108585Y85725D02*
X109000Y83500D01*
X142875Y91440D02*
X142875Y137160D01*
X142875Y91440D02*
X137160Y85725D01*
X142875Y137160D02*
X146400Y142300D01*
X137160Y85725D02*
X134400Y83500D01*
X171450Y102870D02*
X171450Y137160D01*
X171450Y102870D02*
X154305Y85725D01*
X171450Y137160D02*
X171800Y142300D01*
X154305Y85725D02*
X159800Y83500D01*
X194310Y91440D02*
X194310Y137160D01*
X194310Y91440D02*
X188595Y85725D01*
X194310Y137160D02*
X197200Y142300D01*
X188595Y85725D02*
X185200Y83500D01*
X382905Y325755D02*
X440055Y268605D01*
X382905Y325755D02*
X188595Y325755D01*
X440055Y268605D02*
X443900Y264700D01*
X188595Y325755D02*
X186200Y328200D01*
X331470Y302895D02*
X365760Y268605D01*
X331470Y302895D02*
X131445Y302895D01*
X108585Y325755D01*
X365760Y268605D02*
X367700Y264700D01*
X110000Y328200D02*
X108585Y325755D01*
M02*
