G04 EAGLE Gerber RS-274X export*
G75*
%MOMM*%
%FSLAX34Y34*%
%LPD*%
%INMilling*%
%IPPOS*%
%AMOC8*
5,1,8,0,0,1.08239X$1,22.5*%
G01*
%ADD10C,0.200000*%


D10*
X0Y0D02*
X0Y505000D01*
X647000Y505000D01*
X647000Y1000D01*
X648000Y0D01*
X0Y0D01*
M02*
