<?xml version="1.0" encoding="utf-8"?>
<!DOCTYPE eagle SYSTEM "eagle.dtd">
<eagle version="9.6.2">
<drawing>
<settings>
<setting alwaysvectorfont="no"/>
<setting verticaltext="up"/>
</settings>
<grid distance="0.2" unitdist="mm" unit="mm" style="lines" multiple="1" display="yes" altdistance="0.2" altunitdist="mm" altunit="mm"/>
<layers>
<layer number="1" name="Top" color="4" fill="1" visible="yes" active="yes"/>
<layer number="2" name="Route2" color="16" fill="1" visible="no" active="no"/>
<layer number="3" name="Route3" color="17" fill="1" visible="no" active="no"/>
<layer number="4" name="Route4" color="18" fill="1" visible="no" active="no"/>
<layer number="5" name="Route5" color="19" fill="1" visible="no" active="no"/>
<layer number="6" name="Route6" color="25" fill="1" visible="no" active="no"/>
<layer number="7" name="Route7" color="26" fill="1" visible="no" active="no"/>
<layer number="8" name="Route8" color="27" fill="1" visible="no" active="no"/>
<layer number="9" name="Route9" color="28" fill="1" visible="no" active="no"/>
<layer number="10" name="Route10" color="29" fill="1" visible="no" active="no"/>
<layer number="11" name="Route11" color="30" fill="1" visible="no" active="no"/>
<layer number="12" name="Route12" color="20" fill="1" visible="no" active="no"/>
<layer number="13" name="Route13" color="21" fill="1" visible="no" active="no"/>
<layer number="14" name="Route14" color="22" fill="1" visible="no" active="no"/>
<layer number="15" name="Route15" color="23" fill="1" visible="no" active="no"/>
<layer number="16" name="Bottom" color="1" fill="1" visible="yes" active="yes"/>
<layer number="17" name="Pads" color="2" fill="1" visible="yes" active="yes"/>
<layer number="18" name="Vias" color="2" fill="1" visible="yes" active="yes"/>
<layer number="19" name="Unrouted" color="6" fill="1" visible="yes" active="yes"/>
<layer number="20" name="Dimension" color="24" fill="1" visible="yes" active="yes"/>
<layer number="21" name="tPlace" color="7" fill="1" visible="yes" active="yes"/>
<layer number="22" name="bPlace" color="7" fill="1" visible="yes" active="yes"/>
<layer number="23" name="tOrigins" color="15" fill="1" visible="yes" active="yes"/>
<layer number="24" name="bOrigins" color="15" fill="1" visible="yes" active="yes"/>
<layer number="25" name="tNames" color="7" fill="1" visible="yes" active="yes"/>
<layer number="26" name="bNames" color="7" fill="1" visible="yes" active="yes"/>
<layer number="27" name="tValues" color="7" fill="1" visible="yes" active="yes"/>
<layer number="28" name="bValues" color="7" fill="1" visible="yes" active="yes"/>
<layer number="29" name="tStop" color="7" fill="3" visible="no" active="yes"/>
<layer number="30" name="bStop" color="7" fill="6" visible="no" active="yes"/>
<layer number="31" name="tCream" color="7" fill="4" visible="no" active="yes"/>
<layer number="32" name="bCream" color="7" fill="5" visible="no" active="yes"/>
<layer number="33" name="tFinish" color="6" fill="3" visible="no" active="yes"/>
<layer number="34" name="bFinish" color="6" fill="6" visible="no" active="yes"/>
<layer number="35" name="tGlue" color="7" fill="4" visible="no" active="yes"/>
<layer number="36" name="bGlue" color="7" fill="5" visible="no" active="yes"/>
<layer number="37" name="tTest" color="7" fill="1" visible="no" active="yes"/>
<layer number="38" name="bTest" color="7" fill="1" visible="no" active="yes"/>
<layer number="39" name="tKeepout" color="4" fill="11" visible="yes" active="yes"/>
<layer number="40" name="bKeepout" color="1" fill="11" visible="yes" active="yes"/>
<layer number="41" name="tRestrict" color="4" fill="10" visible="yes" active="yes"/>
<layer number="42" name="bRestrict" color="1" fill="10" visible="yes" active="yes"/>
<layer number="43" name="vRestrict" color="2" fill="10" visible="yes" active="yes"/>
<layer number="44" name="Drills" color="7" fill="1" visible="no" active="yes"/>
<layer number="45" name="Holes" color="7" fill="1" visible="no" active="yes"/>
<layer number="46" name="Milling" color="3" fill="1" visible="no" active="yes"/>
<layer number="47" name="Measures" color="7" fill="1" visible="no" active="yes"/>
<layer number="48" name="Document" color="7" fill="1" visible="yes" active="yes"/>
<layer number="49" name="Reference" color="7" fill="1" visible="yes" active="yes"/>
<layer number="50" name="dxf" color="7" fill="1" visible="no" active="yes"/>
<layer number="51" name="tDocu" color="7" fill="1" visible="yes" active="yes"/>
<layer number="52" name="bDocu" color="7" fill="1" visible="yes" active="yes"/>
<layer number="53" name="tGND_GNDA" color="7" fill="9" visible="no" active="no"/>
<layer number="54" name="bGND_GNDA" color="1" fill="9" visible="no" active="no"/>
<layer number="56" name="wert" color="7" fill="1" visible="yes" active="yes"/>
<layer number="57" name="tCAD" color="7" fill="1" visible="no" active="no"/>
<layer number="59" name="tCarbon" color="7" fill="1" visible="no" active="no"/>
<layer number="60" name="bCarbon" color="7" fill="1" visible="no" active="no"/>
<layer number="88" name="SimResults" color="9" fill="1" visible="no" active="no"/>
<layer number="89" name="SimProbes" color="9" fill="1" visible="no" active="no"/>
<layer number="90" name="Modules" color="5" fill="1" visible="no" active="no"/>
<layer number="91" name="Nets" color="2" fill="1" visible="no" active="no"/>
<layer number="92" name="Busses" color="1" fill="1" visible="no" active="no"/>
<layer number="93" name="Pins" color="2" fill="1" visible="no" active="no"/>
<layer number="94" name="Symbols" color="4" fill="1" visible="no" active="no"/>
<layer number="95" name="Names" color="7" fill="1" visible="no" active="no"/>
<layer number="96" name="Values" color="7" fill="1" visible="no" active="no"/>
<layer number="97" name="Info" color="7" fill="1" visible="no" active="no"/>
<layer number="98" name="Guide" color="6" fill="1" visible="no" active="no"/>
<layer number="99" name="SpiceOrder" color="7" fill="1" visible="no" active="no"/>
<layer number="100" name="Muster" color="7" fill="1" visible="no" active="no"/>
<layer number="101" name="Patch_Top" color="12" fill="4" visible="yes" active="yes"/>
<layer number="102" name="Vscore" color="7" fill="1" visible="yes" active="yes"/>
<layer number="103" name="fp3" color="7" fill="1" visible="no" active="yes"/>
<layer number="104" name="Name" color="7" fill="1" visible="yes" active="yes"/>
<layer number="105" name="Beschreib" color="9" fill="1" visible="yes" active="yes"/>
<layer number="106" name="BGA-Top" color="4" fill="1" visible="yes" active="yes"/>
<layer number="107" name="BD-Top" color="5" fill="1" visible="yes" active="yes"/>
<layer number="108" name="fp8" color="7" fill="1" visible="no" active="yes"/>
<layer number="109" name="fp9" color="7" fill="1" visible="no" active="yes"/>
<layer number="110" name="fp0" color="7" fill="1" visible="no" active="yes"/>
<layer number="111" name="LPC17xx" color="7" fill="1" visible="yes" active="yes"/>
<layer number="112" name="tSilk" color="7" fill="1" visible="yes" active="yes"/>
<layer number="113" name="IDFDebug" color="4" fill="1" visible="no" active="no"/>
<layer number="116" name="Patch_BOT" color="9" fill="4" visible="yes" active="yes"/>
<layer number="118" name="Rect_Pads" color="7" fill="1" visible="no" active="no"/>
<layer number="121" name="_tsilk" color="7" fill="1" visible="yes" active="yes"/>
<layer number="122" name="_bsilk" color="7" fill="1" visible="yes" active="yes"/>
<layer number="123" name="tTestmark" color="7" fill="1" visible="no" active="yes"/>
<layer number="124" name="bTestmark" color="7" fill="1" visible="no" active="yes"/>
<layer number="125" name="_tNames" color="7" fill="1" visible="yes" active="yes"/>
<layer number="126" name="_bNames" color="7" fill="1" visible="yes" active="yes"/>
<layer number="127" name="_tValues" color="7" fill="1" visible="yes" active="yes"/>
<layer number="128" name="_bValues" color="7" fill="1" visible="yes" active="yes"/>
<layer number="129" name="Mask" color="7" fill="1" visible="no" active="no"/>
<layer number="131" name="tAdjust" color="7" fill="1" visible="no" active="yes"/>
<layer number="132" name="bAdjust" color="7" fill="1" visible="no" active="yes"/>
<layer number="144" name="Drill_legend" color="7" fill="1" visible="yes" active="yes"/>
<layer number="150" name="Notes" color="7" fill="1" visible="no" active="yes"/>
<layer number="151" name="HeatSink" color="7" fill="1" visible="yes" active="yes"/>
<layer number="152" name="_bDocu" color="7" fill="1" visible="yes" active="yes"/>
<layer number="153" name="FabDoc1" color="6" fill="1" visible="no" active="no"/>
<layer number="154" name="FabDoc2" color="2" fill="1" visible="no" active="no"/>
<layer number="155" name="FabDoc3" color="7" fill="15" visible="no" active="no"/>
<layer number="199" name="Contour" color="7" fill="1" visible="yes" active="yes"/>
<layer number="200" name="200bmp" color="1" fill="10" visible="yes" active="yes"/>
<layer number="201" name="201bmp" color="1" fill="10" visible="no" active="yes"/>
<layer number="202" name="202bmp" color="3" fill="1" visible="no" active="no"/>
<layer number="203" name="203bmp" color="4" fill="10" visible="yes" active="yes"/>
<layer number="204" name="204bmp" color="5" fill="10" visible="yes" active="yes"/>
<layer number="205" name="205bmp" color="6" fill="10" visible="yes" active="yes"/>
<layer number="206" name="206bmp" color="7" fill="10" visible="yes" active="yes"/>
<layer number="207" name="207bmp" color="8" fill="10" visible="yes" active="yes"/>
<layer number="208" name="208bmp" color="9" fill="10" visible="yes" active="yes"/>
<layer number="209" name="209bmp" color="7" fill="1" visible="no" active="yes"/>
<layer number="210" name="210bmp" color="7" fill="1" visible="no" active="yes"/>
<layer number="211" name="211bmp" color="7" fill="1" visible="yes" active="yes"/>
<layer number="212" name="212bmp" color="7" fill="1" visible="yes" active="yes"/>
<layer number="213" name="213bmp" color="7" fill="1" visible="yes" active="yes"/>
<layer number="214" name="214bmp" color="7" fill="1" visible="yes" active="yes"/>
<layer number="215" name="215bmp" color="7" fill="1" visible="yes" active="yes"/>
<layer number="216" name="216bmp" color="7" fill="1" visible="yes" active="yes"/>
<layer number="217" name="217bmp" color="18" fill="1" visible="no" active="no"/>
<layer number="218" name="218bmp" color="19" fill="1" visible="no" active="no"/>
<layer number="219" name="219bmp" color="20" fill="1" visible="no" active="no"/>
<layer number="220" name="220bmp" color="21" fill="1" visible="no" active="no"/>
<layer number="221" name="221bmp" color="22" fill="1" visible="no" active="no"/>
<layer number="222" name="222bmp" color="23" fill="1" visible="no" active="no"/>
<layer number="223" name="223bmp" color="24" fill="1" visible="no" active="no"/>
<layer number="224" name="224bmp" color="25" fill="1" visible="no" active="no"/>
<layer number="225" name="225bmp" color="7" fill="1" visible="no" active="no"/>
<layer number="226" name="226bmp" color="7" fill="1" visible="no" active="no"/>
<layer number="227" name="227bmp" color="7" fill="1" visible="no" active="no"/>
<layer number="228" name="228bmp" color="7" fill="1" visible="no" active="no"/>
<layer number="229" name="229bmp" color="7" fill="1" visible="no" active="no"/>
<layer number="230" name="230bmp" color="7" fill="1" visible="no" active="no"/>
<layer number="231" name="231bmp" color="7" fill="1" visible="no" active="no"/>
<layer number="248" name="Housing" color="7" fill="1" visible="yes" active="yes"/>
<layer number="249" name="Edge" color="7" fill="1" visible="yes" active="yes"/>
<layer number="250" name="Descript" color="7" fill="1" visible="no" active="no"/>
<layer number="251" name="SMDround" color="7" fill="1" visible="no" active="no"/>
<layer number="254" name="cooling" color="7" fill="1" visible="yes" active="yes"/>
<layer number="255" name="routoute" color="7" fill="1" visible="no" active="no"/>
</layers>
<board>
<fusionsync huburn="a.cGVyc29uYWw6dWUyOWMxYjYw" projecturn="a.cGVyc29uYWw6dWUyOWMxYjYwIzIwMTgxMjI4MTY3NDk0NDUx" f3durn="urn:adsk.wipprod:dm.lineage:60rd9WTgQ8GdDaWcYv1kuw" pcbguid="" lastpulledtime="" lastsyncedchangeguid="" latestrevisionid="9fa9991e-426d-4eb0-a0b2-890bf23ae0a8" lastsyncedrevisionid="9fa9991e-426d-4eb0-a0b2-890bf23ae0a8" lastboardhashguid="ea977203-c575-db0a-5185-acceca512af3" lastpushedtime="2022-05-03T20:22:28Z" linktopcb3d="true"/>
<plain>
<circle x="3.81" y="20.32" radius="1.79605" width="0.1524" layer="20"/>
<wire x1="28.4" y1="1" x2="33.4" y2="-3.8" width="0.1524" layer="20"/>
<wire x1="28.4" y1="1" x2="10.4" y2="1" width="0.1524" layer="20"/>
<wire x1="10.4" y1="1" x2="9.8" y2="0.4" width="0.1524" layer="20"/>
<wire x1="9.8" y1="0.4" x2="33.4" y2="-3.8" width="0.1524" layer="20" curve="-300.866158"/>
</plain>
<libraries>
<library name="pololu-stepper-driver">
<description>&lt;b&gt;Pololu stepper motor driver&lt;/b&gt;&lt;p&gt;
&lt;author&gt;Created by Suzaku Lab. Ltd. support@suzakugiken.jp&lt;/author&gt;
&lt;p&gt;This is an unofficial library. If you notice a mistake, please contact the author.&lt;/p&gt;</description>
<packages>
<package name="A4988">
<description>&lt;b&gt;A4988 Stepper Motor Driver Carriers&lt;/b&gt;</description>
<pad name="1" x="-6.35" y="8.89" drill="1.016"/>
<pad name="2" x="-6.35" y="6.35" drill="1.016"/>
<pad name="3" x="-6.35" y="3.81" drill="1.016"/>
<pad name="4" x="-6.35" y="1.27" drill="1.016"/>
<pad name="5" x="-6.35" y="-1.27" drill="1.016"/>
<pad name="6" x="-6.35" y="-3.81" drill="1.016"/>
<pad name="7" x="-6.35" y="-6.35" drill="1.016"/>
<pad name="8" x="-6.35" y="-8.89" drill="1.016"/>
<pad name="9" x="6.35" y="-8.89" drill="1.016"/>
<pad name="10" x="6.35" y="-6.35" drill="1.016"/>
<pad name="11" x="6.35" y="-3.81" drill="1.016"/>
<pad name="12" x="6.35" y="-1.27" drill="1.016"/>
<pad name="13" x="6.35" y="1.27" drill="1.016"/>
<pad name="14" x="6.35" y="3.81" drill="1.016"/>
<pad name="15" x="6.35" y="6.35" drill="1.016"/>
<pad name="16" x="6.35" y="8.89" drill="1.016"/>
<wire x1="-7.6" y1="10.15" x2="7.6" y2="10.15" width="0.127" layer="21"/>
<wire x1="7.6" y1="10.15" x2="7.6" y2="-10.15" width="0.127" layer="21"/>
<wire x1="7.6" y1="-10.15" x2="-7.6" y2="-10.15" width="0.127" layer="21"/>
<wire x1="-7.6" y1="-10.15" x2="-7.6" y2="10.15" width="0.127" layer="21"/>
<text x="-5.08" y="8.89" size="1.27" layer="21" align="center-left">!EN</text>
<text x="-5.08" y="6.35" size="1.27" layer="21" align="center-left">MS1</text>
<text x="-5.08" y="3.81" size="1.27" layer="21" align="center-left">MS2</text>
<text x="-5.08" y="1.27" size="1.27" layer="21" align="center-left">MS3</text>
<text x="-5.08" y="-1.27" size="1.27" layer="21" align="center-left">!RST</text>
<text x="-5.08" y="-3.81" size="1.27" layer="21" align="center-left">!SLP</text>
<text x="-5.08" y="-6.35" size="1.27" layer="21" align="center-left">STEP</text>
<text x="-5.08" y="-8.89" size="1.27" layer="21" align="center-left">DIR</text>
<text x="5.08" y="8.89" size="1.27" layer="21" align="center-right">VMOT</text>
<text x="5.08" y="6.35" size="1.27" layer="21" align="center-right">GND</text>
<text x="5.08" y="3.81" size="1.27" layer="21" align="center-right">2B</text>
<text x="5.08" y="1.27" size="1.27" layer="21" align="center-right">2A</text>
<text x="5.08" y="-1.27" size="1.27" layer="21" align="center-right">1A</text>
<text x="5.08" y="-3.81" size="1.27" layer="21" align="center-right">1B</text>
<text x="5.08" y="-6.35" size="1.27" layer="21" align="center-right">VDD</text>
<text x="5.08" y="-8.89" size="1.27" layer="21" align="center-right">GND</text>
<text x="-5.08" y="-12.7" size="1.778" layer="25">&gt;NAME</text>
<text x="-5.715" y="10.795" size="1.778" layer="27">&gt;VALUE</text>
</package>
</packages>
</library>
<library name="ESP8266_modules">
<packages>
<package name="2MM_2X8_CAST">
<wire x1="-8" y1="-9" x2="8" y2="-9" width="0.127" layer="21"/>
<wire x1="8" y1="-9" x2="8" y2="15" width="0.127" layer="21"/>
<wire x1="8" y1="15" x2="-8" y2="15" width="0.127" layer="21"/>
<wire x1="-8" y1="15" x2="-8" y2="-9" width="0.127" layer="21"/>
<smd name="8" x="-8" y="-7" dx="2" dy="1.2" layer="1"/>
<smd name="7" x="-8" y="-5" dx="2" dy="1.2" layer="1"/>
<smd name="6" x="-8" y="-3" dx="2" dy="1.2" layer="1"/>
<smd name="5" x="-8" y="-1" dx="2" dy="1.2" layer="1"/>
<smd name="4" x="-8" y="1" dx="2" dy="1.2" layer="1"/>
<smd name="3" x="-8" y="3" dx="2" dy="1.2" layer="1"/>
<smd name="2" x="-8" y="5" dx="2" dy="1.2" layer="1"/>
<smd name="1" x="-8" y="7" dx="2" dy="1.2" layer="1"/>
<smd name="15" x="8.2" y="-7" dx="2" dy="1.2" layer="1"/>
<smd name="16" x="8.2" y="-5" dx="2" dy="1.2" layer="1"/>
<smd name="17" x="8.2" y="-3" dx="2" dy="1.2" layer="1"/>
<smd name="18" x="8.2" y="-1" dx="2" dy="1.2" layer="1"/>
<smd name="19" x="8.2" y="1" dx="2" dy="1.2" layer="1"/>
<smd name="20" x="8.2" y="3" dx="2" dy="1.2" layer="1"/>
<smd name="21" x="8.2" y="5" dx="2" dy="1.2" layer="1"/>
<smd name="22" x="8.2" y="7" dx="2" dy="1.2" layer="1"/>
<text x="-4" y="7" size="1.27" layer="21">&gt;NAME</text>
<smd name="9" x="-5" y="-9" dx="2" dy="1.2" layer="1" rot="R90"/>
<smd name="10" x="-3" y="-9" dx="2" dy="1.2" layer="1" rot="R90"/>
<smd name="11" x="-1" y="-9" dx="2" dy="1.2" layer="1" rot="R90"/>
<smd name="12" x="1" y="-9" dx="2" dy="1.2" layer="1" rot="R90"/>
<smd name="13" x="3" y="-9" dx="2" dy="1.2" layer="1" rot="R90"/>
<smd name="14" x="5" y="-9" dx="2" dy="1.2" layer="1" rot="R90"/>
<text x="-4" y="5" size="1.27" layer="27">&gt;VALUE</text>
<rectangle x1="-7" y1="9" x2="7" y2="14" layer="21"/>
<rectangle x1="-8" y1="9" x2="8" y2="15" layer="39"/>
<rectangle x1="-8" y1="9" x2="8" y2="15" layer="41"/>
<rectangle x1="-8" y1="9" x2="8" y2="15" layer="40"/>
<rectangle x1="-8" y1="9" x2="8" y2="15" layer="42"/>
<wire x1="-7.5" y1="-9.3" x2="-8.3" y2="-9.3" width="0.127" layer="51"/>
<wire x1="-8.3" y1="-9.3" x2="-8.3" y2="-8.5" width="0.127" layer="51"/>
<wire x1="7.5" y1="-9.3" x2="8.3" y2="-9.3" width="0.127" layer="51" style="longdash"/>
<wire x1="8.3" y1="-9.3" x2="8.3" y2="-8.5" width="0.127" layer="51"/>
<wire x1="7.5" y1="15.3" x2="8.3" y2="15.3" width="0.127" layer="51"/>
<wire x1="8.3" y1="15.3" x2="8.3" y2="14.5" width="0.127" layer="51"/>
<wire x1="-7.5" y1="15.3" x2="-8.3" y2="15.3" width="0.127" layer="51"/>
<wire x1="-8.3" y1="15.3" x2="-8.3" y2="14.5" width="0.127" layer="51"/>
<wire x1="-7.5" y1="15.3" x2="7.5" y2="15.3" width="0.127" layer="49"/>
<wire x1="8.3" y1="14.5" x2="8.3" y2="8" width="0.127" layer="49"/>
<wire x1="-8.3" y1="14.5" x2="-8.3" y2="8" width="0.127" layer="49"/>
<wire x1="-8.3" y1="-8" x2="-8.3" y2="-8.5" width="0.127" layer="49"/>
<wire x1="-7.5" y1="-9.3" x2="-6" y2="-9.3" width="0.127" layer="49"/>
<wire x1="6" y1="-9.3" x2="7.5" y2="-9.3" width="0.127" layer="49"/>
<wire x1="8.3" y1="-8" x2="8.3" y2="-8.5" width="0.127" layer="49"/>
</package>
</packages>
</library>
<library name="ams1117-3.3v">
<description>&lt;1A LOW DROPOUT VOLTAGE REGULATOR, SOT-223&lt;/b&gt;&lt;p&gt;
&lt;author&gt;Created by SamacSys&lt;/author&gt;</description>
<packages>
<package name="SOT229P700X180-4N">
<description>&lt;b&gt;3 Lead SOT-223 Plastic Package&lt;/b&gt;&lt;br&gt;
</description>
<smd name="1" x="-3.35" y="2.29" dx="1.3" dy="0.95" layer="1"/>
<smd name="2" x="-3.35" y="0" dx="1.3" dy="0.95" layer="1"/>
<smd name="3" x="-3.35" y="-2.29" dx="1.3" dy="0.95" layer="1"/>
<smd name="4" x="3.35" y="0" dx="3.25" dy="1.3" layer="1" rot="R90"/>
<text x="0" y="0" size="1.27" layer="25" align="center">&gt;NAME</text>
<text x="0" y="0" size="1.27" layer="27" align="center">&gt;VALUE</text>
<wire x1="-4.25" y1="3.605" x2="4.25" y2="3.605" width="0.05" layer="51"/>
<wire x1="4.25" y1="3.605" x2="4.25" y2="-3.605" width="0.05" layer="51"/>
<wire x1="4.25" y1="-3.605" x2="-4.25" y2="-3.605" width="0.05" layer="51"/>
<wire x1="-4.25" y1="-3.605" x2="-4.25" y2="3.605" width="0.05" layer="51"/>
<wire x1="-1.752" y1="3.252" x2="1.752" y2="3.252" width="0.1" layer="51"/>
<wire x1="1.752" y1="3.252" x2="1.752" y2="-3.252" width="0.1" layer="51"/>
<wire x1="1.752" y1="-3.252" x2="-1.752" y2="-3.252" width="0.1" layer="51"/>
<wire x1="-1.752" y1="-3.252" x2="-1.752" y2="3.252" width="0.1" layer="51"/>
<wire x1="-1.752" y1="0.962" x2="0.538" y2="3.252" width="0.1" layer="51"/>
<wire x1="-1.752" y1="3.252" x2="1.752" y2="3.252" width="0.2" layer="21"/>
<wire x1="1.752" y1="3.252" x2="1.752" y2="-3.252" width="0.2" layer="21"/>
<wire x1="1.752" y1="-3.252" x2="-1.752" y2="-3.252" width="0.2" layer="21"/>
<wire x1="-1.752" y1="-3.252" x2="-1.752" y2="3.252" width="0.2" layer="21"/>
<wire x1="-4" y1="3.115" x2="-2.7" y2="3.115" width="0.2" layer="21"/>
</package>
</packages>
</library>
<library name="adafruit">
<packages>
<package name="153CLV-0605">
<description>&lt;b&gt;Aluminum electrolytic capacitors&lt;/b&gt;&lt;p&gt;
SMD (Chip) Long Life Vertical 153 CLV&lt;p&gt;
http://www.bccomponents.com/</description>
<wire x1="2.4" y1="-3.3" x2="-3.3" y2="-3.3" width="0.2032" layer="21"/>
<wire x1="-3.3" y1="-3.3" x2="-3.3" y2="-1.1" width="0.2032" layer="21"/>
<wire x1="-3.3" y1="-1.1" x2="-3.3" y2="1.1" width="0.2032" layer="51"/>
<wire x1="-3.3" y1="1.1" x2="-3.3" y2="3.3" width="0.2032" layer="21"/>
<wire x1="-3.3" y1="3.3" x2="2.4" y2="3.3" width="0.2032" layer="21"/>
<wire x1="3.3" y1="2.4" x2="3.3" y2="1.1" width="0.2032" layer="21"/>
<wire x1="3.3" y1="1.1" x2="3.3" y2="-1.1" width="0.2032" layer="51"/>
<wire x1="3.3" y1="-1.1" x2="3.3" y2="-2.4" width="0.2032" layer="21"/>
<wire x1="3.3" y1="-2.4" x2="2.4" y2="-3.3" width="0.2032" layer="21"/>
<wire x1="2.4" y1="3.3" x2="3.3" y2="2.4" width="0.2032" layer="21"/>
<wire x1="-2.95" y1="-0.9" x2="2.95" y2="-0.95" width="0.2032" layer="21" curve="145.181395" cap="flat"/>
<wire x1="-2.95" y1="-0.9" x2="-2.95" y2="0.95" width="0.2032" layer="51" curve="-34.818605" cap="flat"/>
<wire x1="-2.95" y1="0.95" x2="2.95" y2="0.9" width="0.2032" layer="21" curve="-145.181395" cap="flat"/>
<wire x1="2.95" y1="-0.95" x2="2.95" y2="0.9" width="0.2032" layer="51" curve="34.818605" cap="flat"/>
<smd name="+" x="2.7" y="0" dx="3.5" dy="1.6" layer="1"/>
<smd name="-" x="-2.7" y="0" dx="3.5" dy="1.6" layer="1"/>
<text x="-3.39" y="3.63" size="1.27" layer="25">&gt;NAME</text>
<text x="-3.425" y="-4.885" size="1.27" layer="27">&gt;VALUE</text>
</package>
</packages>
</library>
<library name="con-wago-500" urn="urn:adsk.eagle:library:195">
<description>&lt;b&gt;Wago Screw Clamps&lt;/b&gt;&lt;p&gt;
Grid 5.00 mm&lt;p&gt;
&lt;author&gt;Created by librarian@cadsoft.de&lt;/author&gt;</description>
<packages>
<package name="W237-102" urn="urn:adsk.eagle:footprint:10676/1" library_version="2">
<description>&lt;b&gt;WAGO SCREW CLAMP&lt;/b&gt;</description>
<wire x1="-3.491" y1="-2.286" x2="-1.484" y2="-0.279" width="0.254" layer="51"/>
<wire x1="1.488" y1="-2.261" x2="3.469" y2="-0.254" width="0.254" layer="51"/>
<wire x1="-4.989" y1="-5.461" x2="4.993" y2="-5.461" width="0.1524" layer="21"/>
<wire x1="4.993" y1="3.734" x2="4.993" y2="3.531" width="0.1524" layer="21"/>
<wire x1="4.993" y1="3.734" x2="-4.989" y2="3.734" width="0.1524" layer="21"/>
<wire x1="-4.989" y1="-5.461" x2="-4.989" y2="-3.073" width="0.1524" layer="21"/>
<wire x1="-4.989" y1="-3.073" x2="-3.389" y2="-3.073" width="0.1524" layer="21"/>
<wire x1="-3.389" y1="-3.073" x2="-1.611" y2="-3.073" width="0.1524" layer="51"/>
<wire x1="-1.611" y1="-3.073" x2="1.615" y2="-3.073" width="0.1524" layer="21"/>
<wire x1="3.393" y1="-3.073" x2="4.993" y2="-3.073" width="0.1524" layer="21"/>
<wire x1="-4.989" y1="-3.073" x2="-4.989" y2="3.531" width="0.1524" layer="21"/>
<wire x1="4.993" y1="-3.073" x2="4.993" y2="-5.461" width="0.1524" layer="21"/>
<wire x1="-4.989" y1="3.531" x2="4.993" y2="3.531" width="0.1524" layer="21"/>
<wire x1="-4.989" y1="3.531" x2="-4.989" y2="3.734" width="0.1524" layer="21"/>
<wire x1="4.993" y1="3.531" x2="4.993" y2="-3.073" width="0.1524" layer="21"/>
<wire x1="1.615" y1="-3.073" x2="3.393" y2="-3.073" width="0.1524" layer="51"/>
<circle x="-2.5" y="-1.27" radius="1.4986" width="0.1524" layer="51"/>
<circle x="-2.5" y="2.2098" radius="0.508" width="0.1524" layer="21"/>
<circle x="2.5038" y="-1.27" radius="1.4986" width="0.1524" layer="51"/>
<circle x="2.5038" y="2.2098" radius="0.508" width="0.1524" layer="21"/>
<pad name="1" x="-2.5" y="-1.27" drill="1.1938" shape="long" rot="R90"/>
<pad name="2" x="2.5" y="-1.27" drill="1.1938" shape="long" rot="R90"/>
<text x="-5.04" y="-7.62" size="1.27" layer="27" ratio="10">&gt;VALUE</text>
<text x="-3.8462" y="-5.0038" size="1.27" layer="25" ratio="10">&gt;NAME</text>
<text x="-4.532" y="0.635" size="1.27" layer="21" ratio="10">1</text>
<text x="0.421" y="0.635" size="1.27" layer="21" ratio="10">2</text>
</package>
</packages>
<packages3d>
<package3d name="W237-102" urn="urn:adsk.eagle:package:10688/1" type="box" library_version="2">
<description>WAGO SCREW CLAMP</description>
<packageinstances>
<packageinstance name="W237-102"/>
</packageinstances>
</package3d>
</packages3d>
</library>
<library name="SparkFun-Switches">
<description>&lt;h3&gt;SparkFun Switches, Buttons, Encoders&lt;/h3&gt;
In this library you'll find switches, buttons, joysticks, and anything that moves to create or disrupt an electrical connection.
&lt;br&gt;
&lt;br&gt;
We've spent an enormous amount of time creating and checking these footprints and parts, but it is &lt;b&gt; the end user's responsibility&lt;/b&gt; to ensure correctness and suitablity for a given componet or application. 
&lt;br&gt;
&lt;br&gt;If you enjoy using this library, please buy one of our products at &lt;a href=" www.sparkfun.com"&gt;SparkFun.com&lt;/a&gt;.
&lt;br&gt;
&lt;br&gt;
&lt;b&gt;Licensing:&lt;/b&gt; Creative Commons ShareAlike 4.0 International - https://creativecommons.org/licenses/by-sa/4.0/ 
&lt;br&gt;
&lt;br&gt;
You are welcome to use this library for commercial purposes. For attribution, we ask that when you begin to sell your device using our footprint, you email us with a link to the product being sold. We want bragging rights that we helped (in a very small part) to create your 8th world wonder. We would like the opportunity to feature your device on our homepage.</description>
<packages>
<package name="TACTILE_SWITCH_SMD_6.0X3.5MM">
<description>&lt;h3&gt;Momentary Switch (Pushbutton) - SPST - SMD, 6.0 x 3.5 mm&lt;/h3&gt;
&lt;p&gt;Normally-open (NO) SPST momentary switches (buttons, pushbuttons).&lt;/p&gt;
&lt;p&gt;&lt;a href="https://www.sparkfun.com/datasheets/Components/1101.pdf"&gt;Datasheet&lt;/a&gt;&lt;/p&gt;</description>
<wire x1="-3" y1="1.1" x2="-3" y2="-1.1" width="0.127" layer="51"/>
<wire x1="3" y1="1.1" x2="3" y2="-1.1" width="0.127" layer="51"/>
<wire x1="-2.75" y1="1.75" x2="-3" y2="1.5" width="0.2032" layer="21" curve="90"/>
<wire x1="-2.75" y1="1.75" x2="2.75" y2="1.75" width="0.2032" layer="21"/>
<wire x1="2.75" y1="1.75" x2="3" y2="1.5" width="0.2032" layer="21" curve="-90"/>
<wire x1="3" y1="-1.5" x2="2.75" y2="-1.75" width="0.2032" layer="21" curve="-90"/>
<wire x1="2.75" y1="-1.75" x2="-2.75" y2="-1.75" width="0.2032" layer="21"/>
<wire x1="-3" y1="-1.5" x2="-2.75" y2="-1.75" width="0.2032" layer="21" curve="90"/>
<wire x1="-3" y1="-1.5" x2="-3" y2="-1.1" width="0.2032" layer="21"/>
<wire x1="-3" y1="1.1" x2="-3" y2="1.5" width="0.2032" layer="21"/>
<wire x1="3" y1="1.1" x2="3" y2="1.5" width="0.2032" layer="21"/>
<wire x1="3" y1="-1.5" x2="3" y2="-1.1" width="0.2032" layer="21"/>
<wire x1="-1.5" y1="0.75" x2="1.5" y2="0.75" width="0.2032" layer="21"/>
<wire x1="1.5" y1="-0.75" x2="-1.5" y2="-0.75" width="0.2032" layer="21"/>
<wire x1="-1.5" y1="-0.75" x2="-1.5" y2="0.75" width="0.2032" layer="21"/>
<wire x1="1.5" y1="-0.75" x2="1.5" y2="0.75" width="0.2032" layer="21"/>
<wire x1="-2" y1="0" x2="-1" y2="0" width="0.127" layer="51"/>
<wire x1="-1" y1="0" x2="0.1" y2="0.5" width="0.127" layer="51"/>
<wire x1="0.3" y1="0" x2="2" y2="0" width="0.127" layer="51"/>
<smd name="1" x="-3.15" y="0" dx="2.3" dy="1.6" layer="1" rot="R180"/>
<smd name="2" x="3.15" y="0" dx="2.3" dy="1.6" layer="1" rot="R180"/>
<text x="0" y="1.905" size="0.6096" layer="25" font="vector" ratio="20" align="bottom-center">&gt;Name</text>
<text x="0" y="-1.905" size="0.6096" layer="27" font="vector" ratio="20" align="top-center">&gt;Value</text>
</package>
</packages>
</library>
<library name="con-lstb" urn="urn:adsk.eagle:library:162">
<description>&lt;b&gt;Pin Headers&lt;/b&gt;&lt;p&gt;
Naming:&lt;p&gt;
MA = male&lt;p&gt;
# contacts - # rows&lt;p&gt;
W = angled&lt;p&gt;
&lt;author&gt;Created by librarian@cadsoft.de&lt;/author&gt;</description>
<packages>
<package name="MA05-1" urn="urn:adsk.eagle:footprint:8283/1" library_version="2">
<description>&lt;b&gt;PIN HEADER&lt;/b&gt;</description>
<wire x1="-5.715" y1="1.27" x2="-4.445" y2="1.27" width="0.1524" layer="21"/>
<wire x1="-4.445" y1="1.27" x2="-3.81" y2="0.635" width="0.1524" layer="21"/>
<wire x1="-3.81" y1="-0.635" x2="-4.445" y2="-1.27" width="0.1524" layer="21"/>
<wire x1="-3.81" y1="0.635" x2="-3.175" y2="1.27" width="0.1524" layer="21"/>
<wire x1="-3.175" y1="1.27" x2="-1.905" y2="1.27" width="0.1524" layer="21"/>
<wire x1="-1.905" y1="1.27" x2="-1.27" y2="0.635" width="0.1524" layer="21"/>
<wire x1="-1.27" y1="-0.635" x2="-1.905" y2="-1.27" width="0.1524" layer="21"/>
<wire x1="-1.905" y1="-1.27" x2="-3.175" y2="-1.27" width="0.1524" layer="21"/>
<wire x1="-3.175" y1="-1.27" x2="-3.81" y2="-0.635" width="0.1524" layer="21"/>
<wire x1="-6.35" y1="0.635" x2="-6.35" y2="-0.635" width="0.1524" layer="21"/>
<wire x1="-5.715" y1="1.27" x2="-6.35" y2="0.635" width="0.1524" layer="21"/>
<wire x1="-6.35" y1="-0.635" x2="-5.715" y2="-1.27" width="0.1524" layer="21"/>
<wire x1="-4.445" y1="-1.27" x2="-5.715" y2="-1.27" width="0.1524" layer="21"/>
<wire x1="-1.27" y1="0.635" x2="-0.635" y2="1.27" width="0.1524" layer="21"/>
<wire x1="-0.635" y1="1.27" x2="0.635" y2="1.27" width="0.1524" layer="21"/>
<wire x1="0.635" y1="1.27" x2="1.27" y2="0.635" width="0.1524" layer="21"/>
<wire x1="1.27" y1="-0.635" x2="0.635" y2="-1.27" width="0.1524" layer="21"/>
<wire x1="0.635" y1="-1.27" x2="-0.635" y2="-1.27" width="0.1524" layer="21"/>
<wire x1="-0.635" y1="-1.27" x2="-1.27" y2="-0.635" width="0.1524" layer="21"/>
<wire x1="1.905" y1="1.27" x2="3.175" y2="1.27" width="0.1524" layer="21"/>
<wire x1="3.175" y1="1.27" x2="3.81" y2="0.635" width="0.1524" layer="21"/>
<wire x1="3.81" y1="-0.635" x2="3.175" y2="-1.27" width="0.1524" layer="21"/>
<wire x1="3.81" y1="0.635" x2="4.445" y2="1.27" width="0.1524" layer="21"/>
<wire x1="4.445" y1="1.27" x2="5.715" y2="1.27" width="0.1524" layer="21"/>
<wire x1="5.715" y1="1.27" x2="6.35" y2="0.635" width="0.1524" layer="21"/>
<wire x1="6.35" y1="0.635" x2="6.35" y2="-0.635" width="0.1524" layer="21"/>
<wire x1="6.35" y1="-0.635" x2="5.715" y2="-1.27" width="0.1524" layer="21"/>
<wire x1="5.715" y1="-1.27" x2="4.445" y2="-1.27" width="0.1524" layer="21"/>
<wire x1="4.445" y1="-1.27" x2="3.81" y2="-0.635" width="0.1524" layer="21"/>
<wire x1="1.905" y1="1.27" x2="1.27" y2="0.635" width="0.1524" layer="21"/>
<wire x1="1.27" y1="-0.635" x2="1.905" y2="-1.27" width="0.1524" layer="21"/>
<wire x1="3.175" y1="-1.27" x2="1.905" y2="-1.27" width="0.1524" layer="21"/>
<pad name="1" x="-5.08" y="0" drill="1.016" shape="long" rot="R90"/>
<pad name="2" x="-2.54" y="0" drill="1.016" shape="long" rot="R90"/>
<pad name="3" x="0" y="0" drill="1.016" shape="long" rot="R90"/>
<pad name="4" x="2.54" y="0" drill="1.016" shape="long" rot="R90"/>
<pad name="5" x="5.08" y="0" drill="1.016" shape="long" rot="R90"/>
<text x="-6.35" y="1.651" size="1.27" layer="25" ratio="10">&gt;NAME</text>
<text x="-5.715" y="-2.921" size="1.27" layer="21" ratio="10">1</text>
<text x="4.445" y="1.651" size="1.27" layer="21" ratio="10">5</text>
<text x="-2.54" y="-2.921" size="1.27" layer="27" ratio="10">&gt;VALUE</text>
<rectangle x1="-2.794" y1="-0.254" x2="-2.286" y2="0.254" layer="51"/>
<rectangle x1="-5.334" y1="-0.254" x2="-4.826" y2="0.254" layer="51"/>
<rectangle x1="-0.254" y1="-0.254" x2="0.254" y2="0.254" layer="51"/>
<rectangle x1="4.826" y1="-0.254" x2="5.334" y2="0.254" layer="51"/>
<rectangle x1="2.286" y1="-0.254" x2="2.794" y2="0.254" layer="51"/>
</package>
<package name="MA08-1" urn="urn:adsk.eagle:footprint:8294/1" library_version="2">
<description>&lt;b&gt;PIN HEADER&lt;/b&gt;</description>
<wire x1="-9.525" y1="1.27" x2="-8.255" y2="1.27" width="0.1524" layer="21"/>
<wire x1="-8.255" y1="1.27" x2="-7.62" y2="0.635" width="0.1524" layer="21"/>
<wire x1="-7.62" y1="-0.635" x2="-8.255" y2="-1.27" width="0.1524" layer="21"/>
<wire x1="-7.62" y1="0.635" x2="-6.985" y2="1.27" width="0.1524" layer="21"/>
<wire x1="-6.985" y1="1.27" x2="-5.715" y2="1.27" width="0.1524" layer="21"/>
<wire x1="-5.715" y1="1.27" x2="-5.08" y2="0.635" width="0.1524" layer="21"/>
<wire x1="-5.08" y1="-0.635" x2="-5.715" y2="-1.27" width="0.1524" layer="21"/>
<wire x1="-5.715" y1="-1.27" x2="-6.985" y2="-1.27" width="0.1524" layer="21"/>
<wire x1="-6.985" y1="-1.27" x2="-7.62" y2="-0.635" width="0.1524" layer="21"/>
<wire x1="-10.16" y1="0.635" x2="-10.16" y2="-0.635" width="0.1524" layer="21"/>
<wire x1="-9.525" y1="1.27" x2="-10.16" y2="0.635" width="0.1524" layer="21"/>
<wire x1="-10.16" y1="-0.635" x2="-9.525" y2="-1.27" width="0.1524" layer="21"/>
<wire x1="-8.255" y1="-1.27" x2="-9.525" y2="-1.27" width="0.1524" layer="21"/>
<wire x1="-5.08" y1="0.635" x2="-4.445" y2="1.27" width="0.1524" layer="21"/>
<wire x1="-4.445" y1="1.27" x2="-3.175" y2="1.27" width="0.1524" layer="21"/>
<wire x1="-3.175" y1="1.27" x2="-2.54" y2="0.635" width="0.1524" layer="21"/>
<wire x1="-2.54" y1="-0.635" x2="-3.175" y2="-1.27" width="0.1524" layer="21"/>
<wire x1="-3.175" y1="-1.27" x2="-4.445" y2="-1.27" width="0.1524" layer="21"/>
<wire x1="-4.445" y1="-1.27" x2="-5.08" y2="-0.635" width="0.1524" layer="21"/>
<wire x1="-1.905" y1="1.27" x2="-0.635" y2="1.27" width="0.1524" layer="21"/>
<wire x1="-0.635" y1="1.27" x2="0" y2="0.635" width="0.1524" layer="21"/>
<wire x1="0" y1="-0.635" x2="-0.635" y2="-1.27" width="0.1524" layer="21"/>
<wire x1="-1.905" y1="1.27" x2="-2.54" y2="0.635" width="0.1524" layer="21"/>
<wire x1="-2.54" y1="-0.635" x2="-1.905" y2="-1.27" width="0.1524" layer="21"/>
<wire x1="-0.635" y1="-1.27" x2="-1.905" y2="-1.27" width="0.1524" layer="21"/>
<wire x1="0.635" y1="1.27" x2="1.905" y2="1.27" width="0.1524" layer="21"/>
<wire x1="1.905" y1="1.27" x2="2.54" y2="0.635" width="0.1524" layer="21"/>
<wire x1="2.54" y1="-0.635" x2="1.905" y2="-1.27" width="0.1524" layer="21"/>
<wire x1="2.54" y1="0.635" x2="3.175" y2="1.27" width="0.1524" layer="21"/>
<wire x1="3.175" y1="1.27" x2="4.445" y2="1.27" width="0.1524" layer="21"/>
<wire x1="4.445" y1="1.27" x2="5.08" y2="0.635" width="0.1524" layer="21"/>
<wire x1="5.08" y1="-0.635" x2="4.445" y2="-1.27" width="0.1524" layer="21"/>
<wire x1="4.445" y1="-1.27" x2="3.175" y2="-1.27" width="0.1524" layer="21"/>
<wire x1="3.175" y1="-1.27" x2="2.54" y2="-0.635" width="0.1524" layer="21"/>
<wire x1="0.635" y1="1.27" x2="0" y2="0.635" width="0.1524" layer="21"/>
<wire x1="0" y1="-0.635" x2="0.635" y2="-1.27" width="0.1524" layer="21"/>
<wire x1="1.905" y1="-1.27" x2="0.635" y2="-1.27" width="0.1524" layer="21"/>
<wire x1="5.08" y1="0.635" x2="5.715" y2="1.27" width="0.1524" layer="21"/>
<wire x1="5.715" y1="1.27" x2="6.985" y2="1.27" width="0.1524" layer="21"/>
<wire x1="6.985" y1="1.27" x2="7.62" y2="0.635" width="0.1524" layer="21"/>
<wire x1="7.62" y1="-0.635" x2="6.985" y2="-1.27" width="0.1524" layer="21"/>
<wire x1="6.985" y1="-1.27" x2="5.715" y2="-1.27" width="0.1524" layer="21"/>
<wire x1="5.715" y1="-1.27" x2="5.08" y2="-0.635" width="0.1524" layer="21"/>
<wire x1="8.255" y1="1.27" x2="9.525" y2="1.27" width="0.1524" layer="21"/>
<wire x1="9.525" y1="1.27" x2="10.16" y2="0.635" width="0.1524" layer="21"/>
<wire x1="10.16" y1="0.635" x2="10.16" y2="-0.635" width="0.1524" layer="21"/>
<wire x1="10.16" y1="-0.635" x2="9.525" y2="-1.27" width="0.1524" layer="21"/>
<wire x1="8.255" y1="1.27" x2="7.62" y2="0.635" width="0.1524" layer="21"/>
<wire x1="7.62" y1="-0.635" x2="8.255" y2="-1.27" width="0.1524" layer="21"/>
<wire x1="9.525" y1="-1.27" x2="8.255" y2="-1.27" width="0.1524" layer="21"/>
<pad name="1" x="-8.89" y="0" drill="1.016" shape="long" rot="R90"/>
<pad name="2" x="-6.35" y="0" drill="1.016" shape="long" rot="R90"/>
<pad name="3" x="-3.81" y="0" drill="1.016" shape="long" rot="R90"/>
<pad name="4" x="-1.27" y="0" drill="1.016" shape="long" rot="R90"/>
<pad name="5" x="1.27" y="0" drill="1.016" shape="long" rot="R90"/>
<pad name="6" x="3.81" y="0" drill="1.016" shape="long" rot="R90"/>
<pad name="7" x="6.35" y="0" drill="1.016" shape="long" rot="R90"/>
<pad name="8" x="8.89" y="0" drill="1.016" shape="long" rot="R90"/>
<text x="-10.16" y="1.651" size="1.27" layer="25" ratio="10">&gt;NAME</text>
<text x="-9.398" y="-2.921" size="1.27" layer="21" ratio="10">1</text>
<text x="8.255" y="1.651" size="1.27" layer="21" ratio="10">8</text>
<text x="-1.27" y="-2.921" size="1.27" layer="27" ratio="10">&gt;VALUE</text>
<rectangle x1="-6.604" y1="-0.254" x2="-6.096" y2="0.254" layer="51"/>
<rectangle x1="-9.144" y1="-0.254" x2="-8.636" y2="0.254" layer="51"/>
<rectangle x1="-4.064" y1="-0.254" x2="-3.556" y2="0.254" layer="51"/>
<rectangle x1="-1.524" y1="-0.254" x2="-1.016" y2="0.254" layer="51"/>
<rectangle x1="3.556" y1="-0.254" x2="4.064" y2="0.254" layer="51"/>
<rectangle x1="1.016" y1="-0.254" x2="1.524" y2="0.254" layer="51"/>
<rectangle x1="6.096" y1="-0.254" x2="6.604" y2="0.254" layer="51"/>
<rectangle x1="8.636" y1="-0.254" x2="9.144" y2="0.254" layer="51"/>
</package>
</packages>
<packages3d>
<package3d name="MA05-1" urn="urn:adsk.eagle:package:8332/1" type="box" library_version="2">
<description>PIN HEADER</description>
<packageinstances>
<packageinstance name="MA05-1"/>
</packageinstances>
</package3d>
<package3d name="MA08-1" urn="urn:adsk.eagle:package:8343/1" type="box" library_version="2">
<description>PIN HEADER</description>
<packageinstances>
<packageinstance name="MA08-1"/>
</packageinstances>
</package3d>
</packages3d>
</library>
<library name="HLK-PM01">
<description>&lt;h5&gt;Hi-Link Power Supply&lt;/h5&gt;
&lt;br/&gt;

HLK-PM01 3W
&lt;br /&gt;
&lt;br/&gt;
Author: &lt;a href="https://github.com/AhmedSaid/EAGLELibraries"&gt;Ahmed Said&lt;/a&gt;</description>
<packages>
<package name="HLK-PM01">
<description>&lt;h5&gt;Hi-Link Power Supply&lt;/h5&gt;
&lt;br/&gt;

HLK-PM01 3W
&lt;br /&gt;
&lt;br/&gt;
Author: &lt;a href="https://github.com/AhmedSaid/EAGLELibraries"&gt;Ahmed Said&lt;/a&gt;</description>
<wire x1="-17" y1="10.1" x2="17" y2="10.1" width="0.127" layer="51"/>
<wire x1="17" y1="10.1" x2="17" y2="-10.1" width="0.127" layer="51"/>
<wire x1="17" y1="-10.1" x2="-17" y2="-10.1" width="0.127" layer="51"/>
<wire x1="-17" y1="-10.1" x2="-17" y2="10.1" width="0.127" layer="51"/>
<pad name="P$1" x="-14.7" y="2.5" drill="1.016" shape="square"/>
<pad name="P$2" x="-14.7" y="-2.5" drill="1.016" shape="square"/>
<pad name="P$3" x="14.7" y="7.7" drill="1.016" shape="square"/>
<pad name="P$4" x="14.7" y="-7.7" drill="1.016" shape="square"/>
<text x="-15.24" y="7.62" size="1.27" layer="21">&gt;NAME</text>
</package>
</packages>
</library>
</libraries>
<attributes>
</attributes>
<variantdefs>
</variantdefs>
<classes>
<class number="0" name="default" width="0" drill="0">
</class>
</classes>
<designrules name="default *">
<description language="de">&lt;b&gt;EAGLE Design Rules&lt;/b&gt;
&lt;p&gt;
Die Standard-Design-Rules sind so gewählt, dass sie für 
die meisten Anwendungen passen. Sollte ihre Platine 
besondere Anforderungen haben, treffen Sie die erforderlichen
Einstellungen hier und speichern die Design Rules unter 
einem neuen Namen ab.</description>
<description language="en">&lt;b&gt;EAGLE Design Rules&lt;/b&gt;
&lt;p&gt;
The default Design Rules have been set to cover
a wide range of applications. Your particular design
may have different requirements, so please make the
necessary adjustments and save your customized
design rules under a new name.</description>
<param name="layerSetup" value="(1*16)"/>
<param name="mtCopper" value="0.035mm 0.035mm 0.035mm 0.035mm 0.035mm 0.035mm 0.035mm 0.035mm 0.035mm 0.035mm 0.035mm 0.035mm 0.035mm 0.035mm 0.035mm 0.035mm"/>
<param name="mtIsolate" value="1.5mm 0.15mm 0.2mm 0.15mm 0.2mm 0.15mm 0.2mm 0.15mm 0.2mm 0.15mm 0.2mm 0.15mm 0.2mm 0.15mm 0.2mm"/>
<param name="mdWireWire" value="6mil"/>
<param name="mdWirePad" value="6mil"/>
<param name="mdWireVia" value="6mil"/>
<param name="mdPadPad" value="6mil"/>
<param name="mdPadVia" value="6mil"/>
<param name="mdViaVia" value="6mil"/>
<param name="mdSmdPad" value="6mil"/>
<param name="mdSmdVia" value="6mil"/>
<param name="mdSmdSmd" value="6mil"/>
<param name="mdViaViaSameLayer" value="6mil"/>
<param name="mnLayersViaInSmd" value="2"/>
<param name="mdCopperDimension" value="40mil"/>
<param name="mdDrill" value="6mil"/>
<param name="mdSmdStop" value="0mil"/>
<param name="msWidth" value="15mil"/>
<param name="msDrill" value="0.35mm"/>
<param name="msMicroVia" value="9.99mm"/>
<param name="msBlindViaRatio" value="0.5"/>
<param name="rvPadTop" value="0.25"/>
<param name="rvPadInner" value="0.25"/>
<param name="rvPadBottom" value="0.25"/>
<param name="rvViaOuter" value="0.25"/>
<param name="rvViaInner" value="0.25"/>
<param name="rvMicroViaOuter" value="0.25"/>
<param name="rvMicroViaInner" value="0.25"/>
<param name="rlMinPadTop" value="10mil"/>
<param name="rlMaxPadTop" value="20mil"/>
<param name="rlMinPadInner" value="10mil"/>
<param name="rlMaxPadInner" value="20mil"/>
<param name="rlMinPadBottom" value="10mil"/>
<param name="rlMaxPadBottom" value="20mil"/>
<param name="rlMinViaOuter" value="8mil"/>
<param name="rlMaxViaOuter" value="20mil"/>
<param name="rlMinViaInner" value="8mil"/>
<param name="rlMaxViaInner" value="20mil"/>
<param name="rlMinMicroViaOuter" value="4mil"/>
<param name="rlMaxMicroViaOuter" value="20mil"/>
<param name="rlMinMicroViaInner" value="4mil"/>
<param name="rlMaxMicroViaInner" value="20mil"/>
<param name="psTop" value="-1"/>
<param name="psBottom" value="-1"/>
<param name="psFirst" value="-1"/>
<param name="psElongationLong" value="100"/>
<param name="psElongationOffset" value="100"/>
<param name="mvStopFrame" value="1"/>
<param name="mvCreamFrame" value="0"/>
<param name="mlMinStopFrame" value="4mil"/>
<param name="mlMaxStopFrame" value="4mil"/>
<param name="mlMinCreamFrame" value="0mil"/>
<param name="mlMaxCreamFrame" value="0mil"/>
<param name="mlViaStopLimit" value="0mil"/>
<param name="srRoundness" value="0"/>
<param name="srMinRoundness" value="0mil"/>
<param name="srMaxRoundness" value="0mil"/>
<param name="slThermalIsolate" value="10mil"/>
<param name="slThermalsForVias" value="0"/>
<param name="dpMaxLengthDifference" value="10mm"/>
<param name="dpGapFactor" value="2.5"/>
<param name="checkAngle" value="0"/>
<param name="checkFont" value="1"/>
<param name="checkRestrict" value="1"/>
<param name="checkStop" value="0"/>
<param name="checkValues" value="0"/>
<param name="checkNames" value="1"/>
<param name="checkWireStubs" value="1"/>
<param name="checkPolygonWidth" value="0"/>
<param name="useDiameter" value="13"/>
<param name="maxErrors" value="50"/>
</designrules>
<autorouter>
<pass name="Default">
<param name="RoutingGrid" value="50mil"/>
<param name="AutoGrid" value="1"/>
<param name="Efforts" value="0"/>
<param name="TopRouterVariant" value="1"/>
<param name="tpViaShape" value="round"/>
<param name="PrefDir.1" value="a"/>
<param name="PrefDir.2" value="0"/>
<param name="PrefDir.3" value="0"/>
<param name="PrefDir.4" value="0"/>
<param name="PrefDir.5" value="0"/>
<param name="PrefDir.6" value="0"/>
<param name="PrefDir.7" value="0"/>
<param name="PrefDir.8" value="0"/>
<param name="PrefDir.9" value="0"/>
<param name="PrefDir.10" value="0"/>
<param name="PrefDir.11" value="0"/>
<param name="PrefDir.12" value="0"/>
<param name="PrefDir.13" value="0"/>
<param name="PrefDir.14" value="0"/>
<param name="PrefDir.15" value="0"/>
<param name="PrefDir.16" value="a"/>
<param name="cfVia" value="8"/>
<param name="cfNonPref" value="5"/>
<param name="cfChangeDir" value="2"/>
<param name="cfOrthStep" value="2"/>
<param name="cfDiagStep" value="3"/>
<param name="cfExtdStep" value="0"/>
<param name="cfBonusStep" value="1"/>
<param name="cfMalusStep" value="1"/>
<param name="cfPadImpact" value="4"/>
<param name="cfSmdImpact" value="4"/>
<param name="cfBusImpact" value="0"/>
<param name="cfHugging" value="3"/>
<param name="cfAvoid" value="4"/>
<param name="cfPolygon" value="10"/>
<param name="cfBase.1" value="0"/>
<param name="cfBase.2" value="1"/>
<param name="cfBase.3" value="1"/>
<param name="cfBase.4" value="1"/>
<param name="cfBase.5" value="1"/>
<param name="cfBase.6" value="1"/>
<param name="cfBase.7" value="1"/>
<param name="cfBase.8" value="1"/>
<param name="cfBase.9" value="1"/>
<param name="cfBase.10" value="1"/>
<param name="cfBase.11" value="1"/>
<param name="cfBase.12" value="1"/>
<param name="cfBase.13" value="1"/>
<param name="cfBase.14" value="1"/>
<param name="cfBase.15" value="1"/>
<param name="cfBase.16" value="0"/>
<param name="mnVias" value="20"/>
<param name="mnSegments" value="9999"/>
<param name="mnExtdSteps" value="9999"/>
<param name="mnRipupLevel" value="10"/>
<param name="mnRipupSteps" value="100"/>
<param name="mnRipupTotal" value="100"/>
</pass>
<pass name="Follow-me" refer="Default" active="yes">
</pass>
<pass name="Busses" refer="Default" active="yes">
<param name="cfNonPref" value="4"/>
<param name="cfBusImpact" value="4"/>
<param name="cfHugging" value="0"/>
<param name="mnVias" value="0"/>
</pass>
<pass name="Route" refer="Default" active="yes">
</pass>
<pass name="Optimize1" refer="Default" active="yes">
<param name="cfVia" value="99"/>
<param name="cfExtdStep" value="10"/>
<param name="cfHugging" value="1"/>
<param name="mnExtdSteps" value="1"/>
<param name="mnRipupLevel" value="0"/>
</pass>
<pass name="Optimize2" refer="Optimize1" active="yes">
<param name="cfNonPref" value="0"/>
<param name="cfChangeDir" value="6"/>
<param name="cfExtdStep" value="0"/>
<param name="cfBonusStep" value="2"/>
<param name="cfMalusStep" value="2"/>
<param name="cfPadImpact" value="2"/>
<param name="cfSmdImpact" value="2"/>
<param name="cfHugging" value="0"/>
</pass>
<pass name="Optimize3" refer="Optimize2" active="yes">
<param name="cfChangeDir" value="8"/>
<param name="cfPadImpact" value="0"/>
<param name="cfSmdImpact" value="0"/>
</pass>
<pass name="Optimize4" refer="Optimize3" active="yes">
<param name="cfChangeDir" value="25"/>
</pass>
</autorouter>
<elements>
<element name="IC1" library="pololu-stepper-driver" package="A4988" override_package3d_urn="urn:adsk.eagle:package:35314984/2" override_package_urn="urn:adsk.eagle:footprint:35314985/1" value="1182-A4988" x="21.59" y="29.21" smashed="yes" rot="R90">
<attribute name="NAME" x="34.29" y="24.13" size="1.778" layer="25" rot="R90"/>
<attribute name="VALUE" x="10.795" y="23.495" size="1.778" layer="27" rot="R90"/>
</element>
<element name="U$1" library="ESP8266_modules" package="2MM_2X8_CAST" override_package3d_urn="urn:adsk.eagle:package:35314952/2" override_package_urn="urn:adsk.eagle:footprint:35314953/1" value="ESP-12" x="19.05" y="10.16" smashed="yes" rot="R180">
<attribute name="NAME" x="23.05" y="3.16" size="1.27" layer="21" rot="R180"/>
<attribute name="VALUE" x="23.05" y="5.16" size="1.27" layer="27" rot="R180"/>
</element>
<element name="IC2" library="ams1117-3.3v" package="SOT229P700X180-4N" value="AMS1117-3.3V" x="38.1" y="31.75" smashed="yes">
<attribute name="DESCRIPTION" value="1A LOW DROPOUT VOLTAGE REGULATOR, SOT-223" x="38.1" y="31.75" size="1.778" layer="27" display="off"/>
<attribute name="HEIGHT" value="1.8mm" x="38.1" y="31.75" size="1.778" layer="27" display="off"/>
<attribute name="MANUFACTURER_NAME" value="Advanced Monolithic Systems" x="38.1" y="31.75" size="1.778" layer="27" display="off"/>
<attribute name="MANUFACTURER_PART_NUMBER" value="ams1117-3.3v" x="38.1" y="31.75" size="1.778" layer="27" display="off"/>
<attribute name="MOUSER_PART_NUMBER" value="" x="38.1" y="31.75" size="1.778" layer="27" display="off"/>
<attribute name="MOUSER_PRICE-STOCK" value="" x="38.1" y="31.75" size="1.778" layer="27" display="off"/>
<attribute name="NAME" x="38.1" y="34.29" size="1.27" layer="25" align="center"/>
<attribute name="RS_PART_NUMBER" value="" x="38.1" y="31.75" size="1.778" layer="27" display="off"/>
<attribute name="RS_PRICE-STOCK" value="" x="38.1" y="31.75" size="1.778" layer="27" display="off"/>
<attribute name="VALUE" x="38.1" y="27.94" size="1.27" layer="27" align="center"/>
</element>
<element name="C1" library="adafruit" package="153CLV-0605" value="" x="40.64" y="10.16" smashed="yes">
<attribute name="NAME" x="37.25" y="13.79" size="1.27" layer="25"/>
<attribute name="VALUE" x="37.215" y="5.275" size="1.27" layer="27"/>
</element>
<element name="X1" library="con-wago-500" library_urn="urn:adsk.eagle:library:195" package="W237-102" package3d_urn="urn:adsk.eagle:package:10688/1" override_package3d_urn="urn:adsk.eagle:package:35315000/2" override_package_urn="urn:adsk.eagle:footprint:10676/1" value="" x="46.99" y="19.05" smashed="yes" rot="R270">
<attribute name="MF" value="" x="46.99" y="19.05" size="1.778" layer="27" rot="R270" display="off"/>
<attribute name="MPN" value="237-102" x="46.99" y="19.05" size="1.778" layer="27" rot="R270" display="off"/>
<attribute name="NAME" x="41.9862" y="22.8962" size="1.27" layer="25" ratio="10" rot="R270"/>
<attribute name="OC_FARNELL" value="unknown" x="46.99" y="19.05" size="1.778" layer="27" rot="R270" display="off"/>
<attribute name="OC_NEWARK" value="70K9898" x="46.99" y="19.05" size="1.778" layer="27" rot="R270" display="off"/>
<attribute name="POPULARITY" value="32" x="46.99" y="19.05" size="1.778" layer="27" rot="R270" display="off"/>
<attribute name="VALUE" x="39.37" y="24.09" size="1.27" layer="27" ratio="10" rot="R270"/>
</element>
<element name="S1" library="SparkFun-Switches" package="TACTILE_SWITCH_SMD_6.0X3.5MM" override_package3d_urn="urn:adsk.eagle:package:35315003/2" override_package_urn="urn:adsk.eagle:footprint:35315004/1" value="MOMENTARY-SWITCH-SPST-SMD-6.0X3.5MM" x="38.1" y="1.27" smashed="yes" rot="R36.8">
<attribute name="NAME" x="36.958859375" y="2.795390625" size="0.6096" layer="25" font="vector" ratio="20" rot="R36.8" align="bottom-center"/>
<attribute name="PROD_ID" value="SWCH-00815" x="38.1" y="1.27" size="1.778" layer="27" rot="R36.8" display="off"/>
<attribute name="SF_SKU" value="COM-08229" x="38.1" y="1.27" size="1.778" layer="27" rot="R36.8" display="off"/>
</element>
<element name="G0-TX-RX/-/+" library="con-lstb" library_urn="urn:adsk.eagle:library:162" package="MA05-1" package3d_urn="urn:adsk.eagle:package:8332/1" value="" x="31.75" y="8.89" smashed="yes" rot="R90">
<attribute name="MF" value="" x="31.75" y="8.89" size="1.778" layer="27" rot="R90" display="off"/>
<attribute name="MPN" value="" x="31.75" y="8.89" size="1.778" layer="27" rot="R90" display="off"/>
<attribute name="NAME" x="30.099" y="2.54" size="1.27" layer="25" ratio="10" rot="R90"/>
<attribute name="OC_FARNELL" value="unknown" x="31.75" y="8.89" size="1.778" layer="27" rot="R90" display="off"/>
<attribute name="OC_NEWARK" value="unknown" x="31.75" y="8.89" size="1.778" layer="27" rot="R90" display="off"/>
<attribute name="POPULARITY" value="29" x="31.75" y="8.89" size="1.778" layer="27" rot="R90" display="off"/>
<attribute name="VALUE" x="34.671" y="6.35" size="1.27" layer="27" ratio="10" rot="R90"/>
</element>
<element name="HLK1" library="HLK-PM01" package="HLK-PM01" override_package3d_urn="urn:adsk.eagle:package:35659863/2" override_package_urn="urn:adsk.eagle:footprint:35659865/1" value="HLK-PM013W" x="20.32" y="19.05" smashed="yes" rot="MR0">
<attribute name="NAME" x="35.56" y="26.67" size="1.27" layer="22" rot="MR0"/>
</element>
<element name="-/+/SA/SB/M1/M1/M2/M2" library="con-lstb" library_urn="urn:adsk.eagle:library:162" package="MA08-1" package3d_urn="urn:adsk.eagle:package:8343/1" value="" x="25.6" y="39.4" smashed="yes">
<attribute name="MF" value="" x="25.6" y="39.4" size="1.778" layer="27" display="off"/>
<attribute name="MPN" value="" x="25.6" y="39.4" size="1.778" layer="27" display="off"/>
<attribute name="NAME" x="15.64" y="40.651" size="1.27" layer="25" ratio="10"/>
<attribute name="OC_FARNELL" value="unknown" x="25.6" y="39.4" size="1.778" layer="27" display="off"/>
<attribute name="OC_NEWARK" value="unknown" x="25.6" y="39.4" size="1.778" layer="27" display="off"/>
<attribute name="POPULARITY" value="10" x="25.6" y="39.4" size="1.778" layer="27" display="off"/>
<attribute name="VALUE" x="24.33" y="36.479" size="1.27" layer="27" ratio="10"/>
</element>
</elements>
<signals>
<signal name="VCC33">
<contactref element="IC2" pad="2"/>
<contactref element="U$1" pad="8"/>
<contactref element="U$1" pad="3"/>
<contactref element="IC1" pad="10"/>
<contactref element="G0-TX-RX/-/+" pad="5"/>
<contactref element="IC1" pad="5"/>
<contactref element="IC1" pad="6"/>
<contactref element="-/+/SA/SB/M1/M1/M2/M2" pad="2"/>
<wire x1="34" y1="31" x2="34.75" y2="31.75" width="0.381" layer="1"/>
<wire x1="34" y1="30.5" x2="34" y2="31" width="0.381" layer="1"/>
<wire x1="26.5" y1="23" x2="34" y2="30.5" width="0.381" layer="16"/>
<wire x1="25.5" y1="23" x2="26.5" y2="23" width="0.381" layer="16"/>
<wire x1="25.5" y1="23" x2="25.4" y2="22.86" width="0.381" layer="16"/>
<wire x1="25.25" y1="23" x2="23" y2="23" width="0.381" layer="16"/>
<wire x1="23" y1="23" x2="22.86" y2="22.86" width="0.381" layer="16"/>
<wire x1="25.25" y1="23" x2="25.4" y2="22.86" width="0.381" layer="16"/>
<wire x1="25.5" y1="33.25" x2="27.75" y2="35.5" width="0.381" layer="1"/>
<wire x1="25.5" y1="23" x2="25.5" y2="33.25" width="0.381" layer="1"/>
<wire x1="27.75" y1="35.5" x2="27.94" y2="35.56" width="0.381" layer="1"/>
<wire x1="25.5" y1="23" x2="25.4" y2="22.86" width="0.381" layer="1"/>
<wire x1="29.75" y1="9.75" x2="27.25" y2="7.25" width="0.381" layer="1"/>
<wire x1="29.75" y1="12" x2="29.75" y2="9.75" width="0.381" layer="1"/>
<wire x1="31.75" y1="14" x2="29.75" y2="12" width="0.381" layer="1"/>
<wire x1="27.25" y1="7.25" x2="27.05" y2="7.16" width="0.381" layer="1"/>
<wire x1="31.75" y1="14" x2="31.75" y2="13.97" width="0.381" layer="1"/>
<wire x1="31.5" y1="17" x2="27.25" y2="17" width="0.381" layer="1"/>
<wire x1="31.5" y1="14" x2="31.5" y2="17" width="0.381" layer="1"/>
<wire x1="27.25" y1="17" x2="27.05" y2="17.16" width="0.381" layer="1"/>
<wire x1="31.5" y1="14" x2="31.75" y2="13.97" width="0.381" layer="1"/>
<wire x1="19" y1="39" x2="19.25" y2="39.25" width="0.381" layer="1"/>
<wire x1="19" y1="14.25" x2="19" y2="39" width="0.381" layer="1"/>
<wire x1="26" y1="7.25" x2="19" y2="14.25" width="0.381" layer="1"/>
<wire x1="27" y1="7.25" x2="26" y2="7.25" width="0.381" layer="1"/>
<wire x1="19.25" y1="39.25" x2="19.25" y2="39.4" width="0.381" layer="1"/>
<wire x1="27" y1="7.25" x2="27.05" y2="7.16" width="0.381" layer="1"/>
<wire x1="27" y1="21.25" x2="25.5" y2="22.75" width="0.381" layer="1"/>
<wire x1="27" y1="17.25" x2="27" y2="21.25" width="0.381" layer="1"/>
<wire x1="25.5" y1="22.75" x2="25.4" y2="22.86" width="0.381" layer="1"/>
<wire x1="27" y1="17.25" x2="27.05" y2="17.16" width="0.381" layer="1"/>
<via x="34" y="30.5" extent="1-16" drill="0.35"/>
</signal>
<signal name="GND">
<contactref element="U$1" pad="15"/>
<contactref element="U$1" pad="16"/>
<contactref element="IC2" pad="1"/>
<contactref element="IC1" pad="9"/>
<contactref element="C1" pad="-"/>
<contactref element="IC1" pad="15"/>
<contactref element="S1" pad="2"/>
<contactref element="G0-TX-RX/-/+" pad="4"/>
<contactref element="HLK1" pad="P$3"/>
<contactref element="-/+/SA/SB/M1/M1/M2/M2" pad="1"/>
<wire x1="38" y1="5.75" x2="40.5" y2="3.25" width="0.381" layer="1"/>
<wire x1="38" y1="10" x2="38" y2="5.75" width="0.381" layer="1"/>
<wire x1="40.5" y1="3.25" x2="40.622303125" y2="3.156921875" width="0.381" layer="1"/>
<wire x1="38" y1="10" x2="37.94" y2="10.16" width="0.381" layer="1"/>
<wire x1="37.75" y1="11.25" x2="33.75" y2="11.25" width="0.381" layer="1"/>
<wire x1="33.75" y1="11.25" x2="31.75" y2="11.25" width="0.381" layer="1"/>
<wire x1="37.75" y1="10.25" x2="37.75" y2="11.25" width="0.381" layer="1"/>
<wire x1="31.75" y1="11.25" x2="31.75" y2="11.43" width="0.381" layer="1"/>
<wire x1="37.75" y1="10.25" x2="37.94" y2="10.16" width="0.381" layer="1"/>
<wire x1="35.75" y1="33" x2="34.75" y2="34" width="0.381" layer="1"/>
<wire x1="35.75" y1="28.75" x2="35.75" y2="33" width="0.381" layer="1"/>
<wire x1="35.5" y1="28.5" x2="35.75" y2="28.75" width="0.381" layer="1"/>
<wire x1="30.5" y1="28.5" x2="33.75" y2="28.5" width="0.381" layer="1"/>
<wire x1="33.75" y1="28.5" x2="35.5" y2="28.5" width="0.381" layer="1"/>
<wire x1="30.5" y1="35.5" x2="30.5" y2="28.5" width="0.381" layer="1"/>
<wire x1="34.75" y1="34" x2="34.75" y2="34.04" width="0.381" layer="1"/>
<wire x1="30.5" y1="35.5" x2="30.48" y2="35.56" width="0.381" layer="1"/>
<wire x1="11" y1="17" x2="11" y2="15.25" width="0.381" layer="1"/>
<wire x1="11" y1="15.25" x2="10.85" y2="15.16" width="0.381" layer="1"/>
<wire x1="11" y1="17" x2="10.85" y2="17.16" width="0.381" layer="1"/>
<wire x1="11.5" y1="17.75" x2="11" y2="17.25" width="0.381" layer="1"/>
<wire x1="11.5" y1="32" x2="11.5" y2="17.75" width="0.381" layer="1"/>
<wire x1="15" y1="35.5" x2="11.5" y2="32" width="0.381" layer="1"/>
<wire x1="11" y1="17.25" x2="10.85" y2="17.16" width="0.381" layer="1"/>
<wire x1="15" y1="35.5" x2="15.24" y2="35.56" width="0.381" layer="1"/>
<wire x1="5.75" y1="31" x2="5.75" y2="26.75" width="0.381" layer="16"/>
<wire x1="11.5" y1="36.75" x2="5.75" y2="31" width="0.381" layer="16"/>
<wire x1="14" y1="36.75" x2="11.5" y2="36.75" width="0.381" layer="16"/>
<wire x1="15" y1="35.75" x2="14" y2="36.75" width="0.381" layer="16"/>
<wire x1="5.75" y1="26.75" x2="5.62" y2="26.75" width="0.381" layer="16"/>
<wire x1="15" y1="35.75" x2="15.24" y2="35.56" width="0.381" layer="16"/>
<wire x1="14" y1="36.75" x2="14.875" y2="37.625" width="0.381" layer="16"/>
<wire x1="14.875" y1="37.625" x2="16.5" y2="39.25" width="0.381" layer="16"/>
<wire x1="16.5" y1="39.25" x2="16.71" y2="39.4" width="0.381" layer="16"/>
<wire x1="28.5" y1="37.5" x2="30.25" y2="35.75" width="0.381" layer="16"/>
<wire x1="15" y1="37.5" x2="28.5" y2="37.5" width="0.381" layer="16"/>
<wire x1="30.25" y1="35.75" x2="30.48" y2="35.56" width="0.381" layer="16"/>
<wire x1="15" y1="37.5" x2="14.875" y2="37.625" width="0.381" layer="16"/>
<wire x1="33.75" y1="28.5" x2="33.75" y2="11.25" width="0.381" layer="1"/>
</signal>
<signal name="VCC">
<contactref element="IC2" pad="3"/>
<contactref element="IC1" pad="16"/>
<contactref element="C1" pad="+"/>
<contactref element="HLK1" pad="P$4"/>
<wire x1="9.5" y1="15.25" x2="5.75" y2="11.5" width="0.381" layer="1"/>
<wire x1="9.5" y1="32.5" x2="9.5" y2="15.25" width="0.381" layer="1"/>
<wire x1="12.5" y1="35.5" x2="9.5" y2="32.5" width="0.381" layer="1"/>
<wire x1="5.75" y1="11.5" x2="5.62" y2="11.35" width="0.381" layer="1"/>
<wire x1="12.5" y1="35.5" x2="12.7" y2="35.56" width="0.381" layer="1"/>
<wire x1="33.25" y1="29.5" x2="34.75" y2="29.5" width="0.381" layer="1"/>
<wire x1="33.25" y1="34.25" x2="33.25" y2="32.75" width="0.381" layer="1"/>
<wire x1="33.25" y1="32.75" x2="33.25" y2="29.5" width="0.381" layer="1"/>
<wire x1="34" y1="35" x2="33.25" y2="34.25" width="0.381" layer="1"/>
<wire x1="40.25" y1="35" x2="34" y2="35" width="0.381" layer="1"/>
<wire x1="40.25" y1="13.25" x2="40.25" y2="35" width="0.381" layer="1"/>
<wire x1="43.34" y1="10.16" x2="40.25" y2="13.25" width="0.381" layer="1"/>
<wire x1="34.75" y1="29.5" x2="34.75" y2="29.46" width="0.381" layer="1"/>
<wire x1="15.5" y1="32.75" x2="12.75" y2="35.5" width="0.381" layer="16"/>
<wire x1="33.25" y1="32.75" x2="15.5" y2="32.75" width="0.381" layer="16"/>
<wire x1="12.75" y1="35.5" x2="12.7" y2="35.56" width="0.381" layer="16"/>
<via x="33.25" y="32.75" extent="1-16" drill="0.35"/>
</signal>
<signal name="DIR">
<contactref element="U$1" pad="19"/>
<contactref element="IC1" pad="8"/>
<wire x1="20" y1="9.25" x2="11" y2="9.25" width="0.381" layer="1"/>
<wire x1="30.25" y1="19.5" x2="20" y2="9.25" width="0.381" layer="16"/>
<wire x1="30.25" y1="22.75" x2="30.25" y2="19.5" width="0.381" layer="16"/>
<wire x1="11" y1="9.25" x2="10.85" y2="9.16" width="0.381" layer="1"/>
<wire x1="30.25" y1="22.75" x2="30.48" y2="22.86" width="0.381" layer="16"/>
<via x="20" y="9.25" extent="1-16" drill="0.35"/>
</signal>
<signal name="STEP">
<contactref element="U$1" pad="20"/>
<contactref element="IC1" pad="7"/>
<wire x1="18" y1="7.25" x2="11" y2="7.25" width="0.381" layer="1"/>
<wire x1="18" y1="8.5" x2="18" y2="7.25" width="0.381" layer="1"/>
<wire x1="27.75" y1="18.25" x2="18" y2="8.5" width="0.381" layer="16"/>
<wire x1="27.75" y1="22.75" x2="27.75" y2="18.25" width="0.381" layer="16"/>
<wire x1="11" y1="7.25" x2="10.85" y2="7.16" width="0.381" layer="1"/>
<wire x1="27.75" y1="22.75" x2="27.94" y2="22.86" width="0.381" layer="16"/>
<via x="18" y="8.5" extent="1-16" drill="0.35"/>
</signal>
<signal name="N$2">
<contactref element="IC1" pad="14"/>
<contactref element="-/+/SA/SB/M1/M1/M2/M2" pad="8"/>
<wire x1="20" y1="33.5" x2="18" y2="35.5" width="0.381" layer="16"/>
<wire x1="31" y1="33.5" x2="20" y2="33.5" width="0.381" layer="16"/>
<wire x1="34.25" y1="36.75" x2="31" y2="33.5" width="0.381" layer="16"/>
<wire x1="34.25" y1="39.25" x2="34.25" y2="36.75" width="0.381" layer="16"/>
<wire x1="18" y1="35.5" x2="17.78" y2="35.56" width="0.381" layer="16"/>
<wire x1="34.25" y1="39.25" x2="34.49" y2="39.4" width="0.381" layer="16"/>
</signal>
<signal name="N$3">
<contactref element="IC1" pad="13"/>
<contactref element="-/+/SA/SB/M1/M1/M2/M2" pad="7"/>
<wire x1="21.75" y1="34.25" x2="20.5" y2="35.5" width="0.381" layer="16"/>
<wire x1="30.75" y1="34.25" x2="21.75" y2="34.25" width="0.381" layer="16"/>
<wire x1="31.75" y1="35.25" x2="30.75" y2="34.25" width="0.381" layer="16"/>
<wire x1="31.75" y1="39.25" x2="31.75" y2="35.25" width="0.381" layer="16"/>
<wire x1="20.5" y1="35.5" x2="20.32" y2="35.56" width="0.381" layer="16"/>
<wire x1="31.75" y1="39.25" x2="31.95" y2="39.4" width="0.381" layer="16"/>
</signal>
<signal name="N$4">
<contactref element="IC1" pad="12"/>
<contactref element="-/+/SA/SB/M1/M1/M2/M2" pad="6"/>
<wire x1="23" y1="40.5" x2="23" y2="35.75" width="0.381" layer="1"/>
<wire x1="24" y1="41.5" x2="23" y2="40.5" width="0.381" layer="1"/>
<wire x1="29.25" y1="41.5" x2="24" y2="41.5" width="0.381" layer="1"/>
<wire x1="29.25" y1="39.5" x2="29.25" y2="41.5" width="0.381" layer="1"/>
<wire x1="23" y1="35.75" x2="22.86" y2="35.56" width="0.381" layer="1"/>
<wire x1="29.25" y1="39.5" x2="29.41" y2="39.4" width="0.381" layer="1"/>
</signal>
<signal name="N$5">
<contactref element="IC1" pad="11"/>
<contactref element="-/+/SA/SB/M1/M1/M2/M2" pad="5"/>
<wire x1="26.75" y1="37" x2="25.5" y2="35.75" width="0.381" layer="1"/>
<wire x1="26.75" y1="39.25" x2="26.75" y2="37" width="0.381" layer="1"/>
<wire x1="25.5" y1="35.75" x2="25.4" y2="35.56" width="0.381" layer="1"/>
<wire x1="26.75" y1="39.25" x2="26.87" y2="39.4" width="0.381" layer="1"/>
</signal>
<signal name="SENSOR_A">
<contactref element="U$1" pad="6"/>
<contactref element="-/+/SA/SB/M1/M1/M2/M2" pad="4"/>
<wire x1="25" y1="13.25" x2="27" y2="13.25" width="0.381" layer="1"/>
<wire x1="25" y1="21.5" x2="25" y2="13.25" width="0.381" layer="1"/>
<wire x1="24.25" y1="22.25" x2="25" y2="21.5" width="0.381" layer="1"/>
<wire x1="24.25" y1="39.25" x2="24.25" y2="22.25" width="0.381" layer="1"/>
<wire x1="27" y1="13.25" x2="27.05" y2="13.16" width="0.381" layer="1"/>
<wire x1="24.25" y1="39.25" x2="24.33" y2="39.4" width="0.381" layer="1"/>
</signal>
<signal name="SENSOR_B">
<contactref element="U$1" pad="5"/>
<contactref element="-/+/SA/SB/M1/M1/M2/M2" pad="3"/>
<wire x1="23" y1="11.25" x2="27" y2="11.25" width="0.381" layer="1"/>
<wire x1="23" y1="21" x2="23" y2="11.25" width="0.381" layer="1"/>
<wire x1="21.75" y1="22.25" x2="23" y2="21" width="0.381" layer="1"/>
<wire x1="21.75" y1="39.25" x2="21.75" y2="22.25" width="0.381" layer="1"/>
<wire x1="27" y1="11.25" x2="27.05" y2="11.16" width="0.381" layer="1"/>
<wire x1="21.75" y1="39.25" x2="21.79" y2="39.4" width="0.381" layer="1"/>
</signal>
<signal name="G0">
<contactref element="U$1" pad="18"/>
<contactref element="S1" pad="1"/>
<contactref element="G0-TX-RX/-/+" pad="1"/>
<wire x1="14.25" y1="11" x2="11" y2="11" width="0.381" layer="1"/>
<wire x1="21.25" y1="4" x2="14.25" y2="11" width="0.381" layer="16"/>
<wire x1="31.75" y1="4" x2="21.25" y2="4" width="0.381" layer="16"/>
<wire x1="11" y1="11" x2="10.85" y2="11.16" width="0.381" layer="1"/>
<wire x1="31.75" y1="4" x2="31.75" y2="3.81" width="0.381" layer="16"/>
<wire x1="31.75" y1="3.25" x2="35.5" y2="-0.5" width="0.381" layer="1"/>
<wire x1="31.75" y1="3.81" x2="31.75" y2="3.25" width="0.381" layer="1"/>
<wire x1="35.5" y1="-0.5" x2="35.57769375" y2="-0.616921875" width="0.381" layer="1"/>
<via x="14.25" y="11" extent="1-16" drill="0.35"/>
</signal>
<signal name="TX">
<contactref element="U$1" pad="22"/>
<contactref element="G0-TX-RX/-/+" pad="2"/>
<wire x1="25.5" y1="3.25" x2="11" y2="3.25" width="0.381" layer="1"/>
<wire x1="25.5" y1="4.75" x2="25.5" y2="3.25" width="0.381" layer="1"/>
<wire x1="27" y1="6.25" x2="25.5" y2="4.75" width="0.381" layer="16"/>
<wire x1="31.75" y1="6.25" x2="27" y2="6.25" width="0.381" layer="16"/>
<wire x1="11" y1="3.25" x2="10.85" y2="3.16" width="0.381" layer="1"/>
<wire x1="31.75" y1="6.25" x2="31.75" y2="6.35" width="0.381" layer="16"/>
<via x="25.5" y="4.75" extent="1-16" drill="0.35"/>
</signal>
<signal name="RX">
<contactref element="U$1" pad="21"/>
<contactref element="G0-TX-RX/-/+" pad="3"/>
<wire x1="24" y1="5.25" x2="11" y2="5.25" width="0.381" layer="1"/>
<wire x1="27.5" y1="8.75" x2="24" y2="5.25" width="0.381" layer="16"/>
<wire x1="31.75" y1="8.75" x2="27.5" y2="8.75" width="0.381" layer="16"/>
<wire x1="11" y1="5.25" x2="10.85" y2="5.16" width="0.381" layer="1"/>
<wire x1="31.75" y1="8.75" x2="31.75" y2="8.89" width="0.381" layer="16"/>
<via x="24" y="5.25" extent="1-16" drill="0.35"/>
</signal>
<signal name="N$6">
<contactref element="X1" pad="1"/>
<contactref element="HLK1" pad="P$1"/>
<wire x1="45.5" y1="21.75" x2="35.25" y2="21.75" width="0.381" layer="16"/>
<wire x1="35.25" y1="21.75" x2="35.02" y2="21.55" width="0.381" layer="16"/>
<wire x1="45.5" y1="21.75" x2="45.72" y2="21.55" width="0.381" layer="16"/>
</signal>
<signal name="N$7">
<contactref element="X1" pad="2"/>
<contactref element="HLK1" pad="P$2"/>
<wire x1="45.5" y1="16.75" x2="35.25" y2="16.75" width="0.381" layer="16"/>
<wire x1="35.25" y1="16.75" x2="35.02" y2="16.55" width="0.381" layer="16"/>
<wire x1="45.5" y1="16.75" x2="45.72" y2="16.55" width="0.381" layer="16"/>
</signal>
</signals>
<mfgpreviewcolors>
<mfgpreviewcolor name="soldermaskcolor" color="0xC8008000"/>
<mfgpreviewcolor name="silkscreencolor" color="0xFFFEFEFE"/>
<mfgpreviewcolor name="backgroundcolor" color="0xFF282828"/>
<mfgpreviewcolor name="coppercolor" color="0xFFFFBF00"/>
<mfgpreviewcolor name="substratecolor" color="0xFF786E46"/>
</mfgpreviewcolors>
</board>
</drawing>
<compatibility>
<note version="8.2" severity="warning">
Since Version 8.2, EAGLE supports online libraries. The ids
of those online libraries will not be understood (or retained)
with this version.
</note>
<note version="8.3" severity="warning">
Since Version 8.3, EAGLE supports Fusion synchronisation.
This feature will not be available in this version and saving
the document will break the link to the Fusion PCB feature.
</note>
<note version="8.3" severity="warning">
Since Version 8.3, EAGLE supports URNs for individual library
assets (packages, symbols, and devices). The URNs of those assets
will not be understood (or retained) with this version.
</note>
<note version="8.3" severity="warning">
Since Version 8.3, EAGLE supports the association of 3D packages
with devices in libraries, schematics, and board files. Those 3D
packages will not be understood (or retained) with this version.
</note>
<note version="9.4" severity="warning">
Since Version 9.4, EAGLE supports the overriding of 3D packages
in schematics and board files. Those overridden 3d packages
will not be understood (or retained) with this version.
</note>
</compatibility>
</eagle>
