G04 EAGLE Gerber RS-274X export*
G75*
%MOMM*%
%FSLAX34Y34*%
%LPD*%
%INBottom Copper*%
%IPPOS*%
%AMOC8*
5,1,8,0,0,1.08239X$1,22.5*%
G01*
%ADD10C,1.778000*%
%ADD11P,1.539592X8X292.500000*%
%ADD12R,1.524000X1.524000*%
%ADD13C,1.524000*%
%ADD14R,1.300000X0.950000*%
%ADD15R,1.300000X3.250000*%
%ADD16R,2.500000X2.000000*%
%ADD17C,1.508000*%
%ADD18C,1.790700*%
%ADD19R,1.000000X1.400000*%
%ADD20P,2.336880X8X80.200000*%
%ADD21R,1.500000X0.900000*%
%ADD22C,0.482600*%
%ADD23C,0.756400*%


D10*
X40331Y19093D03*
X65731Y19093D03*
X91131Y19093D03*
X116531Y19093D03*
D11*
X302285Y206223D03*
X302285Y180823D03*
D12*
X188131Y344333D03*
X238131Y344333D03*
X136131Y50333D03*
X290131Y50333D03*
D13*
X244881Y140691D02*
X229641Y140691D01*
X229641Y166091D02*
X244881Y166091D01*
X411251Y260213D02*
X426491Y260213D01*
X350291Y260213D02*
X335051Y260213D01*
X411251Y158613D02*
X426491Y158613D01*
X426491Y133213D02*
X411251Y133213D01*
X350291Y133213D02*
X335051Y133213D01*
X335051Y158613D02*
X350291Y158613D01*
D14*
X166207Y226771D03*
X166207Y203871D03*
X166207Y180971D03*
D15*
X99207Y203871D03*
D16*
X253263Y61951D03*
X222783Y61951D03*
X253263Y92939D03*
X222783Y92939D03*
X125571Y137873D03*
X156051Y137873D03*
D17*
X141757Y295377D03*
X192557Y295377D03*
X192557Y22327D03*
X243357Y22327D03*
X294157Y22327D03*
D13*
X245389Y344907D02*
X230149Y344907D01*
X230149Y319507D02*
X245389Y319507D01*
X245389Y294107D02*
X230149Y294107D01*
D18*
X77745Y303633D02*
X59838Y303633D01*
X59838Y353633D02*
X77745Y353633D01*
X359838Y358033D02*
X377745Y358033D01*
X377745Y308033D02*
X359838Y308033D01*
D19*
X252091Y245833D03*
X242591Y223833D03*
X261591Y223833D03*
D20*
X391719Y21351D03*
X426464Y76314D03*
D21*
X392591Y89333D03*
X392591Y56333D03*
X343591Y56333D03*
X343591Y89333D03*
D10*
X493391Y19093D03*
X518791Y19093D03*
X544191Y19093D03*
X569591Y19093D03*
D11*
X755345Y206223D03*
X755345Y180823D03*
D12*
X641191Y344333D03*
X691191Y344333D03*
X589191Y50333D03*
X743191Y50333D03*
D13*
X697941Y140691D02*
X682701Y140691D01*
X682701Y166091D02*
X697941Y166091D01*
X864311Y260213D02*
X879551Y260213D01*
X803351Y260213D02*
X788111Y260213D01*
X864311Y158613D02*
X879551Y158613D01*
X879551Y133213D02*
X864311Y133213D01*
X803351Y133213D02*
X788111Y133213D01*
X788111Y158613D02*
X803351Y158613D01*
D14*
X619267Y226771D03*
X619267Y203871D03*
X619267Y180971D03*
D15*
X552267Y203871D03*
D16*
X706323Y61951D03*
X675843Y61951D03*
X706323Y92939D03*
X675843Y92939D03*
X578631Y137873D03*
X609111Y137873D03*
D17*
X594817Y295377D03*
X645617Y295377D03*
X645617Y22327D03*
X696417Y22327D03*
X747217Y22327D03*
D13*
X698449Y344907D02*
X683209Y344907D01*
X683209Y319507D02*
X698449Y319507D01*
X698449Y294107D02*
X683209Y294107D01*
D18*
X530805Y303633D02*
X512898Y303633D01*
X512898Y353633D02*
X530805Y353633D01*
X812898Y358033D02*
X830805Y358033D01*
X830805Y308033D02*
X812898Y308033D01*
D19*
X705151Y245833D03*
X695651Y223833D03*
X714651Y223833D03*
D20*
X844778Y21351D03*
X879524Y76314D03*
D21*
X845651Y89333D03*
X845651Y56333D03*
X796651Y56333D03*
X796651Y89333D03*
D10*
X40331Y412335D03*
X65731Y412335D03*
X91131Y412335D03*
X116531Y412335D03*
D11*
X302285Y599465D03*
X302285Y574065D03*
D12*
X188131Y737575D03*
X238131Y737575D03*
X136131Y443575D03*
X290131Y443575D03*
D13*
X244881Y533933D02*
X229641Y533933D01*
X229641Y559333D02*
X244881Y559333D01*
X411251Y653455D02*
X426491Y653455D01*
X350291Y653455D02*
X335051Y653455D01*
X411251Y551855D02*
X426491Y551855D01*
X426491Y526455D02*
X411251Y526455D01*
X350291Y526455D02*
X335051Y526455D01*
X335051Y551855D02*
X350291Y551855D01*
D14*
X166207Y620013D03*
X166207Y597113D03*
X166207Y574213D03*
D15*
X99207Y597113D03*
D16*
X253263Y455193D03*
X222783Y455193D03*
X253263Y486181D03*
X222783Y486181D03*
X125571Y531115D03*
X156051Y531115D03*
D17*
X141757Y688619D03*
X192557Y688619D03*
X192557Y415569D03*
X243357Y415569D03*
X294157Y415569D03*
D13*
X245389Y738149D02*
X230149Y738149D01*
X230149Y712749D02*
X245389Y712749D01*
X245389Y687349D02*
X230149Y687349D01*
D18*
X77745Y696875D02*
X59838Y696875D01*
X59838Y746875D02*
X77745Y746875D01*
X359838Y751275D02*
X377745Y751275D01*
X377745Y701275D02*
X359838Y701275D01*
D19*
X252091Y639075D03*
X242591Y617075D03*
X261591Y617075D03*
D20*
X391719Y414594D03*
X426464Y469557D03*
D21*
X392591Y482575D03*
X392591Y449575D03*
X343591Y449575D03*
X343591Y482575D03*
D10*
X493391Y412335D03*
X518791Y412335D03*
X544191Y412335D03*
X569591Y412335D03*
D11*
X755345Y599465D03*
X755345Y574065D03*
D12*
X641191Y737575D03*
X691191Y737575D03*
X589191Y443575D03*
X743191Y443575D03*
D13*
X697941Y533933D02*
X682701Y533933D01*
X682701Y559333D02*
X697941Y559333D01*
X864311Y653455D02*
X879551Y653455D01*
X803351Y653455D02*
X788111Y653455D01*
X864311Y551855D02*
X879551Y551855D01*
X879551Y526455D02*
X864311Y526455D01*
X803351Y526455D02*
X788111Y526455D01*
X788111Y551855D02*
X803351Y551855D01*
D14*
X619267Y620013D03*
X619267Y597113D03*
X619267Y574213D03*
D15*
X552267Y597113D03*
D16*
X706323Y455193D03*
X675843Y455193D03*
X706323Y486181D03*
X675843Y486181D03*
X578631Y531115D03*
X609111Y531115D03*
D17*
X594817Y688619D03*
X645617Y688619D03*
X645617Y415569D03*
X696417Y415569D03*
X747217Y415569D03*
D13*
X698449Y738149D02*
X683209Y738149D01*
X683209Y712749D02*
X698449Y712749D01*
X698449Y687349D02*
X683209Y687349D01*
D18*
X530805Y696875D02*
X512898Y696875D01*
X512898Y746875D02*
X530805Y746875D01*
X812898Y751275D02*
X830805Y751275D01*
X830805Y701275D02*
X812898Y701275D01*
D19*
X705151Y639075D03*
X695651Y617075D03*
X714651Y617075D03*
D20*
X844778Y414594D03*
X879524Y469557D03*
D21*
X845651Y482575D03*
X845651Y449575D03*
X796651Y449575D03*
X796651Y482575D03*
D22*
X226466Y178283D02*
X169316Y178283D01*
X226466Y178283D02*
X235991Y168758D01*
X237261Y166091D01*
X115341Y25883D02*
X115341Y19533D01*
X113754Y27470D02*
X61366Y79858D01*
X113754Y27470D02*
X115341Y25883D01*
X61366Y79858D02*
X61366Y86208D01*
X86766Y111608D01*
X166141Y111608D01*
X172491Y117958D01*
X172491Y162408D01*
X169316Y165583D01*
X169316Y178283D01*
X115341Y19533D02*
X116531Y19093D01*
X169316Y178283D02*
X166207Y180971D01*
X394741Y86208D02*
X413791Y86208D01*
X423316Y76683D01*
X394741Y86208D02*
X392591Y89333D01*
X423316Y76683D02*
X426464Y76314D01*
X394741Y133833D02*
X416966Y156058D01*
X394741Y133833D02*
X394741Y89383D01*
X416966Y156058D02*
X418871Y158613D01*
X394741Y89383D02*
X392591Y89333D01*
X178841Y29058D02*
X115341Y29058D01*
X178841Y29058D02*
X185191Y35408D01*
X115341Y29058D02*
X113754Y27470D01*
D23*
X185191Y35408D03*
D22*
X169316Y225908D02*
X242341Y225908D01*
X169316Y225908D02*
X166207Y226771D01*
X242341Y225908D02*
X242591Y223833D01*
X166141Y225908D02*
X153441Y225908D01*
X166141Y225908D02*
X166207Y226771D01*
X245516Y222733D02*
X251866Y216383D01*
X251866Y213208D01*
X282029Y183045D02*
X283616Y181458D01*
X282029Y183045D02*
X251866Y213208D01*
X283616Y181458D02*
X299491Y181458D01*
X245516Y222733D02*
X242591Y223833D01*
X299491Y181458D02*
X302285Y180823D01*
X315366Y57633D02*
X340766Y57633D01*
X315366Y57633D02*
X280441Y92558D01*
X255041Y92558D01*
X340766Y57633D02*
X343591Y56333D01*
X255041Y92558D02*
X253263Y92939D01*
X251866Y95733D02*
X251866Y127483D01*
X239166Y140183D01*
X251866Y95733D02*
X253263Y92939D01*
X194716Y98908D02*
X194716Y22708D01*
X194716Y98908D02*
X235991Y140183D01*
X194716Y22708D02*
X192557Y22327D01*
X235991Y140183D02*
X237261Y140691D01*
X239166Y140183D02*
X282029Y183045D01*
X239166Y140183D02*
X237261Y140691D01*
D23*
X153441Y225908D03*
D22*
X55016Y235433D02*
X55016Y98908D01*
X42316Y86208D01*
X42316Y19533D01*
X40331Y19093D01*
D23*
X55016Y235433D03*
D22*
X64541Y238608D02*
X58191Y244958D01*
X64541Y238608D02*
X64541Y98908D01*
X55016Y89383D01*
X55016Y29058D01*
X64541Y19533D01*
X65731Y19093D01*
D23*
X58191Y244958D03*
D22*
X264566Y73508D02*
X286791Y73508D01*
X264566Y73508D02*
X255041Y63983D01*
X253263Y61951D01*
D23*
X286791Y73508D03*
D22*
X178841Y114783D02*
X147091Y83033D01*
X178841Y114783D02*
X178841Y168758D01*
X213766Y168758D01*
D23*
X147091Y83033D03*
X178841Y168758D03*
X213766Y168758D03*
D22*
X213766Y203683D02*
X185191Y203683D01*
X172491Y190983D01*
X156616Y190983D01*
X93116Y238608D02*
X93116Y267183D01*
X115341Y289408D01*
D23*
X213766Y203683D03*
X156616Y190983D03*
X93116Y238608D03*
X115341Y289408D03*
D22*
X134391Y83033D02*
X70891Y83033D01*
X134391Y83033D02*
X143916Y73508D01*
X182016Y73508D01*
X185191Y76683D01*
X207416Y76683D02*
X220116Y63983D01*
X222783Y61951D01*
X220116Y86208D02*
X220116Y92558D01*
X220116Y86208D02*
X210591Y76683D01*
X220116Y92558D02*
X222783Y92939D01*
X210591Y76683D02*
X207416Y76683D01*
D23*
X70891Y83033D03*
X185191Y76683D03*
X207416Y76683D03*
D22*
X166141Y203683D02*
X156616Y203683D01*
X148679Y195745D02*
X128041Y175108D01*
X148679Y195745D02*
X156616Y203683D01*
X128041Y175108D02*
X128041Y140183D01*
X166141Y203683D02*
X166207Y203871D01*
X128041Y140183D02*
X125571Y137873D01*
X143916Y121133D02*
X162966Y121133D01*
X143916Y121133D02*
X128041Y137008D01*
X125571Y137873D01*
X258216Y279883D02*
X280441Y279883D01*
X258216Y279883D02*
X242341Y264008D01*
X112166Y264008D01*
X99466Y251308D01*
X99466Y244958D01*
X148679Y195745D01*
X124866Y137008D02*
X108991Y121133D01*
X124866Y137008D02*
X125571Y137873D01*
D23*
X162966Y121133D03*
X280441Y279883D03*
X108991Y121133D03*
D22*
X140741Y152883D02*
X153441Y140183D01*
X156051Y137873D01*
D23*
X140741Y152883D03*
D22*
X235991Y295758D02*
X188366Y343383D01*
X235991Y295758D02*
X237769Y294107D01*
X188366Y343383D02*
X188131Y344333D01*
X299491Y356083D02*
X366166Y356083D01*
X299491Y356083D02*
X239166Y295758D01*
X366166Y356083D02*
X368791Y358033D01*
X239166Y295758D02*
X237769Y294107D01*
X134391Y352908D02*
X70891Y352908D01*
X134391Y352908D02*
X191541Y295758D01*
X70891Y352908D02*
X68791Y353633D01*
X191541Y295758D02*
X192557Y295377D01*
X261391Y254483D02*
X261391Y225908D01*
X261391Y254483D02*
X258216Y257658D01*
X118516Y257658D01*
X108991Y248133D01*
X261391Y225908D02*
X261591Y223833D01*
D23*
X108991Y248133D03*
D22*
X159791Y244958D02*
X251866Y244958D01*
X159791Y244958D02*
X143916Y229083D01*
X143916Y222733D01*
X153441Y213208D01*
X229641Y213208D01*
X264566Y178283D01*
X264566Y149708D02*
X347116Y67158D01*
X353466Y67158D01*
X391566Y29058D01*
X391566Y22708D01*
X251866Y244958D02*
X252091Y245833D01*
X391566Y22708D02*
X391719Y21351D01*
D23*
X264566Y178283D03*
X264566Y149708D03*
D22*
X340766Y108433D02*
X340766Y89383D01*
X340766Y108433D02*
X315366Y133833D01*
X315366Y257658D01*
X283616Y289408D01*
X258216Y289408D01*
X248691Y279883D01*
X118516Y279883D01*
X340766Y89383D02*
X343591Y89333D01*
D23*
X118516Y279883D03*
D22*
X622376Y178283D02*
X679526Y178283D01*
X689051Y168758D01*
X690321Y166091D01*
X568401Y25883D02*
X568401Y19533D01*
X566814Y27470D02*
X514426Y79858D01*
X566814Y27470D02*
X568401Y25883D01*
X514426Y79858D02*
X514426Y86208D01*
X539826Y111608D01*
X619201Y111608D01*
X625551Y117958D01*
X625551Y162408D01*
X622376Y165583D01*
X622376Y178283D01*
X568401Y19533D02*
X569591Y19093D01*
X622376Y178283D02*
X619267Y180971D01*
X847801Y86208D02*
X866851Y86208D01*
X876376Y76683D01*
X847801Y86208D02*
X845651Y89333D01*
X876376Y76683D02*
X879524Y76314D01*
X847801Y133833D02*
X870026Y156058D01*
X847801Y133833D02*
X847801Y89383D01*
X870026Y156058D02*
X871931Y158613D01*
X847801Y89383D02*
X845651Y89333D01*
X631901Y29058D02*
X568401Y29058D01*
X631901Y29058D02*
X638251Y35408D01*
X568401Y29058D02*
X566814Y27470D01*
D23*
X638251Y35408D03*
D22*
X622376Y225908D02*
X695401Y225908D01*
X622376Y225908D02*
X619267Y226771D01*
X695401Y225908D02*
X695651Y223833D01*
X619201Y225908D02*
X606501Y225908D01*
X619201Y225908D02*
X619267Y226771D01*
X698576Y222733D02*
X704926Y216383D01*
X704926Y213208D01*
X735089Y183045D02*
X736676Y181458D01*
X735089Y183045D02*
X704926Y213208D01*
X736676Y181458D02*
X752551Y181458D01*
X698576Y222733D02*
X695651Y223833D01*
X752551Y181458D02*
X755345Y180823D01*
X768426Y57633D02*
X793826Y57633D01*
X768426Y57633D02*
X733501Y92558D01*
X708101Y92558D01*
X793826Y57633D02*
X796651Y56333D01*
X708101Y92558D02*
X706323Y92939D01*
X704926Y95733D02*
X704926Y127483D01*
X692226Y140183D01*
X704926Y95733D02*
X706323Y92939D01*
X647776Y98908D02*
X647776Y22708D01*
X647776Y98908D02*
X689051Y140183D01*
X647776Y22708D02*
X645617Y22327D01*
X689051Y140183D02*
X690321Y140691D01*
X692226Y140183D02*
X735089Y183045D01*
X692226Y140183D02*
X690321Y140691D01*
D23*
X606501Y225908D03*
D22*
X508076Y235433D02*
X508076Y98908D01*
X495376Y86208D01*
X495376Y19533D01*
X493391Y19093D01*
D23*
X508076Y235433D03*
D22*
X517601Y238608D02*
X511251Y244958D01*
X517601Y238608D02*
X517601Y98908D01*
X508076Y89383D01*
X508076Y29058D01*
X517601Y19533D01*
X518791Y19093D01*
D23*
X511251Y244958D03*
D22*
X717626Y73508D02*
X739851Y73508D01*
X717626Y73508D02*
X708101Y63983D01*
X706323Y61951D01*
D23*
X739851Y73508D03*
D22*
X631901Y114783D02*
X600151Y83033D01*
X631901Y114783D02*
X631901Y168758D01*
X666826Y168758D01*
D23*
X600151Y83033D03*
X631901Y168758D03*
X666826Y168758D03*
D22*
X666826Y203683D02*
X638251Y203683D01*
X625551Y190983D01*
X609676Y190983D01*
X546176Y238608D02*
X546176Y267183D01*
X568401Y289408D01*
D23*
X666826Y203683D03*
X609676Y190983D03*
X546176Y238608D03*
X568401Y289408D03*
D22*
X587451Y83033D02*
X523951Y83033D01*
X587451Y83033D02*
X596976Y73508D01*
X635076Y73508D01*
X638251Y76683D01*
X660476Y76683D02*
X673176Y63983D01*
X675843Y61951D01*
X673176Y86208D02*
X673176Y92558D01*
X673176Y86208D02*
X663651Y76683D01*
X673176Y92558D02*
X675843Y92939D01*
X663651Y76683D02*
X660476Y76683D01*
D23*
X523951Y83033D03*
X638251Y76683D03*
X660476Y76683D03*
D22*
X619201Y203683D02*
X609676Y203683D01*
X601739Y195745D02*
X581101Y175108D01*
X601739Y195745D02*
X609676Y203683D01*
X581101Y175108D02*
X581101Y140183D01*
X619201Y203683D02*
X619267Y203871D01*
X581101Y140183D02*
X578631Y137873D01*
X596976Y121133D02*
X616026Y121133D01*
X596976Y121133D02*
X581101Y137008D01*
X578631Y137873D01*
X711276Y279883D02*
X733501Y279883D01*
X711276Y279883D02*
X695401Y264008D01*
X565226Y264008D01*
X552526Y251308D01*
X552526Y244958D01*
X601739Y195745D01*
X577926Y137008D02*
X562051Y121133D01*
X577926Y137008D02*
X578631Y137873D01*
D23*
X616026Y121133D03*
X733501Y279883D03*
X562051Y121133D03*
D22*
X593801Y152883D02*
X606501Y140183D01*
X609111Y137873D01*
D23*
X593801Y152883D03*
D22*
X689051Y295758D02*
X641426Y343383D01*
X689051Y295758D02*
X690829Y294107D01*
X641426Y343383D02*
X641191Y344333D01*
X752551Y356083D02*
X819226Y356083D01*
X752551Y356083D02*
X692226Y295758D01*
X819226Y356083D02*
X821851Y358033D01*
X692226Y295758D02*
X690829Y294107D01*
X587451Y352908D02*
X523951Y352908D01*
X587451Y352908D02*
X644601Y295758D01*
X523951Y352908D02*
X521851Y353633D01*
X644601Y295758D02*
X645617Y295377D01*
X714451Y254483D02*
X714451Y225908D01*
X714451Y254483D02*
X711276Y257658D01*
X571576Y257658D01*
X562051Y248133D01*
X714451Y225908D02*
X714651Y223833D01*
D23*
X562051Y248133D03*
D22*
X612851Y244958D02*
X704926Y244958D01*
X612851Y244958D02*
X596976Y229083D01*
X596976Y222733D01*
X606501Y213208D01*
X682701Y213208D01*
X717626Y178283D01*
X717626Y149708D02*
X800176Y67158D01*
X806526Y67158D01*
X844626Y29058D01*
X844626Y22708D01*
X704926Y244958D02*
X705151Y245833D01*
X844626Y22708D02*
X844778Y21351D01*
D23*
X717626Y178283D03*
X717626Y149708D03*
D22*
X793826Y108433D02*
X793826Y89383D01*
X793826Y108433D02*
X768426Y133833D01*
X768426Y257658D01*
X736676Y289408D01*
X711276Y289408D01*
X701751Y279883D01*
X571576Y279883D01*
X793826Y89383D02*
X796651Y89333D01*
D23*
X571576Y279883D03*
D22*
X226466Y571525D02*
X169316Y571525D01*
X226466Y571525D02*
X235991Y562000D01*
X237261Y559333D01*
X115341Y419125D02*
X115341Y412775D01*
X113754Y420713D02*
X61366Y473100D01*
X113754Y420713D02*
X115341Y419125D01*
X61366Y473100D02*
X61366Y479450D01*
X86766Y504850D01*
X166141Y504850D01*
X172491Y511200D01*
X172491Y555650D01*
X169316Y558825D01*
X169316Y571525D01*
X115341Y412775D02*
X116531Y412335D01*
X169316Y571525D02*
X166207Y574213D01*
X394741Y479450D02*
X413791Y479450D01*
X423316Y469925D01*
X394741Y479450D02*
X392591Y482575D01*
X423316Y469925D02*
X426464Y469557D01*
X394741Y527075D02*
X416966Y549300D01*
X394741Y527075D02*
X394741Y482625D01*
X416966Y549300D02*
X418871Y551855D01*
X394741Y482625D02*
X392591Y482575D01*
X178841Y422300D02*
X115341Y422300D01*
X178841Y422300D02*
X185191Y428650D01*
X115341Y422300D02*
X113754Y420713D01*
D23*
X185191Y428650D03*
D22*
X169316Y619150D02*
X242341Y619150D01*
X169316Y619150D02*
X166207Y620013D01*
X242341Y619150D02*
X242591Y617075D01*
X166141Y619150D02*
X153441Y619150D01*
X166141Y619150D02*
X166207Y620013D01*
X245516Y615975D02*
X251866Y609625D01*
X251866Y606450D01*
X282029Y576288D02*
X283616Y574700D01*
X282029Y576288D02*
X251866Y606450D01*
X283616Y574700D02*
X299491Y574700D01*
X245516Y615975D02*
X242591Y617075D01*
X299491Y574700D02*
X302285Y574065D01*
X315366Y450875D02*
X340766Y450875D01*
X315366Y450875D02*
X280441Y485800D01*
X255041Y485800D01*
X340766Y450875D02*
X343591Y449575D01*
X255041Y485800D02*
X253263Y486181D01*
X251866Y488975D02*
X251866Y520725D01*
X239166Y533425D01*
X251866Y488975D02*
X253263Y486181D01*
X194716Y492150D02*
X194716Y415950D01*
X194716Y492150D02*
X235991Y533425D01*
X194716Y415950D02*
X192557Y415569D01*
X235991Y533425D02*
X237261Y533933D01*
X239166Y533425D02*
X282029Y576288D01*
X239166Y533425D02*
X237261Y533933D01*
D23*
X153441Y619150D03*
D22*
X55016Y628675D02*
X55016Y492150D01*
X42316Y479450D01*
X42316Y412775D01*
X40331Y412335D01*
D23*
X55016Y628675D03*
D22*
X64541Y631850D02*
X58191Y638200D01*
X64541Y631850D02*
X64541Y492150D01*
X55016Y482625D01*
X55016Y422300D01*
X64541Y412775D01*
X65731Y412335D01*
D23*
X58191Y638200D03*
D22*
X264566Y466750D02*
X286791Y466750D01*
X264566Y466750D02*
X255041Y457225D01*
X253263Y455193D01*
D23*
X286791Y466750D03*
D22*
X178841Y508025D02*
X147091Y476275D01*
X178841Y508025D02*
X178841Y562000D01*
X213766Y562000D01*
D23*
X147091Y476275D03*
X178841Y562000D03*
X213766Y562000D03*
D22*
X213766Y596925D02*
X185191Y596925D01*
X172491Y584225D01*
X156616Y584225D01*
X93116Y631850D02*
X93116Y660425D01*
X115341Y682650D01*
D23*
X213766Y596925D03*
X156616Y584225D03*
X93116Y631850D03*
X115341Y682650D03*
D22*
X134391Y476275D02*
X70891Y476275D01*
X134391Y476275D02*
X143916Y466750D01*
X182016Y466750D01*
X185191Y469925D01*
X207416Y469925D02*
X220116Y457225D01*
X222783Y455193D01*
X220116Y479450D02*
X220116Y485800D01*
X220116Y479450D02*
X210591Y469925D01*
X220116Y485800D02*
X222783Y486181D01*
X210591Y469925D02*
X207416Y469925D01*
D23*
X70891Y476275D03*
X185191Y469925D03*
X207416Y469925D03*
D22*
X166141Y596925D02*
X156616Y596925D01*
X148679Y588988D02*
X128041Y568350D01*
X148679Y588988D02*
X156616Y596925D01*
X128041Y568350D02*
X128041Y533425D01*
X166141Y596925D02*
X166207Y597113D01*
X128041Y533425D02*
X125571Y531115D01*
X143916Y514375D02*
X162966Y514375D01*
X143916Y514375D02*
X128041Y530250D01*
X125571Y531115D01*
X258216Y673125D02*
X280441Y673125D01*
X258216Y673125D02*
X242341Y657250D01*
X112166Y657250D01*
X99466Y644550D01*
X99466Y638200D01*
X148679Y588988D01*
X124866Y530250D02*
X108991Y514375D01*
X124866Y530250D02*
X125571Y531115D01*
D23*
X162966Y514375D03*
X280441Y673125D03*
X108991Y514375D03*
D22*
X140741Y546125D02*
X153441Y533425D01*
X156051Y531115D01*
D23*
X140741Y546125D03*
D22*
X235991Y689000D02*
X188366Y736625D01*
X235991Y689000D02*
X237769Y687349D01*
X188366Y736625D02*
X188131Y737575D01*
X299491Y749325D02*
X366166Y749325D01*
X299491Y749325D02*
X239166Y689000D01*
X366166Y749325D02*
X368791Y751275D01*
X239166Y689000D02*
X237769Y687349D01*
X134391Y746150D02*
X70891Y746150D01*
X134391Y746150D02*
X191541Y689000D01*
X70891Y746150D02*
X68791Y746875D01*
X191541Y689000D02*
X192557Y688619D01*
X261391Y647725D02*
X261391Y619150D01*
X261391Y647725D02*
X258216Y650900D01*
X118516Y650900D01*
X108991Y641375D01*
X261391Y619150D02*
X261591Y617075D01*
D23*
X108991Y641375D03*
D22*
X159791Y638200D02*
X251866Y638200D01*
X159791Y638200D02*
X143916Y622325D01*
X143916Y615975D01*
X153441Y606450D01*
X229641Y606450D01*
X264566Y571525D01*
X264566Y542950D02*
X347116Y460400D01*
X353466Y460400D01*
X391566Y422300D01*
X391566Y415950D01*
X251866Y638200D02*
X252091Y639075D01*
X391566Y415950D02*
X391719Y414594D01*
D23*
X264566Y571525D03*
X264566Y542950D03*
D22*
X340766Y501675D02*
X340766Y482625D01*
X340766Y501675D02*
X315366Y527075D01*
X315366Y650900D01*
X283616Y682650D01*
X258216Y682650D01*
X248691Y673125D01*
X118516Y673125D01*
X340766Y482625D02*
X343591Y482575D01*
D23*
X118516Y673125D03*
D22*
X622376Y571525D02*
X679526Y571525D01*
X689051Y562000D01*
X690321Y559333D01*
X568401Y419125D02*
X568401Y412775D01*
X566814Y420713D02*
X514426Y473100D01*
X566814Y420713D02*
X568401Y419125D01*
X514426Y473100D02*
X514426Y479450D01*
X539826Y504850D01*
X619201Y504850D01*
X625551Y511200D01*
X625551Y555650D01*
X622376Y558825D01*
X622376Y571525D01*
X568401Y412775D02*
X569591Y412335D01*
X622376Y571525D02*
X619267Y574213D01*
X847801Y479450D02*
X866851Y479450D01*
X876376Y469925D01*
X847801Y479450D02*
X845651Y482575D01*
X876376Y469925D02*
X879524Y469557D01*
X847801Y527075D02*
X870026Y549300D01*
X847801Y527075D02*
X847801Y482625D01*
X870026Y549300D02*
X871931Y551855D01*
X847801Y482625D02*
X845651Y482575D01*
X631901Y422300D02*
X568401Y422300D01*
X631901Y422300D02*
X638251Y428650D01*
X568401Y422300D02*
X566814Y420713D01*
D23*
X638251Y428650D03*
D22*
X622376Y619150D02*
X695401Y619150D01*
X622376Y619150D02*
X619267Y620013D01*
X695401Y619150D02*
X695651Y617075D01*
X619201Y619150D02*
X606501Y619150D01*
X619201Y619150D02*
X619267Y620013D01*
X698576Y615975D02*
X704926Y609625D01*
X704926Y606450D01*
X735089Y576288D02*
X736676Y574700D01*
X735089Y576288D02*
X704926Y606450D01*
X736676Y574700D02*
X752551Y574700D01*
X698576Y615975D02*
X695651Y617075D01*
X752551Y574700D02*
X755345Y574065D01*
X768426Y450875D02*
X793826Y450875D01*
X768426Y450875D02*
X733501Y485800D01*
X708101Y485800D01*
X793826Y450875D02*
X796651Y449575D01*
X708101Y485800D02*
X706323Y486181D01*
X704926Y488975D02*
X704926Y520725D01*
X692226Y533425D01*
X704926Y488975D02*
X706323Y486181D01*
X647776Y492150D02*
X647776Y415950D01*
X647776Y492150D02*
X689051Y533425D01*
X647776Y415950D02*
X645617Y415569D01*
X689051Y533425D02*
X690321Y533933D01*
X692226Y533425D02*
X735089Y576288D01*
X692226Y533425D02*
X690321Y533933D01*
D23*
X606501Y619150D03*
D22*
X508076Y628675D02*
X508076Y492150D01*
X495376Y479450D01*
X495376Y412775D01*
X493391Y412335D01*
D23*
X508076Y628675D03*
D22*
X517601Y631850D02*
X511251Y638200D01*
X517601Y631850D02*
X517601Y492150D01*
X508076Y482625D01*
X508076Y422300D01*
X517601Y412775D01*
X518791Y412335D01*
D23*
X511251Y638200D03*
D22*
X717626Y466750D02*
X739851Y466750D01*
X717626Y466750D02*
X708101Y457225D01*
X706323Y455193D01*
D23*
X739851Y466750D03*
D22*
X631901Y508025D02*
X600151Y476275D01*
X631901Y508025D02*
X631901Y562000D01*
X666826Y562000D01*
D23*
X600151Y476275D03*
X631901Y562000D03*
X666826Y562000D03*
D22*
X666826Y596925D02*
X638251Y596925D01*
X625551Y584225D01*
X609676Y584225D01*
X546176Y631850D02*
X546176Y660425D01*
X568401Y682650D01*
D23*
X666826Y596925D03*
X609676Y584225D03*
X546176Y631850D03*
X568401Y682650D03*
D22*
X587451Y476275D02*
X523951Y476275D01*
X587451Y476275D02*
X596976Y466750D01*
X635076Y466750D01*
X638251Y469925D01*
X660476Y469925D02*
X673176Y457225D01*
X675843Y455193D01*
X673176Y479450D02*
X673176Y485800D01*
X673176Y479450D02*
X663651Y469925D01*
X673176Y485800D02*
X675843Y486181D01*
X663651Y469925D02*
X660476Y469925D01*
D23*
X523951Y476275D03*
X638251Y469925D03*
X660476Y469925D03*
D22*
X619201Y596925D02*
X609676Y596925D01*
X601739Y588988D02*
X581101Y568350D01*
X601739Y588988D02*
X609676Y596925D01*
X581101Y568350D02*
X581101Y533425D01*
X619201Y596925D02*
X619267Y597113D01*
X581101Y533425D02*
X578631Y531115D01*
X596976Y514375D02*
X616026Y514375D01*
X596976Y514375D02*
X581101Y530250D01*
X578631Y531115D01*
X711276Y673125D02*
X733501Y673125D01*
X711276Y673125D02*
X695401Y657250D01*
X565226Y657250D01*
X552526Y644550D01*
X552526Y638200D01*
X601739Y588988D01*
X577926Y530250D02*
X562051Y514375D01*
X577926Y530250D02*
X578631Y531115D01*
D23*
X616026Y514375D03*
X733501Y673125D03*
X562051Y514375D03*
D22*
X593801Y546125D02*
X606501Y533425D01*
X609111Y531115D01*
D23*
X593801Y546125D03*
D22*
X689051Y689000D02*
X641426Y736625D01*
X689051Y689000D02*
X690829Y687349D01*
X641426Y736625D02*
X641191Y737575D01*
X752551Y749325D02*
X819226Y749325D01*
X752551Y749325D02*
X692226Y689000D01*
X819226Y749325D02*
X821851Y751275D01*
X692226Y689000D02*
X690829Y687349D01*
X587451Y746150D02*
X523951Y746150D01*
X587451Y746150D02*
X644601Y689000D01*
X523951Y746150D02*
X521851Y746875D01*
X644601Y689000D02*
X645617Y688619D01*
X714451Y647725D02*
X714451Y619150D01*
X714451Y647725D02*
X711276Y650900D01*
X571576Y650900D01*
X562051Y641375D01*
X714451Y619150D02*
X714651Y617075D01*
D23*
X562051Y641375D03*
D22*
X612851Y638200D02*
X704926Y638200D01*
X612851Y638200D02*
X596976Y622325D01*
X596976Y615975D01*
X606501Y606450D01*
X682701Y606450D01*
X717626Y571525D01*
X717626Y542950D02*
X800176Y460400D01*
X806526Y460400D01*
X844626Y422300D01*
X844626Y415950D01*
X704926Y638200D02*
X705151Y639075D01*
X844626Y415950D02*
X844778Y414594D01*
D23*
X717626Y571525D03*
X717626Y542950D03*
D22*
X793826Y501675D02*
X793826Y482625D01*
X793826Y501675D02*
X768426Y527075D01*
X768426Y650900D01*
X736676Y682650D01*
X711276Y682650D01*
X701751Y673125D01*
X571576Y673125D01*
X793826Y482625D02*
X796651Y482575D01*
D23*
X571576Y673125D03*
M02*
