G04 EAGLE Gerber RS-274X export*
G75*
%MOMM*%
%FSLAX34Y34*%
%LPD*%
%INSoldermask Bottom*%
%IPPOS*%
%AMOC8*
5,1,8,0,0,1.08239X$1,22.5*%
G01*
%ADD10C,1.981200*%
%ADD11P,1.759533X8X292.500000*%
%ADD12R,1.727200X1.727200*%
%ADD13C,1.727200*%
%ADD14R,1.503200X1.153200*%
%ADD15R,1.503200X3.453200*%
%ADD16R,2.703200X2.203200*%
%ADD17C,1.711200*%
%ADD18C,1.993900*%
%ADD19R,1.203200X1.603200*%
%ADD20P,2.556822X8X80.200000*%
%ADD21R,1.703200X1.103200*%
%ADD22C,0.959600*%


D10*
X40331Y19093D03*
X65731Y19093D03*
X91131Y19093D03*
X116531Y19093D03*
D11*
X302285Y206223D03*
X302285Y180823D03*
D12*
X188131Y344333D03*
X238131Y344333D03*
X136131Y50333D03*
X290131Y50333D03*
D13*
X244881Y140691D02*
X229641Y140691D01*
X229641Y166091D02*
X244881Y166091D01*
X411251Y260213D02*
X426491Y260213D01*
X350291Y260213D02*
X335051Y260213D01*
X411251Y158613D02*
X426491Y158613D01*
X426491Y133213D02*
X411251Y133213D01*
X350291Y133213D02*
X335051Y133213D01*
X335051Y158613D02*
X350291Y158613D01*
D14*
X166207Y226771D03*
X166207Y203871D03*
X166207Y180971D03*
D15*
X99207Y203871D03*
D16*
X253263Y61951D03*
X222783Y61951D03*
X253263Y92939D03*
X222783Y92939D03*
X125571Y137873D03*
X156051Y137873D03*
D17*
X141757Y295377D03*
X192557Y295377D03*
X192557Y22327D03*
X243357Y22327D03*
X294157Y22327D03*
D13*
X245389Y344907D02*
X230149Y344907D01*
X230149Y319507D02*
X245389Y319507D01*
X245389Y294107D02*
X230149Y294107D01*
D18*
X77745Y303633D02*
X59838Y303633D01*
X59838Y353633D02*
X77745Y353633D01*
X359838Y358033D02*
X377745Y358033D01*
X377745Y308033D02*
X359838Y308033D01*
D19*
X252091Y245833D03*
X242591Y223833D03*
X261591Y223833D03*
D20*
X391719Y21351D03*
X426464Y76314D03*
D21*
X392591Y89333D03*
X392591Y56333D03*
X343591Y56333D03*
X343591Y89333D03*
D10*
X493391Y19093D03*
X518791Y19093D03*
X544191Y19093D03*
X569591Y19093D03*
D11*
X755345Y206223D03*
X755345Y180823D03*
D12*
X641191Y344333D03*
X691191Y344333D03*
X589191Y50333D03*
X743191Y50333D03*
D13*
X697941Y140691D02*
X682701Y140691D01*
X682701Y166091D02*
X697941Y166091D01*
X864311Y260213D02*
X879551Y260213D01*
X803351Y260213D02*
X788111Y260213D01*
X864311Y158613D02*
X879551Y158613D01*
X879551Y133213D02*
X864311Y133213D01*
X803351Y133213D02*
X788111Y133213D01*
X788111Y158613D02*
X803351Y158613D01*
D14*
X619267Y226771D03*
X619267Y203871D03*
X619267Y180971D03*
D15*
X552267Y203871D03*
D16*
X706323Y61951D03*
X675843Y61951D03*
X706323Y92939D03*
X675843Y92939D03*
X578631Y137873D03*
X609111Y137873D03*
D17*
X594817Y295377D03*
X645617Y295377D03*
X645617Y22327D03*
X696417Y22327D03*
X747217Y22327D03*
D13*
X698449Y344907D02*
X683209Y344907D01*
X683209Y319507D02*
X698449Y319507D01*
X698449Y294107D02*
X683209Y294107D01*
D18*
X530805Y303633D02*
X512898Y303633D01*
X512898Y353633D02*
X530805Y353633D01*
X812898Y358033D02*
X830805Y358033D01*
X830805Y308033D02*
X812898Y308033D01*
D19*
X705151Y245833D03*
X695651Y223833D03*
X714651Y223833D03*
D20*
X844778Y21351D03*
X879524Y76314D03*
D21*
X845651Y89333D03*
X845651Y56333D03*
X796651Y56333D03*
X796651Y89333D03*
D10*
X40331Y412335D03*
X65731Y412335D03*
X91131Y412335D03*
X116531Y412335D03*
D11*
X302285Y599465D03*
X302285Y574065D03*
D12*
X188131Y737575D03*
X238131Y737575D03*
X136131Y443575D03*
X290131Y443575D03*
D13*
X244881Y533933D02*
X229641Y533933D01*
X229641Y559333D02*
X244881Y559333D01*
X411251Y653455D02*
X426491Y653455D01*
X350291Y653455D02*
X335051Y653455D01*
X411251Y551855D02*
X426491Y551855D01*
X426491Y526455D02*
X411251Y526455D01*
X350291Y526455D02*
X335051Y526455D01*
X335051Y551855D02*
X350291Y551855D01*
D14*
X166207Y620013D03*
X166207Y597113D03*
X166207Y574213D03*
D15*
X99207Y597113D03*
D16*
X253263Y455193D03*
X222783Y455193D03*
X253263Y486181D03*
X222783Y486181D03*
X125571Y531115D03*
X156051Y531115D03*
D17*
X141757Y688619D03*
X192557Y688619D03*
X192557Y415569D03*
X243357Y415569D03*
X294157Y415569D03*
D13*
X245389Y738149D02*
X230149Y738149D01*
X230149Y712749D02*
X245389Y712749D01*
X245389Y687349D02*
X230149Y687349D01*
D18*
X77745Y696875D02*
X59838Y696875D01*
X59838Y746875D02*
X77745Y746875D01*
X359838Y751275D02*
X377745Y751275D01*
X377745Y701275D02*
X359838Y701275D01*
D19*
X252091Y639075D03*
X242591Y617075D03*
X261591Y617075D03*
D20*
X391719Y414594D03*
X426464Y469557D03*
D21*
X392591Y482575D03*
X392591Y449575D03*
X343591Y449575D03*
X343591Y482575D03*
D10*
X493391Y412335D03*
X518791Y412335D03*
X544191Y412335D03*
X569591Y412335D03*
D11*
X755345Y599465D03*
X755345Y574065D03*
D12*
X641191Y737575D03*
X691191Y737575D03*
X589191Y443575D03*
X743191Y443575D03*
D13*
X697941Y533933D02*
X682701Y533933D01*
X682701Y559333D02*
X697941Y559333D01*
X864311Y653455D02*
X879551Y653455D01*
X803351Y653455D02*
X788111Y653455D01*
X864311Y551855D02*
X879551Y551855D01*
X879551Y526455D02*
X864311Y526455D01*
X803351Y526455D02*
X788111Y526455D01*
X788111Y551855D02*
X803351Y551855D01*
D14*
X619267Y620013D03*
X619267Y597113D03*
X619267Y574213D03*
D15*
X552267Y597113D03*
D16*
X706323Y455193D03*
X675843Y455193D03*
X706323Y486181D03*
X675843Y486181D03*
X578631Y531115D03*
X609111Y531115D03*
D17*
X594817Y688619D03*
X645617Y688619D03*
X645617Y415569D03*
X696417Y415569D03*
X747217Y415569D03*
D13*
X698449Y738149D02*
X683209Y738149D01*
X683209Y712749D02*
X698449Y712749D01*
X698449Y687349D02*
X683209Y687349D01*
D18*
X530805Y696875D02*
X512898Y696875D01*
X512898Y746875D02*
X530805Y746875D01*
X812898Y751275D02*
X830805Y751275D01*
X830805Y701275D02*
X812898Y701275D01*
D19*
X705151Y639075D03*
X695651Y617075D03*
X714651Y617075D03*
D20*
X844778Y414594D03*
X879524Y469557D03*
D21*
X845651Y482575D03*
X845651Y449575D03*
X796651Y449575D03*
X796651Y482575D03*
D22*
X185191Y35408D03*
X153441Y225908D03*
X55016Y235433D03*
X58191Y244958D03*
X286791Y73508D03*
X147091Y83033D03*
X178841Y168758D03*
X213766Y168758D03*
X213766Y203683D03*
X156616Y190983D03*
X93116Y238608D03*
X115341Y289408D03*
X70891Y83033D03*
X185191Y76683D03*
X207416Y76683D03*
X162966Y121133D03*
X280441Y279883D03*
X108991Y121133D03*
X140741Y152883D03*
X108991Y248133D03*
X264566Y178283D03*
X264566Y149708D03*
X118516Y279883D03*
X638251Y35408D03*
X606501Y225908D03*
X508076Y235433D03*
X511251Y244958D03*
X739851Y73508D03*
X600151Y83033D03*
X631901Y168758D03*
X666826Y168758D03*
X666826Y203683D03*
X609676Y190983D03*
X546176Y238608D03*
X568401Y289408D03*
X523951Y83033D03*
X638251Y76683D03*
X660476Y76683D03*
X616026Y121133D03*
X733501Y279883D03*
X562051Y121133D03*
X593801Y152883D03*
X562051Y248133D03*
X717626Y178283D03*
X717626Y149708D03*
X571576Y279883D03*
X185191Y428650D03*
X153441Y619150D03*
X55016Y628675D03*
X58191Y638200D03*
X286791Y466750D03*
X147091Y476275D03*
X178841Y562000D03*
X213766Y562000D03*
X213766Y596925D03*
X156616Y584225D03*
X93116Y631850D03*
X115341Y682650D03*
X70891Y476275D03*
X185191Y469925D03*
X207416Y469925D03*
X162966Y514375D03*
X280441Y673125D03*
X108991Y514375D03*
X140741Y546125D03*
X108991Y641375D03*
X264566Y571525D03*
X264566Y542950D03*
X118516Y673125D03*
X638251Y428650D03*
X606501Y619150D03*
X508076Y628675D03*
X511251Y638200D03*
X739851Y466750D03*
X600151Y476275D03*
X631901Y562000D03*
X666826Y562000D03*
X666826Y596925D03*
X609676Y584225D03*
X546176Y631850D03*
X568401Y682650D03*
X523951Y476275D03*
X638251Y469925D03*
X660476Y469925D03*
X616026Y514375D03*
X733501Y673125D03*
X562051Y514375D03*
X593801Y546125D03*
X562051Y641375D03*
X717626Y571525D03*
X717626Y542950D03*
X571576Y673125D03*
M02*
