G04 EAGLE Gerber RS-274X export*
G75*
%MOMM*%
%FSLAX34Y34*%
%LPD*%
%INTop Copper*%
%IPPOS*%
%AMOC8*
5,1,8,0,0,1.08239X$1,22.5*%
G01*
%ADD10C,1.524000*%
%ADD11R,1.219200X1.879600*%
%ADD12C,0.609600*%


D10*
X156800Y369880D02*
X156800Y385120D01*
X182200Y385120D02*
X182200Y369880D01*
X207600Y369880D02*
X207600Y385120D01*
X257300Y327620D02*
X257300Y312380D01*
X282700Y312380D02*
X282700Y327620D01*
X297300Y247620D02*
X297300Y232380D01*
X322700Y232380D02*
X322700Y247620D01*
X297300Y157620D02*
X297300Y142380D01*
X322700Y142380D02*
X322700Y157620D01*
X227300Y87620D02*
X227300Y72380D01*
X252700Y72380D02*
X252700Y87620D01*
X137300Y87620D02*
X137300Y72380D01*
X162700Y72380D02*
X162700Y87620D01*
X57300Y132380D02*
X57300Y147620D01*
X82700Y147620D02*
X82700Y132380D01*
X37300Y222380D02*
X37300Y237620D01*
X62700Y237620D02*
X62700Y222380D01*
X77300Y312380D02*
X77300Y327620D01*
X102700Y327620D02*
X102700Y312380D01*
D11*
X163490Y330000D03*
X196510Y330000D03*
D12*
X162500Y330000D02*
X162500Y372500D01*
X157500Y377500D01*
X162500Y330000D02*
X163490Y330000D01*
X157500Y377500D02*
X156800Y377500D01*
X196510Y330000D02*
X246250Y330000D01*
X256250Y320000D01*
X257300Y320000D01*
X297500Y150000D02*
X227500Y80000D01*
X227300Y80000D01*
X297300Y150000D02*
X297500Y150000D01*
X297500Y152500D02*
X297500Y240000D01*
X297300Y240000D01*
X297500Y152500D02*
X297300Y150000D01*
X258750Y286250D02*
X258750Y317500D01*
X258750Y286250D02*
X296250Y248750D01*
X296250Y242500D01*
X258750Y317500D02*
X257300Y320000D01*
X296250Y242500D02*
X297300Y240000D01*
X117500Y80000D02*
X57500Y140000D01*
X117500Y80000D02*
X137300Y80000D01*
X57500Y140000D02*
X57300Y140000D01*
X37500Y161250D02*
X37500Y230000D01*
X37500Y161250D02*
X56250Y142500D01*
X37500Y230000D02*
X37300Y230000D01*
X56250Y142500D02*
X57300Y140000D01*
X76250Y292500D02*
X76250Y320000D01*
X76250Y292500D02*
X30335Y246585D01*
X76250Y320000D02*
X77300Y320000D01*
X30335Y246585D02*
X37300Y230000D01*
X187500Y78750D02*
X225000Y78750D01*
X187500Y78750D02*
X168750Y60000D01*
X156250Y60000D01*
X138750Y77500D01*
X225000Y78750D02*
X227300Y80000D01*
X138750Y77500D02*
X137300Y80000D01*
X162500Y80000D02*
X130000Y112500D01*
X111250Y112500D01*
X83750Y140000D01*
X162500Y80000D02*
X162700Y80000D01*
X83750Y140000D02*
X82700Y140000D01*
X63750Y162500D02*
X63750Y230000D01*
X63750Y162500D02*
X83750Y142500D01*
X63750Y230000D02*
X62700Y230000D01*
X83750Y142500D02*
X82700Y140000D01*
X102500Y287500D02*
X102500Y320000D01*
X102500Y287500D02*
X65000Y250000D01*
X65000Y232500D01*
X102500Y320000D02*
X102700Y320000D01*
X65000Y232500D02*
X62700Y230000D01*
X253750Y80000D02*
X323750Y150000D01*
X253750Y80000D02*
X252700Y80000D01*
X322700Y150000D02*
X323750Y150000D01*
X323750Y152500D02*
X323750Y240000D01*
X322700Y240000D01*
X323750Y152500D02*
X322700Y150000D01*
X283750Y280000D02*
X283750Y320000D01*
X283750Y280000D02*
X321250Y242500D01*
X283750Y320000D02*
X282700Y320000D01*
X321250Y242500D02*
X322700Y240000D01*
X222500Y377500D02*
X207600Y377500D01*
X222500Y377500D02*
X260000Y340000D01*
X263750Y340000D01*
X281250Y322500D01*
X282700Y320000D01*
X95300Y350000D02*
X81250Y350000D01*
X15000Y283750D01*
X15000Y156250D01*
X140000Y31250D01*
X205000Y31250D01*
X251250Y77500D01*
X102700Y320000D02*
X102700Y337241D01*
X95300Y350000D01*
X252700Y80000D02*
X251250Y77500D01*
M02*
