G04 EAGLE Gerber RS-274X export*
G75*
%MOMM*%
%FSLAX34Y34*%
%LPD*%
%INSoldermask Bottom*%
%IPPOS*%
%AMOC8*
5,1,8,0,0,1.08239X$1,22.5*%
G01*
%ADD10C,1.727200*%


D10*
X156800Y369880D02*
X156800Y385120D01*
X182200Y385120D02*
X182200Y369880D01*
X207600Y369880D02*
X207600Y385120D01*
X257300Y327620D02*
X257300Y312380D01*
X282700Y312380D02*
X282700Y327620D01*
X297300Y247620D02*
X297300Y232380D01*
X322700Y232380D02*
X322700Y247620D01*
X297300Y157620D02*
X297300Y142380D01*
X322700Y142380D02*
X322700Y157620D01*
X227300Y87620D02*
X227300Y72380D01*
X252700Y72380D02*
X252700Y87620D01*
X137300Y87620D02*
X137300Y72380D01*
X162700Y72380D02*
X162700Y87620D01*
X57300Y132380D02*
X57300Y147620D01*
X82700Y147620D02*
X82700Y132380D01*
X37300Y222380D02*
X37300Y237620D01*
X62700Y237620D02*
X62700Y222380D01*
X77300Y312380D02*
X77300Y327620D01*
X102700Y327620D02*
X102700Y312380D01*
M02*
