(.../Documents/EAGLE/ulps/pcb-gcode.ulp)
(Copyright 2005 - 2012 by John Johnson)
(See readme.txt for licensing terms.)
(This file generated from the board:)
(.../projects/suitchv3/suitch_sch.brd)
(Current profile is .../Documents/EAGLE/ulps/profiles/grbl.pp  )
(This file generated 5/19/19 5:33 PM)
(Settings from pcb-machine.h)
(spindle on time = 3.0000)
(spindle speed = 15000.0000)
(milling depth = -2.0000)
(tool change at 0.0000 0.0000 25.4000 )
(feed rate xy = F254.00 )
(feed rate z  = F127.00 )
(Z Axis Settings)
(  High     Up        Down     Drill)
(12.7000 	2.5400 	-0.0760 	-2.0000 )
(Settings from pcb-defaults.h)
(isolate min = 0.0200)
(isolate max = 1.5000)
(isolate step = 0.1270)
(Generated top outlines, top drill, bottom drill, )
(Unit of measure: mm)
(Metric Mode)
G21
(Absolute Coordinates)
G90
S15000
G00 Z12.7000 
G00 X0.0000 Y0.0000 
M03
G04 P3.000000
G00 Z2.5400 
G00 X1.0000 Y3.4000 
G01 Z-0.3333 F127.00 
G01 X4.0000 Y0.4000 F254.00 
G01 X44.5000 Y0.4000 
G01 X45.5000 Y2.9000 
G01 X45.5000 Y58.9000 
G01 X42.5000 Y63.4000 
G01 X6.5000 Y63.4000 
G01 X1.0000 Y59.9000 
G01 X1.0000 Y3.4000 
G00 Z2.5400 
G01 Z-0.6667 F127.00 
G01 X4.0000 Y0.4000 F254.00 
G01 X44.5000 Y0.4000 
G01 X45.5000 Y2.9000 
G01 X45.5000 Y58.9000 
G01 X42.5000 Y63.4000 
G01 X6.5000 Y63.4000 
G01 X1.0000 Y59.9000 
G01 X1.0000 Y3.4000 
G00 Z2.5400 
G01 Z-1.0000 F127.00 
G01 X4.0000 Y0.4000 F254.00 
G01 X44.5000 Y0.4000 
G01 X45.5000 Y2.9000 
G01 X45.5000 Y58.9000 
G01 X42.5000 Y63.4000 
G01 X6.5000 Y63.4000 
G01 X1.0000 Y59.9000 
G01 X1.0000 Y3.4000 
G00 Z2.5400 
G01 Z-1.3333 F127.00 
G01 X4.0000 Y0.4000 F254.00 
G01 X44.5000 Y0.4000 
G01 X45.5000 Y2.9000 
G01 X45.5000 Y58.9000 
G01 X42.5000 Y63.4000 
G01 X6.5000 Y63.4000 
G01 X1.0000 Y59.9000 
G01 X1.0000 Y3.4000 
G00 Z2.5400 
G01 Z-1.6667 F127.00 
G01 X4.0000 Y0.4000 F254.00 
G01 X44.5000 Y0.4000 
G01 X45.5000 Y2.9000 
G01 X45.5000 Y58.9000 
G01 X42.5000 Y63.4000 
G01 X6.5000 Y63.4000 
G01 X1.0000 Y59.9000 
G01 X1.0000 Y3.4000 
G00 Z2.5400 
G01 Z-2.0000 F127.00 
G01 X4.0000 Y0.4000 F254.00 
G01 X44.5000 Y0.4000 
G01 X45.5000 Y2.9000 
G01 X45.5000 Y58.9000 
G01 X42.5000 Y63.4000 
G01 X6.5000 Y63.4000 
G01 X1.0000 Y59.9000 
G01 X1.0000 Y3.4000 
G00 Z12.7000 
M05
M02
