(.../Documents/EAGLE/ulps/pcb-gcode.ulp)
(Copyright 2005 - 2012 by John Johnson)
(See readme.txt for licensing terms.)
(This file generated from the board:)
(.../projects/suitchv3/suitch_sch.brd)
(Current profile is .../Documents/EAGLE/ulps/profiles/grbl.pp  )
(This file generated 5/19/19 5:33 PM)
(Settings from pcb-machine.h)
(spindle on time = 3.0000)
(spindle speed = 20000.0000)
(tool change at 0.0000 0.0000 25.4000 )
(feed rate xy = F0.00  )
(feed rate z  = F30.00 )
(Z Axis Settings)
(  High     Up        Down     Drill)
(12.7000 	2.5400 	-0.0760 	-2.0000 )
(Settings from pcb-defaults.h)
(isolate min = 0.0200)
(isolate max = 1.5000)
(isolate step = 0.1270)
(Generated top outlines, top drill, bottom drill, )
(Unit of measure: mm)
( Tool|       Size       |  Min Sub |  Max Sub |   Count )
( T01  0.8128in/0.032mm 0.0000in 0.0000in )
( T02  1.0000in/0.039mm 0.0000in 0.0000in )
( T03  1.0160in/0.040mm 0.0000in 0.0000in )
( T04  1.2000in/0.047mm 0.0000in 0.0000in )
(Metric Mode)
G21
(Absolute Coordinates)
G90
S20000
G00 Z12.7000 
G00 X0.0000 Y0.0000 
M03
G04 P3.000000
M05
G00 Z25.4000 
M00 T01  ; 0.8128 
M00  ; install probe
G38.2Z-10F200
G91G0Z2
G38.2Z-4F40
G90G92Z0
M00  ; remove probe
G01 Z0.0000 F30.00 
M00 
G00 Z2.5400 
M03
G04 P3.000000
G00 Z2.540000
G00 X-33.2300 Y45.4000 
G01 Z-2.0000 F30.00 
G01 Z2.540000
(R2.5400  P1.000000)
G00 X-35.7700 Y45.4000 
G01 Z-2.0000 F30.00 
G00 Z2.5400 
M05
G00 Z25.4000 
G00 X0.0000 Y0.0000 
M00 T02  ; 1.0000 
M00  ; install probe
G38.2Z-10F200
G91G0Z2
G38.2Z-4F40
G90G92Z0
M00  ; remove probe
G01 Z0.0000 F30.00 
M00 
G00 Z2.5400 
M03
G04 P3.000000
G00 Z2.540000
G00 X-24.8900 Y51.1200 
G01 Z-2.0000 F30.00 
G01 Z2.540000
(R2.5400  P1.000000)
G00 X-28.3900 Y51.1200 
G01 Z-2.0000 F30.00 
G00 Z2.5400 
G00 X-32.0100 Y51.1200 
G01 Z-2.0000 F30.00 
G00 Z2.5400 
G00 X-35.5100 Y51.1200 
G01 Z-2.0000 F30.00 
G00 Z2.5400 
M05
G00 Z25.4000 
G00 X0.0000 Y0.0000 
M00 T03  ; 1.0160 
M00  ; install probe
G38.2Z-10F200
G91G0Z2
G38.2Z-4F40
G90G92Z0
M00  ; remove probe
G01 Z0.0000 F30.00 
M00 
G00 Z2.5400 
M03
G04 P3.000000
G00 Z2.540000
G00 X-8.0400 Y55.5800 
G01 Z-2.0000 F30.00 
G01 Z2.540000
(R2.5400  P1.000000)
G00 X-10.5800 Y55.5800 
G01 Z-2.0000 F30.00 
G00 Z2.5400 
G00 X-13.1200 Y55.5800 
G01 Z-2.0000 F30.00 
G00 Z2.5400 
G00 X-15.6600 Y55.5800 
G01 Z-2.0000 F30.00 
G00 Z2.5400 
G00 X-20.5000 Y54.9400 
G01 Z-2.0000 F30.00 
G00 Z2.5400 
G00 X-20.5000 Y52.4000 
G01 Z-2.0000 F30.00 
G00 Z2.5400 
G00 X-20.5000 Y57.4800 
G01 Z-2.0000 F30.00 
G00 Z2.5400 
G00 X-20.5000 Y60.0200 
G01 Z-2.0000 F30.00 
G00 Z2.5400 
G00 X-17.0000 Y29.4000 
G01 Z-2.0000 F30.00 
G00 Z2.5400 
G00 X-14.4600 Y29.4000 
G01 Z-2.0000 F30.00 
G00 Z2.5400 
G00 X-11.9200 Y29.4000 
G01 Z-2.0000 F30.00 
G00 Z2.5400 
G00 X-9.3800 Y29.4000 
G01 Z-2.0000 F30.00 
G00 Z2.5400 
G00 X-8.0800 Y19.3300 
G01 Z-2.0000 F30.00 
G00 Z2.5400 
G00 X-8.0800 Y14.3300 
G01 Z-2.0000 F30.00 
G00 Z2.5400 
G00 X-37.4800 Y9.1300 
G01 Z-2.0000 F30.00 
G00 Z2.5400 
G00 X-37.4800 Y24.5300 
G01 Z-2.0000 F30.00 
G00 Z2.5400 
M05
G00 Z25.4000 
G00 X0.0000 Y0.0000 
M00 T04  ; 1.2000 
M00  ; install probe
G38.2Z-10F200
G91G0Z2
G38.2Z-4F40
G90G92Z0
M00  ; remove probe
G01 Z0.0000 F30.00 
M00 
G00 Z2.5400 
M03
G04 P3.000000
G00 Z2.540000
G00 X-27.8600 Y29.5300 
G01 Z-2.0000 F30.00 
G01 Z2.540000
(R2.5400  P1.000000)
G00 X-27.8600 Y32.0700 
G01 Z-2.0000 F30.00 
G00 Z2.5400 
G00 X-35.4800 Y32.0700 
G01 Z-2.0000 F30.00 
G00 Z2.5400 
G00 X-35.4800 Y29.5300 
G01 Z-2.0000 F30.00 
G00 Z2.5400 
G00 X-27.8600 Y42.2300 
G01 Z-2.0000 F30.00 
G00 Z2.5400 
T01 
G00 Z12.7000 
M05
M02
