(.../Documents/EAGLE/ulps/pcb-gcode.ulp)
(Copyright 2005 - 2012 by John Johnson)
(See readme.txt for licensing terms.)
(This file generated from the board:)
(.../projects/suitchv3/suitch_sch.brd)
(Current profile is .../pcb-gcode-3.6.2.4/profiles/grbl-NuggetMill.pp  )
(This file generated 5/21/19 1:22 AM)
(Settings from pcb-machine.h)
(spindle on time = 0.0000)
(spindle speed = 20000.0000)
(tool change at 0.000000 0.000000 12.700000 )
(feed rate xy = F0     )
(feed rate z  = F50    )
(Z Axis Settings)
(  High     Up        Down     Drill)
(12.700000 	2.000000 	-0.070000 	-3.000000 )
(Settings from pcb-defaults.h)
(isolate min = 0.0254)
(isolate max = 2.0000)
(isolate step = 0.1000)
(Generated top outlines, top drill, )
(Unit of measure: mm)
( Tool|       Size       |  Min Sub |  Max Sub |   Count )
( T01  0.813mm 0.0320in 0.0000in 0.0000in )
( T02  1.016mm 0.0400in 0.0000in 0.0000in )
( T03  1.194mm 0.0470in 0.0000in 0.0000in )
( T04  1.200mm 0.0472in 0.0000in 0.0000in )
(Metric Mode)
G21
(Absolute Coordinates)
G90
G0 Z12.700000 
G0 X0.000000 Y0.000000 
M3
G4 P0
M4
M6 T01  ; 0.812800 
G0 Z2.000000 
M3
G4 P0
G0 Z2.000000
G0 X24.630000 Y45.100000 
G1 Z-3.000000 F50    
G1 Z2.000000
(R2.000000  P2.000000)
G0 X27.170000 Y45.100000 
G1 Z-3.000000 F50    
G0 Z2.000000 
M4
G0 Z12.700000 
G0 X0.000000 Y0.000000 
M6 T02  ; 1.016000 
G0 Z2.000000 
M3
G4 P0
G0 Z2.000000
G0 X5.440000 Y55.280000 
G1 Z-3.000000 F50    
G1 Z2.000000
(R2.000000  P2.000000)
G0 X7.980000 Y55.280000 
G1 Z-3.000000 F50    
G0 Z2.000000 
G0 X10.520000 Y55.280000 
G1 Z-3.000000 F50    
G0 Z2.000000 
G0 X13.060000 Y55.280000 
G1 Z-3.000000 F50    
G0 Z2.000000 
G0 X18.200000 Y55.840000 
G1 Z-3.000000 F50    
G0 Z2.000000 
G0 X18.200000 Y53.300000 
G1 Z-3.000000 F50    
G0 Z2.000000 
G0 X18.200000 Y50.760000 
G1 Z-3.000000 F50    
G0 Z2.000000 
G0 X19.400000 Y26.200000 
G1 Z-3.000000 F50    
G0 Z2.000000 
G0 X16.860000 Y26.200000 
G1 Z-3.000000 F50    
G0 Z2.000000 
G0 X14.320000 Y26.200000 
G1 Z-3.000000 F50    
G0 Z2.000000 
G0 X11.780000 Y26.200000 
G1 Z-3.000000 F50    
G0 Z2.000000 
G0 X7.520000 Y19.770000 
G1 Z-3.000000 F50    
G0 Z2.000000 
G0 X5.600000 Y17.700000 
G1 Z-3.000000 F50    
G0 Z2.000000 
G0 X5.600000 Y7.500000 
G1 Z-3.000000 F50    
G0 Z2.000000 
G0 X7.520000 Y4.370000 
G1 Z-3.000000 F50    
G0 Z2.000000 
G0 X12.630000 Y9.600000 
G1 Z-3.000000 F50    
G0 Z2.000000 
G0 X15.170000 Y9.600000 
G1 Z-3.000000 F50    
G0 Z2.000000 
G0 X31.800000 Y9.600000 
G1 Z-3.000000 F50    
G0 Z2.000000 
G0 X36.920000 Y9.570000 
G1 Z-3.000000 F50    
G0 Z2.000000 
G0 X36.920000 Y14.570000 
G1 Z-3.000000 F50    
G0 Z2.000000 
G0 X33.500000 Y17.800000 
G1 Z-3.000000 F50    
G0 Z2.000000 
G0 X33.400000 Y22.800000 
G1 Z-3.000000 F50    
G0 Z2.000000 
M4
G0 Z12.700000 
G0 X0.000000 Y0.000000 
M6 T03  ; 1.193800 
G0 Z2.000000 
M3
G4 P0
G0 Z2.000000
G0 X24.900000 Y51.830000 
G1 Z-3.000000 F50    
G1 Z2.000000
(R2.000000  P2.000000)
G0 X29.900000 Y51.830000 
G1 Z-3.000000 F50    
G0 Z2.000000 
G0 X34.900000 Y51.830000 
G1 Z-3.000000 F50    
G0 Z2.000000 
G0 X39.900000 Y51.830000 
G1 Z-3.000000 F50    
G0 Z2.000000 
M4
G0 Z12.700000 
G0 X0.000000 Y0.000000 
M6 T04  ; 1.200000 
G0 Z2.000000 
M3
G4 P0
G0 Z2.000000
G0 X31.660000 Y29.530000 
G1 Z-3.000000 F50    
G1 Z2.000000
(R2.000000  P2.000000)
G0 X31.660000 Y32.070000 
G1 Z-3.000000 F50    
G0 Z2.000000 
G0 X39.280000 Y32.070000 
G1 Z-3.000000 F50    
G0 Z2.000000 
G0 X39.280000 Y29.530000 
G1 Z-3.000000 F50    
G0 Z2.000000 
G0 X31.660000 Y42.230000 
G1 Z-3.000000 F50    
G0 Z2.000000 
T01 
G0 Z12.700000 
M4
G0 X0 Y0
