(.../Documents/EAGLE/ulps/pcb-gcode.ulp)
(Copyright 2005 - 2012 by John Johnson)
(See readme.txt for licensing terms.)
(This file generated from the board:)
(.../projects/suitchv3/suitch_sch.brd)
(Current profile is .../pcb-gcode-3.6.2.4/profiles/grbl-NuggetMill.pp  )
(This file generated 5/22/19 1:03 AM)
(Settings from pcb-machine.h)
(spindle on time = 0.0000)
(tool change at 0.000000 0.000000 12.700000 )
(feed rate xy = F0     )
(feed rate z  = F0     )
(Z Axis Settings)
(  High     Up        Down     Drill)
(12.700000 	2.000000 	-0.070000 	-3.000000 )
(Settings from pcb-defaults.h)
(isolate min = 0.0254)
(isolate max = 2.0000)
(isolate step = 0.1000)
(Generated top stencil, )
(Unit of measure: mm)
(Metric Mode)
G21
(Absolute Coordinates)
G90
G0 Z12.700000 
G0 X0.000000 Y0.000000 
M3
G4 P0
G0 Z2.000000 
G0 X23.805000 Y39.915000 
G1 Z-0.070000 F360   
G1 X24.755000 Y39.915000 F360   
G1 X24.755000 Y38.565000 
G1 X23.805000 Y38.565000 
G1 X23.805000 Y39.915000 
G1 X24.755000 Y39.915000 
G0 Z2.000000 
G0 X25.705000 Y39.915000 
G1 Z-0.070000 F360   
G1 X26.655000 Y39.915000 F360   
G1 X26.655000 Y38.565000 
G1 X25.705000 Y38.565000 
G1 X25.705000 Y39.915000 
G1 X26.655000 Y39.915000 
G0 Z2.000000 
G0 X24.755000 Y42.115000 
G1 Z-0.070000 F360   
G1 X25.705000 Y42.115000 F360   
G1 X25.705000 Y40.765000 
G1 X24.755000 Y40.765000 
G1 X24.755000 Y42.115000 
G1 X25.705000 Y42.115000 
G0 Z2.000000 
G0 X20.060000 Y13.915000 
G1 Z-0.070000 F360   
G1 X20.730000 Y13.915000 F360   
G1 X20.730000 Y12.185000 
G1 X20.060000 Y12.185000 
G1 X20.060000 Y13.915000 
G1 X20.730000 Y13.915000 
G0 Z2.000000 
G0 X21.330000 Y13.915000 
G1 Z-0.070000 F360   
G1 X22.000000 Y13.915000 F360   
G1 X22.000000 Y12.185000 
G1 X21.330000 Y12.185000 
G1 X21.330000 Y13.915000 
G1 X22.000000 Y13.915000 
G0 Z2.000000 
G0 X22.600000 Y13.915000 
G1 Z-0.070000 F360   
G1 X23.270000 Y13.915000 F360   
G1 X23.270000 Y12.185000 
G1 X22.600000 Y12.185000 
G1 X22.600000 Y13.915000 
G1 X23.270000 Y13.915000 
G0 Z2.000000 
G0 X23.870000 Y13.915000 
G1 Z-0.070000 F360   
G1 X24.540000 Y13.915000 F360   
G1 X24.540000 Y12.185000 
G1 X23.870000 Y12.185000 
G1 X23.870000 Y13.915000 
G1 X24.540000 Y13.915000 
G0 Z2.000000 
G0 X23.870000 Y18.615000 
G1 Z-0.070000 F360   
G1 X24.540000 Y18.615000 F360   
G1 X24.540000 Y16.885000 
G1 X23.870000 Y16.885000 
G1 X23.870000 Y18.615000 
G1 X24.540000 Y18.615000 
G0 Z2.000000 
G0 X22.600000 Y18.615000 
G1 Z-0.070000 F360   
G1 X23.270000 Y18.615000 F360   
G1 X23.270000 Y16.885000 
G1 X22.600000 Y16.885000 
G1 X22.600000 Y18.615000 
G1 X23.270000 Y18.615000 
G0 Z2.000000 
G0 X21.330000 Y18.615000 
G1 Z-0.070000 F360   
G1 X22.000000 Y18.615000 F360   
G1 X22.000000 Y16.885000 
G1 X21.330000 Y16.885000 
G1 X21.330000 Y18.615000 
G1 X22.000000 Y18.615000 
G0 Z2.000000 
G0 X20.060000 Y18.615000 
G1 Z-0.070000 F360   
G1 X20.730000 Y18.615000 F360   
G1 X20.730000 Y16.885000 
G1 X20.060000 Y16.885000 
G1 X20.060000 Y18.615000 
G1 X20.730000 Y18.615000 
G0 Z2.000000 
G0 X24.085000 Y33.249000 
G1 Z-0.070000 F360   
G1 X24.085000 Y35.699000 F360   
G1 X26.035000 Y35.699000 
G1 X26.035000 Y33.249000 
G1 X24.085000 Y33.249000 
G1 X24.085000 Y35.699000 
G0 Z2.000000 
G0 X24.085000 Y30.201000 
G1 Z-0.070000 F360   
G1 X24.085000 Y32.651000 F360   
G1 X26.035000 Y32.651000 
G1 X26.035000 Y30.201000 
G1 X24.085000 Y30.201000 
G1 X24.085000 Y32.651000 
G0 Z2.000000 
G0 X8.094997 Y25.375000 
G1 Z-0.070000 F360   
G1 X6.145000 Y25.375003 F360   
G1 X6.145003 Y26.925000 
G1 X8.095000 Y26.924997 
G1 X8.094997 Y25.375000 
G1 X6.145000 Y25.375003 
G0 Z2.000000 
G0 X2.694997 Y25.375000 
G1 Z-0.070000 F360   
G1 X0.745000 Y25.375003 F360   
G1 X0.745003 Y26.925000 
G1 X2.695000 Y26.924997 
G1 X2.694997 Y25.375000 
G1 X0.745000 Y25.375003 
G0 Z2.000000 
G0 X2.205000 Y30.385000 
G1 Z-0.070000 F360   
G1 X2.205003 Y32.335000 F360   
G1 X3.355000 Y32.335000 
G1 X3.354997 Y30.385000 
G1 X2.205000 Y30.385000 
G1 X2.205003 Y32.335000 
G0 Z2.000000 
G0 X4.205000 Y30.385000 
G1 Z-0.070000 F360   
G1 X4.205003 Y32.335000 F360   
G1 X5.355000 Y32.335000 
G1 X5.354997 Y30.385000 
G1 X4.205000 Y30.385000 
G1 X4.205003 Y32.335000 
G0 Z2.000000 
G0 X6.205000 Y30.385000 
G1 Z-0.070000 F360   
G1 X6.205003 Y32.335000 F360   
G1 X7.355000 Y32.335000 
G1 X7.354997 Y30.385000 
G1 X6.205000 Y30.385000 
G1 X6.205003 Y32.335000 
G0 Z2.000000 
G0 X8.205000 Y30.385000 
G1 Z-0.070000 F360   
G1 X8.205003 Y32.335000 F360   
G1 X9.355000 Y32.335000 
G1 X9.354997 Y30.385000 
G1 X8.205000 Y30.385000 
G1 X8.205003 Y32.335000 
G0 Z2.000000 
G0 X10.205000 Y30.385000 
G1 Z-0.070000 F360   
G1 X10.205003 Y32.335000 F360   
G1 X11.355000 Y32.335000 
G1 X11.354997 Y30.385000 
G1 X10.205000 Y30.385000 
G1 X10.205003 Y32.335000 
G0 Z2.000000 
G0 X12.205000 Y30.385000 
G1 Z-0.070000 F360   
G1 X12.205003 Y32.335000 F360   
G1 X13.355000 Y32.335000 
G1 X13.354997 Y30.385000 
G1 X12.205000 Y30.385000 
G1 X12.205003 Y32.335000 
G0 Z2.000000 
G0 X14.205000 Y30.385000 
G1 Z-0.070000 F360   
G1 X14.205003 Y32.335000 F360   
G1 X15.355000 Y32.335000 
G1 X15.354997 Y30.385000 
G1 X14.205000 Y30.385000 
G1 X14.205003 Y32.335000 
G0 Z2.000000 
G0 X16.205000 Y30.385000 
G1 Z-0.070000 F360   
G1 X16.205003 Y32.335000 F360   
G1 X17.355000 Y32.335000 
G1 X17.354997 Y30.385000 
G1 X16.205000 Y30.385000 
G1 X16.205003 Y32.335000 
G0 Z2.000000 
G0 X16.205000 Y46.585000 
G1 Z-0.070000 F360   
G1 X16.205003 Y48.535000 F360   
G1 X17.355000 Y48.535000 
G1 X17.354997 Y46.585000 
G1 X16.205000 Y46.585000 
G1 X16.205003 Y48.535000 
G0 Z2.000000 
G0 X14.205000 Y46.585000 
G1 Z-0.070000 F360   
G1 X14.205003 Y48.535000 F360   
G1 X15.355000 Y48.535000 
G1 X15.354997 Y46.585000 
G1 X14.205000 Y46.585000 
G1 X14.205003 Y48.535000 
G0 Z2.000000 
G0 X12.205000 Y46.585000 
G1 Z-0.070000 F360   
G1 X12.205003 Y48.535000 F360   
G1 X13.355000 Y48.535000 
G1 X13.354997 Y46.585000 
G1 X12.205000 Y46.585000 
G1 X12.205003 Y48.535000 
G0 Z2.000000 
G0 X10.205000 Y46.585000 
G1 Z-0.070000 F360   
G1 X10.205003 Y48.535000 F360   
G1 X11.355000 Y48.535000 
G1 X11.354997 Y46.585000 
G1 X10.205000 Y46.585000 
G1 X10.205003 Y48.535000 
G0 Z2.000000 
G0 X8.205000 Y46.585000 
G1 Z-0.070000 F360   
G1 X8.205003 Y48.535000 F360   
G1 X9.355000 Y48.535000 
G1 X9.354997 Y46.585000 
G1 X8.205000 Y46.585000 
G1 X8.205003 Y48.535000 
G0 Z2.000000 
G0 X6.205000 Y46.585000 
G1 Z-0.070000 F360   
G1 X6.205003 Y48.535000 F360   
G1 X7.355000 Y48.535000 
G1 X7.354997 Y46.585000 
G1 X6.205000 Y46.585000 
G1 X6.205003 Y48.535000 
G0 Z2.000000 
G0 X4.205000 Y46.585000 
G1 Z-0.070000 F360   
G1 X4.205003 Y48.535000 F360   
G1 X5.355000 Y48.535000 
G1 X5.354997 Y46.585000 
G1 X4.205000 Y46.585000 
G1 X4.205003 Y48.535000 
G0 Z2.000000 
G0 X2.205000 Y46.585000 
G1 Z-0.070000 F360   
G1 X2.205003 Y48.535000 F360   
G1 X3.355000 Y48.535000 
G1 X3.354997 Y46.585000 
G1 X2.205000 Y46.585000 
G1 X2.205003 Y48.535000 
G0 Z2.000000 
G0 X19.755000 Y33.785000 
G1 Z-0.070000 F360   
G1 X17.805000 Y33.785003 F360   
G1 X17.805000 Y34.935000 
G1 X19.755000 Y34.934997 
G1 X19.755000 Y33.785000 
G1 X17.805000 Y33.785003 
G0 Z2.000000 
G0 X19.755000 Y35.785000 
G1 Z-0.070000 F360   
G1 X17.805000 Y35.785003 F360   
G1 X17.805000 Y36.935000 
G1 X19.755000 Y36.934997 
G1 X19.755000 Y35.785000 
G1 X17.805000 Y35.785003 
G0 Z2.000000 
G0 X19.755000 Y37.785000 
G1 Z-0.070000 F360   
G1 X17.805000 Y37.785003 F360   
G1 X17.805000 Y38.935000 
G1 X19.755000 Y38.934997 
G1 X19.755000 Y37.785000 
G1 X17.805000 Y37.785003 
G0 Z2.000000 
G0 X19.755000 Y39.785000 
G1 Z-0.070000 F360   
G1 X17.805000 Y39.785003 F360   
G1 X17.805000 Y40.935000 
G1 X19.755000 Y40.934997 
G1 X19.755000 Y39.785000 
G1 X17.805000 Y39.785003 
G0 Z2.000000 
G0 X19.755000 Y41.785000 
G1 Z-0.070000 F360   
G1 X17.805000 Y41.785003 F360   
G1 X17.805000 Y42.935000 
G1 X19.755000 Y42.934997 
G1 X19.755000 Y41.785000 
G1 X17.805000 Y41.785003 
G0 Z2.000000 
G0 X19.755000 Y43.785000 
G1 Z-0.070000 F360   
G1 X17.805000 Y43.785003 F360   
G1 X17.805000 Y44.935000 
G1 X19.755000 Y44.934997 
G1 X19.755000 Y43.785000 
G1 X17.805000 Y43.785003 
G0 Z2.000000 
G0 Z12.700000 
M4
G0 X0 Y0
