(.../Documents/EAGLE/ulps/pcb-gcode.ulp)
(Copyright 2005 - 2012 by John Johnson)
(See readme.txt for licensing terms.)
(This file generated from the board:)
(.../projects/suitchv3/suitch_sch.brd)
(Current profile is .../EAGLE/ulps/profiles/generic.pp  )
(This file generated 5/19/19 6:57 PM)
(Settings from pcb-machine.h)
(spindle on time = 3.0000)
(spindle speed = 20000.0000)
(tool change at 0.0000 0.0000 25.4000 )
(feed rate xy = F0.00  )
(feed rate z  = F508.00 )
(Z Axis Settings)
(  High     Up        Down     Drill)
(12.7000 	2.5400 	-0.1778 	-2.0000 )
(Settings from pcb-defaults.h)
(isolate min = 0.0254)
(isolate max = 0.5080)
(isolate step = 0.1270)
(Generated top outlines, top drill, bottom outlines, bottom drill, )
(Unit of measure: mm)
( Tool|       Size       |  Min Sub |  Max Sub |   Count )
( T01  0.813mm 0.0320in 0.0000in 0.0000in )
( T02  1.000mm 0.0394in 0.0000in 0.0000in )
( T03  1.016mm 0.0400in 0.0000in 0.0000in )
( T04  1.200mm 0.0472in 0.0000in 0.0000in )
(Metric Mode)
G21
(Absolute Coordinates)
G90
S20000
G00 Z12.7000 
G00 X0.0000 Y0.0000 
M03
G04 P3.000000
M05
G00 Z25.4000 
M06 T01  ; 0.8128 
G01 Z0.0000 F508.00 
M06 
G00 Z2.5400 
M03
G04 P3.000000
G00 Z2.540000
G00 X33.2300 Y45.4000 
G01 Z-2.0000 F508.00 
G01 Z2.540000
(R2.5400  P1.000000)
G00 X35.7700 Y45.4000 
G01 Z-2.000000
G01 Z2.540000
M05
G00 Z25.4000 
G00 X0.0000 Y0.0000 
M06 T02  ; 1.0000 
G01 Z0.0000 F508.00 
M06 
G00 Z2.5400 
M03
G04 P3.000000
G00 Z2.540000
G00 X24.8900 Y51.1200 
G01 Z-2.0000 F508.00 
G01 Z2.540000
(R2.5400  P1.000000)
G00 X28.3900 Y51.1200 
G01 Z-2.000000
G01 Z2.540000
G00 X32.0100 Y51.1200 
G01 Z-2.000000
G01 Z2.540000
G00 X35.5100 Y51.1200 
G01 Z-2.000000
G01 Z2.540000
M05
G00 Z25.4000 
G00 X0.0000 Y0.0000 
M06 T03  ; 1.0160 
G01 Z0.0000 F508.00 
M06 
G00 Z2.5400 
M03
G04 P3.000000
G00 Z2.540000
G00 X8.0400 Y55.5800 
G01 Z-2.0000 F508.00 
G01 Z2.540000
(R2.5400  P1.000000)
G00 X10.5800 Y55.5800 
G01 Z-2.000000
G01 Z2.540000
G00 X13.1200 Y55.5800 
G01 Z-2.000000
G01 Z2.540000
G00 X15.6600 Y55.5800 
G01 Z-2.000000
G01 Z2.540000
G00 X20.5000 Y54.9400 
G01 Z-2.000000
G01 Z2.540000
G00 X20.5000 Y52.4000 
G01 Z-2.000000
G01 Z2.540000
G00 X20.5000 Y57.4800 
G01 Z-2.000000
G01 Z2.540000
G00 X20.5000 Y60.0200 
G01 Z-2.000000
G01 Z2.540000
G00 X17.0000 Y29.4000 
G01 Z-2.000000
G01 Z2.540000
G00 X14.4600 Y29.4000 
G01 Z-2.000000
G01 Z2.540000
G00 X11.9200 Y29.4000 
G01 Z-2.000000
G01 Z2.540000
G00 X9.3800 Y29.4000 
G01 Z-2.000000
G01 Z2.540000
G00 X8.0800 Y19.3300 
G01 Z-2.000000
G01 Z2.540000
G00 X8.0800 Y14.3300 
G01 Z-2.000000
G01 Z2.540000
G00 X37.4800 Y9.1300 
G01 Z-2.000000
G01 Z2.540000
G00 X37.4800 Y24.5300 
G01 Z-2.000000
G01 Z2.540000
M05
G00 Z25.4000 
G00 X0.0000 Y0.0000 
M06 T04  ; 1.2000 
G01 Z0.0000 F508.00 
M06 
G00 Z2.5400 
M03
G04 P3.000000
G00 Z2.540000
G00 X27.8600 Y29.5300 
G01 Z-2.0000 F508.00 
G01 Z2.540000
(R2.5400  P1.000000)
G00 X27.8600 Y32.0700 
G01 Z-2.000000
G01 Z2.540000
G00 X35.4800 Y32.0700 
G01 Z-2.000000
G01 Z2.540000
G00 X35.4800 Y29.5300 
G01 Z-2.000000
G01 Z2.540000
G00 X27.8600 Y42.2300 
G01 Z-2.000000
G01 Z2.540000
T01 
G00 Z12.7000 
M05
M02
