(.../Documents/EAGLE/ulps/pcb-gcode.ulp)
(Copyright 2005 - 2012 by John Johnson)
(See readme.txt for licensing terms.)
(This file generated from the board:)
(.../projects/suitchv3/suitch_sch.brd)
(Current profile is .../pcb-gcode-3.6.2.4/profiles/grbl-NuggetMill.pp  )
(This file generated 5/19/19 8:23 PM)
(Settings from pcb-machine.h)
(spindle on time = 0.0000)
(spindle speed = 20000.0000)
(tool change at 0.000000 0.000000 12.700000 )
(feed rate xy = F0     )
(feed rate z  = F144   )
(Z Axis Settings)
(  High     Up        Down     Drill)
(12.700000 	1.000000 	-0.200000 	-1.650000 )
(Settings from pcb-defaults.h)
(isolate min = 0.0254)
(isolate max = 0.5000)
(isolate step = 0.1000)
(Generated top outlines, top drill, bottom outlines, bottom drill, )
(Unit of measure: mm)
( Tool|       Size       |  Min Sub |  Max Sub |   Count )
( T01  0.813mm 0.0320in 0.0000in 0.0000in )
( T02  1.000mm 0.0394in 0.0000in 0.0000in )
( T03  1.016mm 0.0400in 0.0000in 0.0000in )
( T04  1.200mm 0.0472in 0.0000in 0.0000in )
(Metric Mode)
G21
(Absolute Coordinates)
G90
G0 Z12.700000 
G0 X0.000000 Y0.000000 
M3
G4 P0
M4
M6 T01  ; 0.812800 
G0 Z1.000000 
M3
G4 P0
G0 Z1.000000
G0 X-33.230000 Y45.400000 
G1 Z-1.650000 F144   
G1 Z1.000000
(R1.000000  P1.000000)
G0 X-35.770000 Y45.400000 
G1 Z-1.650000 F144   
G0 Z1.000000 
M4
G0 Z12.700000 
G0 X0.000000 Y0.000000 
M6 T02  ; 1.000000 
G0 Z1.000000 
M3
G4 P0
G0 Z1.000000
G0 X-24.890000 Y51.120000 
G1 Z-1.650000 F144   
G1 Z1.000000
(R1.000000  P1.000000)
G0 X-28.390000 Y51.120000 
G1 Z-1.650000 F144   
G0 Z1.000000 
G0 X-32.010000 Y51.120000 
G1 Z-1.650000 F144   
G0 Z1.000000 
G0 X-35.510000 Y51.120000 
G1 Z-1.650000 F144   
G0 Z1.000000 
M4
G0 Z12.700000 
G0 X0.000000 Y0.000000 
M6 T03  ; 1.016000 
G0 Z1.000000 
M3
G4 P0
G0 Z1.000000
G0 X-8.040000 Y55.580000 
G1 Z-1.650000 F144   
G1 Z1.000000
(R1.000000  P1.000000)
G0 X-10.580000 Y55.580000 
G1 Z-1.650000 F144   
G0 Z1.000000 
G0 X-13.120000 Y55.580000 
G1 Z-1.650000 F144   
G0 Z1.000000 
G0 X-15.660000 Y55.580000 
G1 Z-1.650000 F144   
G0 Z1.000000 
G0 X-20.500000 Y54.940000 
G1 Z-1.650000 F144   
G0 Z1.000000 
G0 X-20.500000 Y52.400000 
G1 Z-1.650000 F144   
G0 Z1.000000 
G0 X-20.500000 Y57.480000 
G1 Z-1.650000 F144   
G0 Z1.000000 
G0 X-20.500000 Y60.020000 
G1 Z-1.650000 F144   
G0 Z1.000000 
G0 X-17.000000 Y29.400000 
G1 Z-1.650000 F144   
G0 Z1.000000 
G0 X-14.460000 Y29.400000 
G1 Z-1.650000 F144   
G0 Z1.000000 
G0 X-11.920000 Y29.400000 
G1 Z-1.650000 F144   
G0 Z1.000000 
G0 X-9.380000 Y29.400000 
G1 Z-1.650000 F144   
G0 Z1.000000 
G0 X-8.080000 Y19.330000 
G1 Z-1.650000 F144   
G0 Z1.000000 
G0 X-8.080000 Y14.330000 
G1 Z-1.650000 F144   
G0 Z1.000000 
G0 X-37.480000 Y9.130000 
G1 Z-1.650000 F144   
G0 Z1.000000 
G0 X-37.480000 Y24.530000 
G1 Z-1.650000 F144   
G0 Z1.000000 
M4
G0 Z12.700000 
G0 X0.000000 Y0.000000 
M6 T04  ; 1.200000 
G0 Z1.000000 
M3
G4 P0
G0 Z1.000000
G0 X-27.860000 Y29.530000 
G1 Z-1.650000 F144   
G1 Z1.000000
(R1.000000  P1.000000)
G0 X-27.860000 Y32.070000 
G1 Z-1.650000 F144   
G0 Z1.000000 
G0 X-35.480000 Y32.070000 
G1 Z-1.650000 F144   
G0 Z1.000000 
G0 X-35.480000 Y29.530000 
G1 Z-1.650000 F144   
G0 Z1.000000 
G0 X-27.860000 Y42.230000 
G1 Z-1.650000 F144   
G0 Z1.000000 
T01 
G0 Z12.700000 
M4
G0 X0 Y0
