(.../Documents/EAGLE/ulps/pcb-gcode.ulp)
(Copyright 2005 - 2012 by John Johnson)
(See readme.txt for licensing terms.)
(This file generated from the board:)
(.../projects/suitchv3/suitch_sch.brd)
(Current profile is .../pcb-gcode-3.6.2.4/profiles/grbl-NuggetMill.pp  )
(This file generated 5/22/19 1:03 AM)
(Settings from pcb-machine.h)
(spindle on time = 0.0000)
(spindle speed = 15000.0000)
(milling depth = -2.5000)
(tool change at 0.000000 0.000000 12.700000 )
(feed rate xy = F60    )
(feed rate z  = F360   )
(Z Axis Settings)
(  High     Up        Down     Drill)
(12.700000 	2.000000 	-0.070000 	-3.000000 )
(Settings from pcb-defaults.h)
(isolate min = 0.0254)
(isolate max = 2.0000)
(isolate step = 0.1000)
(Generated top stencil, )
(Unit of measure: mm)
(Metric Mode)
G21
(Absolute Coordinates)
G90
G0 Z12.700000 
G0 X0.000000 Y0.000000 
M3
G4 P0
G0 Z2.000000 
G0 X-2.900000 Y0.300000 
G1 Z-0.416667 F360   
G1 X-11.700000 Y0.300000 F60    
G1 X-16.300000 Y5.600000 
G1 X-44.500000 Y5.700000 
G1 X-44.300000 Y55.400000 
G1 X-24.000000 Y55.400000 
G1 X-22.500000 Y57.300000 
G1 X-20.400000 Y60.400000 
G1 X-5.600000 Y60.400000 
G1 X-1.500000 Y56.800000 
G1 X-1.000000 Y56.300000 
G1 X-1.000000 Y45.600000 
G1 X-1.300000 Y45.000000 
G1 X-12.900000 Y45.000000 
G1 X-12.900000 Y43.400000 
G1 X-4.100000 Y34.600000 
G1 X-2.900000 Y34.600000 
G1 X0.400000 Y30.700000 
G1 X0.500000 Y28.800000 
G1 X0.400000 Y24.000000 
G1 X-3.000000 Y20.600000 
G1 X-2.900000 Y0.300000 
G0 Z2.000000 
G0 X-7.500000 Y9.200000 
G1 Z-0.416667 F360   
G1 X-9.900000 Y9.200000 F60    
G1 X-19.000000 Y18.300000 
G1 X-17.000000 Y20.000000 
G1 X-10.400000 Y20.000000 
G1 X-7.500000 Y16.900000 
G1 X-7.500000 Y9.200000 
G0 Z2.000000 
G0 X-2.900000 Y0.300000 
G1 Z-0.833333 F360   
G1 X-11.700000 Y0.300000 F60    
G1 X-16.300000 Y5.600000 
G1 X-44.500000 Y5.700000 
G1 X-44.300000 Y55.400000 
G1 X-24.000000 Y55.400000 
G1 X-22.500000 Y57.300000 
G1 X-20.400000 Y60.400000 
G1 X-5.600000 Y60.400000 
G1 X-1.500000 Y56.800000 
G1 X-1.000000 Y56.300000 
G1 X-1.000000 Y45.600000 
G1 X-1.300000 Y45.000000 
G1 X-12.900000 Y45.000000 
G1 X-12.900000 Y43.400000 
G1 X-4.100000 Y34.600000 
G1 X-2.900000 Y34.600000 
G1 X0.400000 Y30.700000 
G1 X0.500000 Y28.800000 
G1 X0.400000 Y24.000000 
G1 X-3.000000 Y20.600000 
G1 X-2.900000 Y0.300000 
G0 Z2.000000 
G0 X-7.500000 Y9.200000 
G1 Z-0.833333 F360   
G1 X-9.900000 Y9.200000 F60    
G1 X-19.000000 Y18.300000 
G1 X-17.000000 Y20.000000 
G1 X-10.400000 Y20.000000 
G1 X-7.500000 Y16.900000 
G1 X-7.500000 Y9.200000 
G0 Z2.000000 
G0 X-2.900000 Y0.300000 
G1 Z-1.250000 F360   
G1 X-11.700000 Y0.300000 F60    
G1 X-16.300000 Y5.600000 
G1 X-44.500000 Y5.700000 
G1 X-44.300000 Y55.400000 
G1 X-24.000000 Y55.400000 
G1 X-22.500000 Y57.300000 
G1 X-20.400000 Y60.400000 
G1 X-5.600000 Y60.400000 
G1 X-1.500000 Y56.800000 
G1 X-1.000000 Y56.300000 
G1 X-1.000000 Y45.600000 
G1 X-1.300000 Y45.000000 
G1 X-12.900000 Y45.000000 
G1 X-12.900000 Y43.400000 
G1 X-4.100000 Y34.600000 
G1 X-2.900000 Y34.600000 
G1 X0.400000 Y30.700000 
G1 X0.500000 Y28.800000 
G1 X0.400000 Y24.000000 
G1 X-3.000000 Y20.600000 
G1 X-2.900000 Y0.300000 
G0 Z2.000000 
G0 X-7.500000 Y9.200000 
G1 Z-1.250000 F360   
G1 X-9.900000 Y9.200000 F60    
G1 X-19.000000 Y18.300000 
G1 X-17.000000 Y20.000000 
G1 X-10.400000 Y20.000000 
G1 X-7.500000 Y16.900000 
G1 X-7.500000 Y9.200000 
G0 Z2.000000 
G0 X-2.900000 Y0.300000 
G1 Z-1.666667 F360   
G1 X-11.700000 Y0.300000 F60    
G1 X-16.300000 Y5.600000 
G1 X-44.500000 Y5.700000 
G1 X-44.300000 Y55.400000 
G1 X-24.000000 Y55.400000 
G1 X-22.500000 Y57.300000 
G1 X-20.400000 Y60.400000 
G1 X-5.600000 Y60.400000 
G1 X-1.500000 Y56.800000 
G1 X-1.000000 Y56.300000 
G1 X-1.000000 Y45.600000 
G1 X-1.300000 Y45.000000 
G1 X-12.900000 Y45.000000 
G1 X-12.900000 Y43.400000 
G1 X-4.100000 Y34.600000 
G1 X-2.900000 Y34.600000 
G1 X0.400000 Y30.700000 
G1 X0.500000 Y28.800000 
G1 X0.400000 Y24.000000 
G1 X-3.000000 Y20.600000 
G1 X-2.900000 Y0.300000 
G0 Z2.000000 
G0 X-7.500000 Y9.200000 
G1 Z-1.666667 F360   
G1 X-9.900000 Y9.200000 F60    
G1 X-19.000000 Y18.300000 
G1 X-17.000000 Y20.000000 
G1 X-10.400000 Y20.000000 
G1 X-7.500000 Y16.900000 
G1 X-7.500000 Y9.200000 
G0 Z2.000000 
G0 X-2.900000 Y0.300000 
G1 Z-2.083333 F360   
G1 X-11.700000 Y0.300000 F60    
G1 X-16.300000 Y5.600000 
G1 X-44.500000 Y5.700000 
G1 X-44.300000 Y55.400000 
G1 X-24.000000 Y55.400000 
G1 X-22.500000 Y57.300000 
G1 X-20.400000 Y60.400000 
G1 X-5.600000 Y60.400000 
G1 X-1.500000 Y56.800000 
G1 X-1.000000 Y56.300000 
G1 X-1.000000 Y45.600000 
G1 X-1.300000 Y45.000000 
G1 X-12.900000 Y45.000000 
G1 X-12.900000 Y43.400000 
G1 X-4.100000 Y34.600000 
G1 X-2.900000 Y34.600000 
G1 X0.400000 Y30.700000 
G1 X0.500000 Y28.800000 
G1 X0.400000 Y24.000000 
G1 X-3.000000 Y20.600000 
G1 X-2.900000 Y0.300000 
G0 Z2.000000 
G0 X-7.500000 Y9.200000 
G1 Z-2.083333 F360   
G1 X-9.900000 Y9.200000 F60    
G1 X-19.000000 Y18.300000 
G1 X-17.000000 Y20.000000 
G1 X-10.400000 Y20.000000 
G1 X-7.500000 Y16.900000 
G1 X-7.500000 Y9.200000 
G0 Z2.000000 
G0 X-2.900000 Y0.300000 
G1 Z-2.500000 F360   
G1 X-11.700000 Y0.300000 F60    
G1 X-16.300000 Y5.600000 
G1 X-44.500000 Y5.700000 
G1 X-44.300000 Y55.400000 
G1 X-24.000000 Y55.400000 
G1 X-22.500000 Y57.300000 
G1 X-20.400000 Y60.400000 
G1 X-5.600000 Y60.400000 
G1 X-1.500000 Y56.800000 
G1 X-1.000000 Y56.300000 
G1 X-1.000000 Y45.600000 
G1 X-1.300000 Y45.000000 
G1 X-12.900000 Y45.000000 
G1 X-12.900000 Y43.400000 
G1 X-4.100000 Y34.600000 
G1 X-2.900000 Y34.600000 
G1 X0.400000 Y30.700000 
G1 X0.500000 Y28.800000 
G1 X0.400000 Y24.000000 
G1 X-3.000000 Y20.600000 
G1 X-2.900000 Y0.300000 
G0 Z2.000000 
G0 X-7.500000 Y9.200000 
G1 Z-2.500000 F360   
G1 X-9.900000 Y9.200000 F60    
G1 X-19.000000 Y18.300000 
G1 X-17.000000 Y20.000000 
G1 X-10.400000 Y20.000000 
G1 X-7.500000 Y16.900000 
G1 X-7.500000 Y9.200000 
G0 Z12.700000 
M4
G0 X0 Y0
