%TF.GenerationSoftware,KiCad,Pcbnew,7.0.2-0*%
%TF.CreationDate,2023-08-01T14:30:48-06:00*%
%TF.ProjectId,cr2_battery_51x,6372325f-6261-4747-9465-72795f353178,rev?*%
%TF.SameCoordinates,Original*%
%TF.FileFunction,Copper,L2,Bot*%
%TF.FilePolarity,Positive*%
%FSLAX46Y46*%
G04 Gerber Fmt 4.6, Leading zero omitted, Abs format (unit mm)*
G04 Created by KiCad (PCBNEW 7.0.2-0) date 2023-08-01 14:30:48*
%MOMM*%
%LPD*%
G01*
G04 APERTURE LIST*
G04 Aperture macros list*
%AMHorizOval*
0 Thick line with rounded ends*
0 $1 width*
0 $2 $3 position (X,Y) of the first rounded end (center of the circle)*
0 $4 $5 position (X,Y) of the second rounded end (center of the circle)*
0 Add line between two ends*
20,1,$1,$2,$3,$4,$5,0*
0 Add two circle primitives to create the rounded ends*
1,1,$1,$2,$3*
1,1,$1,$4,$5*%
%AMRotRect*
0 Rectangle, with rotation*
0 The origin of the aperture is its center*
0 $1 length*
0 $2 width*
0 $3 Rotation angle, in degrees counterclockwise*
0 Add horizontal line*
21,1,$1,$2,0,0,$3*%
G04 Aperture macros list end*
%TA.AperFunction,ComponentPad*%
%ADD10O,1.524000X3.048000*%
%TD*%
%TA.AperFunction,ComponentPad*%
%ADD11RotRect,1.700000X1.700000X30.000000*%
%TD*%
%TA.AperFunction,ComponentPad*%
%ADD12HorizOval,1.700000X0.000000X0.000000X0.000000X0.000000X0*%
%TD*%
%TA.AperFunction,ComponentPad*%
%ADD13C,5.080000*%
%TD*%
%TA.AperFunction,ComponentPad*%
%ADD14C,3.175000*%
%TD*%
%TA.AperFunction,ViaPad*%
%ADD15C,0.600000*%
%TD*%
%TA.AperFunction,Conductor*%
%ADD16C,0.200000*%
%TD*%
G04 APERTURE END LIST*
D10*
%TO.P,-_13_10_+0,1,1*%
%TO.N,/GND*%
X149441100Y-111253600D03*
%TO.P,-_13_10_+0,2,2*%
%TO.N,/P013*%
X151981100Y-111253600D03*
%TO.P,-_13_10_+0,3,3*%
%TO.N,/P010*%
X154521100Y-111253600D03*
%TO.P,-_13_10_+0,4,4*%
%TO.N,/VCC33*%
X157061100Y-111253600D03*
%TD*%
D11*
%TO.P,J1,1,Pin_1*%
%TO.N,Net-(J1-Pin_1)*%
X137900000Y-106709100D03*
D12*
%TO.P,J1,2,Pin_2*%
%TO.N,Net-(J1-Pin_2)*%
X139170000Y-108908805D03*
%TO.P,J1,3,Pin_3*%
%TO.N,/VCC33*%
X140440000Y-111108509D03*
%TO.P,J1,4,Pin_4*%
%TO.N,/GND*%
X141710000Y-113308214D03*
%TD*%
D13*
%TO.P,U$1,+3V,+V*%
%TO.N,/VCC33*%
X153738101Y-94072318D03*
D14*
%TO.P,U$1,GND,0V*%
%TO.N,/GND*%
X145400000Y-112800000D03*
%TD*%
D15*
%TO.N,/VCC33*%
X140800000Y-108000000D03*
X139800000Y-105600000D03*
%TO.N,/GND*%
X138600000Y-103000000D03*
X146800000Y-115400000D03*
%TO.N,Net-(J1-Pin_1)*%
X147800000Y-108800000D03*
X143200000Y-109460705D03*
%TO.N,Net-(J1-Pin_2)*%
X146800000Y-108800000D03*
%TO.N,/P013*%
X150600000Y-108800000D03*
%TD*%
D16*
%TO.N,/GND*%
X138600000Y-103000000D02*
X138600000Y-105600000D01*
X138600000Y-105600000D02*
X139626630Y-106626630D01*
X139626630Y-106626630D02*
X139626630Y-106893145D01*
X139626630Y-106893145D02*
X138067600Y-108452175D01*
X138067600Y-108452175D02*
X138067600Y-109365435D01*
X138067600Y-109365435D02*
X138713370Y-110011205D01*
X138713370Y-110011205D02*
X139626630Y-110011205D01*
X139626630Y-110011205D02*
X139637835Y-110000000D01*
X139637835Y-110000000D02*
X140890521Y-110000000D01*
X140890521Y-110000000D02*
X141710000Y-110819479D01*
X141710000Y-110819479D02*
X141710000Y-113308214D01*
%TO.N,/VCC33*%
X139800000Y-105600000D02*
X140527900Y-106327900D01*
X140527900Y-106327900D02*
X140527900Y-107727900D01*
X140527900Y-107727900D02*
X140800000Y-108000000D01*
%TO.N,/GND*%
X146800000Y-113894700D02*
X146494700Y-113894700D01*
X146494700Y-113894700D02*
X145400000Y-112800000D01*
X146800000Y-115400000D02*
X146800000Y-113894700D01*
X146800000Y-113894700D02*
X149441100Y-111253600D01*
%TO.N,Net-(J1-Pin_1)*%
X146400000Y-110800000D02*
X144539295Y-110800000D01*
X147800000Y-108800000D02*
X147800000Y-109400000D01*
X147800000Y-109400000D02*
X146400000Y-110800000D01*
X144539295Y-110800000D02*
X143200000Y-109460705D01*
%TO.N,Net-(J1-Pin_2)*%
X146691195Y-108908805D02*
X139170000Y-108908805D01*
X146800000Y-108800000D02*
X146691195Y-108908805D01*
%TO.N,/P013*%
X151981100Y-110181100D02*
X151981100Y-111253600D01*
X150600000Y-108800000D02*
X151981100Y-110181100D01*
%TD*%
M02*
