%TF.GenerationSoftware,KiCad,Pcbnew,7.0.2-0*%
%TF.CreationDate,2023-08-01T14:30:48-06:00*%
%TF.ProjectId,cr2_battery_51x,6372325f-6261-4747-9465-72795f353178,rev?*%
%TF.SameCoordinates,Original*%
%TF.FileFunction,Legend,Top*%
%TF.FilePolarity,Positive*%
%FSLAX46Y46*%
G04 Gerber Fmt 4.6, Leading zero omitted, Abs format (unit mm)*
G04 Created by KiCad (PCBNEW 7.0.2-0) date 2023-08-01 14:30:48*
%MOMM*%
%LPD*%
G01*
G04 APERTURE LIST*
%ADD10C,0.127000*%
%ADD11C,0.150000*%
%ADD12C,0.217932*%
%ADD13C,0.152400*%
%ADD14C,0.120000*%
%ADD15C,0.200000*%
G04 APERTURE END LIST*
D10*
%TO.C,-_13_10_+0*%
X147898957Y-111748718D02*
X147245814Y-111748718D01*
X147572385Y-111748718D02*
X147572385Y-110605718D01*
X147572385Y-110605718D02*
X147463528Y-110769004D01*
X147463528Y-110769004D02*
X147354671Y-110877861D01*
X147354671Y-110877861D02*
X147245814Y-110932290D01*
X159347100Y-110986718D02*
X159347100Y-111748718D01*
X159074957Y-110551290D02*
X158802814Y-111367718D01*
X158802814Y-111367718D02*
X159510385Y-111367718D01*
D11*
%TO.C,J1*%
X136177634Y-104392542D02*
X136534777Y-105011131D01*
X136534777Y-105011131D02*
X136564966Y-105158659D01*
X136564966Y-105158659D02*
X136530106Y-105288756D01*
X136530106Y-105288756D02*
X136430198Y-105401424D01*
X136430198Y-105401424D02*
X136347719Y-105449043D01*
X137543659Y-104758567D02*
X137048788Y-105044281D01*
X137296224Y-104901424D02*
X136796224Y-104035399D01*
X136796224Y-104035399D02*
X136785174Y-104206736D01*
X136785174Y-104206736D02*
X136750314Y-104336833D01*
X136750314Y-104336833D02*
X136691645Y-104425692D01*
D12*
%TO.C,U$1*%
X148944234Y-106517779D02*
X148979432Y-106609473D01*
X148979432Y-106609473D02*
X148958134Y-106828061D01*
X148958134Y-106828061D02*
X148901638Y-106954954D01*
X148901638Y-106954954D02*
X148753447Y-107117046D01*
X148753447Y-107117046D02*
X148570057Y-107187442D01*
X148570057Y-107187442D02*
X148414916Y-107194392D01*
X148414916Y-107194392D02*
X148132882Y-107144846D01*
X148132882Y-107144846D02*
X147942542Y-107060101D01*
X147942542Y-107060101D02*
X147717004Y-106883662D01*
X147717004Y-106883662D02*
X147618359Y-106763719D01*
X147618359Y-106763719D02*
X147547963Y-106580330D01*
X147547963Y-106580330D02*
X147569261Y-106361742D01*
X147569261Y-106361742D02*
X147625757Y-106234849D01*
X147625757Y-106234849D02*
X147773949Y-106072757D01*
X147773949Y-106072757D02*
X147865643Y-106037559D01*
X149664339Y-105241898D02*
X148832137Y-105403542D01*
X149325361Y-106003256D02*
X147992984Y-105410044D01*
X147992984Y-105410044D02*
X148218970Y-104902472D01*
X148218970Y-104902472D02*
X148338913Y-104803827D01*
X148338913Y-104803827D02*
X148430607Y-104768629D01*
X148430607Y-104768629D02*
X148585749Y-104761679D01*
X148585749Y-104761679D02*
X148776088Y-104846423D01*
X148776088Y-104846423D02*
X148874733Y-104966366D01*
X148874733Y-104966366D02*
X148909931Y-105058061D01*
X148909931Y-105058061D02*
X148916881Y-105213202D01*
X148916881Y-105213202D02*
X148690896Y-105720774D01*
X148684841Y-104197610D02*
X148649643Y-104105915D01*
X148649643Y-104105915D02*
X148642693Y-103950774D01*
X148642693Y-103950774D02*
X148783934Y-103633542D01*
X148783934Y-103633542D02*
X148903877Y-103534897D01*
X148903877Y-103534897D02*
X148995572Y-103499699D01*
X148995572Y-103499699D02*
X149150713Y-103492748D01*
X149150713Y-103492748D02*
X149277606Y-103549245D01*
X149277606Y-103549245D02*
X149439697Y-103697436D01*
X149439697Y-103697436D02*
X149862077Y-104797773D01*
X149862077Y-104797773D02*
X150229304Y-103972968D01*
X149849520Y-102435456D02*
X150737771Y-102830931D01*
X149200707Y-102526703D02*
X150011164Y-103267659D01*
X150011164Y-103267659D02*
X150378390Y-102442854D01*
X149659628Y-101666700D02*
X150055103Y-100778449D01*
X150055103Y-100778449D02*
X151133246Y-101942680D01*
X150224592Y-100397770D02*
X150620067Y-99509519D01*
X150620067Y-99509519D02*
X151698210Y-100673750D01*
D10*
%TO.C,U1*%
X159331100Y-106403600D02*
X159331100Y-97303600D01*
X159331100Y-97303600D02*
X155381100Y-97303600D01*
X155381100Y-106403600D02*
X159331100Y-106403600D01*
X155381100Y-106403600D02*
X155381100Y-97303600D01*
X155381100Y-97303600D02*
X140831100Y-97303600D01*
X140831100Y-106403600D02*
X155381100Y-106403600D01*
X140831100Y-97303600D02*
X140831100Y-106403600D01*
D13*
%TO.C,-_13_10_+0*%
X148171100Y-110618600D02*
X148171100Y-111888600D01*
X148171100Y-111888600D02*
X148806100Y-112523600D01*
X148806100Y-109983600D02*
X148171100Y-110618600D01*
X148806100Y-109983600D02*
X150076100Y-109983600D01*
X150076100Y-109983600D02*
X150711100Y-110618600D01*
X150076100Y-112523600D02*
X148806100Y-112523600D01*
X150711100Y-110618600D02*
X151346100Y-109983600D01*
X150711100Y-111888600D02*
X150076100Y-112523600D01*
X151346100Y-109983600D02*
X152616100Y-109983600D01*
X151346100Y-112523600D02*
X150711100Y-111888600D01*
X152616100Y-109983600D02*
X153251100Y-110618600D01*
X152616100Y-112523600D02*
X151346100Y-112523600D01*
X153251100Y-110618600D02*
X153886100Y-109983600D01*
X153251100Y-111888600D02*
X152616100Y-112523600D01*
X153886100Y-109983600D02*
X155156100Y-109983600D01*
X153886100Y-112523600D02*
X153251100Y-111888600D01*
X155156100Y-109983600D02*
X155791100Y-110618600D01*
X155156100Y-112523600D02*
X153886100Y-112523600D01*
X155791100Y-111888600D02*
X155156100Y-112523600D01*
X155791100Y-111888600D02*
X156426100Y-112523600D01*
X156426100Y-109983600D02*
X155791100Y-110618600D01*
X156426100Y-109983600D02*
X157696100Y-109983600D01*
X157696100Y-109983600D02*
X158331100Y-110618600D01*
X157696100Y-112523600D02*
X156426100Y-112523600D01*
X158331100Y-110618600D02*
X158331100Y-111888600D01*
X158331100Y-111888600D02*
X157696100Y-112523600D01*
D14*
%TO.C,J1*%
X136083186Y-106222286D02*
X137235000Y-105557286D01*
X136748186Y-107374100D02*
X136083186Y-106222286D01*
X137383186Y-108473952D02*
X141223186Y-115125027D01*
X137383186Y-108473952D02*
X139686814Y-107143952D01*
X141223186Y-115125027D02*
X143526814Y-113795027D01*
X139686814Y-107143952D02*
X143526814Y-113795027D01*
D15*
%TO.C,U$1*%
X146213473Y-110972909D02*
X147026946Y-109145818D01*
X151907786Y-98183272D02*
X152721259Y-96356181D01*
X151400977Y-96862990D02*
X153228068Y-97676464D01*
X160953893Y-105491636D02*
G75*
G03*
X160953893Y-105491636I-12300000J0D01*
G01*
%TD*%
M02*
