(kicad_pcb (version 20221018) (generator pcbnew)

  (general
    (thickness 1.6)
  )

  (paper "A4")
  (layers
    (0 "F.Cu" signal)
    (31 "B.Cu" signal)
    (32 "B.Adhes" user "B.Adhesive")
    (33 "F.Adhes" user "F.Adhesive")
    (34 "B.Paste" user)
    (35 "F.Paste" user)
    (36 "B.SilkS" user "B.Silkscreen")
    (37 "F.SilkS" user "F.Silkscreen")
    (38 "B.Mask" user)
    (39 "F.Mask" user)
    (40 "Dwgs.User" user "User.Drawings")
    (41 "Cmts.User" user "User.Comments")
    (42 "Eco1.User" user "User.Eco1")
    (43 "Eco2.User" user "User.Eco2")
    (44 "Edge.Cuts" user)
    (45 "Margin" user)
    (46 "B.CrtYd" user "B.Courtyard")
    (47 "F.CrtYd" user "F.Courtyard")
    (48 "B.Fab" user)
    (49 "F.Fab" user)
    (50 "User.1" user)
    (51 "User.2" user)
    (52 "User.3" user)
    (53 "User.4" user)
    (54 "User.5" user)
    (55 "User.6" user)
    (56 "User.7" user)
    (57 "User.8" user)
    (58 "User.9" user)
  )

  (setup
    (pad_to_mask_clearance 0)
    (pcbplotparams
      (layerselection 0x00010fc_ffffffff)
      (plot_on_all_layers_selection 0x0000000_00000000)
      (disableapertmacros false)
      (usegerberextensions false)
      (usegerberattributes true)
      (usegerberadvancedattributes true)
      (creategerberjobfile true)
      (dashed_line_dash_ratio 12.000000)
      (dashed_line_gap_ratio 3.000000)
      (svgprecision 4)
      (plotframeref false)
      (viasonmask false)
      (mode 1)
      (useauxorigin false)
      (hpglpennumber 1)
      (hpglpenspeed 20)
      (hpglpendiameter 15.000000)
      (dxfpolygonmode true)
      (dxfimperialunits true)
      (dxfusepcbnewfont true)
      (psnegative false)
      (psa4output false)
      (plotreference true)
      (plotvalue true)
      (plotinvisibletext false)
      (sketchpadsonfab false)
      (subtractmaskfromsilk false)
      (outputformat 1)
      (mirror false)
      (drillshape 0)
      (scaleselection 1)
      (outputdirectory "")
    )
  )

  (net 0 "")
  (net 1 "/GND")
  (net 2 "/P013")
  (net 3 "/P010")
  (net 4 "/VCC33")
  (net 5 "Net-(J1-Pin_1)")
  (net 6 "Net-(J1-Pin_2)")
  (net 7 "unconnected-(U1-P0.01(RX)-PadP3)")
  (net 8 "unconnected-(U1-P0.02(TX)-PadP4)")
  (net 9 "unconnected-(U1-P0.03(INT)-PadP5)")
  (net 10 "unconnected-(U1-P0.04(TEST)-PadP6)")
  (net 11 "unconnected-(U1-P0.09(ENABLE)-PadP7)")

  (footprint "flasher:MA04-1" (layer "F.Cu")
    (tstamp 00b05db0-93c5-40c8-9d7d-36e8b490078a)
    (at 153.2511 111.2536)
    (descr "<b>PIN HEADER</b>")
    (property "Sheetfile" "flasher.kicad_sch")
    (property "Sheetname" "")
    (path "/22b0b45a-bd8c-44ac-ab87-8b093bf4228d")
    (fp_text reference "-_13_10_+0" (at -5.08 -1.651) (layer "F.SilkS") hide
        (effects (font (size 1.143 1.143) (thickness 0.127)) (justify left bottom))
      (tstamp edbe6c8c-4b6f-4223-b86d-02b23079cbbe)
    )
    (fp_text value "-_13_10_+" (at -4.365 -2.151) (layer "F.Fab")
        (effects (font (size 1.1557 1.1557) (thickness 0.1143)) (justify left))
      (tstamp d1e034fe-5615-4d5d-9137-84afb6f084e0)
    )
    (fp_text user "1" (at -6.223 0.635) (layer "F.SilkS")
        (effects (font (size 1.143 1.143) (thickness 0.127)) (justify left bottom))
      (tstamp 52facd75-0ae0-4058-bdf1-6e278fb9b728)
    )
    (fp_text user "4" (at 5.334 0.635) (layer "F.SilkS")
        (effects (font (size 1.143 1.143) (thickness 0.127)) (justify left bottom))
      (tstamp de66ff10-c4bd-4062-bf19-da0dab65d89e)
    )
    (fp_line (start -5.08 -0.635) (end -5.08 0.635)
      (stroke (width 0.1524) (type solid)) (layer "F.SilkS") (tstamp ba671d4f-fca0-4318-a4f5-cefabf290dbe))
    (fp_line (start -5.08 0.635) (end -4.445 1.27)
      (stroke (width 0.1524) (type solid)) (layer "F.SilkS") (tstamp 930922de-0376-4d4d-8d1c-ad9d579e3a52))
    (fp_line (start -4.445 -1.27) (end -5.08 -0.635)
      (stroke (width 0.1524) (type solid)) (layer "F.SilkS") (tstamp b605e3fa-3532-4828-ac85-54b8985c2fd4))
    (fp_line (start -4.445 -1.27) (end -3.175 -1.27)
      (stroke (width 0.1524) (type solid)) (layer "F.SilkS") (tstamp b758f544-ccf5-47ef-b497-e2e0e56304c2))
    (fp_line (start -3.175 -1.27) (end -2.54 -0.635)
      (stroke (width 0.1524) (type solid)) (layer "F.SilkS") (tstamp 03093ca5-85a4-4008-be26-5a0d15633993))
    (fp_line (start -3.175 1.27) (end -4.445 1.27)
      (stroke (width 0.1524) (type solid)) (layer "F.SilkS") (tstamp 992a17c9-0da4-4b78-bb76-b6c37eb718f5))
    (fp_line (start -2.54 -0.635) (end -1.905 -1.27)
      (stroke (width 0.1524) (type solid)) (layer "F.SilkS") (tstamp 5f720d57-9a88-4bb2-9d56-d2532f82ded7))
    (fp_line (start -2.54 0.635) (end -3.175 1.27)
      (stroke (width 0.1524) (type solid)) (layer "F.SilkS") (tstamp ad247292-d35a-4a66-945e-5f8611ec0a4e))
    (fp_line (start -1.905 -1.27) (end -0.635 -1.27)
      (stroke (width 0.1524) (type solid)) (layer "F.SilkS") (tstamp 582ffb95-2462-410d-bfd7-c25e2245aeba))
    (fp_line (start -1.905 1.27) (end -2.54 0.635)
      (stroke (width 0.1524) (type solid)) (layer "F.SilkS") (tstamp 7f93fba5-8d0f-4ef2-9d74-66bd0ffa1a2f))
    (fp_line (start -0.635 -1.27) (end 0 -0.635)
      (stroke (width 0.1524) (type solid)) (layer "F.SilkS") (tstamp aa556998-f56a-45c3-ba11-a4cdebe2632e))
    (fp_line (start -0.635 1.27) (end -1.905 1.27)
      (stroke (width 0.1524) (type solid)) (layer "F.SilkS") (tstamp 72e80fbc-6734-4343-ad11-c674b249f1e2))
    (fp_line (start 0 -0.635) (end 0.635 -1.27)
      (stroke (width 0.1524) (type solid)) (layer "F.SilkS") (tstamp 33d430ed-772f-4070-b646-70a59e29d48d))
    (fp_line (start 0 0.635) (end -0.635 1.27)
      (stroke (width 0.1524) (type solid)) (layer "F.SilkS") (tstamp 329f4580-c5ba-4132-bf9d-58dd9c20a502))
    (fp_line (start 0.635 -1.27) (end 1.905 -1.27)
      (stroke (width 0.1524) (type solid)) (layer "F.SilkS") (tstamp 693cdd30-16e0-479d-aaeb-f82c3c54afe9))
    (fp_line (start 0.635 1.27) (end 0 0.635)
      (stroke (width 0.1524) (type solid)) (layer "F.SilkS") (tstamp d211f3e3-79a6-4593-bde4-9f607ac1d87a))
    (fp_line (start 1.905 -1.27) (end 2.54 -0.635)
      (stroke (width 0.1524) (type solid)) (layer "F.SilkS") (tstamp 8e0d812f-9de7-41bd-9333-ac41a97ca063))
    (fp_line (start 1.905 1.27) (end 0.635 1.27)
      (stroke (width 0.1524) (type solid)) (layer "F.SilkS") (tstamp a97c810c-44e8-4c99-9c24-d43c2cebaddb))
    (fp_line (start 2.54 0.635) (end 1.905 1.27)
      (stroke (width 0.1524) (type solid)) (layer "F.SilkS") (tstamp 0f10f3a4-fc7b-44e8-b45a-f5d6e8d3c7ad))
    (fp_line (start 2.54 0.635) (end 3.175 1.27)
      (stroke (width 0.1524) (type solid)) (layer "F.SilkS") (tstamp 4868f1d3-b01b-4b8e-a2ce-81fcd1d6c848))
    (fp_line (start 3.175 -1.27) (end 2.54 -0.635)
      (stroke (width 0.1524) (type solid)) (layer "F.SilkS") (tstamp a4a52dd7-dee2-48f6-bb6e-2df76d0c7770))
    (fp_line (start 3.175 -1.27) (end 4.445 -1.27)
      (stroke (width 0.1524) (type solid)) (layer "F.SilkS") (tstamp 1b59c1bb-392e-4218-97df-3276552f34d5))
    (fp_line (start 4.445 -1.27) (end 5.08 -0.635)
      (stroke (width 0.1524) (type solid)) (layer "F.SilkS") (tstamp a5921607-85be-4680-bc08-293d43289085))
    (fp_line (start 4.445 1.27) (end 3.175 1.27)
      (stroke (width 0.1524) (type solid)) (layer "F.SilkS") (tstamp 2621f16e-f753-47ce-82fd-41eb0cd8db29))
    (fp_line (start 5.08 -0.635) (end 5.08 0.635)
      (stroke (width 0.1524) (type solid)) (layer "F.SilkS") (tstamp 252d4373-4003-4cb2-85f3-2fe6c1335307))
    (fp_line (start 5.08 0.635) (end 4.445 1.27)
      (stroke (width 0.1524) (type solid)) (layer "F.SilkS") (tstamp c73ff254-6be4-4b09-8220-635b9fb50ecf))
    (fp_poly
      (pts
        (xy -4.064 0.254)
        (xy -3.556 0.254)
        (xy -3.556 -0.254)
        (xy -4.064 -0.254)
      )

      (stroke (width 0) (type default)) (fill solid) (layer "F.Fab") (tstamp 098c8fb5-184e-4db2-b6bf-2965ee5f2087))
    (fp_poly
      (pts
        (xy -1.524 0.254)
        (xy -1.016 0.254)
        (xy -1.016 -0.254)
        (xy -1.524 -0.254)
      )

      (stroke (width 0) (type default)) (fill solid) (layer "F.Fab") (tstamp 278182a9-2a84-496d-b50c-8bb648f10673))
    (fp_poly
      (pts
        (xy 1.016 0.254)
        (xy 1.524 0.254)
        (xy 1.524 -0.254)
        (xy 1.016 -0.254)
      )

      (stroke (width 0) (type default)) (fill solid) (layer "F.Fab") (tstamp f23fed78-4d69-474a-aee7-45c0c7896dd1))
    (fp_poly
      (pts
        (xy 3.556 0.254)
        (xy 4.064 0.254)
        (xy 4.064 -0.254)
        (xy 3.556 -0.254)
      )

      (stroke (width 0) (type default)) (fill solid) (layer "F.Fab") (tstamp 8f093d2d-37d4-4b5b-bba0-b653e77905af))
    (pad "1" thru_hole oval (at -3.81 0 90) (size 3.048 1.524) (drill 1.016) (layers "*.Cu" "*.Mask")
      (net 1 "/GND") (pinfunction "1") (pintype "passive") (solder_mask_margin 0.1016) (thermal_bridge_angle 45) (tstamp 98422b0e-90d3-4240-a08d-39b42c78a767))
    (pad "2" thru_hole oval (at -1.27 0 90) (size 3.048 1.524) (drill 1.016) (layers "*.Cu" "*.Mask")
      (net 2 "/P013") (pinfunction "2") (pintype "passive") (solder_mask_margin 0.1016) (thermal_bridge_angle 45) (tstamp 8c4826b1-4bec-4443-a49f-39aab8e171b1))
    (pad "3" thru_hole oval (at 1.27 0 90) (size 3.048 1.524) (drill 1.016) (layers "*.Cu" "*.Mask")
      (net 3 "/P010") (pinfunction "3") (pintype "passive") (solder_mask_margin 0.1016) (thermal_bridge_angle 45) (tstamp 7c27f8a2-8aad-4fbe-957f-83655563c63d))
    (pad "4" thru_hole oval (at 3.81 0 90) (size 3.048 1.524) (drill 1.016) (layers "*.Cu" "*.Mask")
      (net 4 "/VCC33") (pinfunction "4") (pintype "passive") (solder_mask_margin 0.1016) (thermal_bridge_angle 45) (tstamp 53e1c258-776f-47d3-8482-dd8d64c7c41f))
  )

  (footprint "Connector_PinHeader_2.54mm:PinHeader_1x04_P2.54mm_Vertical" (layer "F.Cu")
    (tstamp 7d446191-a742-4ecb-a662-7aca02ce2570)
    (at 137.9 106.7091 30)
    (descr "Through hole straight pin header, 1x04, 2.54mm pitch, single row")
    (tags "Through hole pin header THT 1x04 2.54mm single row")
    (property "Sheetfile" "flasher.kicad_sch")
    (property "Sheetname" "")
    (property "ki_description" "Generic connector, single row, 01x04, script generated (kicad-library-utils/schlib/autogen/connector/)")
    (property "ki_keywords" "connector")
    (path "/9b388da4-f8ba-48fd-962e-44148642afdb")
    (attr through_hole)
    (fp_text reference "J1" (at 0 -2.33 30) (layer "F.SilkS")
        (effects (font (size 1 1) (thickness 0.15)))
      (tstamp 5927b394-38a4-49c6-b953-293e9a81d477)
    )
    (fp_text value "Conn_01x04" (at 0 9.95 30) (layer "F.Fab") hide
        (effects (font (size 1 1) (thickness 0.15)))
      (tstamp 2c5d8c25-98d1-47ca-9cf0-67b1b2fa47d2)
    )
    (fp_text user "${REFERENCE}" (at 0 3.81 120) (layer "F.Fab")
        (effects (font (size 1 1) (thickness 0.15)))
      (tstamp 2bfe5db6-cc2d-45df-a569-c184d0d782dd)
    )
    (fp_line (start -1.33 -1.33) (end 0 -1.33)
      (stroke (width 0.12) (type solid)) (layer "F.SilkS") (tstamp ea215b81-209c-4c1b-b601-17163083a85e))
    (fp_line (start -1.33 0) (end -1.33 -1.33)
      (stroke (width 0.12) (type solid)) (layer "F.SilkS") (tstamp 862b43d0-e685-4afc-a320-22f34e46295e))
    (fp_line (start -1.33 1.27) (end -1.33 8.95)
      (stroke (width 0.12) (type solid)) (layer "F.SilkS") (tstamp 3708b463-1956-4b66-84b0-6c5310971cec))
    (fp_line (start -1.33 1.27) (end 1.33 1.27)
      (stroke (width 0.12) (type solid)) (layer "F.SilkS") (tstamp 55f8afe1-30e8-41ab-91b4-e2f4e0657007))
    (fp_line (start -1.33 8.95) (end 1.33 8.95)
      (stroke (width 0.12) (type solid)) (layer "F.SilkS") (tstamp ed368664-e033-4624-890e-d581117674a0))
    (fp_line (start 1.33 1.27) (end 1.33 8.95)
      (stroke (width 0.12) (type solid)) (layer "F.SilkS") (tstamp 008418ef-4c40-4882-b3d4-15a0d8604a15))
    (fp_line (start -1.8 -1.8) (end -1.8 9.4)
      (stroke (width 0.05) (type solid)) (layer "F.CrtYd") (tstamp 11904ba1-317d-42b4-bb42-f9b1e7f6d3de))
    (fp_line (start -1.8 9.4) (end 1.8 9.4)
      (stroke (width 0.05) (type solid)) (layer "F.CrtYd") (tstamp 117ff7a4-94ab-48d0-9c6a-9a4f7b6c74c4))
    (fp_line (start 1.8 -1.8) (end -1.8 -1.8)
      (stroke (width 0.05) (type solid)) (layer "F.CrtYd") (tstamp 3259cd3b-4dc7-4e38-b282-f56b82bcd9f9))
    (fp_line (start 1.8 9.4) (end 1.8 -1.8)
      (stroke (width 0.05) (type solid)) (layer "F.CrtYd") (tstamp 372d4a21-c215-4f15-ad04-d345cbdc8762))
    (fp_line (start -1.27 -0.635) (end -0.635 -1.27)
      (stroke (width 0.1) (type solid)) (layer "F.Fab") (tstamp 4989097c-1bd0-4707-8c11-c7393656bd5c))
    (fp_line (start -1.27 8.89) (end -1.27 -0.635)
      (stroke (width 0.1) (type solid)) (layer "F.Fab") (tstamp d7e9ff48-8828-4b18-8cf8-c33fd5b0948a))
    (fp_line (start -0.635 -1.27) (end 1.27 -1.27)
      (stroke (width 0.1) (type solid)) (layer "F.Fab") (tstamp 3f96b859-2338-4c8f-85db-d954003170f0))
    (fp_line (start 1.27 -1.27) (end 1.27 8.89)
      (stroke (width 0.1) (type solid)) (layer "F.Fab") (tstamp 1fadf63b-5719-49af-a85e-68fc6abd51ce))
    (fp_line (start 1.27 8.89) (end -1.27 8.89)
      (stroke (width 0.1) (type solid)) (layer "F.Fab") (tstamp e50d96ef-e3ad-4a53-889e-4f1dc3898a14))
    (pad "1" thru_hole rect (at 0 0 30) (size 1.7 1.7) (drill 1) (layers "*.Cu" "*.Mask")
      (net 5 "Net-(J1-Pin_1)") (pinfunction "Pin_1") (pintype "passive") (tstamp f393d513-f824-459c-89e6-c7e07657f845))
    (pad "2" thru_hole oval (at 0 2.54 30) (size 1.7 1.7) (drill 1) (layers "*.Cu" "*.Mask")
      (net 6 "Net-(J1-Pin_2)") (pinfunction "Pin_2") (pintype "passive") (tstamp c4958a54-f90e-4cd8-9775-d8c2b155b476))
    (pad "3" thru_hole oval (at 0 5.08 30) (size 1.7 1.7) (drill 1) (layers "*.Cu" "*.Mask")
      (net 4 "/VCC33") (pinfunction "Pin_3") (pintype "passive") (tstamp 8bbd4177-f9bf-4960-bf7a-45b69ec7cd25))
    (pad "4" thru_hole oval (at 0 7.62 30) (size 1.7 1.7) (drill 1) (layers "*.Cu" "*.Mask")
      (net 1 "/GND") (pinfunction "Pin_4") (pintype "passive") (tstamp eb7542b6-41cc-40f9-94da-e8702158a884))
    (model "${KICAD6_3DMODEL_DIR}/Connector_PinHeader_2.54mm.3dshapes/PinHeader_1x04_P2.54mm_Vertical.wrl"
      (offset (xyz 0 0 0))
      (scale (xyz 1 1 1))
      (rotate (xyz 0 0 0))
    )
  )

  (footprint "flasher:WT51822-S4AT" (layer "F.Cu")
    (tstamp b8ef7496-f2c8-4753-bb97-92778885415d)
    (at 140.8311 106.4036)
    (descr "WT51822-S4AT is a high performance ,low power radio transmit and receive system module use Nordic BLE 4.1 nRF51822 as the controller chips.")
    (property "Sheetfile" "flasher.kicad_sch")
    (property "Sheetname" "")
    (path "/3fdff481-15e8-45a0-bda9-d922108f35f2")
    (fp_text reference "U1" (at 3 -10) (layer "F.SilkS") hide
        (effects (font (size 1.1684 1.1684) (thickness 0.1016)) (justify left bottom))
      (tstamp 50b443e7-19f0-4d16-8aa9-4d6fe63af032)
    )
    (fp_text value "WT51822-S4ATMODULE" (at 2.5 3) (layer "F.Fab") hide
        (effects (font (size 1.1684 1.1684) (thickness 0.1016)) (justify left bottom))
      (tstamp 1d7fdf35-48f7-4157-a58e-e44cd669a7de)
    )
    (fp_line (start 0 -9.1) (end 0 0)
      (stroke (width 0.127) (type solid)) (layer "F.SilkS") (tstamp 73ac5eaf-0b24-4e78-8d17-a882689d9bf9))
    (fp_line (start 0 0) (end 14.55 0)
      (stroke (width 0.127) (type solid)) (layer "F.SilkS") (tstamp 8645d088-a6b1-439b-b9f1-3b28741b3a17))
    (fp_line (start 14.55 -9.1) (end 0 -9.1)
      (stroke (width 0.127) (type solid)) (layer "F.SilkS") (tstamp c0eb74bd-3f02-469c-b513-13a5b17156ca))
    (fp_line (start 14.55 0) (end 14.55 -9.1)
      (stroke (width 0.127) (type solid)) (layer "F.SilkS") (tstamp 8c820003-b7df-4ef1-89e5-de0d000afa62))
    (fp_line (start 14.55 0) (end 18.5 0)
      (stroke (width 0.127) (type solid)) (layer "F.SilkS") (tstamp 4905aa3d-b73d-430b-ab22-2067bf2aeba6))
    (fp_line (start 18.5 -9.1) (end 14.55 -9.1)
      (stroke (width 0.127) (type solid)) (layer "F.SilkS") (tstamp e45d2267-e975-4d53-96ed-ccf9f6b62114))
    (fp_line (start 18.5 0) (end 18.5 -9.1)
      (stroke (width 0.127) (type solid)) (layer "F.SilkS") (tstamp d22429c8-851f-4943-9cfa-7abfb168d958))
    (fp_line (start -0.127 -9.398) (end -0.127 0.127)
      (stroke (width 0.05) (type default)) (layer "Edge.Cuts") (tstamp d01017c7-166f-4f02-b57d-6d24aa77c758))
    (fp_line (start -0.127 -9.398) (end 18.796 -9.398)
      (stroke (width 0.05) (type default)) (layer "Edge.Cuts") (tstamp ecc3260a-43a7-4744-ba22-87f48b01c41f))
    (fp_line (start -0.127 0.127) (end 18.796 0.127)
      (stroke (width 0.05) (type default)) (layer "Edge.Cuts") (tstamp 79c844a1-7ea8-4d94-8a08-e210ff9dc005))
    (fp_line (start 18.796 0.127) (end 18.796 -9.398)
      (stroke (width 0.05) (type default)) (layer "Edge.Cuts") (tstamp d2766082-81d2-4383-84a6-d428db51195a))
    (fp_poly
      (pts
        (xy 14.5 20)
        (xy 26.5 20)
        (xy 26.5 -29.1)
        (xy 14.5 -29.1)
      )

      (stroke (width 0) (type default)) (fill solid) (layer "B.CrtYd") (tstamp aaa13c60-40b9-406f-bb78-8d6dd2f2ce24))
    (fp_poly
      (pts
        (xy 14.5 20)
        (xy 26.5 20)
        (xy 26.5 -29.1)
        (xy 14.5 -29.1)
      )

      (stroke (width 0) (type default)) (fill solid) (layer "F.CrtYd") (tstamp 6cdf8a8c-6a48-4694-a1bb-bf6909510801))
    (pad "P1" smd rect (at -0.889 -8.1) (size 1.27 0.5) (layers "F.Cu" "F.Paste" "F.Mask")
      (net 4 "/VCC33") (pinfunction "VCC") (pintype "passive") (solder_mask_margin 0.1016) (thermal_bridge_angle 45) (tstamp 1f6c6fae-4eda-44fe-88a5-2f85ed046b99))
    (pad "P2" smd rect (at -0.889 -7.1) (size 1.27 0.5) (layers "F.Cu" "F.Paste" "F.Mask")
      (net 1 "/GND") (pinfunction "GND@1") (pintype "passive") (solder_mask_margin 0.1016) (thermal_bridge_angle 45) (tstamp 0ae1d388-d59d-4ef6-84a9-075e6e9a3009))
    (pad "P3" smd rect (at -0.889 -6.1) (size 1.27 0.5) (layers "F.Cu" "F.Paste" "F.Mask")
      (net 7 "unconnected-(U1-P0.01(RX)-PadP3)") (pinfunction "P0.01(RX)") (pintype "bidirectional") (solder_mask_margin 0.1016) (thermal_bridge_angle 45) (tstamp 3ae48bd1-c5d7-4395-aa8c-0ac284cdd99e))
    (pad "P4" smd rect (at -0.889 -5.1) (size 1.27 0.5) (layers "F.Cu" "F.Paste" "F.Mask")
      (net 8 "unconnected-(U1-P0.02(TX)-PadP4)") (pinfunction "P0.02(TX)") (pintype "bidirectional") (solder_mask_margin 0.1016) (thermal_bridge_angle 45) (tstamp 0d4b5fc0-37d0-4c1c-9cc8-567d02f80ffa))
    (pad "P5" smd rect (at -0.889 -4.1) (size 1.27 0.5) (layers "F.Cu" "F.Paste" "F.Mask")
      (net 9 "unconnected-(U1-P0.03(INT)-PadP5)") (pinfunction "P0.03(INT)") (pintype "bidirectional") (solder_mask_margin 0.1016) (thermal_bridge_angle 45) (tstamp 829691ae-daf1-4d16-8227-466cd7415eb5))
    (pad "P6" smd rect (at -0.889 -3.1) (size 1.27 0.5) (layers "F.Cu" "F.Paste" "F.Mask")
      (net 10 "unconnected-(U1-P0.04(TEST)-PadP6)") (pinfunction "P0.04(TEST)") (pintype "bidirectional") (solder_mask_margin 0.1016) (thermal_bridge_angle 45) (tstamp dfb2df6b-058b-494a-9f30-43bd4a5a6ec1))
    (pad "P7" smd rect (at 3 0.889 270) (size 1.27 0.5) (layers "F.Cu" "F.Paste" "F.Mask")
      (net 11 "unconnected-(U1-P0.09(ENABLE)-PadP7)") (pinfunction "P0.09(ENABLE)") (pintype "bidirectional") (solder_mask_margin 0.1016) (thermal_bridge_angle 45) (tstamp 97f9a050-4b4c-4715-9f15-9f3f34fbcce9))
    (pad "P8" smd rect (at 4 0.889 270) (size 1.27 0.5) (layers "F.Cu" "F.Paste" "F.Mask")
      (net 3 "/P010") (pinfunction "P0.10(RESET)") (pintype "bidirectional") (solder_mask_margin 0.1016) (thermal_bridge_angle 45) (tstamp d58d14d7-b880-42f8-a08e-e8db80078d29))
    (pad "P9" smd rect (at 5 0.889 270) (size 1.27 0.5) (layers "F.Cu" "F.Paste" "F.Mask")
      (net 2 "/P013") (pinfunction "P0.13") (pintype "bidirectional") (solder_mask_margin 0.1016) (thermal_bridge_angle 45) (tstamp a95a5183-caa3-4731-af3d-c3920fa949a4))
    (pad "P10" smd rect (at 6 0.889 270) (size 1.27 0.5) (layers "F.Cu" "F.Paste" "F.Mask")
      (net 6 "Net-(J1-Pin_2)") (pinfunction "SWDIO") (pintype "bidirectional") (solder_mask_margin 0.1016) (thermal_bridge_angle 45) (tstamp 5a1274fa-2eff-429e-a335-54d8763af4ab))
    (pad "P11" smd rect (at 7 0.889 270) (size 1.27 0.5) (layers "F.Cu" "F.Paste" "F.Mask")
      (net 5 "Net-(J1-Pin_1)") (pinfunction "SWDCLK") (pintype "input") (solder_mask_margin 0.1016) (thermal_bridge_angle 45) (tstamp 8c67a70c-96c5-4069-9dad-06e3c03c1411))
    (pad "P12" smd rect (at 12.9 0.889 270) (size 1.27 0.5) (layers "F.Cu" "F.Paste" "F.Mask")
      (net 1 "/GND") (pinfunction "GND@3") (pintype "passive") (solder_mask_margin 0.1016) (thermal_bridge_angle 45) (tstamp 231700c3-85bf-4272-b3e2-be6d33cf451b))
    (pad "P13" smd rect (at 14.05 0.889 270) (size 1.27 0.5) (layers "F.Cu" "F.Paste" "F.Mask")
      (net 1 "/GND") (pinfunction "GND@2") (pintype "passive") (solder_mask_margin 0.1016) (thermal_bridge_angle 45) (tstamp 4d40eac9-1172-4f00-8555-0a45c97c5638))
    (zone (net 0) (net_name "") (layers "*.Cu") (tstamp 45de0b95-ecb5-43fb-80fe-9df531a12e3c) (hatch edge 0.5)
      (connect_pads (clearance 0))
      (min_thickness 0.25) (filled_areas_thickness no)
      (keepout (tracks allowed) (vias not_allowed) (pads allowed) (copperpour allowed) (footprints allowed))
      (fill (thermal_gap 0.5) (thermal_bridge_width 0.5))
      (polygon
        (pts
          (xy 151.8311 100.9036)
          (xy 153.8311 100.9036)
          (xy 153.8311 98.9036)
          (xy 151.8311 98.9036)
        )
      )
    )
    (zone (net 0) (net_name "") (layers "*.Cu") (tstamp 66805cd6-8247-4df1-a404-5cab75f3137f) (hatch edge 0.5)
      (connect_pads (clearance 0))
      (min_thickness 0.25) (filled_areas_thickness no)
      (keepout (tracks allowed) (vias not_allowed) (pads allowed) (copperpour allowed) (footprints allowed))
      (fill (thermal_gap 0.5) (thermal_bridge_width 0.5))
      (polygon
        (pts
          (xy 151.8311 103.9036)
          (xy 153.8311 103.9036)
          (xy 153.8311 101.9036)
          (xy 151.8311 101.9036)
        )
      )
    )
  )

  (footprint "flasher:CR2477_TABBED" (layer "F.Cu")
    (tstamp f52408dd-54e5-421a-9958-8bbd8ac6e1f8)
    (at 148.653893 105.491636 66)
    (property "Sheetfile" "flasher.kicad_sch")
    (property "Sheetname" "")
    (path "/d579b438-e4d6-4352-acfd-e2052c2c87db")
    (fp_text reference "U$1" (at 0 0 66) (layer "F.SilkS") hide
        (effects (font (size 1.27 1.27) (thickness 0.15)))
      (tstamp 02e158b1-82a6-4d44-ae51-83c98dc4a54c)
    )
    (fp_text value "CR2477_TABBEDTABBED" (at 0 0 66) (layer "F.Fab") hide
        (effects (font (size 1.27 1.27) (thickness 0.15)))
      (tstamp 39dc7b2e-2230-4de6-ad8b-cbc9cb245ae0)
    )
    (fp_text user "CR2477" (at -2 1 66) (layer "F.SilkS")
        (effects (font (size 1.458468 1.458468) (thickness 0.217932)) (justify left bottom))
      (tstamp e755c50f-9e44-4e69-9c75-5a398d5e6be0)
    )
    (fp_line (start -6 0) (end -4 0)
      (stroke (width 0.2) (type solid)) (layer "F.SilkS") (tstamp 364c338f-be05-48fd-8d02-66511ad46b00))
    (fp_line (start 8 0) (end 10 0)
      (stroke (width 0.2) (type solid)) (layer "F.SilkS") (tstamp 523508e5-69ad-49c3-bb0c-ad7687655a65))
    (fp_line (start 9 -1) (end 9 1)
      (stroke (width 0.2) (type solid)) (layer "F.SilkS") (tstamp e735e586-5326-4f9c-bdb8-832805b03180))
    (fp_circle (center 0 0) (end 12.3 0)
      (stroke (width 0.2) (type solid)) (fill none) (layer "F.SilkS") (tstamp ea49c92b-f7af-4db1-9762-972724f41160))
    (pad "+3V" thru_hole circle (at 12.5 0 66) (size 5.08 5.08) (drill 3) (layers "*.Cu" "*.Mask")
      (net 4 "/VCC33") (pinfunction "+V") (pintype "power_in") (solder_mask_margin 0.1016) (tstamp d230df1f-ec5e-4903-b5d5-8548a22f8578))
    (pad "GND" thru_hole circle (at -8 0 66) (size 3.175 3.175) (drill 2) (layers "*.Cu" "*.Mask")
      (net 1 "/GND") (pinfunction "0V") (pintype "power_in") (solder_mask_margin 0.1016) (tstamp a67a4f9b-0fc8-4657-b07a-3c099df61a14))
  )

  (gr_line (start 160.713182 103.757269) (end 160.7511 104.253599)
    (stroke (width 0.1524) (type solid)) (layer "Edge.Cuts") (tstamp 130d085f-ba52-4b53-8c58-2421e48e6f48))
  (gr_circle (center 149.2511 114.753599) (end 150.369131 114.753599)
    (stroke (width 0.1524) (type solid)) (fill none) (layer "Edge.Cuts") (tstamp 1bfe9c0b-0faf-49b7-aefb-43973d8cc3eb))
  (gr_line (start 147.2511 117.253599) (end 150.2511 117.253599)
    (stroke (width 0.1524) (type solid)) (layer "Edge.Cuts") (tstamp 476ff59e-f873-4fe3-a6d2-0a57154c3a62))
  (gr_arc (start 160.7511 106.753599) (mid 157.302415 113.804915) (end 150.251099 117.2536)
    (stroke (width 0.1524) (type solid)) (layer "Edge.Cuts") (tstamp 667e2d41-77e6-4955-9589-6f4ba86d7b5a))
  (gr_arc (start 136.2511 103.753599) (mid 139.981032 96.14171) (end 147.7511 92.7536)
    (stroke (width 0.1524) (type solid)) (layer "Edge.Cuts") (tstamp 733e9941-a12c-4c6c-a95d-e409de07bd57))
  (gr_line (start 136.2511 103.753599) (end 136.2511 107.253599)
    (stroke (width 0.1524) (type solid)) (layer "Edge.Cuts") (tstamp 7a504e82-43e6-4353-a528-74797c1e0cca))
  (gr_arc (start 150.2511 92.7536) (mid 157.377972 96.452914) (end 160.713182 103.757269)
    (stroke (width 0.1524) (type solid)) (layer "Edge.Cuts") (tstamp bb0e94cf-9b35-4719-9063-de5d28ae1c93))
  (gr_circle (center 148.7511 95.253599) (end 149.869131 95.253599)
    (stroke (width 0.1524) (type solid)) (fill none) (layer "Edge.Cuts") (tstamp c09baf49-ac78-4647-8eec-c145cdc68bd3))
  (gr_line (start 147.7511 92.753599) (end 150.2511 92.753599)
    (stroke (width 0.1524) (type solid)) (layer "Edge.Cuts") (tstamp c5bc1096-5fc2-4de6-865e-139c2ad10789))
  (gr_line (start 160.7511 104.253599) (end 160.7511 106.753599)
    (stroke (width 0.1524) (type solid)) (layer "Edge.Cuts") (tstamp d10e4d67-e455-4793-a681-fe824e4eb5f1))
  (gr_arc (start 147.2511 117.253599) (mid 140.083799 114.08763) (end 136.2511 107.2536)
    (stroke (width 0.1524) (type solid)) (layer "Edge.Cuts") (tstamp f395122c-8621-4676-95fe-418f6d7c6b79))

  (segment (start 139.5523 99.3036) (end 139.9421 99.3036) (width 0.2) (layer "F.Cu") (net 1) (tstamp 1791dc23-dbc8-40a8-b965-b3152acb0717))
  (segment (start 153.4021 107.2926) (end 149.4411 111.2536) (width 0.2) (layer "F.Cu") (net 1) (tstamp 17a2742a-96b6-43fb-8d8e-0b4099b35449))
  (segment (start 141.71 113.308214) (end 143.801786 115.4) (width 0.2) (layer "F.Cu") (net 1) (tstamp 28424872-f6a2-4406-a4d8-463885e00063))
  (segment (start 138.6 100.2559) (end 139.5523 99.3036) (width 0.2) (layer "F.Cu") (net 1) (tstamp 29592a9f-e2b1-4137-b1bc-1be4b1547183))
  (segment (start 153.7311 107.2926) (end 153.4021 107.2926) (width 0.2) (layer "F.Cu") (net 1) (tstamp 3b9b54a8-eab9-4095-a9ea-071990552744))
  (segment (start 138.6 103) (end 138.6 100.2559) (width 0.2) (layer "F.Cu") (net 1) (tstamp 4a71f660-a9c7-4547-8389-98a5368a74c3))
  (segment (start 154.8811 107.2926) (end 153.7311 107.2926) (width 0.2) (layer "F.Cu") (net 1) (tstamp 727e91c7-5e00-4092-88cf-abd5fd2445a4))
  (segment (start 143.801786 115.4) (end 146.8 115.4) (width 0.2) (layer "F.Cu") (net 1) (tstamp 89c23dca-9afe-45cf-bb70-b7b11d45ab6d))
  (via (at 138.6 103) (size 0.6) (drill 0.3) (layers "F.Cu" "B.Cu") (net 1) (tstamp 07426287-8fed-4c11-aed8-d7a87d8450d8))
  (via (at 146.8 115.4) (size 0.6) (drill 0.3) (layers "F.Cu" "B.Cu") (net 1) (tstamp a736dc06-bc1f-4785-8ae2-3e949d72f31f))
  (segment (start 146.8 113.8947) (end 149.4411 111.2536) (width 0.2) (layer "B.Cu") (net 1) (tstamp 0bee581f-9aff-41d1-84aa-7a6f54b33db0))
  (segment (start 138.71337 110.011205) (end 139.62663 110.011205) (width 0.2) (layer "B.Cu") (net 1) (tstamp 187e15cc-5eb8-459e-bd81-6b8f491b1d3e))
  (segment (start 139.637835 110) (end 140.890521 110) (width 0.2) (layer "B.Cu") (net 1) (tstamp 1b2a65ed-71d8-4e2c-9165-d4382922f555))
  (segment (start 146.4947 113.8947) (end 145.4 112.8) (width 0.2) (layer "B.Cu") (net 1) (tstamp 3b00da85-7bbc-47ba-898b-5533401f40ff))
  (segment (start 141.71 110.819479) (end 141.71 113.308214) (width 0.2) (layer "B.Cu") (net 1) (tstamp 41a5760f-4388-4dfb-a9e1-021e9d777400))
  (segment (start 139.62663 110.011205) (end 139.637835 110) (width 0.2) (layer "B.Cu") (net 1) (tstamp 43d683f5-d361-4d8b-9732-0ab1231cd3b6))
  (segment (start 140.890521 110) (end 141.71 110.819479) (width 0.2) (layer "B.Cu") (net 1) (tstamp 566ff911-7cf8-403c-b133-ce1532ebb38e))
  (segment (start 146.8 113.8947) (end 146.4947 113.8947) (width 0.2) (layer "B.Cu") (net 1) (tstamp 586e7924-8489-49a2-b81d-981787d83a71))
  (segment (start 139.62663 106.893145) (end 138.0676 108.452175) (width 0.2) (layer "B.Cu") (net 1) (tstamp 5bb45ef8-ad3c-4761-a827-9ca4e8c80a64))
  (segment (start 139.62663 106.62663) (end 139.62663 106.893145) (width 0.2) (layer "B.Cu") (net 1) (tstamp 7bc65505-e0fa-4600-bec4-bd2ff83cda6a))
  (segment (start 138.6 103) (end 138.6 105.6) (width 0.2) (layer "B.Cu") (net 1) (tstamp 8c3e01f4-feff-4ee6-ae2b-14ab7483e38f))
  (segment (start 138.6 105.6) (end 139.62663 106.62663) (width 0.2) (layer "B.Cu") (net 1) (tstamp a90df5e6-e199-4708-b52c-f5a6bfea3e5d))
  (segment (start 138.0676 108.452175) (end 138.0676 109.365435) (width 0.2) (layer "B.Cu") (net 1) (tstamp b92f2681-1d86-4ec0-90e1-1ff3d0cd2c72))
  (segment (start 138.0676 109.365435) (end 138.71337 110.011205) (width 0.2) (layer "B.Cu") (net 1) (tstamp d3f16268-348c-4ede-81d3-4a3e7d2d8864))
  (segment (start 146.8 115.4) (end 146.8 113.8947) (width 0.2) (layer "B.Cu") (net 1) (tstamp ffc20d17-65ed-460a-a740-a33b7be5f232))
  (segment (start 145.8311 108.8311) (end 146.4 109.4) (width 0.2) (layer "F.Cu") (net 2) (tstamp 2012d51d-dcba-4151-8daa-26d2a0f124b9))
  (segment (start 146.4 109.4) (end 150 109.4) (width 0.2) (layer "F.Cu") (net 2) (tstamp 4da97222-a8ae-4271-83b2-eccfdeb2bee1))
  (segment (start 150 109.4) (end 150.6 108.8) (width 0.2) (layer "F.Cu") (net 2) (tstamp 5605ad0c-95e0-4677-af3a-2e6b59146387))
  (segment (start 145.8311 107.2926) (end 145.8311 108.8311) (width 0.2) (layer "F.Cu") (net 2) (tstamp d2534c02-0e40-4a86-aa21-2f683f5d419d))
  (via (at 150.6 108.8) (size 0.6) (drill 0.3) (layers "F.Cu" "B.Cu") (net 2) (tstamp bfe89b93-79a5-42d1-ab06-1e09142b0955))
  (segment (start 150.6 108.8) (end 151.9811 110.1811) (width 0.2) (layer "B.Cu") (net 2) (tstamp 17aab3b2-42f6-468c-8a0c-1583e03bb250))
  (segment (start 151.9811 110.1811) (end 151.9811 111.2536) (width 0.2) (layer "B.Cu") (net 2) (tstamp 8c3b8031-a7ac-47a3-a86b-c563cf2c1682))
  (segment (start 144.8311 108.6311) (end 148.1535 111.9535) (width 0.2) (layer "F.Cu") (net 3) (tstamp 05dd9f11-54e6-4eb0-a273-af4dfbd3a44a))
  (segment (start 148.1535 111.9535) (end 148.1535 112.162578) (width 0.2) (layer "F.Cu") (net 3) (tstamp 180f29c4-9bdc-4daa-a3f9-1c894690b8bf))
  (segment (start 144.8311 107.2926) (end 144.8311 108.6311) (width 0.2) (layer "F.Cu") (net 3) (tstamp 3c0e89af-3229-454e-abd4-527b1790df5e))
  (segment (start 148.1535 112.162578) (end 149.020922 113.03) (width 0.2) (layer "F.Cu") (net 3) (tstamp 5bdddf80-5e2b-47d1-9729-693a74931a02))
  (segment (start 149.020922 113.03) (end 152.7447 113.03) (width 0.2) (layer "F.Cu") (net 3) (tstamp 5ea897f9-d859-47ba-9c1b-d5b15803cadd))
  (segment (start 152.7447 113.03) (end 154.5211 111.2536) (width 0.2) (layer "F.Cu") (net 3) (tstamp bc0ac577-bb0c-4e28-a3af-d0721e48c001))
  (segment (start 153.738101 94.072318) (end 151.210419 96.6) (width 0.2) (layer "F.Cu") (net 4) (tstamp 03c9e232-20ea-414d-9942-d96a2a680639))
  (segment (start 140.860516 96.6) (end 139.9421 97.518416) (width 0.2) (layer "F.Cu") (net 4) (tstamp 29c08aac-df3f-4e76-a748-4ebe5d59bdf0))
  (segment (start 140.44 108.36) (end 140.44 111.108509) (width 0.2) (layer "F.Cu") (net 4) (tstamp 3f990403-03db-4ea9-8057-92ae8c4e4a4a))
  (segment (start 139.9421 97.518416) (end 139.9421 98.3036) (width 0.2) (layer "F.Cu") (net 4) (tstamp 47126748-808a-4113-b245-c3940907cd33))
  (segment (start 139.6964 98.3036) (end 137.8 100.2) (width 0.2) (layer "F.Cu") (net 4) (tstamp 47e1a9d1-7afa-4a2d-a2ac-766c8ad53e4b))
  (segment (start 148.6176 113.3824) (end 154.9323 113.3824) (width 0.2) (layer "F.Cu") (net 4) (tstamp 495f9878-f23b-443f-b2c5-33d9627c9659))
  (segment (start 137.8 103.6) (end 139.8 105.6) (width 0.2) (layer "F.Cu") (net 4) (tstamp 519978d5-8d33-4996-bcea-cb2e6fc6c2d9))
  (segment (start 141.106497 111.108509) (end 144.637888 114.6399) (width 0.2) (layer "F.Cu") (net 4) (tstamp 6118867d-5a21-4af6-a945-53588da6c32d))
  (segment (start 140.8 108) (end 140.44 108.36) (width 0.2) (layer "F.Cu") (net 4) (tstamp 67a9241e-e591-43c1-9ffd-f2a593938acb))
  (segment (start 144.637888 114.6399) (end 147.3601 114.6399) (width 0.2) (layer "F.Cu") (net 4) (tstamp 771afffd-091d-455e-a3f7-7f0a89ed9462))
  (segment (start 147.3601 114.6399) (end 148.6176 113.3824) (width 0.2) (layer "F.Cu") (net 4) (tstamp 7ad5cf76-117c-4fee-8253-bcfcb5ad0710))
  (segment (start 151.210419 96.6) (end 140.860516 96.6) (width 0.2) (layer "F.Cu") (net 4) (tstamp 8d1bf370-2183-429f-ab12-6862e1723607))
  (segment (start 139.9421 98.3036) (end 139.6964 98.3036) (width 0.2) (layer "F.Cu") (net 4) (tstamp c08f4bdd-b7af-4cec-ab44-ea5b8b5f2dee))
  (segment (start 137.8 100.2) (end 137.8 103.6) (width 0.2) (layer "F.Cu") (net 4) (tstamp cd3d4438-fce4-4904-9e01-1d0d4952c95e))
  (segment (start 140.44 111.108509) (end 141.106497 111.108509) (width 0.2) (layer "F.Cu") (net 4) (tstamp df7f53b0-4f63-4277-846d-b31e1037fe91))
  (segment (start 154.9323 113.3824) (end 157.0611 111.2536) (width 0.2) (layer "F.Cu") (net 4) (tstamp f72ef3d0-4070-4f2c-a295-f192bc911a01))
  (via (at 139.8 105.6) (size 0.6) (drill 0.3) (layers "F.Cu" "B.Cu") (net 4) (tstamp 970c28f6-7e22-413f-a330-9ed30dd0a375))
  (via (at 140.8 108) (size 0.6) (drill 0.3) (layers "F.Cu" "B.Cu") (net 4) (tstamp ccf25300-7159-492f-a390-04ed88150d25))
  (segment (start 140.5279 106.3279) (end 140.5279 107.7279) (width 0.2) (layer "B.Cu") (net 4) (tstamp 7d98a307-a567-4861-9659-85254a352cc8))
  (segment (start 139.8 105.6) (end 140.5279 106.3279) (width 0.2) (layer "B.Cu") (net 4) (tstamp c6e04d2f-f318-4661-a4ad-4664ab79c9a3))
  (segment (start 140.5279 107.7279) (end 140.8 108) (width 0.2) (layer "B.Cu") (net 4) (tstamp eb5e09c7-6ff4-4af3-a4e2-1e2084eff5fa))
  (segment (start 147.8311 107.2926) (end 147.8311 108.7689) (width 0.2) (layer "F.Cu") (net 5) (tstamp 0da44485-41e7-45dc-a1d8-3dce368fcf06))
  (segment (start 147.8311 108.7689) (end 147.8 108.8) (width 0.2) (layer "F.Cu") (net 5) (tstamp 2fa0220a-a9ea-4124-b0d4-3f905dcee1b6))
  (segment (start 140.448395 106.7091) (end 137.9 106.7091) (width 0.2) (layer "F.Cu") (net 5) (tstamp 740ba394-5ea1-4262-9e8e-111cb99fe624))
  (segment (start 143.2 109.460705) (end 140.448395 106.7091) (width 0.2) (layer "F.Cu") (net 5) (tstamp fb0697b7-52a2-4ac5-a524-5c3cbb2ad545))
  (via (at 143.2 109.460705) (size 0.6) (drill 0.3) (layers "F.Cu" "B.Cu") (net 5) (tstamp 0566b435-40cc-4480-89f4-5aac5e9d3d49))
  (via (at 147.8 108.8) (size 0.6) (drill 0.3) (layers "F.Cu" "B.Cu") (net 5) (tstamp 9d8b0e1b-665b-458c-8186-4e978bc1f975))
  (segment (start 146.4 110.8) (end 144.539295 110.8) (width 0.2) (layer "B.Cu") (net 5) (tstamp 534f1c9e-670a-48c7-a14d-6a7b2c81847e))
  (segment (start 147.8 108.8) (end 147.8 109.4) (width 0.2) (layer "B.Cu") (net 5) (tstamp bd80d3b5-9a67-44a7-b2f3-d2991a4e48bc))
  (segment (start 147.8 109.4) (end 146.4 110.8) (width 0.2) (layer "B.Cu") (net 5) (tstamp d5df8419-e4f0-4d0b-9bbb-a676288abac8))
  (segment (start 144.539295 110.8) (end 143.2 109.460705) (width 0.2) (layer "B.Cu") (net 5) (tstamp fc369b3e-ddb6-4df2-a25f-69296ffa0945))
  (segment (start 146.8311 107.2926) (end 146.8311 108.7689) (width 0.2) (layer "F.Cu") (net 6) (tstamp 561daa77-6dca-46fb-a41f-aad22bef16a4))
  (segment (start 146.8311 108.7689) (end 146.8 108.8) (width 0.2) (layer "F.Cu") (net 6) (tstamp 65780226-e92d-4902-bba2-4a6b6d70936d))
  (via (at 146.8 108.8) (size 0.6) (drill 0.3) (layers "F.Cu" "B.Cu") (net 6) (tstamp 2e1a962f-b1d1-4187-a90b-d00e06d652d2))
  (segment (start 146.8 108.8) (end 146.691195 108.908805) (width 0.2) (layer "B.Cu") (net 6) (tstamp 9ade6be5-e557-4008-b9ab-af46289e38c2))
  (segment (start 146.691195 108.908805) (end 139.17 108.908805) (width 0.2) (layer "B.Cu") (net 6) (tstamp c5957d25-5bc9-45b2-b52a-a06ac22bbe60))

)
