M48
; DRILL file {KiCad 7.0.2-0} date 2023 August 07, Monday 22:44:47
; FORMAT={-:-/ absolute / inch / decimal}
; #@! TF.CreationDate,2023-08-07T22:44:47-06:00
; #@! TF.GenerationSoftware,Kicad,Pcbnew,7.0.2-0
; #@! TF.FileFunction,NonPlated,1,2,NPTH
FMAT,2
INCH
%
G90
G05
T0
M30
