%TF.GenerationSoftware,KiCad,Pcbnew,7.0.2-0*%
%TF.CreationDate,2023-08-07T22:44:57-06:00*%
%TF.ProjectId,flasher,666c6173-6865-4722-9e6b-696361645f70,rev?*%
%TF.SameCoordinates,Original*%
%TF.FileFunction,Paste,Top*%
%TF.FilePolarity,Positive*%
%FSLAX46Y46*%
G04 Gerber Fmt 4.6, Leading zero omitted, Abs format (unit mm)*
G04 Created by KiCad (PCBNEW 7.0.2-0) date 2023-08-07 22:44:57*
%MOMM*%
%LPD*%
G01*
G04 APERTURE LIST*
G04 Aperture macros list*
%AMFreePoly0*
4,1,9,3.862500,-0.866500,0.737500,-0.866500,0.737500,-0.450000,-0.737500,-0.450000,-0.737500,0.450000,0.737500,0.450000,0.737500,0.866500,3.862500,0.866500,3.862500,-0.866500,3.862500,-0.866500,$1*%
G04 Aperture macros list end*
%ADD10R,1.270000X0.500000*%
%ADD11R,0.500000X1.270000*%
%ADD12R,0.900000X1.300000*%
%ADD13FreePoly0,90.000000*%
G04 APERTURE END LIST*
D10*
%TO.C,U1*%
X150400000Y-97800000D03*
X150400000Y-98800000D03*
X150400000Y-99800000D03*
X150400000Y-100800000D03*
X150400000Y-101800000D03*
X150400000Y-102800000D03*
D11*
X153400000Y-105900000D03*
X154400000Y-105900000D03*
X155400000Y-105900000D03*
X156400000Y-105900000D03*
X157400000Y-105900000D03*
X163300000Y-105900000D03*
X164450000Y-105900000D03*
%TD*%
D12*
%TO.C,U2*%
X146700000Y-109350000D03*
D13*
X148200000Y-109262500D03*
D12*
X149700000Y-109350000D03*
%TD*%
M02*
