%TF.GenerationSoftware,KiCad,Pcbnew,7.0.2-0*%
%TF.CreationDate,2023-08-07T22:44:57-06:00*%
%TF.ProjectId,flasher,666c6173-6865-4722-9e6b-696361645f70,rev?*%
%TF.SameCoordinates,Original*%
%TF.FileFunction,Copper,L1,Top*%
%TF.FilePolarity,Positive*%
%FSLAX46Y46*%
G04 Gerber Fmt 4.6, Leading zero omitted, Abs format (unit mm)*
G04 Created by KiCad (PCBNEW 7.0.2-0) date 2023-08-07 22:44:57*
%MOMM*%
%LPD*%
G01*
G04 APERTURE LIST*
G04 Aperture macros list*
%AMFreePoly0*
4,1,9,3.862500,-0.866500,0.737500,-0.866500,0.737500,-0.450000,-0.737500,-0.450000,-0.737500,0.450000,0.737500,0.450000,0.737500,0.866500,3.862500,0.866500,3.862500,-0.866500,3.862500,-0.866500,$1*%
G04 Aperture macros list end*
%TA.AperFunction,ComponentPad*%
%ADD10O,3.048000X1.524000*%
%TD*%
%TA.AperFunction,ComponentPad*%
%ADD11R,1.700000X1.700000*%
%TD*%
%TA.AperFunction,ComponentPad*%
%ADD12O,1.700000X1.700000*%
%TD*%
%TA.AperFunction,SMDPad,CuDef*%
%ADD13R,1.270000X0.500000*%
%TD*%
%TA.AperFunction,SMDPad,CuDef*%
%ADD14R,0.500000X1.270000*%
%TD*%
%TA.AperFunction,SMDPad,CuDef*%
%ADD15R,0.900000X1.300000*%
%TD*%
%TA.AperFunction,SMDPad,CuDef*%
%ADD16FreePoly0,90.000000*%
%TD*%
%TA.AperFunction,ViaPad*%
%ADD17C,0.600000*%
%TD*%
%TA.AperFunction,Conductor*%
%ADD18C,0.200000*%
%TD*%
G04 APERTURE END LIST*
D10*
%TO.P,-_13_10_+0,1,1*%
%TO.N,/GND*%
X143600000Y-107210000D03*
%TO.P,-_13_10_+0,2,2*%
%TO.N,/P013*%
X143600000Y-104670000D03*
%TO.P,-_13_10_+0,3,3*%
%TO.N,/P010*%
X143600000Y-102130000D03*
%TO.P,-_13_10_+0,4,4*%
%TO.N,/VCC33*%
X143600000Y-99590000D03*
%TD*%
D11*
%TO.P,J3,1,Pin_1*%
%TO.N,/GND*%
X171600000Y-103200000D03*
%TD*%
%TO.P,J1,1,Pin_1*%
%TO.N,Net-(J1-Pin_1)*%
X161000000Y-109200000D03*
D12*
%TO.P,J1,2,Pin_2*%
%TO.N,Net-(J1-Pin_2)*%
X158460000Y-109200000D03*
%TO.P,J1,3,Pin_3*%
%TO.N,/VCC33*%
X155920000Y-109200000D03*
%TO.P,J1,4,Pin_4*%
%TO.N,/GND*%
X153380000Y-109200000D03*
%TD*%
D13*
%TO.P,U1,P1,VCC*%
%TO.N,/VCC33*%
X150400000Y-97800000D03*
%TO.P,U1,P2,GND@1*%
%TO.N,/GND*%
X150400000Y-98800000D03*
%TO.P,U1,P3,P0.01(RX)*%
%TO.N,unconnected-(U1-P0.01(RX)-PadP3)*%
X150400000Y-99800000D03*
%TO.P,U1,P4,P0.02(TX)*%
%TO.N,unconnected-(U1-P0.02(TX)-PadP4)*%
X150400000Y-100800000D03*
%TO.P,U1,P5,P0.03(INT)*%
%TO.N,unconnected-(U1-P0.03(INT)-PadP5)*%
X150400000Y-101800000D03*
%TO.P,U1,P6,P0.04(TEST)*%
%TO.N,unconnected-(U1-P0.04(TEST)-PadP6)*%
X150400000Y-102800000D03*
D14*
%TO.P,U1,P7,P0.09(ENABLE)*%
%TO.N,unconnected-(U1-P0.09(ENABLE)-PadP7)*%
X153400000Y-105900000D03*
%TO.P,U1,P8,P0.10(RESET)*%
%TO.N,/P010*%
X154400000Y-105900000D03*
%TO.P,U1,P9,P0.13*%
%TO.N,/P013*%
X155400000Y-105900000D03*
%TO.P,U1,P10,SWDIO*%
%TO.N,Net-(J1-Pin_2)*%
X156400000Y-105900000D03*
%TO.P,U1,P11,SWDCLK*%
%TO.N,Net-(J1-Pin_1)*%
X157400000Y-105900000D03*
%TO.P,U1,P12,GND@3*%
%TO.N,/GND*%
X163300000Y-105900000D03*
%TO.P,U1,P13,GND@2*%
X164450000Y-105900000D03*
%TD*%
D15*
%TO.P,U2,1,GND*%
%TO.N,/GND*%
X146700000Y-109350000D03*
D16*
%TO.P,U2,2,VIN*%
%TO.N,Net-(J2-Pin_1)*%
X148200000Y-109262500D03*
D15*
%TO.P,U2,3,VOUT*%
%TO.N,/VCC33*%
X149700000Y-109350000D03*
%TD*%
D11*
%TO.P,J2,1,Pin_1*%
%TO.N,Net-(J2-Pin_1)*%
X140100000Y-103100000D03*
%TD*%
D17*
%TO.N,/P013*%
X155400000Y-104000000D03*
%TO.N,/P010*%
X154400000Y-102400000D03*
%TD*%
D18*
%TO.N,/P013*%
X155400000Y-104000000D02*
X155400000Y-105900000D01*
%TO.N,/P010*%
X154400000Y-102400000D02*
X154400000Y-105900000D01*
%TO.N,/VCC33*%
X143600000Y-99590000D02*
X145810000Y-99590000D01*
X145810000Y-99590000D02*
X147600000Y-97800000D01*
X147600000Y-97800000D02*
X150400000Y-97800000D01*
%TO.N,Net-(J2-Pin_1)*%
X141837500Y-105940000D02*
X140100000Y-104202500D01*
X144877500Y-105940000D02*
X141837500Y-105940000D01*
X148200000Y-109262500D02*
X144877500Y-105940000D01*
X140100000Y-103100000D02*
X140100000Y-104202500D01*
%TO.N,Net-(J1-Pin_2)*%
X156400000Y-107140000D02*
X158460000Y-109200000D01*
X156400000Y-105900000D02*
X156400000Y-107140000D01*
%TO.N,Net-(J1-Pin_1)*%
X159897500Y-109062200D02*
X159897500Y-109200000D01*
X157622800Y-106787500D02*
X159897500Y-109062200D01*
X157400000Y-106787500D02*
X157622800Y-106787500D01*
X157400000Y-105900000D02*
X157400000Y-106787500D01*
X161000000Y-109200000D02*
X159897500Y-109200000D01*
%TO.N,/VCC33*%
X149700000Y-109350000D02*
X150402500Y-109350000D01*
X155920000Y-109200000D02*
X154817500Y-109200000D01*
X149512500Y-105906000D02*
X151679500Y-108073000D01*
X149512500Y-97800000D02*
X149512500Y-105906000D01*
X150402500Y-109350000D02*
X151679500Y-108073000D01*
X154817500Y-108971600D02*
X154817500Y-109200000D01*
X153918900Y-108073000D02*
X154817500Y-108971600D01*
X151679500Y-108073000D02*
X153918900Y-108073000D01*
X150400000Y-97800000D02*
X149512500Y-97800000D01*
%TO.N,/GND*%
X153380000Y-109200000D02*
X152277500Y-109200000D01*
X157087500Y-98800000D02*
X163300000Y-105012500D01*
X150400000Y-98800000D02*
X157087500Y-98800000D01*
X163300000Y-105900000D02*
X163300000Y-105012500D01*
X151225000Y-110252500D02*
X152277500Y-109200000D01*
X147602500Y-110252500D02*
X151225000Y-110252500D01*
X146700000Y-109350000D02*
X147602500Y-110252500D01*
X169894700Y-108662600D02*
X163300000Y-108662600D01*
X171600000Y-106957300D02*
X169894700Y-108662600D01*
X171600000Y-103200000D02*
X171600000Y-106957300D01*
X163300000Y-108978400D02*
X163300000Y-108662600D01*
X161975800Y-110302600D02*
X163300000Y-108978400D01*
X153380100Y-110302600D02*
X161975800Y-110302600D01*
X152277500Y-109200000D02*
X153380100Y-110302600D01*
X163300000Y-108662600D02*
X163300000Y-107050000D01*
X163300000Y-107050000D02*
X163300000Y-106475000D01*
X163300000Y-106475000D02*
X163300000Y-106187500D01*
X163300000Y-106187500D02*
X163300000Y-106043700D01*
X163300000Y-106043700D02*
X163300000Y-105971800D01*
X163300000Y-105971800D02*
X163300000Y-105935900D01*
X163300000Y-105935900D02*
X163300000Y-105917900D01*
X163300000Y-105917900D02*
X163300000Y-105908900D01*
X163300000Y-105908900D02*
X163300000Y-105904400D01*
X163300000Y-105904400D02*
X163300000Y-105902200D01*
X163300000Y-105902200D02*
X163300000Y-105901100D01*
X163300000Y-105901100D02*
X163300000Y-105900500D01*
X163300000Y-105900500D02*
X163300000Y-105900200D01*
X163300000Y-105900200D02*
X163300000Y-105900100D01*
X163300000Y-105900100D02*
X163300000Y-105900000D01*
%TD*%
M02*
