(kicad_sch (version 20230121) (generator eeschema)

  (uuid af23b526-e1ff-4be2-a6a4-789d48d90496)

  (paper "A4")

  (lib_symbols
    (symbol "Connector:Conn_01x01_Pin" (pin_names (offset 1.016) hide) (in_bom yes) (on_board yes)
      (property "Reference" "J" (at 0 2.54 0)
        (effects (font (size 1.27 1.27)))
      )
      (property "Value" "Conn_01x01_Pin" (at 0 -2.54 0)
        (effects (font (size 1.27 1.27)))
      )
      (property "Footprint" "" (at 0 0 0)
        (effects (font (size 1.27 1.27)) hide)
      )
      (property "Datasheet" "~" (at 0 0 0)
        (effects (font (size 1.27 1.27)) hide)
      )
      (property "ki_locked" "" (at 0 0 0)
        (effects (font (size 1.27 1.27)))
      )
      (property "ki_keywords" "connector" (at 0 0 0)
        (effects (font (size 1.27 1.27)) hide)
      )
      (property "ki_description" "Generic connector, single row, 01x01, script generated" (at 0 0 0)
        (effects (font (size 1.27 1.27)) hide)
      )
      (property "ki_fp_filters" "Connector*:*_1x??_*" (at 0 0 0)
        (effects (font (size 1.27 1.27)) hide)
      )
      (symbol "Conn_01x01_Pin_1_1"
        (polyline
          (pts
            (xy 1.27 0)
            (xy 0.8636 0)
          )
          (stroke (width 0.1524) (type default))
          (fill (type none))
        )
        (rectangle (start 0.8636 0.127) (end 0 -0.127)
          (stroke (width 0.1524) (type default))
          (fill (type outline))
        )
        (pin passive line (at 5.08 0 180) (length 3.81)
          (name "Pin_1" (effects (font (size 1.27 1.27))))
          (number "1" (effects (font (size 1.27 1.27))))
        )
      )
    )
    (symbol "Connector:Conn_01x03_Pin" (pin_names (offset 1.016) hide) (in_bom yes) (on_board yes)
      (property "Reference" "J" (at 0 5.08 0)
        (effects (font (size 1.27 1.27)))
      )
      (property "Value" "Conn_01x03_Pin" (at 0 -5.08 0)
        (effects (font (size 1.27 1.27)))
      )
      (property "Footprint" "" (at 0 0 0)
        (effects (font (size 1.27 1.27)) hide)
      )
      (property "Datasheet" "~" (at 0 0 0)
        (effects (font (size 1.27 1.27)) hide)
      )
      (property "ki_locked" "" (at 0 0 0)
        (effects (font (size 1.27 1.27)))
      )
      (property "ki_keywords" "connector" (at 0 0 0)
        (effects (font (size 1.27 1.27)) hide)
      )
      (property "ki_description" "Generic connector, single row, 01x03, script generated" (at 0 0 0)
        (effects (font (size 1.27 1.27)) hide)
      )
      (property "ki_fp_filters" "Connector*:*_1x??_*" (at 0 0 0)
        (effects (font (size 1.27 1.27)) hide)
      )
      (symbol "Conn_01x03_Pin_1_1"
        (polyline
          (pts
            (xy 1.27 -2.54)
            (xy 0.8636 -2.54)
          )
          (stroke (width 0.1524) (type default))
          (fill (type none))
        )
        (polyline
          (pts
            (xy 1.27 0)
            (xy 0.8636 0)
          )
          (stroke (width 0.1524) (type default))
          (fill (type none))
        )
        (polyline
          (pts
            (xy 1.27 2.54)
            (xy 0.8636 2.54)
          )
          (stroke (width 0.1524) (type default))
          (fill (type none))
        )
        (rectangle (start 0.8636 -2.413) (end 0 -2.667)
          (stroke (width 0.1524) (type default))
          (fill (type outline))
        )
        (rectangle (start 0.8636 0.127) (end 0 -0.127)
          (stroke (width 0.1524) (type default))
          (fill (type outline))
        )
        (rectangle (start 0.8636 2.667) (end 0 2.413)
          (stroke (width 0.1524) (type default))
          (fill (type outline))
        )
        (pin passive line (at 5.08 2.54 180) (length 3.81)
          (name "Pin_1" (effects (font (size 1.27 1.27))))
          (number "1" (effects (font (size 1.27 1.27))))
        )
        (pin passive line (at 5.08 0 180) (length 3.81)
          (name "Pin_2" (effects (font (size 1.27 1.27))))
          (number "2" (effects (font (size 1.27 1.27))))
        )
        (pin passive line (at 5.08 -2.54 180) (length 3.81)
          (name "Pin_3" (effects (font (size 1.27 1.27))))
          (number "3" (effects (font (size 1.27 1.27))))
        )
      )
    )
    (symbol "Connector_Generic:Conn_01x04" (pin_names (offset 1.016) hide) (in_bom yes) (on_board yes)
      (property "Reference" "J" (at 0 5.08 0)
        (effects (font (size 1.27 1.27)))
      )
      (property "Value" "Conn_01x04" (at 0 -7.62 0)
        (effects (font (size 1.27 1.27)))
      )
      (property "Footprint" "" (at 0 0 0)
        (effects (font (size 1.27 1.27)) hide)
      )
      (property "Datasheet" "~" (at 0 0 0)
        (effects (font (size 1.27 1.27)) hide)
      )
      (property "ki_keywords" "connector" (at 0 0 0)
        (effects (font (size 1.27 1.27)) hide)
      )
      (property "ki_description" "Generic connector, single row, 01x04, script generated (kicad-library-utils/schlib/autogen/connector/)" (at 0 0 0)
        (effects (font (size 1.27 1.27)) hide)
      )
      (property "ki_fp_filters" "Connector*:*_1x??_*" (at 0 0 0)
        (effects (font (size 1.27 1.27)) hide)
      )
      (symbol "Conn_01x04_1_1"
        (rectangle (start -1.27 -4.953) (end 0 -5.207)
          (stroke (width 0.1524) (type default))
          (fill (type none))
        )
        (rectangle (start -1.27 -2.413) (end 0 -2.667)
          (stroke (width 0.1524) (type default))
          (fill (type none))
        )
        (rectangle (start -1.27 0.127) (end 0 -0.127)
          (stroke (width 0.1524) (type default))
          (fill (type none))
        )
        (rectangle (start -1.27 2.667) (end 0 2.413)
          (stroke (width 0.1524) (type default))
          (fill (type none))
        )
        (rectangle (start -1.27 3.81) (end 1.27 -6.35)
          (stroke (width 0.254) (type default))
          (fill (type background))
        )
        (pin passive line (at -5.08 2.54 0) (length 3.81)
          (name "Pin_1" (effects (font (size 1.27 1.27))))
          (number "1" (effects (font (size 1.27 1.27))))
        )
        (pin passive line (at -5.08 0 0) (length 3.81)
          (name "Pin_2" (effects (font (size 1.27 1.27))))
          (number "2" (effects (font (size 1.27 1.27))))
        )
        (pin passive line (at -5.08 -2.54 0) (length 3.81)
          (name "Pin_3" (effects (font (size 1.27 1.27))))
          (number "3" (effects (font (size 1.27 1.27))))
        )
        (pin passive line (at -5.08 -5.08 0) (length 3.81)
          (name "Pin_4" (effects (font (size 1.27 1.27))))
          (number "4" (effects (font (size 1.27 1.27))))
        )
      )
    )
    (symbol "Device:R" (pin_numbers hide) (pin_names (offset 0)) (in_bom yes) (on_board yes)
      (property "Reference" "R" (at 2.032 0 90)
        (effects (font (size 1.27 1.27)))
      )
      (property "Value" "R" (at 0 0 90)
        (effects (font (size 1.27 1.27)))
      )
      (property "Footprint" "" (at -1.778 0 90)
        (effects (font (size 1.27 1.27)) hide)
      )
      (property "Datasheet" "~" (at 0 0 0)
        (effects (font (size 1.27 1.27)) hide)
      )
      (property "ki_keywords" "R res resistor" (at 0 0 0)
        (effects (font (size 1.27 1.27)) hide)
      )
      (property "ki_description" "Resistor" (at 0 0 0)
        (effects (font (size 1.27 1.27)) hide)
      )
      (property "ki_fp_filters" "R_*" (at 0 0 0)
        (effects (font (size 1.27 1.27)) hide)
      )
      (symbol "R_0_1"
        (rectangle (start -1.016 -2.54) (end 1.016 2.54)
          (stroke (width 0.254) (type default))
          (fill (type none))
        )
      )
      (symbol "R_1_1"
        (pin passive line (at 0 3.81 270) (length 1.27)
          (name "~" (effects (font (size 1.27 1.27))))
          (number "1" (effects (font (size 1.27 1.27))))
        )
        (pin passive line (at 0 -3.81 90) (length 1.27)
          (name "~" (effects (font (size 1.27 1.27))))
          (number "2" (effects (font (size 1.27 1.27))))
        )
      )
    )
    (symbol "Device:Thermistor_NTC" (pin_numbers hide) (pin_names (offset 0)) (in_bom yes) (on_board yes)
      (property "Reference" "TH" (at -4.445 0 90)
        (effects (font (size 1.27 1.27)))
      )
      (property "Value" "Thermistor_NTC" (at 3.175 0 90)
        (effects (font (size 1.27 1.27)))
      )
      (property "Footprint" "" (at 0 1.27 0)
        (effects (font (size 1.27 1.27)) hide)
      )
      (property "Datasheet" "~" (at 0 1.27 0)
        (effects (font (size 1.27 1.27)) hide)
      )
      (property "ki_keywords" "thermistor NTC resistor sensor RTD" (at 0 0 0)
        (effects (font (size 1.27 1.27)) hide)
      )
      (property "ki_description" "Temperature dependent resistor, negative temperature coefficient" (at 0 0 0)
        (effects (font (size 1.27 1.27)) hide)
      )
      (property "ki_fp_filters" "*NTC* *Thermistor* PIN?ARRAY* bornier* *Terminal?Block* R_*" (at 0 0 0)
        (effects (font (size 1.27 1.27)) hide)
      )
      (symbol "Thermistor_NTC_0_1"
        (arc (start -3.048 2.159) (mid -3.0495 2.3143) (end -3.175 2.413)
          (stroke (width 0) (type default))
          (fill (type none))
        )
        (arc (start -3.048 2.159) (mid -2.9736 1.9794) (end -2.794 1.905)
          (stroke (width 0) (type default))
          (fill (type none))
        )
        (arc (start -3.048 2.794) (mid -2.9736 2.6144) (end -2.794 2.54)
          (stroke (width 0) (type default))
          (fill (type none))
        )
        (arc (start -2.794 1.905) (mid -2.6144 1.9794) (end -2.54 2.159)
          (stroke (width 0) (type default))
          (fill (type none))
        )
        (arc (start -2.794 2.54) (mid -2.4393 2.5587) (end -2.159 2.794)
          (stroke (width 0) (type default))
          (fill (type none))
        )
        (arc (start -2.794 3.048) (mid -2.9736 2.9736) (end -3.048 2.794)
          (stroke (width 0) (type default))
          (fill (type none))
        )
        (arc (start -2.54 2.794) (mid -2.6144 2.9736) (end -2.794 3.048)
          (stroke (width 0) (type default))
          (fill (type none))
        )
        (rectangle (start -1.016 2.54) (end 1.016 -2.54)
          (stroke (width 0.254) (type default))
          (fill (type none))
        )
        (polyline
          (pts
            (xy -2.54 2.159)
            (xy -2.54 2.794)
          )
          (stroke (width 0) (type default))
          (fill (type none))
        )
        (polyline
          (pts
            (xy -1.778 2.54)
            (xy -1.778 1.524)
            (xy 1.778 -1.524)
            (xy 1.778 -2.54)
          )
          (stroke (width 0) (type default))
          (fill (type none))
        )
        (polyline
          (pts
            (xy -2.54 -3.683)
            (xy -2.54 -1.397)
            (xy -2.794 -2.159)
            (xy -2.286 -2.159)
            (xy -2.54 -1.397)
            (xy -2.54 -1.651)
          )
          (stroke (width 0) (type default))
          (fill (type outline))
        )
        (polyline
          (pts
            (xy -1.778 -1.397)
            (xy -1.778 -3.683)
            (xy -2.032 -2.921)
            (xy -1.524 -2.921)
            (xy -1.778 -3.683)
            (xy -1.778 -3.429)
          )
          (stroke (width 0) (type default))
          (fill (type outline))
        )
      )
      (symbol "Thermistor_NTC_1_1"
        (pin passive line (at 0 3.81 270) (length 1.27)
          (name "~" (effects (font (size 1.27 1.27))))
          (number "1" (effects (font (size 1.27 1.27))))
        )
        (pin passive line (at 0 -3.81 90) (length 1.27)
          (name "~" (effects (font (size 1.27 1.27))))
          (number "2" (effects (font (size 1.27 1.27))))
        )
      )
    )
    (symbol "flasher-eagle-import:MA04-1" (in_bom yes) (on_board yes)
      (property "Reference" "SV" (at -1.27 5.842 0)
        (effects (font (size 1.778 1.5113)) (justify left bottom))
      )
      (property "Value" "" (at -1.27 -10.16 0)
        (effects (font (size 1.778 1.5113)) (justify left bottom))
      )
      (property "Footprint" "flasher:MA04-1" (at 0 0 0)
        (effects (font (size 1.27 1.27)) hide)
      )
      (property "Datasheet" "" (at 0 0 0)
        (effects (font (size 1.27 1.27)) hide)
      )
      (property "ki_locked" "" (at 0 0 0)
        (effects (font (size 1.27 1.27)))
      )
      (symbol "MA04-1_1_0"
        (polyline
          (pts
            (xy -1.27 5.08)
            (xy -1.27 -7.62)
          )
          (stroke (width 0.4064) (type solid))
          (fill (type none))
        )
        (polyline
          (pts
            (xy -1.27 5.08)
            (xy 3.81 5.08)
          )
          (stroke (width 0.4064) (type solid))
          (fill (type none))
        )
        (polyline
          (pts
            (xy 1.27 -5.08)
            (xy 2.54 -5.08)
          )
          (stroke (width 0.6096) (type solid))
          (fill (type none))
        )
        (polyline
          (pts
            (xy 1.27 -2.54)
            (xy 2.54 -2.54)
          )
          (stroke (width 0.6096) (type solid))
          (fill (type none))
        )
        (polyline
          (pts
            (xy 1.27 0)
            (xy 2.54 0)
          )
          (stroke (width 0.6096) (type solid))
          (fill (type none))
        )
        (polyline
          (pts
            (xy 1.27 2.54)
            (xy 2.54 2.54)
          )
          (stroke (width 0.6096) (type solid))
          (fill (type none))
        )
        (polyline
          (pts
            (xy 3.81 -7.62)
            (xy -1.27 -7.62)
          )
          (stroke (width 0.4064) (type solid))
          (fill (type none))
        )
        (polyline
          (pts
            (xy 3.81 -7.62)
            (xy 3.81 5.08)
          )
          (stroke (width 0.4064) (type solid))
          (fill (type none))
        )
        (pin passive line (at 7.62 -5.08 180) (length 5.08)
          (name "1" (effects (font (size 0 0))))
          (number "1" (effects (font (size 1.27 1.27))))
        )
        (pin passive line (at 7.62 -2.54 180) (length 5.08)
          (name "2" (effects (font (size 0 0))))
          (number "2" (effects (font (size 1.27 1.27))))
        )
        (pin passive line (at 7.62 0 180) (length 5.08)
          (name "3" (effects (font (size 0 0))))
          (number "3" (effects (font (size 1.27 1.27))))
        )
        (pin passive line (at 7.62 2.54 180) (length 5.08)
          (name "4" (effects (font (size 0 0))))
          (number "4" (effects (font (size 1.27 1.27))))
        )
      )
    )
    (symbol "flasher-eagle-import:WT51822-S4ATMODULE" (in_bom yes) (on_board yes)
      (property "Reference" "U" (at -12.7 19.05 0)
        (effects (font (size 1.778 1.5113)) (justify left bottom))
      )
      (property "Value" "" (at -17.78 -24.13 0)
        (effects (font (size 1.778 1.5113)) (justify left bottom))
      )
      (property "Footprint" "flasher:WT51822-S4AT" (at 0 0 0)
        (effects (font (size 1.27 1.27)) hide)
      )
      (property "Datasheet" "" (at 0 0 0)
        (effects (font (size 1.27 1.27)) hide)
      )
      (property "ki_locked" "" (at 0 0 0)
        (effects (font (size 1.27 1.27)))
      )
      (symbol "WT51822-S4ATMODULE_1_0"
        (polyline
          (pts
            (xy -17.78 -20.32)
            (xy -17.78 17.78)
          )
          (stroke (width 0.254) (type solid))
          (fill (type none))
        )
        (polyline
          (pts
            (xy -17.78 17.78)
            (xy 17.78 17.78)
          )
          (stroke (width 0.254) (type solid))
          (fill (type none))
        )
        (polyline
          (pts
            (xy 17.78 -20.32)
            (xy -17.78 -20.32)
          )
          (stroke (width 0.254) (type solid))
          (fill (type none))
        )
        (polyline
          (pts
            (xy 17.78 17.78)
            (xy 17.78 -20.32)
          )
          (stroke (width 0.254) (type solid))
          (fill (type none))
        )
        (pin passive line (at 0 22.86 270) (length 5.08)
          (name "VCC" (effects (font (size 1.27 1.27))))
          (number "P1" (effects (font (size 1.27 1.27))))
        )
        (pin bidirectional line (at 22.86 0 180) (length 5.08)
          (name "SWDIO" (effects (font (size 1.27 1.27))))
          (number "P10" (effects (font (size 1.27 1.27))))
        )
        (pin input clock (at 22.86 -2.54 180) (length 5.08)
          (name "SWDCLK" (effects (font (size 1.27 1.27))))
          (number "P11" (effects (font (size 1.27 1.27))))
        )
        (pin passive line (at 2.54 -25.4 90) (length 5.08)
          (name "GND@3" (effects (font (size 1.27 1.27))))
          (number "P12" (effects (font (size 1.27 1.27))))
        )
        (pin passive line (at 0 -25.4 90) (length 5.08)
          (name "GND@2" (effects (font (size 1.27 1.27))))
          (number "P13" (effects (font (size 1.27 1.27))))
        )
        (pin passive line (at -2.54 -25.4 90) (length 5.08)
          (name "GND@1" (effects (font (size 1.27 1.27))))
          (number "P2" (effects (font (size 1.27 1.27))))
        )
        (pin bidirectional line (at -22.86 7.62 0) (length 5.08)
          (name "P0.01(RX)" (effects (font (size 1.27 1.27))))
          (number "P3" (effects (font (size 1.27 1.27))))
        )
        (pin bidirectional line (at -22.86 5.08 0) (length 5.08)
          (name "P0.02(TX)" (effects (font (size 1.27 1.27))))
          (number "P4" (effects (font (size 1.27 1.27))))
        )
        (pin bidirectional line (at -22.86 2.54 0) (length 5.08)
          (name "P0.03(INT)" (effects (font (size 1.27 1.27))))
          (number "P5" (effects (font (size 1.27 1.27))))
        )
        (pin bidirectional line (at -22.86 0 0) (length 5.08)
          (name "P0.04(TEST)" (effects (font (size 1.27 1.27))))
          (number "P6" (effects (font (size 1.27 1.27))))
        )
        (pin bidirectional line (at -22.86 -2.54 0) (length 5.08)
          (name "P0.09(ENABLE)" (effects (font (size 1.27 1.27))))
          (number "P7" (effects (font (size 1.27 1.27))))
        )
        (pin bidirectional line (at -22.86 -5.08 0) (length 5.08)
          (name "P0.10(RESET)" (effects (font (size 1.27 1.27))))
          (number "P8" (effects (font (size 1.27 1.27))))
        )
        (pin bidirectional line (at -22.86 -7.62 0) (length 5.08)
          (name "P0.13" (effects (font (size 1.27 1.27))))
          (number "P9" (effects (font (size 1.27 1.27))))
        )
      )
    )
  )

  (junction (at 83.82 128.27) (diameter 0) (color 0 0 0 0)
    (uuid 0008a25d-f36f-4292-806f-709c72b38997)
  )
  (junction (at 203.2 114.3) (diameter 0) (color 0 0 0 0)
    (uuid 0faee50d-42a4-46c1-ad85-b2b01da9b185)
  )
  (junction (at 81.28 127) (diameter 0) (color 0 0 0 0)
    (uuid 15879ca9-0483-46a5-8cd5-58754d02546c)
  )
  (junction (at 193.04 96.52) (diameter 0) (color 0 0 0 0)
    (uuid 26e9adda-dec3-4c1b-b589-c33de796ddf3)
  )
  (junction (at 200.66 138.43) (diameter 0) (color 0 0 0 0)
    (uuid 4431f5e6-a2da-48f2-8d74-31d2de58e206)
  )
  (junction (at 83.82 127) (diameter 0) (color 0 0 0 0)
    (uuid 57f3e8ea-10f6-48f8-bc12-063fc8585c5f)
  )
  (junction (at 203.2 110.49) (diameter 0) (color 0 0 0 0)
    (uuid a7485e60-9813-40de-9309-da334115ef3f)
  )
  (junction (at 189.23 135.89) (diameter 0) (color 0 0 0 0)
    (uuid b8408e77-bea2-46ea-bb7f-1fe414504b34)
  )
  (junction (at 193.04 114.3) (diameter 0) (color 0 0 0 0)
    (uuid dc0e3495-11d5-4cde-afa8-fe07662b1d9a)
  )
  (junction (at 83.82 78.74) (diameter 0) (color 0 0 0 0)
    (uuid f7a60ef7-69b2-48d7-9add-bcb757a3c48e)
  )

  (wire (pts (xy 193.04 96.52) (xy 213.36 96.52))
    (stroke (width 0.1524) (type solid))
    (uuid 05b58693-6cc9-496a-982c-5a20449bbdfd)
  )
  (wire (pts (xy 83.82 127) (xy 83.82 128.27))
    (stroke (width 0.1524) (type solid))
    (uuid 0bb65fd6-6090-4a30-9158-0dfe1d76cecd)
  )
  (wire (pts (xy 219.71 110.49) (xy 219.71 114.3))
    (stroke (width 0) (type default))
    (uuid 175ac739-9133-4009-958e-ba24df7515e2)
  )
  (wire (pts (xy 46.99 127) (xy 81.28 127))
    (stroke (width 0) (type default))
    (uuid 202c3faa-8110-4564-bfb1-413472f4ff35)
  )
  (wire (pts (xy 119.38 128.27) (xy 83.82 128.27))
    (stroke (width 0) (type default))
    (uuid 2380e099-9c43-4a71-bc37-5ed211a2c7ce)
  )
  (wire (pts (xy 189.23 124.46) (xy 193.04 124.46))
    (stroke (width 0) (type default))
    (uuid 241498d2-1167-4b20-b4c7-3c9537fab975)
  )
  (wire (pts (xy 200.66 138.43) (xy 200.66 142.24))
    (stroke (width 0) (type default))
    (uuid 29cb5b99-c568-462d-b868-a20d44bdb8f0)
  )
  (wire (pts (xy 139.7 114.3) (xy 193.04 114.3))
    (stroke (width 0.1524) (type solid))
    (uuid 2db56977-5d57-4d1e-ae53-378171a29e75)
  )
  (wire (pts (xy 139.7 99.06) (xy 139.7 96.52))
    (stroke (width 0.1524) (type solid))
    (uuid 2ffb343e-aeb7-48e4-bc58-00af4ac04836)
  )
  (wire (pts (xy 81.28 127) (xy 83.82 127))
    (stroke (width 0) (type default))
    (uuid 392e736a-60a9-4f6f-97bd-c31b1bd395ce)
  )
  (wire (pts (xy 83.82 128.27) (xy 83.82 127))
    (stroke (width 0) (type default))
    (uuid 3b897e35-8da3-4445-a438-968a6b401164)
  )
  (wire (pts (xy 139.7 101.6) (xy 127 101.6))
    (stroke (width 0.1524) (type solid))
    (uuid 4325bf58-2a6e-4d5d-b0bb-d1ecfd78e005)
  )
  (wire (pts (xy 60.96 101.6) (xy 52.07 101.6))
    (stroke (width 0) (type default))
    (uuid 4cd5770e-f17c-41b2-89be-74b4834ed052)
  )
  (wire (pts (xy 200.66 138.43) (xy 189.23 138.43))
    (stroke (width 0) (type default))
    (uuid 545598b3-55b6-4ba8-89e9-c7fb7345fce8)
  )
  (wire (pts (xy 83.82 128.27) (xy 83.82 132.08))
    (stroke (width 0.1524) (type solid))
    (uuid 548f70d2-36a2-405a-970d-a096e8a987ec)
  )
  (wire (pts (xy 60.96 106.68) (xy 55.88 106.68))
    (stroke (width 0.1524) (type solid))
    (uuid 5b60ce5d-d1d7-4631-9339-578494bbcdc8)
  )
  (wire (pts (xy 52.07 135.89) (xy 189.23 135.89))
    (stroke (width 0) (type default))
    (uuid 5f1fa400-65d5-40ed-9b58-2676e6ace784)
  )
  (wire (pts (xy 60.96 109.22) (xy 55.88 109.22))
    (stroke (width 0.1524) (type solid))
    (uuid 622ee59b-cd1c-4953-b00b-1cb3feabef1c)
  )
  (wire (pts (xy 193.04 114.3) (xy 203.2 114.3))
    (stroke (width 0.1524) (type solid))
    (uuid 62ae27d6-d785-4189-99ae-abaa526c814b)
  )
  (wire (pts (xy 44.45 101.6) (xy 48.26 101.6))
    (stroke (width 0) (type default))
    (uuid 65899e55-cd44-4c00-b56d-e3213869f9f7)
  )
  (wire (pts (xy 205.74 114.3) (xy 203.2 114.3))
    (stroke (width 0) (type default))
    (uuid 6dc8d0e9-e11a-40bb-8548-685be22d193a)
  )
  (wire (pts (xy 86.36 127) (xy 83.82 127))
    (stroke (width 0.1524) (type solid))
    (uuid 6f78cb1a-1b0e-415d-9faf-afc83481a22d)
  )
  (wire (pts (xy 83.82 78.74) (xy 83.82 76.2))
    (stroke (width 0.1524) (type solid))
    (uuid 71cbc762-ec92-49a7-bc77-ac4fa1ae30c6)
  )
  (wire (pts (xy 44.45 99.06) (xy 60.96 99.06))
    (stroke (width 0) (type default))
    (uuid 760dd799-0309-42a5-b96c-6ee08dfe6912)
  )
  (wire (pts (xy 200.66 149.86) (xy 205.74 149.86))
    (stroke (width 0) (type default))
    (uuid 76ff1def-e13e-4294-8abe-e536fcd030a0)
  )
  (wire (pts (xy 106.68 101.6) (xy 114.3 101.6))
    (stroke (width 0) (type default))
    (uuid 770e45aa-68e2-4904-899e-bd7032e788f5)
  )
  (wire (pts (xy 119.38 125.73) (xy 111.76 125.73))
    (stroke (width 0) (type default))
    (uuid 7ba0ed3e-9a1f-4827-ab97-e708e61a09e0)
  )
  (wire (pts (xy 46.99 104.14) (xy 46.99 127))
    (stroke (width 0) (type default))
    (uuid 7c101f54-06d9-44e5-8ba6-9eea4b073be5)
  )
  (wire (pts (xy 139.7 106.68) (xy 139.7 114.3))
    (stroke (width 0.1524) (type solid))
    (uuid 7d221b63-544d-4f06-87c8-eed279298e5a)
  )
  (wire (pts (xy 52.07 101.6) (xy 52.07 135.89))
    (stroke (width 0) (type default))
    (uuid 7fa6e42f-a1c5-43ee-8434-8fac441105d1)
  )
  (wire (pts (xy 189.23 138.43) (xy 189.23 135.89))
    (stroke (width 0) (type default))
    (uuid 8167f6e7-16d6-4694-8df6-b37b9525da81)
  )
  (wire (pts (xy 114.3 123.19) (xy 119.38 123.19))
    (stroke (width 0) (type default))
    (uuid 888983a0-838a-413a-97bf-45c228489bc0)
  )
  (wire (pts (xy 205.74 149.86) (xy 205.74 114.3))
    (stroke (width 0) (type default))
    (uuid 8a344e83-9e1c-4ab8-9723-1504aee9687a)
  )
  (wire (pts (xy 193.04 96.52) (xy 193.04 88.9))
    (stroke (width 0.1524) (type solid))
    (uuid 8b5ee018-dce5-4ba4-8f51-790a90f9f4ac)
  )
  (wire (pts (xy 81.28 127) (xy 83.82 127))
    (stroke (width 0.1524) (type solid))
    (uuid 969a0148-2241-4147-8e02-4cc8229abe29)
  )
  (wire (pts (xy 139.7 104.14) (xy 157.48 104.14))
    (stroke (width 0.1524) (type solid))
    (uuid 9e03ca4f-fde4-4bfb-b2b1-3abbd5078970)
  )
  (wire (pts (xy 48.26 101.6) (xy 48.26 78.74))
    (stroke (width 0) (type default))
    (uuid a313dfa1-b48d-41f6-907a-8216d9625c36)
  )
  (wire (pts (xy 193.04 114.3) (xy 193.04 119.38))
    (stroke (width 0.1524) (type solid))
    (uuid a75b3cbb-eda9-4033-a7cc-e9ec3b956065)
  )
  (wire (pts (xy 111.76 125.73) (xy 111.76 78.74))
    (stroke (width 0) (type default))
    (uuid b5d4a2f6-2b8c-4727-a112-1a4f121e1ec1)
  )
  (wire (pts (xy 193.04 124.46) (xy 193.04 119.38))
    (stroke (width 0) (type default))
    (uuid b8f2bcec-0dc8-44c1-add5-4536ef9ad7f6)
  )
  (wire (pts (xy 189.23 127) (xy 200.66 127))
    (stroke (width 0) (type default))
    (uuid c1b4abd0-e8de-4a83-8abe-20c7514b0c13)
  )
  (wire (pts (xy 189.23 135.89) (xy 189.23 129.54))
    (stroke (width 0) (type default))
    (uuid c4a34bc7-ff8b-4e5e-9668-ee644e76811a)
  )
  (wire (pts (xy 111.76 78.74) (xy 83.82 78.74))
    (stroke (width 0) (type default))
    (uuid cbb9ab5c-50ea-46ed-b787-eabab927dfb5)
  )
  (wire (pts (xy 48.26 78.74) (xy 83.82 78.74))
    (stroke (width 0) (type default))
    (uuid d3d8fb5b-79f5-4910-937c-d0865b3f8fa7)
  )
  (wire (pts (xy 200.66 130.81) (xy 200.66 127))
    (stroke (width 0) (type default))
    (uuid da481acc-89ed-40cb-8367-a0c94a4ca543)
  )
  (wire (pts (xy 119.38 104.14) (xy 119.38 120.65))
    (stroke (width 0) (type default))
    (uuid daee61dc-181f-4c06-bd32-3511f5019c38)
  )
  (wire (pts (xy 139.7 96.52) (xy 193.04 96.52))
    (stroke (width 0.1524) (type solid))
    (uuid dd216cf4-c32c-4560-9352-e50cd1d42f7c)
  )
  (wire (pts (xy 203.2 110.49) (xy 203.2 114.3))
    (stroke (width 0) (type default))
    (uuid de3c95b8-87a7-44b0-b17f-90ee365245f8)
  )
  (wire (pts (xy 114.3 101.6) (xy 114.3 123.19))
    (stroke (width 0) (type default))
    (uuid df7cc2b0-0dde-4f00-88f7-495178283de3)
  )
  (wire (pts (xy 106.68 104.14) (xy 119.38 104.14))
    (stroke (width 0) (type default))
    (uuid e25a2b35-f809-42f9-9b86-ba24a57be771)
  )
  (wire (pts (xy 203.2 110.49) (xy 219.71 110.49))
    (stroke (width 0) (type default))
    (uuid e67680cc-9362-4352-9a97-ffc3b379e36e)
  )
  (wire (pts (xy 44.45 104.14) (xy 46.99 104.14))
    (stroke (width 0) (type default))
    (uuid e8c33bc6-87f5-42c2-bf2e-b8ab3fc3062a)
  )
  (wire (pts (xy 200.66 110.49) (xy 203.2 110.49))
    (stroke (width 0) (type default))
    (uuid f0a46711-726b-47e8-95be-7528df51e3b4)
  )

  (label "P010" (at 55.88 106.68 0) (fields_autoplaced)
    (effects (font (size 1.2446 1.2446)) (justify left bottom))
    (uuid 2acefd88-e037-4f1e-a60f-4f1566ec93d9)
  )
  (label "VCC33" (at 83.82 76.2 0) (fields_autoplaced)
    (effects (font (size 1.2446 1.2446)) (justify left bottom))
    (uuid 388b1cf3-0328-4ecd-840d-4b1911d64a0c)
  )
  (label "p03" (at 50.8 99.06 0) (fields_autoplaced)
    (effects (font (size 1.27 1.27)) (justify left bottom))
    (uuid 3f60e316-7793-47d5-aadb-0d544b7c8e94)
  )
  (label "GND" (at 83.82 132.08 0) (fields_autoplaced)
    (effects (font (size 1.2446 1.2446)) (justify left bottom))
    (uuid 6b1534fd-73f3-4d69-adfe-3accb9166508)
  )
  (label "VCC33" (at 193.04 88.9 0) (fields_autoplaced)
    (effects (font (size 1.2446 1.2446)) (justify left bottom))
    (uuid 809743dd-9684-4938-a324-98e160e21307)
  )
  (label "P013" (at 194.31 127 0) (fields_autoplaced)
    (effects (font (size 1.27 1.27)) (justify left bottom))
    (uuid 8eea5a5d-3139-48bc-ba15-69b03cc9aa7e)
  )
  (label "P010" (at 127 101.6 0) (fields_autoplaced)
    (effects (font (size 1.2446 1.2446)) (justify left bottom))
    (uuid 902642af-e644-411b-a6e1-bc238752ad8c)
  )
  (label "GND" (at 203.2 110.49 0) (fields_autoplaced)
    (effects (font (size 1.2446 1.2446)) (justify left bottom))
    (uuid 9262b986-9177-4279-bf83-786f6aa569bf)
  )
  (label "P013" (at 157.48 104.14 0) (fields_autoplaced)
    (effects (font (size 1.2446 1.2446)) (justify left bottom))
    (uuid b7859ae6-f43d-4294-99b9-cfe08ed497c9)
  )
  (label "P013" (at 55.88 109.22 0) (fields_autoplaced)
    (effects (font (size 1.2446 1.2446)) (justify left bottom))
    (uuid ebd7b8a2-7d8b-4833-a62f-029056583401)
  )

  (global_label "p03" (shape input) (at 55.88 99.06 0) (fields_autoplaced)
    (effects (font (size 1.27 1.27)) (justify left))
    (uuid 16918a3c-3521-4e02-b35e-c945dadb3fed)
    (property "Intersheetrefs" "${INTERSHEET_REFS}" (at 62.3538 99.06 0)
      (effects (font (size 1.27 1.27)) (justify left) hide)
    )
  )
  (global_label "P04" (shape input) (at 52.07 114.3 0) (fields_autoplaced)
    (effects (font (size 1.27 1.27)) (justify left))
    (uuid eb3ef657-3afd-4fa5-94da-b0d013f5a90a)
    (property "Intersheetrefs" "${INTERSHEET_REFS}" (at 58.6648 114.3 0)
      (effects (font (size 1.27 1.27)) (justify left) hide)
    )
  )

  (symbol (lib_id "Device:Thermistor_NTC") (at 200.66 134.62 0) (unit 1)
    (in_bom yes) (on_board yes) (dnp no) (fields_autoplaced)
    (uuid 0f0ea950-cc9e-4faf-bb8d-357db508839e)
    (property "Reference" "TH1" (at 203.2 134.3025 0)
      (effects (font (size 1.27 1.27)) (justify left))
    )
    (property "Value" "Thermistor_NTC" (at 203.2 136.8425 0)
      (effects (font (size 1.27 1.27)) (justify left))
    )
    (property "Footprint" "OptoDevice:R_LDR_4.9x4.2mm_P2.54mm_Vertical" (at 200.66 133.35 0)
      (effects (font (size 1.27 1.27)) hide)
    )
    (property "Datasheet" "~" (at 200.66 133.35 0)
      (effects (font (size 1.27 1.27)) hide)
    )
    (pin "1" (uuid 53da5496-7453-4280-bd99-0d1f1d3db686))
    (pin "2" (uuid e22b662b-7fd7-44b9-b20c-e133c3da3586))
    (instances
      (project "soil_client"
        (path "/af23b526-e1ff-4be2-a6a4-789d48d90496"
          (reference "TH1") (unit 1)
        )
      )
    )
  )

  (symbol (lib_id "flasher-eagle-import:MA04-1") (at 132.08 101.6 0) (unit 1)
    (in_bom yes) (on_board yes) (dnp no)
    (uuid 22b0b45a-bd8c-44ac-ab87-8b093bf4228d)
    (property "Reference" "-_13_10_+0" (at 130.81 95.758 0)
      (effects (font (size 1.778 1.5113)) (justify left bottom))
    )
    (property "Value" "-_13_10_+" (at 130.81 111.76 0)
      (effects (font (size 1.778 1.5113)) (justify left bottom))
    )
    (property "Footprint" "flasher:MA04-1" (at 132.08 101.6 0)
      (effects (font (size 1.27 1.27)) hide)
    )
    (property "Datasheet" "" (at 132.08 101.6 0)
      (effects (font (size 1.27 1.27)) hide)
    )
    (pin "1" (uuid 2ad51be4-8b86-4bea-82ae-abaafa3851f5))
    (pin "2" (uuid 94b54d45-c5c4-4487-9d39-7fb5e418c50e))
    (pin "3" (uuid be9307c3-1633-4212-b9b7-3359a48356b5))
    (pin "4" (uuid c477aeda-8ade-43be-9ed1-203dca340042))
    (instances
      (project "soil_client"
        (path "/af23b526-e1ff-4be2-a6a4-789d48d90496"
          (reference "-_13_10_+0") (unit 1)
        )
      )
    )
  )

  (symbol (lib_id "Connector:Conn_01x01_Pin") (at 208.28 96.52 0) (unit 1)
    (in_bom yes) (on_board yes) (dnp no) (fields_autoplaced)
    (uuid 2375558f-677b-47c9-b34f-a9d7e6d7134e)
    (property "Reference" "J4" (at 208.915 92.71 0)
      (effects (font (size 1.27 1.27)))
    )
    (property "Value" "Conn_01x01_Pin" (at 208.915 95.25 0)
      (effects (font (size 1.27 1.27)))
    )
    (property "Footprint" "Connector_PinHeader_2.54mm:PinHeader_1x01_P2.54mm_Vertical" (at 208.28 96.52 0)
      (effects (font (size 1.27 1.27)) hide)
    )
    (property "Datasheet" "~" (at 208.28 96.52 0)
      (effects (font (size 1.27 1.27)) hide)
    )
    (pin "1" (uuid 00f6cfb1-f58c-4458-9e46-c811f7268cc1))
    (instances
      (project "soil_client"
        (path "/af23b526-e1ff-4be2-a6a4-789d48d90496"
          (reference "J4") (unit 1)
        )
      )
    )
  )

  (symbol (lib_id "flasher-eagle-import:WT51822-S4ATMODULE") (at 83.82 101.6 0) (unit 1)
    (in_bom yes) (on_board yes) (dnp no)
    (uuid 3fdff481-15e8-45a0-bda9-d922108f35f2)
    (property "Reference" "U1" (at 71.12 82.55 0)
      (effects (font (size 1.778 1.5113)) (justify left bottom))
    )
    (property "Value" "WT51822-S4ATMODULE" (at 66.04 125.73 0)
      (effects (font (size 1.778 1.5113)) (justify left bottom))
    )
    (property "Footprint" "flasher:WT51822-S4AT" (at 83.82 101.6 0)
      (effects (font (size 1.27 1.27)) hide)
    )
    (property "Datasheet" "" (at 83.82 101.6 0)
      (effects (font (size 1.27 1.27)) hide)
    )
    (pin "P1" (uuid 67a4be17-9dc3-467f-b323-056759f0e3ac))
    (pin "P10" (uuid b4e47285-4010-46bb-abf4-8370763f0119))
    (pin "P11" (uuid dd84f3d0-6eae-4592-ac4f-97038dc0ddaf))
    (pin "P12" (uuid cad7f96e-5404-410b-8ecb-587cb21e25fd))
    (pin "P13" (uuid cd342c1e-a182-4053-98dc-02ace0be55c2))
    (pin "P2" (uuid ed1a52b9-728f-4315-9f28-953c49d9153e))
    (pin "P3" (uuid a56110b6-6973-4892-a813-bb329c779c38))
    (pin "P4" (uuid 6a5ad624-6669-49f8-9078-9eb940960e51))
    (pin "P5" (uuid 0448b17e-7af3-463c-8031-605b0eca519d))
    (pin "P6" (uuid fcffbcd4-4926-4c48-bc3e-8b613bd88e94))
    (pin "P7" (uuid 150b0ce3-05f6-4dab-8873-f60d256f5148))
    (pin "P8" (uuid 9818eab9-b54c-428a-8962-8729e6bb18b6))
    (pin "P9" (uuid db622689-83af-4809-9c92-9aa8e7dd64cf))
    (instances
      (project "soil_client"
        (path "/af23b526-e1ff-4be2-a6a4-789d48d90496"
          (reference "U1") (unit 1)
        )
      )
    )
  )

  (symbol (lib_id "Connector:Conn_01x03_Pin") (at 184.15 127 0) (unit 1)
    (in_bom yes) (on_board yes) (dnp no) (fields_autoplaced)
    (uuid 44e6f220-d40e-4821-afb6-b60269c6d402)
    (property "Reference" "J3" (at 184.785 120.65 0)
      (effects (font (size 1.27 1.27)))
    )
    (property "Value" "Conn_01x03_Pin" (at 184.785 123.19 0)
      (effects (font (size 1.27 1.27)))
    )
    (property "Footprint" "Connector_PinHeader_2.54mm:PinHeader_1x03_P2.54mm_Vertical" (at 184.15 127 0)
      (effects (font (size 1.27 1.27)) hide)
    )
    (property "Datasheet" "~" (at 184.15 127 0)
      (effects (font (size 1.27 1.27)) hide)
    )
    (pin "1" (uuid f16b2c6d-fbac-46d4-9160-a4dbc000abcb))
    (pin "2" (uuid e45681d9-1a5c-4fea-9b55-7cd3e5ffdeec))
    (pin "3" (uuid cb30777a-f5ef-4bdc-9179-db697ae05a54))
    (instances
      (project "soil_client"
        (path "/af23b526-e1ff-4be2-a6a4-789d48d90496"
          (reference "J3") (unit 1)
        )
      )
    )
  )

  (symbol (lib_id "Connector:Conn_01x01_Pin") (at 214.63 114.3 0) (unit 1)
    (in_bom yes) (on_board yes) (dnp no) (fields_autoplaced)
    (uuid 792cd005-fd85-4ea9-8bcf-5e20db074505)
    (property "Reference" "J5" (at 215.265 110.49 0)
      (effects (font (size 1.27 1.27)))
    )
    (property "Value" "Conn_01x01_Pin" (at 215.265 113.03 0)
      (effects (font (size 1.27 1.27)))
    )
    (property "Footprint" "Connector_PinHeader_2.54mm:PinHeader_1x01_P2.54mm_Vertical" (at 214.63 114.3 0)
      (effects (font (size 1.27 1.27)) hide)
    )
    (property "Datasheet" "~" (at 214.63 114.3 0)
      (effects (font (size 1.27 1.27)) hide)
    )
    (property "Field4" "" (at 214.63 114.3 0)
      (effects (font (size 1.27 1.27)) hide)
    )
    (pin "1" (uuid 4a886b5c-726e-4e5c-b7a4-cf0ec53056c5))
    (instances
      (project "soil_client"
        (path "/af23b526-e1ff-4be2-a6a4-789d48d90496"
          (reference "J5") (unit 1)
        )
      )
    )
  )

  (symbol (lib_id "Device:R") (at 200.66 146.05 0) (unit 1)
    (in_bom yes) (on_board yes) (dnp no) (fields_autoplaced)
    (uuid 7f0afd8d-f997-40ae-af61-1b8f3cc6ed54)
    (property "Reference" "R1" (at 203.2 145.415 0)
      (effects (font (size 1.27 1.27)) (justify left))
    )
    (property "Value" "10k" (at 203.2 147.955 0)
      (effects (font (size 1.27 1.27)) (justify left))
    )
    (property "Footprint" "Resistor_SMD:R_1206_3216Metric" (at 198.882 146.05 90)
      (effects (font (size 1.27 1.27)) hide)
    )
    (property "Datasheet" "~" (at 200.66 146.05 0)
      (effects (font (size 1.27 1.27)) hide)
    )
    (pin "1" (uuid 05a565ff-c299-4ec9-ad06-b172a7119ec6))
    (pin "2" (uuid 444119c6-bcb4-4cde-ac81-61f62662136d))
    (instances
      (project "soil_client"
        (path "/af23b526-e1ff-4be2-a6a4-789d48d90496"
          (reference "R1") (unit 1)
        )
      )
    )
  )

  (symbol (lib_id "Connector_Generic:Conn_01x04") (at 124.46 123.19 0) (unit 1)
    (in_bom yes) (on_board yes) (dnp no) (fields_autoplaced)
    (uuid 9b388da4-f8ba-48fd-962e-44148642afdb)
    (property "Reference" "J1" (at 127 123.825 0)
      (effects (font (size 1.27 1.27)) (justify left))
    )
    (property "Value" "Conn_01x04" (at 127 126.365 0)
      (effects (font (size 1.27 1.27)) (justify left))
    )
    (property "Footprint" "Connector_PinHeader_2.54mm:PinHeader_1x04_P2.54mm_Vertical" (at 124.46 123.19 0)
      (effects (font (size 1.27 1.27)) hide)
    )
    (property "Datasheet" "~" (at 124.46 123.19 0)
      (effects (font (size 1.27 1.27)) hide)
    )
    (pin "1" (uuid fc359e0a-18ba-4a25-9f02-016415e930e8))
    (pin "2" (uuid 9e5f11b2-0e2c-4329-98db-7a5280596d61))
    (pin "3" (uuid 16d2dce0-e538-4a9e-b920-d6c75bbf1803))
    (pin "4" (uuid 1dbb6f59-f6e4-44c1-9856-10308125eaec))
    (instances
      (project "soil_client"
        (path "/af23b526-e1ff-4be2-a6a4-789d48d90496"
          (reference "J1") (unit 1)
        )
      )
    )
  )

  (symbol (lib_id "Connector:Conn_01x03_Pin") (at 39.37 101.6 0) (unit 1)
    (in_bom yes) (on_board yes) (dnp no) (fields_autoplaced)
    (uuid c5aabe1d-fb02-45ca-890c-9eb9077d973a)
    (property "Reference" "J2" (at 40.005 95.25 0)
      (effects (font (size 1.27 1.27)))
    )
    (property "Value" "Conn_01x03_Pin" (at 40.005 97.79 0)
      (effects (font (size 1.27 1.27)))
    )
    (property "Footprint" "" (at 39.37 101.6 0)
      (effects (font (size 1.27 1.27)) hide)
    )
    (property "Datasheet" "~" (at 39.37 101.6 0)
      (effects (font (size 1.27 1.27)) hide)
    )
    (pin "1" (uuid 01a6af53-0b2e-4f5b-be46-e0e9e109880f))
    (pin "2" (uuid 4a85cf15-f363-4a04-ab25-31fcc56e8fc9))
    (pin "3" (uuid 246499c2-a4c7-4dc6-a085-7b60528002e6))
    (instances
      (project "soil_client"
        (path "/af23b526-e1ff-4be2-a6a4-789d48d90496"
          (reference "J2") (unit 1)
        )
      )
    )
  )

  (sheet_instances
    (path "/" (page "1"))
  )
)
