<?xml version="1.0" encoding="utf-8"?>
<!DOCTYPE eagle SYSTEM "eagle.dtd">
<eagle version="9.3.2">
<drawing>
<settings>
<setting alwaysvectorfont="no"/>
<setting verticaltext="up"/>
</settings>
<grid distance="0.1" unitdist="inch" unit="inch" style="lines" multiple="1" display="no" altdistance="0.01" altunitdist="inch" altunit="inch"/>
<layers>
<layer number="1" name="Top" color="4" fill="1" visible="no" active="no"/>
<layer number="16" name="Bottom" color="1" fill="1" visible="no" active="no"/>
<layer number="17" name="Pads" color="2" fill="1" visible="no" active="no"/>
<layer number="18" name="Vias" color="2" fill="1" visible="no" active="no"/>
<layer number="19" name="Unrouted" color="6" fill="1" visible="no" active="no"/>
<layer number="20" name="Dimension" color="15" fill="1" visible="no" active="no"/>
<layer number="21" name="tPlace" color="7" fill="1" visible="no" active="no"/>
<layer number="22" name="bPlace" color="7" fill="1" visible="no" active="no"/>
<layer number="23" name="tOrigins" color="15" fill="1" visible="no" active="no"/>
<layer number="24" name="bOrigins" color="15" fill="1" visible="no" active="no"/>
<layer number="25" name="tNames" color="7" fill="1" visible="no" active="no"/>
<layer number="26" name="bNames" color="7" fill="1" visible="no" active="no"/>
<layer number="27" name="tValues" color="7" fill="1" visible="no" active="no"/>
<layer number="28" name="bValues" color="7" fill="1" visible="no" active="no"/>
<layer number="29" name="tStop" color="7" fill="3" visible="no" active="no"/>
<layer number="30" name="bStop" color="7" fill="6" visible="no" active="no"/>
<layer number="31" name="tCream" color="7" fill="4" visible="no" active="no"/>
<layer number="32" name="bCream" color="7" fill="5" visible="no" active="no"/>
<layer number="33" name="tFinish" color="6" fill="3" visible="no" active="no"/>
<layer number="34" name="bFinish" color="6" fill="6" visible="no" active="no"/>
<layer number="35" name="tGlue" color="7" fill="4" visible="no" active="no"/>
<layer number="36" name="bGlue" color="7" fill="5" visible="no" active="no"/>
<layer number="37" name="tTest" color="7" fill="1" visible="no" active="no"/>
<layer number="38" name="bTest" color="7" fill="1" visible="no" active="no"/>
<layer number="39" name="tKeepout" color="4" fill="11" visible="no" active="no"/>
<layer number="40" name="bKeepout" color="1" fill="11" visible="no" active="no"/>
<layer number="41" name="tRestrict" color="4" fill="10" visible="no" active="no"/>
<layer number="42" name="bRestrict" color="1" fill="10" visible="no" active="no"/>
<layer number="43" name="vRestrict" color="2" fill="10" visible="no" active="no"/>
<layer number="44" name="Drills" color="7" fill="1" visible="no" active="no"/>
<layer number="45" name="Holes" color="7" fill="1" visible="no" active="no"/>
<layer number="46" name="Milling" color="3" fill="1" visible="no" active="no"/>
<layer number="47" name="Measures" color="7" fill="1" visible="no" active="no"/>
<layer number="48" name="Document" color="7" fill="1" visible="no" active="no"/>
<layer number="49" name="Reference" color="7" fill="1" visible="no" active="no"/>
<layer number="50" name="dxf" color="7" fill="1" visible="no" active="no"/>
<layer number="51" name="tDocu" color="7" fill="1" visible="no" active="no"/>
<layer number="52" name="bDocu" color="7" fill="1" visible="no" active="no"/>
<layer number="53" name="tGND_GNDA" color="7" fill="9" visible="no" active="no"/>
<layer number="54" name="bGND_GNDA" color="1" fill="9" visible="no" active="no"/>
<layer number="56" name="wert" color="7" fill="1" visible="no" active="no"/>
<layer number="57" name="tCAD" color="7" fill="1" visible="no" active="no"/>
<layer number="59" name="tCarbon" color="7" fill="1" visible="no" active="no"/>
<layer number="60" name="bCarbon" color="7" fill="1" visible="no" active="no"/>
<layer number="88" name="SimResults" color="9" fill="1" visible="yes" active="yes"/>
<layer number="89" name="SimProbes" color="9" fill="1" visible="yes" active="yes"/>
<layer number="90" name="Modules" color="5" fill="1" visible="yes" active="yes"/>
<layer number="91" name="Nets" color="2" fill="1" visible="yes" active="yes"/>
<layer number="92" name="Busses" color="1" fill="1" visible="yes" active="yes"/>
<layer number="93" name="Pins" color="2" fill="1" visible="no" active="yes"/>
<layer number="94" name="Symbols" color="4" fill="1" visible="yes" active="yes"/>
<layer number="95" name="Names" color="7" fill="1" visible="yes" active="yes"/>
<layer number="96" name="Values" color="7" fill="1" visible="yes" active="yes"/>
<layer number="97" name="Info" color="7" fill="1" visible="yes" active="yes"/>
<layer number="98" name="Guide" color="6" fill="1" visible="yes" active="yes"/>
<layer number="99" name="SpiceOrder" color="7" fill="1" visible="no" active="yes"/>
<layer number="100" name="Muster" color="7" fill="1" visible="no" active="no"/>
<layer number="101" name="Patch_Top" color="12" fill="4" visible="yes" active="yes"/>
<layer number="102" name="Vscore" color="7" fill="1" visible="yes" active="yes"/>
<layer number="103" name="fp3" color="7" fill="1" visible="no" active="yes"/>
<layer number="104" name="Name" color="7" fill="1" visible="yes" active="yes"/>
<layer number="105" name="Beschreib" color="9" fill="1" visible="yes" active="yes"/>
<layer number="106" name="BGA-Top" color="4" fill="1" visible="yes" active="yes"/>
<layer number="107" name="BD-Top" color="5" fill="1" visible="yes" active="yes"/>
<layer number="108" name="fp8" color="7" fill="1" visible="no" active="yes"/>
<layer number="109" name="fp9" color="7" fill="1" visible="no" active="yes"/>
<layer number="110" name="fp0" color="7" fill="1" visible="no" active="yes"/>
<layer number="111" name="LPC17xx" color="7" fill="1" visible="yes" active="yes"/>
<layer number="112" name="tSilk" color="7" fill="1" visible="yes" active="yes"/>
<layer number="113" name="IDFDebug" color="4" fill="1" visible="no" active="no"/>
<layer number="116" name="Patch_BOT" color="9" fill="4" visible="yes" active="yes"/>
<layer number="118" name="Rect_Pads" color="7" fill="1" visible="no" active="no"/>
<layer number="121" name="_tsilk" color="7" fill="1" visible="yes" active="yes"/>
<layer number="122" name="_bsilk" color="7" fill="1" visible="yes" active="yes"/>
<layer number="123" name="tTestmark" color="7" fill="1" visible="no" active="yes"/>
<layer number="124" name="bTestmark" color="7" fill="1" visible="no" active="yes"/>
<layer number="125" name="_tNames" color="7" fill="1" visible="yes" active="yes"/>
<layer number="126" name="_bNames" color="7" fill="1" visible="yes" active="yes"/>
<layer number="127" name="_tValues" color="7" fill="1" visible="yes" active="yes"/>
<layer number="128" name="_bValues" color="7" fill="1" visible="yes" active="yes"/>
<layer number="129" name="Mask" color="7" fill="1" visible="no" active="no"/>
<layer number="131" name="tAdjust" color="7" fill="1" visible="no" active="yes"/>
<layer number="132" name="bAdjust" color="7" fill="1" visible="no" active="yes"/>
<layer number="144" name="Drill_legend" color="7" fill="1" visible="yes" active="yes"/>
<layer number="150" name="Notes" color="7" fill="1" visible="no" active="yes"/>
<layer number="151" name="HeatSink" color="7" fill="1" visible="yes" active="yes"/>
<layer number="152" name="_bDocu" color="7" fill="1" visible="yes" active="yes"/>
<layer number="153" name="FabDoc1" color="6" fill="1" visible="no" active="no"/>
<layer number="154" name="FabDoc2" color="2" fill="1" visible="no" active="no"/>
<layer number="155" name="FabDoc3" color="7" fill="15" visible="no" active="no"/>
<layer number="199" name="Contour" color="7" fill="1" visible="yes" active="yes"/>
<layer number="200" name="200bmp" color="1" fill="10" visible="yes" active="yes"/>
<layer number="201" name="201bmp" color="2" fill="1" visible="no" active="no"/>
<layer number="202" name="202bmp" color="3" fill="1" visible="no" active="no"/>
<layer number="203" name="203bmp" color="4" fill="10" visible="yes" active="yes"/>
<layer number="204" name="204bmp" color="5" fill="10" visible="yes" active="yes"/>
<layer number="205" name="205bmp" color="6" fill="10" visible="yes" active="yes"/>
<layer number="206" name="206bmp" color="7" fill="10" visible="yes" active="yes"/>
<layer number="207" name="207bmp" color="8" fill="10" visible="yes" active="yes"/>
<layer number="208" name="208bmp" color="9" fill="10" visible="yes" active="yes"/>
<layer number="209" name="209bmp" color="7" fill="1" visible="no" active="yes"/>
<layer number="210" name="210bmp" color="7" fill="1" visible="no" active="yes"/>
<layer number="211" name="211bmp" color="7" fill="1" visible="yes" active="yes"/>
<layer number="212" name="212bmp" color="7" fill="1" visible="yes" active="yes"/>
<layer number="213" name="213bmp" color="7" fill="1" visible="yes" active="yes"/>
<layer number="214" name="214bmp" color="7" fill="1" visible="yes" active="yes"/>
<layer number="215" name="215bmp" color="7" fill="1" visible="yes" active="yes"/>
<layer number="216" name="216bmp" color="7" fill="1" visible="yes" active="yes"/>
<layer number="217" name="217bmp" color="18" fill="1" visible="no" active="no"/>
<layer number="218" name="218bmp" color="19" fill="1" visible="no" active="no"/>
<layer number="219" name="219bmp" color="20" fill="1" visible="no" active="no"/>
<layer number="220" name="220bmp" color="21" fill="1" visible="no" active="no"/>
<layer number="221" name="221bmp" color="22" fill="1" visible="no" active="no"/>
<layer number="222" name="222bmp" color="23" fill="1" visible="no" active="no"/>
<layer number="223" name="223bmp" color="24" fill="1" visible="no" active="no"/>
<layer number="224" name="224bmp" color="25" fill="1" visible="no" active="no"/>
<layer number="225" name="225bmp" color="7" fill="1" visible="no" active="no"/>
<layer number="226" name="226bmp" color="7" fill="1" visible="no" active="no"/>
<layer number="227" name="227bmp" color="7" fill="1" visible="no" active="no"/>
<layer number="228" name="228bmp" color="7" fill="1" visible="no" active="no"/>
<layer number="229" name="229bmp" color="7" fill="1" visible="no" active="no"/>
<layer number="230" name="230bmp" color="7" fill="1" visible="no" active="no"/>
<layer number="231" name="231bmp" color="7" fill="1" visible="no" active="no"/>
<layer number="248" name="Housing" color="7" fill="1" visible="yes" active="yes"/>
<layer number="249" name="Edge" color="7" fill="1" visible="yes" active="yes"/>
<layer number="250" name="Descript" color="7" fill="1" visible="no" active="no"/>
<layer number="251" name="SMDround" color="7" fill="1" visible="no" active="no"/>
<layer number="254" name="cooling" color="7" fill="1" visible="yes" active="yes"/>
<layer number="255" name="routoute" color="7" fill="1" visible="no" active="no"/>
</layers>
<schematic xreflabel="%F%N/%S.%C%R" xrefpart="/%S.%C%R">
<libraries>
<library name="con-lstb" urn="urn:adsk.eagle:library:162">
<description>&lt;b&gt;Pin Headers&lt;/b&gt;&lt;p&gt;
Naming:&lt;p&gt;
MA = male&lt;p&gt;
# contacts - # rows&lt;p&gt;
W = angled&lt;p&gt;
&lt;author&gt;Created by librarian@cadsoft.de&lt;/author&gt;</description>
<packages>
<package name="MA05-2" urn="urn:adsk.eagle:footprint:8267/1" library_version="1">
<description>&lt;b&gt;PIN HEADER&lt;/b&gt;</description>
<wire x1="-5.715" y1="2.54" x2="-4.445" y2="2.54" width="0.1524" layer="21"/>
<wire x1="-4.445" y1="2.54" x2="-3.81" y2="1.905" width="0.1524" layer="21"/>
<wire x1="-3.81" y1="1.905" x2="-3.175" y2="2.54" width="0.1524" layer="21"/>
<wire x1="-3.175" y1="2.54" x2="-1.905" y2="2.54" width="0.1524" layer="21"/>
<wire x1="-1.905" y1="2.54" x2="-1.27" y2="1.905" width="0.1524" layer="21"/>
<wire x1="-5.715" y1="2.54" x2="-6.35" y2="1.905" width="0.1524" layer="21"/>
<wire x1="-1.27" y1="1.905" x2="-0.635" y2="2.54" width="0.1524" layer="21"/>
<wire x1="-0.635" y1="2.54" x2="0.635" y2="2.54" width="0.1524" layer="21"/>
<wire x1="0.635" y1="2.54" x2="1.27" y2="1.905" width="0.1524" layer="21"/>
<wire x1="1.905" y1="2.54" x2="3.175" y2="2.54" width="0.1524" layer="21"/>
<wire x1="3.175" y1="2.54" x2="3.81" y2="1.905" width="0.1524" layer="21"/>
<wire x1="3.81" y1="1.905" x2="4.445" y2="2.54" width="0.1524" layer="21"/>
<wire x1="4.445" y1="2.54" x2="5.715" y2="2.54" width="0.1524" layer="21"/>
<wire x1="1.905" y1="2.54" x2="1.27" y2="1.905" width="0.1524" layer="21"/>
<wire x1="-3.81" y1="-1.905" x2="-4.445" y2="-2.54" width="0.1524" layer="21"/>
<wire x1="-1.27" y1="-1.905" x2="-1.905" y2="-2.54" width="0.1524" layer="21"/>
<wire x1="-1.905" y1="-2.54" x2="-3.175" y2="-2.54" width="0.1524" layer="21"/>
<wire x1="-3.175" y1="-2.54" x2="-3.81" y2="-1.905" width="0.1524" layer="21"/>
<wire x1="-6.35" y1="1.905" x2="-6.35" y2="-1.905" width="0.1524" layer="21"/>
<wire x1="-6.35" y1="-1.905" x2="-5.715" y2="-2.54" width="0.1524" layer="21"/>
<wire x1="-4.445" y1="-2.54" x2="-5.715" y2="-2.54" width="0.1524" layer="21"/>
<wire x1="1.27" y1="-1.905" x2="0.635" y2="-2.54" width="0.1524" layer="21"/>
<wire x1="0.635" y1="-2.54" x2="-0.635" y2="-2.54" width="0.1524" layer="21"/>
<wire x1="-0.635" y1="-2.54" x2="-1.27" y2="-1.905" width="0.1524" layer="21"/>
<wire x1="3.81" y1="-1.905" x2="3.175" y2="-2.54" width="0.1524" layer="21"/>
<wire x1="5.715" y1="-2.54" x2="4.445" y2="-2.54" width="0.1524" layer="21"/>
<wire x1="4.445" y1="-2.54" x2="3.81" y2="-1.905" width="0.1524" layer="21"/>
<wire x1="1.27" y1="-1.905" x2="1.905" y2="-2.54" width="0.1524" layer="21"/>
<wire x1="3.175" y1="-2.54" x2="1.905" y2="-2.54" width="0.1524" layer="21"/>
<wire x1="6.35" y1="1.905" x2="6.35" y2="-1.905" width="0.1524" layer="21"/>
<wire x1="5.715" y1="2.54" x2="6.35" y2="1.905" width="0.1524" layer="21"/>
<wire x1="6.35" y1="-1.905" x2="5.715" y2="-2.54" width="0.1524" layer="21"/>
<pad name="1" x="-5.08" y="-1.27" drill="1.016" shape="octagon"/>
<pad name="3" x="-2.54" y="-1.27" drill="1.016" shape="octagon"/>
<pad name="5" x="0" y="-1.27" drill="1.016" shape="octagon"/>
<pad name="7" x="2.54" y="-1.27" drill="1.016" shape="octagon"/>
<pad name="9" x="5.08" y="-1.27" drill="1.016" shape="octagon"/>
<pad name="2" x="-5.08" y="1.27" drill="1.016" shape="octagon"/>
<pad name="4" x="-2.54" y="1.27" drill="1.016" shape="octagon"/>
<pad name="6" x="0" y="1.27" drill="1.016" shape="octagon"/>
<pad name="8" x="2.54" y="1.27" drill="1.016" shape="octagon"/>
<pad name="10" x="5.08" y="1.27" drill="1.016" shape="octagon"/>
<text x="-5.588" y="-4.191" size="1.27" layer="21" ratio="10">1</text>
<text x="-6.35" y="2.921" size="1.27" layer="25" ratio="10">&gt;NAME</text>
<text x="0" y="-4.191" size="1.27" layer="27" ratio="10">&gt;VALUE</text>
<text x="4.572" y="2.921" size="1.27" layer="21" ratio="10">10</text>
<rectangle x1="-2.794" y1="-1.524" x2="-2.286" y2="-1.016" layer="51"/>
<rectangle x1="-5.334" y1="-1.524" x2="-4.826" y2="-1.016" layer="51"/>
<rectangle x1="-0.254" y1="-1.524" x2="0.254" y2="-1.016" layer="51"/>
<rectangle x1="4.826" y1="-1.524" x2="5.334" y2="-1.016" layer="51"/>
<rectangle x1="2.286" y1="-1.524" x2="2.794" y2="-1.016" layer="51"/>
<rectangle x1="-5.334" y1="1.016" x2="-4.826" y2="1.524" layer="51"/>
<rectangle x1="-2.794" y1="1.016" x2="-2.286" y2="1.524" layer="51"/>
<rectangle x1="-0.254" y1="1.016" x2="0.254" y2="1.524" layer="51"/>
<rectangle x1="2.286" y1="1.016" x2="2.794" y2="1.524" layer="51"/>
<rectangle x1="4.826" y1="1.016" x2="5.334" y2="1.524" layer="51"/>
</package>
</packages>
<packages3d>
<package3d name="MA05-2" urn="urn:adsk.eagle:package:8329/1" type="box" library_version="1">
<description>PIN HEADER</description>
<packageinstances>
<packageinstance name="MA05-2"/>
</packageinstances>
</package3d>
</packages3d>
<symbols>
<symbol name="MA05-2" urn="urn:adsk.eagle:symbol:8266/1" library_version="1">
<wire x1="3.81" y1="-7.62" x2="-3.81" y2="-7.62" width="0.4064" layer="94"/>
<wire x1="1.27" y1="0" x2="2.54" y2="0" width="0.6096" layer="94"/>
<wire x1="1.27" y1="-2.54" x2="2.54" y2="-2.54" width="0.6096" layer="94"/>
<wire x1="1.27" y1="-5.08" x2="2.54" y2="-5.08" width="0.6096" layer="94"/>
<wire x1="-2.54" y1="0" x2="-1.27" y2="0" width="0.6096" layer="94"/>
<wire x1="-2.54" y1="-2.54" x2="-1.27" y2="-2.54" width="0.6096" layer="94"/>
<wire x1="-2.54" y1="-5.08" x2="-1.27" y2="-5.08" width="0.6096" layer="94"/>
<wire x1="-3.81" y1="7.62" x2="-3.81" y2="-7.62" width="0.4064" layer="94"/>
<wire x1="3.81" y1="-7.62" x2="3.81" y2="7.62" width="0.4064" layer="94"/>
<wire x1="-3.81" y1="7.62" x2="3.81" y2="7.62" width="0.4064" layer="94"/>
<wire x1="1.27" y1="5.08" x2="2.54" y2="5.08" width="0.6096" layer="94"/>
<wire x1="1.27" y1="2.54" x2="2.54" y2="2.54" width="0.6096" layer="94"/>
<wire x1="-2.54" y1="5.08" x2="-1.27" y2="5.08" width="0.6096" layer="94"/>
<wire x1="-2.54" y1="2.54" x2="-1.27" y2="2.54" width="0.6096" layer="94"/>
<text x="-3.81" y="-10.16" size="1.778" layer="96">&gt;VALUE</text>
<text x="-3.81" y="8.382" size="1.778" layer="95">&gt;NAME</text>
<pin name="1" x="7.62" y="-5.08" visible="pad" length="middle" direction="pas" swaplevel="1" rot="R180"/>
<pin name="3" x="7.62" y="-2.54" visible="pad" length="middle" direction="pas" swaplevel="1" rot="R180"/>
<pin name="5" x="7.62" y="0" visible="pad" length="middle" direction="pas" swaplevel="1" rot="R180"/>
<pin name="2" x="-7.62" y="-5.08" visible="pad" length="middle" direction="pas" swaplevel="1"/>
<pin name="4" x="-7.62" y="-2.54" visible="pad" length="middle" direction="pas" swaplevel="1"/>
<pin name="6" x="-7.62" y="0" visible="pad" length="middle" direction="pas" swaplevel="1"/>
<pin name="7" x="7.62" y="2.54" visible="pad" length="middle" direction="pas" swaplevel="1" rot="R180"/>
<pin name="9" x="7.62" y="5.08" visible="pad" length="middle" direction="pas" swaplevel="1" rot="R180"/>
<pin name="8" x="-7.62" y="2.54" visible="pad" length="middle" direction="pas" swaplevel="1"/>
<pin name="10" x="-7.62" y="5.08" visible="pad" length="middle" direction="pas" swaplevel="1"/>
</symbol>
</symbols>
<devicesets>
<deviceset name="MA05-2" urn="urn:adsk.eagle:component:8370/1" prefix="SV" uservalue="yes" library_version="1">
<description>&lt;b&gt;PIN HEADER&lt;/b&gt;</description>
<gates>
<gate name="G$1" symbol="MA05-2" x="0" y="0"/>
</gates>
<devices>
<device name="" package="MA05-2">
<connects>
<connect gate="G$1" pin="1" pad="1"/>
<connect gate="G$1" pin="10" pad="10"/>
<connect gate="G$1" pin="2" pad="2"/>
<connect gate="G$1" pin="3" pad="3"/>
<connect gate="G$1" pin="4" pad="4"/>
<connect gate="G$1" pin="5" pad="5"/>
<connect gate="G$1" pin="6" pad="6"/>
<connect gate="G$1" pin="7" pad="7"/>
<connect gate="G$1" pin="8" pad="8"/>
<connect gate="G$1" pin="9" pad="9"/>
</connects>
<package3dinstances>
<package3dinstance package3d_urn="urn:adsk.eagle:package:8329/1"/>
</package3dinstances>
<technologies>
<technology name="">
<attribute name="MF" value="" constant="no"/>
<attribute name="MPN" value="" constant="no"/>
<attribute name="OC_FARNELL" value="unknown" constant="no"/>
<attribute name="OC_NEWARK" value="unknown" constant="no"/>
</technology>
</technologies>
</device>
</devices>
</deviceset>
</devicesets>
</library>
<library name="supply2" urn="urn:adsk.eagle:library:372">
<description>&lt;b&gt;Supply Symbols&lt;/b&gt;&lt;p&gt;
GND, VCC, 0V, +5V, -5V, etc.&lt;p&gt;
Please keep in mind, that these devices are necessary for the
automatic wiring of the supply signals.&lt;p&gt;
The pin name defined in the symbol is identical to the net which is to be wired automatically.&lt;p&gt;
In this library the device names are the same as the pin names of the symbols, therefore the correct signal names appear next to the supply symbols in the schematic.&lt;p&gt;
&lt;author&gt;Created by librarian@cadsoft.de&lt;/author&gt;</description>
<packages>
</packages>
<symbols>
<symbol name="GND" urn="urn:adsk.eagle:symbol:26990/1" library_version="2">
<wire x1="-1.27" y1="0" x2="1.27" y2="0" width="0.254" layer="94"/>
<wire x1="1.27" y1="0" x2="0" y2="-1.27" width="0.254" layer="94"/>
<wire x1="0" y1="-1.27" x2="-1.27" y2="0" width="0.254" layer="94"/>
<text x="-1.905" y="-3.175" size="1.778" layer="96">&gt;VALUE</text>
<pin name="GND" x="0" y="2.54" visible="off" length="short" direction="sup" rot="R270"/>
</symbol>
</symbols>
<devicesets>
<deviceset name="GND" urn="urn:adsk.eagle:component:27037/1" prefix="SUPPLY" library_version="2">
<description>&lt;b&gt;SUPPLY SYMBOL&lt;/b&gt;</description>
<gates>
<gate name="GND" symbol="GND" x="0" y="0"/>
</gates>
<devices>
<device name="">
<technologies>
<technology name=""/>
</technologies>
</device>
</devices>
</deviceset>
</devicesets>
</library>
<library name="supply1" urn="urn:adsk.eagle:library:371">
<description>&lt;b&gt;Supply Symbols&lt;/b&gt;&lt;p&gt;
 GND, VCC, 0V, +5V, -5V, etc.&lt;p&gt;
 Please keep in mind, that these devices are necessary for the
 automatic wiring of the supply signals.&lt;p&gt;
 The pin name defined in the symbol is identical to the net which is to be wired automatically.&lt;p&gt;
 In this library the device names are the same as the pin names of the symbols, therefore the correct signal names appear next to the supply symbols in the schematic.&lt;p&gt;
 &lt;author&gt;Created by librarian@cadsoft.de&lt;/author&gt;</description>
<packages>
</packages>
<symbols>
<symbol name="VCC" urn="urn:adsk.eagle:symbol:26928/1" library_version="1">
<wire x1="1.27" y1="-1.905" x2="0" y2="0" width="0.254" layer="94"/>
<wire x1="0" y1="0" x2="-1.27" y2="-1.905" width="0.254" layer="94"/>
<text x="-2.54" y="-2.54" size="1.778" layer="96" rot="R90">&gt;VALUE</text>
<pin name="VCC" x="0" y="-2.54" visible="off" length="short" direction="sup" rot="R90"/>
</symbol>
</symbols>
<devicesets>
<deviceset name="VCC" urn="urn:adsk.eagle:component:26957/1" prefix="P+" library_version="1">
<description>&lt;b&gt;SUPPLY SYMBOL&lt;/b&gt;</description>
<gates>
<gate name="VCC" symbol="VCC" x="0" y="0"/>
</gates>
<devices>
<device name="">
<technologies>
<technology name=""/>
</technologies>
</device>
</devices>
</deviceset>
</devicesets>
</library>
<library name="adafruit">
<packages>
<package name="SOT23-W">
<description>&lt;b&gt;SOT23&lt;/b&gt; - Wave soldering</description>
<wire x1="1.5724" y1="0.6604" x2="1.5724" y2="-0.6604" width="0.1524" layer="51"/>
<wire x1="1.5724" y1="-0.6604" x2="-1.5724" y2="-0.6604" width="0.1524" layer="51"/>
<wire x1="-1.5724" y1="-0.6604" x2="-1.5724" y2="0.6604" width="0.1524" layer="51"/>
<wire x1="-1.5724" y1="0.6604" x2="1.5724" y2="0.6604" width="0.1524" layer="51"/>
<wire x1="-1.5724" y1="-0.3984" x2="-1.5724" y2="0.6604" width="0.1524" layer="21"/>
<wire x1="1.5724" y1="0.6604" x2="1.5724" y2="-0.3984" width="0.1524" layer="21"/>
<wire x1="0.2954" y1="-0.6604" x2="-0.3094" y2="-0.6604" width="0.1524" layer="21"/>
<smd name="3" x="0" y="1.3" dx="2.8" dy="1.4" layer="1"/>
<smd name="2" x="1.1" y="-1.3" dx="1.2" dy="1.4" layer="1"/>
<smd name="1" x="-1.1" y="-1.3" dx="1.2" dy="1.4" layer="1"/>
<text x="2.032" y="0.254" size="0.4064" layer="25">&gt;NAME</text>
<text x="2.032" y="-0.508" size="0.4064" layer="27">&gt;VALUE</text>
<rectangle x1="-0.2286" y1="0.7112" x2="0.2286" y2="1.2954" layer="51"/>
<rectangle x1="0.7112" y1="-1.2954" x2="1.1684" y2="-0.7112" layer="51"/>
<rectangle x1="-1.1684" y1="-1.2954" x2="-0.7112" y2="-0.7112" layer="51"/>
</package>
<package name="SOT23">
<description>&lt;b&gt;SOT-23&lt;/b&gt;</description>
<wire x1="1.4224" y1="0.6604" x2="1.4224" y2="-0.6604" width="0.1524" layer="51"/>
<wire x1="1.4224" y1="-0.6604" x2="-1.4224" y2="-0.6604" width="0.1524" layer="51"/>
<wire x1="-1.4224" y1="-0.6604" x2="-1.4224" y2="0.6604" width="0.1524" layer="51"/>
<wire x1="-1.4224" y1="0.6604" x2="1.4224" y2="0.6604" width="0.1524" layer="51"/>
<smd name="3" x="0" y="1.1" dx="1" dy="1.4" layer="1"/>
<smd name="2" x="0.95" y="-1.1" dx="1" dy="1.4" layer="1"/>
<smd name="1" x="-0.95" y="-1.1" dx="1" dy="1.4" layer="1"/>
<text x="-1.905" y="1.905" size="1.27" layer="25">&gt;NAME</text>
<text x="-1.905" y="-3.175" size="1.27" layer="27">&gt;VALUE</text>
<rectangle x1="-0.2286" y1="0.7112" x2="0.2286" y2="1.2954" layer="51"/>
<rectangle x1="0.7112" y1="-1.2954" x2="1.1684" y2="-0.7112" layer="51"/>
<rectangle x1="-1.1684" y1="-1.2954" x2="-0.7112" y2="-0.7112" layer="51"/>
</package>
<package name="TO220V">
<description>&lt;b&gt;TO 200 vertical&lt;/b&gt;</description>
<wire x1="5.08" y1="-1.143" x2="4.953" y2="-4.064" width="0.127" layer="21"/>
<wire x1="4.699" y1="-4.318" x2="4.953" y2="-4.064" width="0.127" layer="21"/>
<wire x1="4.699" y1="-4.318" x2="-4.699" y2="-4.318" width="0.127" layer="21"/>
<wire x1="-4.953" y1="-4.064" x2="-4.699" y2="-4.318" width="0.127" layer="21"/>
<wire x1="-4.953" y1="-4.064" x2="-5.08" y2="-1.143" width="0.127" layer="21"/>
<circle x="-4.4958" y="-3.7084" radius="0.254" width="0.127" layer="21"/>
<pad name="1" x="-2.54" y="-2.54" drill="1.016" shape="long" rot="R90"/>
<pad name="2" x="0" y="-2.54" drill="1.016" shape="long" rot="R90"/>
<pad name="3" x="2.54" y="-2.54" drill="1.016" shape="long" rot="R90"/>
<text x="-5.08" y="-6.0452" size="1.27" layer="25" ratio="10">&gt;NAME</text>
<text x="-5.08" y="-7.62" size="1.27" layer="27" ratio="10">&gt;VALUE</text>
<text x="-3.175" y="-3.175" size="1.27" layer="51" ratio="10">1</text>
<text x="-0.635" y="-3.175" size="1.27" layer="51" ratio="10">2</text>
<text x="1.905" y="-3.175" size="1.27" layer="51" ratio="10">3</text>
<rectangle x1="-5.334" y1="-0.762" x2="5.334" y2="0" layer="21"/>
<rectangle x1="-5.334" y1="-1.27" x2="-3.429" y2="-0.762" layer="21"/>
<rectangle x1="-1.651" y1="-1.27" x2="-0.889" y2="-0.762" layer="21"/>
<rectangle x1="-3.429" y1="-1.27" x2="-1.651" y2="-0.762" layer="51"/>
<rectangle x1="0.889" y1="-1.27" x2="1.651" y2="-0.762" layer="21"/>
<rectangle x1="3.429" y1="-1.27" x2="5.334" y2="-0.762" layer="21"/>
<rectangle x1="-0.889" y1="-1.27" x2="0.889" y2="-0.762" layer="51"/>
<rectangle x1="1.651" y1="-1.27" x2="3.429" y2="-0.762" layer="51"/>
</package>
</packages>
<symbols>
<symbol name="MOSFET-N">
<wire x1="0.762" y1="0.762" x2="0.762" y2="0" width="0.254" layer="94"/>
<wire x1="0.762" y1="0" x2="0.762" y2="-0.762" width="0.254" layer="94"/>
<wire x1="0.762" y1="3.175" x2="0.762" y2="2.54" width="0.254" layer="94"/>
<wire x1="0.762" y1="2.54" x2="0.762" y2="1.905" width="0.254" layer="94"/>
<wire x1="0.762" y1="0" x2="2.54" y2="0" width="0.1524" layer="94"/>
<wire x1="2.54" y1="0" x2="2.54" y2="-2.54" width="0.1524" layer="94"/>
<wire x1="0.762" y1="-1.905" x2="0.762" y2="-2.54" width="0.254" layer="94"/>
<wire x1="0.762" y1="-2.54" x2="0.762" y2="-3.175" width="0.254" layer="94"/>
<wire x1="0" y1="2.54" x2="0" y2="-2.54" width="0.254" layer="94"/>
<wire x1="2.54" y1="-2.54" x2="0.762" y2="-2.54" width="0.1524" layer="94"/>
<wire x1="3.81" y1="2.54" x2="3.81" y2="0.508" width="0.1524" layer="94"/>
<wire x1="3.81" y1="0.508" x2="3.81" y2="-2.54" width="0.1524" layer="94"/>
<wire x1="2.54" y1="-2.54" x2="3.81" y2="-2.54" width="0.1524" layer="94"/>
<wire x1="0.762" y1="2.54" x2="3.81" y2="2.54" width="0.1524" layer="94"/>
<wire x1="4.572" y1="0.762" x2="4.318" y2="0.508" width="0.1524" layer="94"/>
<wire x1="4.318" y1="0.508" x2="3.81" y2="0.508" width="0.1524" layer="94"/>
<wire x1="3.81" y1="0.508" x2="3.302" y2="0.508" width="0.1524" layer="94"/>
<wire x1="3.302" y1="0.508" x2="3.048" y2="0.254" width="0.1524" layer="94"/>
<circle x="2.54" y="-2.54" radius="0.3592" width="0" layer="94"/>
<circle x="2.54" y="2.54" radius="0.3592" width="0" layer="94"/>
<text x="5.08" y="0.635" size="1.27" layer="95">&gt;NAME</text>
<text x="5.08" y="-1.27" size="1.27" layer="96">&gt;VALUE</text>
<text x="3.175" y="3.175" size="0.8128" layer="93">D</text>
<text x="3.175" y="-3.81" size="0.8128" layer="93">S</text>
<text x="-1.27" y="-1.905" size="0.8128" layer="93">G</text>
<pin name="G" x="-2.54" y="-2.54" visible="pad" length="short"/>
<pin name="S" x="2.54" y="-5.08" visible="pad" length="short" rot="R90"/>
<pin name="D" x="2.54" y="5.08" visible="pad" length="short" rot="R270"/>
<polygon width="0.1524" layer="94">
<vertex x="3.81" y="0.508"/>
<vertex x="3.302" y="-0.254"/>
<vertex x="4.318" y="-0.254"/>
</polygon>
<polygon width="0.1524" layer="94">
<vertex x="1.016" y="0"/>
<vertex x="2.032" y="0.762"/>
<vertex x="2.032" y="-0.762"/>
</polygon>
</symbol>
</symbols>
<devicesets>
<deviceset name="MOSFET-N" prefix="Q" uservalue="yes">
<description>&lt;b&gt;N-Channel Mosfet&lt;/b&gt;
&lt;ul&gt;
&lt;li&gt;2N7002E - 60V 260mA SOT23 [Digikey: 2N7002ET1GOSTR-ND] - &lt;b&gt;REEL&lt;/b&gt;&lt;/li&gt;
&lt;li&gt;BSH103 - 30V 850mA SOT23 [Digikey: 568-5013-1-ND]&lt;/li&gt;
&lt;/ul&gt;</description>
<gates>
<gate name="G$1" symbol="MOSFET-N" x="-2.54" y="0"/>
</gates>
<devices>
<device name="WAVE" package="SOT23-W">
<connects>
<connect gate="G$1" pin="D" pad="3"/>
<connect gate="G$1" pin="G" pad="1"/>
<connect gate="G$1" pin="S" pad="2"/>
</connects>
<technologies>
<technology name=""/>
</technologies>
</device>
<device name="REFLOW" package="SOT23">
<connects>
<connect gate="G$1" pin="D" pad="3"/>
<connect gate="G$1" pin="G" pad="1"/>
<connect gate="G$1" pin="S" pad="2"/>
</connects>
<technologies>
<technology name=""/>
</technologies>
</device>
<device name="GDS_TO220V" package="TO220V">
<connects>
<connect gate="G$1" pin="D" pad="2"/>
<connect gate="G$1" pin="G" pad="1"/>
<connect gate="G$1" pin="S" pad="3"/>
</connects>
<technologies>
<technology name=""/>
</technologies>
</device>
</devices>
</deviceset>
</devicesets>
</library>
<library name="testpad" urn="urn:adsk.eagle:library:385">
<description>&lt;b&gt;Test Pins/Pads&lt;/b&gt;&lt;p&gt;
Cream on SMD OFF.&lt;br&gt;
new: Attribute TP_SIGNAL_NAME&lt;br&gt;
&lt;author&gt;Created by librarian@cadsoft.de&lt;/author&gt;</description>
<packages>
<package name="B1,27" urn="urn:adsk.eagle:footprint:27900/1" library_version="2">
<description>&lt;b&gt;TEST PAD&lt;/b&gt;</description>
<wire x1="-0.635" y1="0" x2="0.635" y2="0" width="0.0024" layer="37"/>
<wire x1="0" y1="0.635" x2="0" y2="-0.635" width="0.0024" layer="37"/>
<smd name="TP" x="0" y="0" dx="1.27" dy="1.27" layer="1" roundness="100" cream="no"/>
<text x="-0.635" y="1.016" size="1.27" layer="25" ratio="10">&gt;NAME</text>
<text x="-0.635" y="-0.762" size="0.0254" layer="27">&gt;VALUE</text>
<text x="-0.635" y="-1.905" size="1" layer="37">&gt;TP_SIGNAL_NAME</text>
</package>
<package name="B2,54" urn="urn:adsk.eagle:footprint:27901/1" library_version="2">
<description>&lt;b&gt;TEST PAD&lt;/b&gt;</description>
<wire x1="-0.635" y1="0" x2="0.635" y2="0" width="0.0024" layer="37"/>
<wire x1="0" y1="-0.635" x2="0" y2="0.635" width="0.0024" layer="37"/>
<circle x="0" y="0" radius="0.635" width="0.254" layer="37"/>
<smd name="TP" x="0" y="0" dx="2.54" dy="2.54" layer="1" roundness="100" cream="no"/>
<text x="-1.27" y="1.651" size="1.27" layer="25" ratio="10">&gt;NAME</text>
<text x="-1.27" y="-1.397" size="0.0254" layer="27">&gt;VALUE</text>
<text x="-1.27" y="-3.175" size="1" layer="37">&gt;TP_SIGNAL_NAME</text>
</package>
<package name="P1-13" urn="urn:adsk.eagle:footprint:27902/1" library_version="2">
<description>&lt;b&gt;TEST PAD&lt;/b&gt;</description>
<circle x="0" y="0" radius="0.762" width="0.1524" layer="51"/>
<pad name="TP" x="0" y="0" drill="1.3208" diameter="2.159" shape="octagon"/>
<text x="-1.016" y="1.27" size="1.27" layer="25" ratio="10">&gt;NAME</text>
<text x="0" y="0" size="0.0254" layer="27">&gt;VALUE</text>
<text x="-1.27" y="-2.54" size="1" layer="37">&gt;TP_SIGNAL_NAME</text>
<rectangle x1="-0.3302" y1="-0.3302" x2="0.3302" y2="0.3302" layer="51"/>
</package>
<package name="P1-13Y" urn="urn:adsk.eagle:footprint:27903/1" library_version="2">
<description>&lt;b&gt;TEST PAD&lt;/b&gt;</description>
<circle x="0" y="0" radius="0.762" width="0.1524" layer="51"/>
<pad name="TP" x="0" y="0" drill="1.3208" diameter="1.905" shape="long" rot="R90"/>
<text x="-0.889" y="2.159" size="1.27" layer="25" ratio="10">&gt;NAME</text>
<text x="0" y="0" size="0.0254" layer="27">&gt;VALUE</text>
<text x="-1.27" y="-3.81" size="1" layer="37">&gt;TP_SIGNAL_NAME</text>
<rectangle x1="-0.3302" y1="-0.3302" x2="0.3302" y2="0.3302" layer="51"/>
</package>
<package name="P1-17" urn="urn:adsk.eagle:footprint:27904/1" library_version="2">
<description>&lt;b&gt;TEST PAD&lt;/b&gt;</description>
<circle x="0" y="0" radius="0.8128" width="0.1524" layer="51"/>
<pad name="TP" x="0" y="0" drill="1.7018" diameter="2.54" shape="octagon"/>
<text x="-1.143" y="1.397" size="1.27" layer="25" ratio="10">&gt;NAME</text>
<text x="0" y="0" size="0.0254" layer="27">&gt;VALUE</text>
<text x="-1.27" y="-3.175" size="1" layer="37">&gt;TP_SIGNAL_NAME</text>
<rectangle x1="-0.3302" y1="-0.3302" x2="0.3302" y2="0.3302" layer="51"/>
</package>
<package name="P1-17Y" urn="urn:adsk.eagle:footprint:27905/1" library_version="2">
<description>&lt;b&gt;TEST PAD&lt;/b&gt;</description>
<circle x="0" y="0" radius="0.8128" width="0.1524" layer="51"/>
<pad name="TP" x="0" y="0" drill="1.7018" diameter="2.1208" shape="long" rot="R90"/>
<text x="-1.143" y="2.286" size="1.27" layer="25" ratio="10">&gt;NAME</text>
<text x="0" y="0" size="0.0254" layer="27">&gt;VALUE</text>
<text x="-1.27" y="-3.81" size="1" layer="37">&gt;TP_SIGNAL_NAME</text>
<rectangle x1="-0.3302" y1="-0.3302" x2="0.3302" y2="0.3302" layer="51"/>
</package>
<package name="P1-20" urn="urn:adsk.eagle:footprint:27906/1" library_version="2">
<description>&lt;b&gt;TEST PAD&lt;/b&gt;</description>
<circle x="0" y="0" radius="1.016" width="0.1524" layer="51"/>
<pad name="TP" x="0" y="0" drill="2.0066" diameter="3.1496" shape="octagon"/>
<text x="-1.524" y="1.778" size="1.27" layer="25" ratio="10">&gt;NAME</text>
<text x="0" y="0" size="0.0254" layer="27">&gt;VALUE</text>
<text x="-1.27" y="-3.175" size="1" layer="37">&gt;TP_SIGNAL_NAME</text>
<rectangle x1="-0.3302" y1="-0.3302" x2="0.3302" y2="0.3302" layer="51"/>
</package>
<package name="P1-20Y" urn="urn:adsk.eagle:footprint:27907/1" library_version="2">
<description>&lt;b&gt;TEST PAD&lt;/b&gt;</description>
<circle x="0" y="0" radius="1.016" width="0.1524" layer="51"/>
<pad name="TP" x="0" y="0" drill="2.0066" diameter="2.54" shape="long" rot="R90"/>
<text x="-1.27" y="2.794" size="1.27" layer="25" ratio="10">&gt;NAME</text>
<text x="0" y="0" size="0.0254" layer="27">&gt;VALUE</text>
<text x="-1.27" y="-4.445" size="1" layer="37">&gt;TP_SIGNAL_NAME</text>
<rectangle x1="-0.3302" y1="-0.3302" x2="0.3302" y2="0.3302" layer="51"/>
</package>
<package name="TP06R" urn="urn:adsk.eagle:footprint:27908/1" library_version="2">
<description>&lt;b&gt;TEST PAD&lt;/b&gt;</description>
<smd name="TP" x="0" y="0" dx="0.6" dy="0.6" layer="1" roundness="100" cream="no"/>
<text x="-0.3" y="0.4001" size="1.27" layer="25">&gt;NAME</text>
<text x="-0.254" y="-0.381" size="0.0254" layer="27">&gt;VALUE</text>
<text x="0" y="-1.905" size="1" layer="37">&gt;TP_SIGNAL_NAME</text>
</package>
<package name="TP06SQ" urn="urn:adsk.eagle:footprint:27909/1" library_version="2">
<description>&lt;b&gt;TEST PAD&lt;/b&gt;</description>
<smd name="TP" x="0" y="0" dx="0.5996" dy="0.5996" layer="1" cream="no"/>
<text x="-0.3" y="0.4001" size="1.27" layer="25">&gt;NAME</text>
<text x="-0.254" y="-0.381" size="0.0254" layer="27">&gt;VALUE</text>
<text x="0" y="-1.905" size="1" layer="37">&gt;TP_SIGNAL_NAME</text>
</package>
<package name="TP07R" urn="urn:adsk.eagle:footprint:27910/1" library_version="2">
<description>&lt;b&gt;TEST PAD&lt;/b&gt;</description>
<smd name="TP" x="0" y="0" dx="0.7" dy="0.7" layer="1" roundness="100" cream="no"/>
<text x="-0.3" y="0.4001" size="1.27" layer="25">&gt;NAME</text>
<text x="-0.254" y="-0.508" size="0.0254" layer="27">&gt;VALUE</text>
<text x="0" y="-1.905" size="1" layer="37">&gt;TP_SIGNAL_NAME</text>
</package>
<package name="TP07SQ" urn="urn:adsk.eagle:footprint:27911/1" library_version="2">
<description>&lt;b&gt;TEST PAD&lt;/b&gt;</description>
<smd name="TP" x="0" y="0" dx="0.7" dy="0.7" layer="1" cream="no"/>
<text x="-0.3" y="0.4001" size="1.27" layer="25">&gt;NAME</text>
<text x="-0.381" y="-0.381" size="0.0254" layer="27">&gt;VALUE</text>
<text x="0" y="-1.905" size="1" layer="37">&gt;TP_SIGNAL_NAME</text>
</package>
<package name="TP08R" urn="urn:adsk.eagle:footprint:27912/1" library_version="2">
<description>&lt;b&gt;TEST PAD&lt;/b&gt;</description>
<smd name="TP" x="0" y="0" dx="0.8" dy="0.8" layer="1" roundness="100" cream="no"/>
<text x="-0.3" y="0.4001" size="1.27" layer="25">&gt;NAME</text>
<text x="-0.381" y="-0.381" size="0.0254" layer="27">&gt;VALUE</text>
<text x="0" y="-1.905" size="1" layer="37">&gt;TP_SIGNAL_NAME</text>
</package>
<package name="TP08SQ" urn="urn:adsk.eagle:footprint:27913/1" library_version="2">
<description>&lt;b&gt;TEST PAD&lt;/b&gt;</description>
<smd name="TP" x="0" y="0" dx="0.8" dy="0.8" layer="1" cream="no"/>
<text x="-0.3" y="0.4001" size="1.27" layer="25">&gt;NAME</text>
<text x="-0.381" y="-0.508" size="0.0254" layer="27">&gt;VALUE</text>
<text x="0" y="-1.905" size="1" layer="37">&gt;TP_SIGNAL_NAME</text>
</package>
<package name="TP09R" urn="urn:adsk.eagle:footprint:27914/1" library_version="2">
<description>&lt;b&gt;TEST PAD&lt;/b&gt;</description>
<smd name="TP" x="0" y="0" dx="0.9" dy="0.9" layer="1" roundness="100" cream="no"/>
<text x="-0.4501" y="0.5001" size="1.27" layer="25">&gt;NAME</text>
<text x="-0.381" y="-0.508" size="0.0254" layer="27">&gt;VALUE</text>
<text x="0" y="-1.905" size="1" layer="37">&gt;TP_SIGNAL_NAME</text>
</package>
<package name="TP09SQ" urn="urn:adsk.eagle:footprint:27915/1" library_version="2">
<description>&lt;b&gt;TEST PAD&lt;/b&gt;</description>
<smd name="TP" x="0" y="0" dx="0.8998" dy="0.8998" layer="1" cream="no"/>
<text x="-0.4501" y="0.5001" size="1.27" layer="25">&gt;NAME</text>
<text x="-0.381" y="-0.508" size="0.0254" layer="27">&gt;VALUE</text>
<text x="0" y="-1.905" size="1" layer="37">&gt;TP_SIGNAL_NAME</text>
</package>
<package name="TP10R" urn="urn:adsk.eagle:footprint:27916/1" library_version="2">
<description>&lt;b&gt;TEST PAD&lt;/b&gt;</description>
<smd name="TP" x="0" y="0" dx="1" dy="1" layer="1" roundness="100" cream="no"/>
<text x="-0.5001" y="0.5499" size="1.27" layer="25">&gt;NAME</text>
<text x="-0.381" y="-0.508" size="0.0254" layer="27">&gt;VALUE</text>
<text x="0" y="-1.905" size="1" layer="37">&gt;TP_SIGNAL_NAME</text>
</package>
<package name="TP10SQ" urn="urn:adsk.eagle:footprint:27917/1" library_version="2">
<description>&lt;b&gt;TEST PAD&lt;/b&gt;</description>
<smd name="TP" x="0" y="0" dx="1" dy="1" layer="1" cream="no"/>
<text x="-0.5001" y="0.5499" size="1.27" layer="25">&gt;NAME</text>
<text x="-0.508" y="-0.635" size="0.0254" layer="27">&gt;VALUE</text>
<text x="0" y="-1.905" size="1" layer="37">&gt;TP_SIGNAL_NAME</text>
</package>
<package name="TP11R" urn="urn:adsk.eagle:footprint:27918/1" library_version="2">
<description>&lt;b&gt;TEST PAD&lt;/b&gt;</description>
<smd name="TP" x="0" y="0" dx="1.1" dy="1.1" layer="1" roundness="100" cream="no"/>
<text x="-0.5499" y="0.5999" size="1.27" layer="25">&gt;NAME</text>
<text x="-0.508" y="-0.508" size="0.0254" layer="27">&gt;VALUE</text>
<text x="0" y="-1.905" size="1" layer="37">&gt;TP_SIGNAL_NAME</text>
</package>
<package name="TP11SQ" urn="urn:adsk.eagle:footprint:27919/1" library_version="2">
<description>&lt;b&gt;TEST PAD&lt;/b&gt;</description>
<smd name="TP" x="0" y="0" dx="1.1" dy="1.1" layer="1" cream="no"/>
<text x="-0.5499" y="0.5999" size="1.27" layer="25">&gt;NAME</text>
<text x="-0.508" y="-0.635" size="0.0254" layer="27">&gt;VALUE</text>
<text x="0" y="-2.54" size="1" layer="37">&gt;TP_SIGNAL_NAME</text>
</package>
<package name="TP12SQ" urn="urn:adsk.eagle:footprint:27920/1" library_version="2">
<description>&lt;b&gt;TEST PAD&lt;/b&gt;</description>
<smd name="TP" x="0" y="0" dx="1.1998" dy="1.1998" layer="1" cream="no"/>
<text x="-0.5999" y="0.65" size="1.27" layer="25">&gt;NAME</text>
<text x="-0.508" y="-0.635" size="0.0254" layer="27">&gt;VALUE</text>
<text x="0" y="-2.54" size="1" layer="37">&gt;TP_SIGNAL_NAME</text>
</package>
<package name="TP12R" urn="urn:adsk.eagle:footprint:27921/1" library_version="2">
<description>&lt;b&gt;TEST PAD&lt;/b&gt;</description>
<smd name="TP" x="0" y="0" dx="1.2" dy="1.2" layer="1" roundness="100" cream="no"/>
<text x="-0.5999" y="0.65" size="1.27" layer="25">&gt;NAME</text>
<text x="-0.508" y="-0.635" size="0.0254" layer="27">&gt;VALUE</text>
<text x="0" y="-2.54" size="1" layer="37">&gt;TP_SIGNAL_NAME</text>
</package>
<package name="TP13R" urn="urn:adsk.eagle:footprint:27922/1" library_version="2">
<description>&lt;b&gt;TEST PAD&lt;/b&gt;</description>
<smd name="TP" x="0" y="0" dx="1.3" dy="1.3" layer="1" roundness="100" cream="no"/>
<text x="-0.65" y="0.7" size="1.27" layer="25">&gt;NAME</text>
<text x="-0.508" y="-0.635" size="0.0254" layer="27">&gt;VALUE</text>
<text x="0" y="-2.54" size="1" layer="37">&gt;TP_SIGNAL_NAME</text>
</package>
<package name="TP14R" urn="urn:adsk.eagle:footprint:27923/1" library_version="2">
<description>&lt;b&gt;TEST PAD&lt;/b&gt;</description>
<smd name="TP" x="0" y="0" dx="1.4" dy="1.4" layer="1" roundness="100" cream="no"/>
<text x="-0.7" y="0.7501" size="1.27" layer="25">&gt;NAME</text>
<text x="-0.508" y="-0.762" size="0.0254" layer="27">&gt;VALUE</text>
<text x="0" y="-2.54" size="1" layer="37">&gt;TP_SIGNAL_NAME</text>
</package>
<package name="TP15R" urn="urn:adsk.eagle:footprint:27924/1" library_version="2">
<description>&lt;b&gt;TEST PAD&lt;/b&gt;</description>
<smd name="TP" x="0" y="0" dx="1.5" dy="1.5" layer="1" roundness="100" cream="no"/>
<text x="-0.7501" y="0.8001" size="1.27" layer="25">&gt;NAME</text>
<text x="-0.635" y="-0.762" size="0.0254" layer="27">&gt;VALUE</text>
<text x="0" y="-2.54" size="1" layer="37">&gt;TP_SIGNAL_NAME</text>
</package>
<package name="TP16R" urn="urn:adsk.eagle:footprint:27925/1" library_version="2">
<description>&lt;b&gt;TEST PAD&lt;/b&gt;</description>
<smd name="TP" x="0" y="0" dx="1.6" dy="1.6" layer="1" roundness="100" cream="no"/>
<text x="-0.8001" y="0.8499" size="1.27" layer="25">&gt;NAME</text>
<text x="-0.635" y="-0.762" size="0.0254" layer="27">&gt;VALUE</text>
<text x="0" y="-2.54" size="1" layer="37">&gt;TP_SIGNAL_NAME</text>
</package>
<package name="TP17R" urn="urn:adsk.eagle:footprint:27926/1" library_version="2">
<description>&lt;b&gt;TEST PAD&lt;/b&gt;</description>
<smd name="TP" x="0" y="0" dx="1.7" dy="1.7" layer="1" roundness="100" cream="no"/>
<text x="-0.8499" y="0.8999" size="1.27" layer="25">&gt;NAME</text>
<text x="-0.635" y="-0.889" size="0.0254" layer="27">&gt;VALUE</text>
<text x="0" y="-2.54" size="1" layer="37">&gt;TP_SIGNAL_NAME</text>
</package>
<package name="TP18R" urn="urn:adsk.eagle:footprint:27927/1" library_version="2">
<description>&lt;b&gt;TEST PAD&lt;/b&gt;</description>
<smd name="TP" x="0" y="0" dx="1.8" dy="1.8" layer="1" roundness="100" cream="no"/>
<text x="-0.8999" y="0.95" size="1.27" layer="25">&gt;NAME</text>
<text x="-0.762" y="-0.889" size="0.0254" layer="27">&gt;VALUE</text>
<text x="0" y="-2.54" size="1" layer="37">&gt;TP_SIGNAL_NAME</text>
</package>
<package name="TP19R" urn="urn:adsk.eagle:footprint:27928/1" library_version="2">
<description>&lt;b&gt;TEST PAD&lt;/b&gt;</description>
<smd name="TP" x="0" y="0" dx="1.9" dy="1.9" layer="1" roundness="100" cream="no"/>
<text x="-0.95" y="1" size="1.27" layer="25">&gt;NAME</text>
<text x="-0.762" y="-0.889" size="0.0254" layer="27">&gt;VALUE</text>
<text x="0" y="-2.54" size="1" layer="37">&gt;TP_SIGNAL_NAME</text>
</package>
<package name="TP20R" urn="urn:adsk.eagle:footprint:27929/1" library_version="2">
<description>&lt;b&gt;TEST PAD&lt;/b&gt;</description>
<smd name="TP" x="0" y="0" dx="2" dy="2" layer="1" roundness="100" cream="no"/>
<text x="-1" y="1.05" size="1.27" layer="25">&gt;NAME</text>
<text x="-0.762" y="-1.016" size="0.0254" layer="27">&gt;VALUE</text>
<text x="0" y="-2.54" size="1" layer="37">&gt;TP_SIGNAL_NAME</text>
</package>
<package name="TP13SQ" urn="urn:adsk.eagle:footprint:27930/1" library_version="2">
<description>&lt;b&gt;TEST PAD&lt;/b&gt;</description>
<smd name="TP" x="0" y="0" dx="1.3" dy="1.3" layer="1" cream="no"/>
<text x="-0.65" y="0.7" size="1.27" layer="25">&gt;NAME</text>
<text x="-0.635" y="-0.762" size="0.0254" layer="27">&gt;VALUE</text>
<text x="0" y="-2.54" size="1" layer="37">&gt;TP_SIGNAL_NAME</text>
</package>
<package name="TP14SQ" urn="urn:adsk.eagle:footprint:27931/1" library_version="2">
<description>&lt;b&gt;TEST PAD&lt;/b&gt;</description>
<smd name="TP" x="0" y="0" dx="1.4" dy="1.4" layer="1" cream="no"/>
<text x="-0.7" y="0.7501" size="1.27" layer="25">&gt;NAME</text>
<text x="-0.635" y="-0.762" size="0.0254" layer="27">&gt;VALUE</text>
<text x="0" y="-2.54" size="1" layer="37">&gt;TP_SIGNAL_NAME</text>
</package>
<package name="TP15SQ" urn="urn:adsk.eagle:footprint:27932/1" library_version="2">
<description>&lt;b&gt;TEST PAD&lt;/b&gt;</description>
<smd name="TP" x="0" y="0" dx="1.5" dy="1.5" layer="1" cream="no"/>
<text x="-0.7501" y="0.8001" size="1.27" layer="25">&gt;NAME</text>
<text x="-0.762" y="-0.889" size="0.0254" layer="27">&gt;VALUE</text>
<text x="0" y="-2.54" size="1" layer="37">&gt;TP_SIGNAL_NAME</text>
</package>
<package name="TP16SQ" urn="urn:adsk.eagle:footprint:27933/1" library_version="2">
<description>&lt;b&gt;TEST PAD&lt;/b&gt;</description>
<smd name="TP" x="0" y="0" dx="1.5996" dy="1.5996" layer="1" cream="no"/>
<text x="-0.8001" y="0.8499" size="1.27" layer="25">&gt;NAME</text>
<text x="-0.762" y="-0.889" size="0.0254" layer="27">&gt;VALUE</text>
<text x="0" y="-2.54" size="1" layer="37">&gt;TP_SIGNAL_NAME</text>
</package>
<package name="TP17SQ" urn="urn:adsk.eagle:footprint:27934/1" library_version="2">
<description>&lt;b&gt;TEST PAD&lt;/b&gt;</description>
<smd name="TP" x="0" y="0" dx="1.7" dy="1.7" layer="1" cream="no"/>
<text x="-0.8499" y="0.8999" size="1.27" layer="25">&gt;NAME</text>
<text x="-0.762" y="-0.889" size="0.0254" layer="27">&gt;VALUE</text>
<text x="0" y="-2.54" size="1" layer="37">&gt;TP_SIGNAL_NAME</text>
</package>
<package name="TP18SQ" urn="urn:adsk.eagle:footprint:27935/1" library_version="2">
<description>&lt;b&gt;TEST PAD&lt;/b&gt;</description>
<smd name="TP" x="0" y="0" dx="1.8" dy="1.8" layer="1" cream="no"/>
<text x="-0.8999" y="0.95" size="1.27" layer="25">&gt;NAME</text>
<text x="-0.889" y="-1.016" size="0.0254" layer="27">&gt;VALUE</text>
<text x="0" y="-2.54" size="1" layer="37">&gt;TP_SIGNAL_NAME</text>
</package>
<package name="TP19SQ" urn="urn:adsk.eagle:footprint:27936/1" library_version="2">
<description>&lt;b&gt;TEST PAD&lt;/b&gt;</description>
<smd name="TP" x="0" y="0" dx="1.8998" dy="1.8998" layer="1" cream="no"/>
<text x="-0.95" y="1" size="1.27" layer="25">&gt;NAME</text>
<text x="-0.889" y="-1.016" size="0.0254" layer="27">&gt;VALUE</text>
<text x="0" y="-2.54" size="1" layer="37">&gt;TP_SIGNAL_NAME</text>
</package>
<package name="TP20SQ" urn="urn:adsk.eagle:footprint:27937/1" library_version="2">
<description>&lt;b&gt;TEST PAD&lt;/b&gt;</description>
<smd name="TP" x="0" y="0" dx="2" dy="2" layer="1" cream="no"/>
<text x="-1" y="1.05" size="1.27" layer="25">&gt;NAME</text>
<text x="-1.016" y="-1.143" size="0.0254" layer="27">&gt;VALUE</text>
<text x="0" y="-2.54" size="1" layer="37">&gt;TP_SIGNAL_NAME</text>
</package>
</packages>
<packages3d>
<package3d name="B1,27" urn="urn:adsk.eagle:package:27944/2" type="box" library_version="2">
<description>TEST PAD</description>
<packageinstances>
<packageinstance name="B1,27"/>
</packageinstances>
</package3d>
<package3d name="B2,54" urn="urn:adsk.eagle:package:27948/1" type="box" library_version="2">
<description>TEST PAD</description>
<packageinstances>
<packageinstance name="B2,54"/>
</packageinstances>
</package3d>
<package3d name="P1-13" urn="urn:adsk.eagle:package:27946/1" type="box" library_version="2">
<description>TEST PAD</description>
<packageinstances>
<packageinstance name="P1-13"/>
</packageinstances>
</package3d>
<package3d name="P1-13Y" urn="urn:adsk.eagle:package:27947/1" type="box" library_version="2">
<description>TEST PAD</description>
<packageinstances>
<packageinstance name="P1-13Y"/>
</packageinstances>
</package3d>
<package3d name="P1-17" urn="urn:adsk.eagle:package:27949/1" type="box" library_version="2">
<description>TEST PAD</description>
<packageinstances>
<packageinstance name="P1-17"/>
</packageinstances>
</package3d>
<package3d name="P1-17Y" urn="urn:adsk.eagle:package:27953/1" type="box" library_version="2">
<description>TEST PAD</description>
<packageinstances>
<packageinstance name="P1-17Y"/>
</packageinstances>
</package3d>
<package3d name="P1-20" urn="urn:adsk.eagle:package:27950/1" type="box" library_version="2">
<description>TEST PAD</description>
<packageinstances>
<packageinstance name="P1-20"/>
</packageinstances>
</package3d>
<package3d name="P1-20Y" urn="urn:adsk.eagle:package:27951/1" type="box" library_version="2">
<description>TEST PAD</description>
<packageinstances>
<packageinstance name="P1-20Y"/>
</packageinstances>
</package3d>
<package3d name="TP06R" urn="urn:adsk.eagle:package:27954/1" type="box" library_version="2">
<description>TEST PAD</description>
<packageinstances>
<packageinstance name="TP06R"/>
</packageinstances>
</package3d>
<package3d name="TP06SQ" urn="urn:adsk.eagle:package:27952/1" type="box" library_version="2">
<description>TEST PAD</description>
<packageinstances>
<packageinstance name="TP06SQ"/>
</packageinstances>
</package3d>
<package3d name="TP07R" urn="urn:adsk.eagle:package:27970/1" type="box" library_version="2">
<description>TEST PAD</description>
<packageinstances>
<packageinstance name="TP07R"/>
</packageinstances>
</package3d>
<package3d name="TP07SQ" urn="urn:adsk.eagle:package:27955/1" type="box" library_version="2">
<description>TEST PAD</description>
<packageinstances>
<packageinstance name="TP07SQ"/>
</packageinstances>
</package3d>
<package3d name="TP08R" urn="urn:adsk.eagle:package:27956/1" type="box" library_version="2">
<description>TEST PAD</description>
<packageinstances>
<packageinstance name="TP08R"/>
</packageinstances>
</package3d>
<package3d name="TP08SQ" urn="urn:adsk.eagle:package:27960/1" type="box" library_version="2">
<description>TEST PAD</description>
<packageinstances>
<packageinstance name="TP08SQ"/>
</packageinstances>
</package3d>
<package3d name="TP09R" urn="urn:adsk.eagle:package:27958/1" type="box" library_version="2">
<description>TEST PAD</description>
<packageinstances>
<packageinstance name="TP09R"/>
</packageinstances>
</package3d>
<package3d name="TP09SQ" urn="urn:adsk.eagle:package:27957/1" type="box" library_version="2">
<description>TEST PAD</description>
<packageinstances>
<packageinstance name="TP09SQ"/>
</packageinstances>
</package3d>
<package3d name="TP10R" urn="urn:adsk.eagle:package:27959/1" type="box" library_version="2">
<description>TEST PAD</description>
<packageinstances>
<packageinstance name="TP10R"/>
</packageinstances>
</package3d>
<package3d name="TP10SQ" urn="urn:adsk.eagle:package:27962/1" type="box" library_version="2">
<description>TEST PAD</description>
<packageinstances>
<packageinstance name="TP10SQ"/>
</packageinstances>
</package3d>
<package3d name="TP11R" urn="urn:adsk.eagle:package:27961/1" type="box" library_version="2">
<description>TEST PAD</description>
<packageinstances>
<packageinstance name="TP11R"/>
</packageinstances>
</package3d>
<package3d name="TP11SQ" urn="urn:adsk.eagle:package:27965/1" type="box" library_version="2">
<description>TEST PAD</description>
<packageinstances>
<packageinstance name="TP11SQ"/>
</packageinstances>
</package3d>
<package3d name="TP12SQ" urn="urn:adsk.eagle:package:27964/1" type="box" library_version="2">
<description>TEST PAD</description>
<packageinstances>
<packageinstance name="TP12SQ"/>
</packageinstances>
</package3d>
<package3d name="TP12R" urn="urn:adsk.eagle:package:27963/1" type="box" library_version="2">
<description>TEST PAD</description>
<packageinstances>
<packageinstance name="TP12R"/>
</packageinstances>
</package3d>
<package3d name="TP13R" urn="urn:adsk.eagle:package:27967/1" type="box" library_version="2">
<description>TEST PAD</description>
<packageinstances>
<packageinstance name="TP13R"/>
</packageinstances>
</package3d>
<package3d name="TP14R" urn="urn:adsk.eagle:package:27966/1" type="box" library_version="2">
<description>TEST PAD</description>
<packageinstances>
<packageinstance name="TP14R"/>
</packageinstances>
</package3d>
<package3d name="TP15R" urn="urn:adsk.eagle:package:27968/1" type="box" library_version="2">
<description>TEST PAD</description>
<packageinstances>
<packageinstance name="TP15R"/>
</packageinstances>
</package3d>
<package3d name="TP16R" urn="urn:adsk.eagle:package:27969/1" type="box" library_version="2">
<description>TEST PAD</description>
<packageinstances>
<packageinstance name="TP16R"/>
</packageinstances>
</package3d>
<package3d name="TP17R" urn="urn:adsk.eagle:package:27971/1" type="box" library_version="2">
<description>TEST PAD</description>
<packageinstances>
<packageinstance name="TP17R"/>
</packageinstances>
</package3d>
<package3d name="TP18R" urn="urn:adsk.eagle:package:27981/1" type="box" library_version="2">
<description>TEST PAD</description>
<packageinstances>
<packageinstance name="TP18R"/>
</packageinstances>
</package3d>
<package3d name="TP19R" urn="urn:adsk.eagle:package:27972/1" type="box" library_version="2">
<description>TEST PAD</description>
<packageinstances>
<packageinstance name="TP19R"/>
</packageinstances>
</package3d>
<package3d name="TP20R" urn="urn:adsk.eagle:package:27973/1" type="box" library_version="2">
<description>TEST PAD</description>
<packageinstances>
<packageinstance name="TP20R"/>
</packageinstances>
</package3d>
<package3d name="TP13SQ" urn="urn:adsk.eagle:package:27974/1" type="box" library_version="2">
<description>TEST PAD</description>
<packageinstances>
<packageinstance name="TP13SQ"/>
</packageinstances>
</package3d>
<package3d name="TP14SQ" urn="urn:adsk.eagle:package:27984/1" type="box" library_version="2">
<description>TEST PAD</description>
<packageinstances>
<packageinstance name="TP14SQ"/>
</packageinstances>
</package3d>
<package3d name="TP15SQ" urn="urn:adsk.eagle:package:27975/1" type="box" library_version="2">
<description>TEST PAD</description>
<packageinstances>
<packageinstance name="TP15SQ"/>
</packageinstances>
</package3d>
<package3d name="TP16SQ" urn="urn:adsk.eagle:package:27976/1" type="box" library_version="2">
<description>TEST PAD</description>
<packageinstances>
<packageinstance name="TP16SQ"/>
</packageinstances>
</package3d>
<package3d name="TP17SQ" urn="urn:adsk.eagle:package:27977/1" type="box" library_version="2">
<description>TEST PAD</description>
<packageinstances>
<packageinstance name="TP17SQ"/>
</packageinstances>
</package3d>
<package3d name="TP18SQ" urn="urn:adsk.eagle:package:27979/1" type="box" library_version="2">
<description>TEST PAD</description>
<packageinstances>
<packageinstance name="TP18SQ"/>
</packageinstances>
</package3d>
<package3d name="TP19SQ" urn="urn:adsk.eagle:package:27978/1" type="box" library_version="2">
<description>TEST PAD</description>
<packageinstances>
<packageinstance name="TP19SQ"/>
</packageinstances>
</package3d>
<package3d name="TP20SQ" urn="urn:adsk.eagle:package:27980/1" type="box" library_version="2">
<description>TEST PAD</description>
<packageinstances>
<packageinstance name="TP20SQ"/>
</packageinstances>
</package3d>
</packages3d>
<symbols>
<symbol name="TP" urn="urn:adsk.eagle:symbol:27940/1" library_version="2">
<wire x1="-0.762" y1="-0.762" x2="0" y2="0" width="0.254" layer="94"/>
<wire x1="0" y1="0" x2="0.762" y2="-0.762" width="0.254" layer="94"/>
<wire x1="0.762" y1="-0.762" x2="0" y2="-1.524" width="0.254" layer="94"/>
<wire x1="0" y1="-1.524" x2="-0.762" y2="-0.762" width="0.254" layer="94"/>
<text x="-1.27" y="1.27" size="1.778" layer="95">&gt;NAME</text>
<text x="1.27" y="-1.27" size="1.778" layer="97">&gt;TP_SIGNAL_NAME</text>
<pin name="TP" x="0" y="-2.54" visible="off" length="short" direction="in" rot="R90"/>
</symbol>
</symbols>
<devicesets>
<deviceset name="TP" urn="urn:adsk.eagle:component:27992/2" prefix="TP" library_version="2">
<description>&lt;b&gt;Test pad&lt;/b&gt;</description>
<gates>
<gate name="G$1" symbol="TP" x="0" y="0"/>
</gates>
<devices>
<device name="B1,27" package="B1,27">
<connects>
<connect gate="G$1" pin="TP" pad="TP"/>
</connects>
<package3dinstances>
<package3dinstance package3d_urn="urn:adsk.eagle:package:27944/2"/>
</package3dinstances>
<technologies>
<technology name="">
<attribute name="TP_SIGNAL_NAME" value="" constant="no"/>
</technology>
</technologies>
</device>
<device name="B2,54" package="B2,54">
<connects>
<connect gate="G$1" pin="TP" pad="TP"/>
</connects>
<package3dinstances>
<package3dinstance package3d_urn="urn:adsk.eagle:package:27948/1"/>
</package3dinstances>
<technologies>
<technology name="">
<attribute name="TP_SIGNAL_NAME" value="" constant="no"/>
</technology>
</technologies>
</device>
<device name="PAD1-13" package="P1-13">
<connects>
<connect gate="G$1" pin="TP" pad="TP"/>
</connects>
<package3dinstances>
<package3dinstance package3d_urn="urn:adsk.eagle:package:27946/1"/>
</package3dinstances>
<technologies>
<technology name="">
<attribute name="TP_SIGNAL_NAME" value="" constant="no"/>
</technology>
</technologies>
</device>
<device name="PAD1-13Y" package="P1-13Y">
<connects>
<connect gate="G$1" pin="TP" pad="TP"/>
</connects>
<package3dinstances>
<package3dinstance package3d_urn="urn:adsk.eagle:package:27947/1"/>
</package3dinstances>
<technologies>
<technology name="">
<attribute name="TP_SIGNAL_NAME" value="" constant="no"/>
</technology>
</technologies>
</device>
<device name="PAD1-17" package="P1-17">
<connects>
<connect gate="G$1" pin="TP" pad="TP"/>
</connects>
<package3dinstances>
<package3dinstance package3d_urn="urn:adsk.eagle:package:27949/1"/>
</package3dinstances>
<technologies>
<technology name="">
<attribute name="TP_SIGNAL_NAME" value="" constant="no"/>
</technology>
</technologies>
</device>
<device name="PAD1-17Y" package="P1-17Y">
<connects>
<connect gate="G$1" pin="TP" pad="TP"/>
</connects>
<package3dinstances>
<package3dinstance package3d_urn="urn:adsk.eagle:package:27953/1"/>
</package3dinstances>
<technologies>
<technology name="">
<attribute name="TP_SIGNAL_NAME" value="" constant="no"/>
</technology>
</technologies>
</device>
<device name="PAD1-20" package="P1-20">
<connects>
<connect gate="G$1" pin="TP" pad="TP"/>
</connects>
<package3dinstances>
<package3dinstance package3d_urn="urn:adsk.eagle:package:27950/1"/>
</package3dinstances>
<technologies>
<technology name="">
<attribute name="TP_SIGNAL_NAME" value="" constant="no"/>
</technology>
</technologies>
</device>
<device name="PAD1-20Y" package="P1-20Y">
<connects>
<connect gate="G$1" pin="TP" pad="TP"/>
</connects>
<package3dinstances>
<package3dinstance package3d_urn="urn:adsk.eagle:package:27951/1"/>
</package3dinstances>
<technologies>
<technology name="">
<attribute name="TP_SIGNAL_NAME" value="" constant="no"/>
</technology>
</technologies>
</device>
<device name="TP06R" package="TP06R">
<connects>
<connect gate="G$1" pin="TP" pad="TP"/>
</connects>
<package3dinstances>
<package3dinstance package3d_urn="urn:adsk.eagle:package:27954/1"/>
</package3dinstances>
<technologies>
<technology name="">
<attribute name="TP_SIGNAL_NAME" value="" constant="no"/>
</technology>
</technologies>
</device>
<device name="TP06SQ" package="TP06SQ">
<connects>
<connect gate="G$1" pin="TP" pad="TP"/>
</connects>
<package3dinstances>
<package3dinstance package3d_urn="urn:adsk.eagle:package:27952/1"/>
</package3dinstances>
<technologies>
<technology name="">
<attribute name="TP_SIGNAL_NAME" value="" constant="no"/>
</technology>
</technologies>
</device>
<device name="TP07R" package="TP07R">
<connects>
<connect gate="G$1" pin="TP" pad="TP"/>
</connects>
<package3dinstances>
<package3dinstance package3d_urn="urn:adsk.eagle:package:27970/1"/>
</package3dinstances>
<technologies>
<technology name="">
<attribute name="TP_SIGNAL_NAME" value="" constant="no"/>
</technology>
</technologies>
</device>
<device name="TP07SQ" package="TP07SQ">
<connects>
<connect gate="G$1" pin="TP" pad="TP"/>
</connects>
<package3dinstances>
<package3dinstance package3d_urn="urn:adsk.eagle:package:27955/1"/>
</package3dinstances>
<technologies>
<technology name="">
<attribute name="TP_SIGNAL_NAME" value="" constant="no"/>
</technology>
</technologies>
</device>
<device name="TP08R" package="TP08R">
<connects>
<connect gate="G$1" pin="TP" pad="TP"/>
</connects>
<package3dinstances>
<package3dinstance package3d_urn="urn:adsk.eagle:package:27956/1"/>
</package3dinstances>
<technologies>
<technology name="">
<attribute name="TP_SIGNAL_NAME" value="" constant="no"/>
</technology>
</technologies>
</device>
<device name="TP08SQ" package="TP08SQ">
<connects>
<connect gate="G$1" pin="TP" pad="TP"/>
</connects>
<package3dinstances>
<package3dinstance package3d_urn="urn:adsk.eagle:package:27960/1"/>
</package3dinstances>
<technologies>
<technology name="">
<attribute name="TP_SIGNAL_NAME" value="" constant="no"/>
</technology>
</technologies>
</device>
<device name="TP09R" package="TP09R">
<connects>
<connect gate="G$1" pin="TP" pad="TP"/>
</connects>
<package3dinstances>
<package3dinstance package3d_urn="urn:adsk.eagle:package:27958/1"/>
</package3dinstances>
<technologies>
<technology name="">
<attribute name="TP_SIGNAL_NAME" value="" constant="no"/>
</technology>
</technologies>
</device>
<device name="TP09SQ" package="TP09SQ">
<connects>
<connect gate="G$1" pin="TP" pad="TP"/>
</connects>
<package3dinstances>
<package3dinstance package3d_urn="urn:adsk.eagle:package:27957/1"/>
</package3dinstances>
<technologies>
<technology name="">
<attribute name="TP_SIGNAL_NAME" value="" constant="no"/>
</technology>
</technologies>
</device>
<device name="TP10R" package="TP10R">
<connects>
<connect gate="G$1" pin="TP" pad="TP"/>
</connects>
<package3dinstances>
<package3dinstance package3d_urn="urn:adsk.eagle:package:27959/1"/>
</package3dinstances>
<technologies>
<technology name="">
<attribute name="TP_SIGNAL_NAME" value="" constant="no"/>
</technology>
</technologies>
</device>
<device name="TP10SQ" package="TP10SQ">
<connects>
<connect gate="G$1" pin="TP" pad="TP"/>
</connects>
<package3dinstances>
<package3dinstance package3d_urn="urn:adsk.eagle:package:27962/1"/>
</package3dinstances>
<technologies>
<technology name="">
<attribute name="TP_SIGNAL_NAME" value="" constant="no"/>
</technology>
</technologies>
</device>
<device name="TP11R" package="TP11R">
<connects>
<connect gate="G$1" pin="TP" pad="TP"/>
</connects>
<package3dinstances>
<package3dinstance package3d_urn="urn:adsk.eagle:package:27961/1"/>
</package3dinstances>
<technologies>
<technology name="">
<attribute name="TP_SIGNAL_NAME" value="" constant="no"/>
</technology>
</technologies>
</device>
<device name="TP11SQ" package="TP11SQ">
<connects>
<connect gate="G$1" pin="TP" pad="TP"/>
</connects>
<package3dinstances>
<package3dinstance package3d_urn="urn:adsk.eagle:package:27965/1"/>
</package3dinstances>
<technologies>
<technology name="">
<attribute name="TP_SIGNAL_NAME" value="" constant="no"/>
</technology>
</technologies>
</device>
<device name="TP12SQ" package="TP12SQ">
<connects>
<connect gate="G$1" pin="TP" pad="TP"/>
</connects>
<package3dinstances>
<package3dinstance package3d_urn="urn:adsk.eagle:package:27964/1"/>
</package3dinstances>
<technologies>
<technology name="">
<attribute name="TP_SIGNAL_NAME" value="" constant="no"/>
</technology>
</technologies>
</device>
<device name="TP12R" package="TP12R">
<connects>
<connect gate="G$1" pin="TP" pad="TP"/>
</connects>
<package3dinstances>
<package3dinstance package3d_urn="urn:adsk.eagle:package:27963/1"/>
</package3dinstances>
<technologies>
<technology name="">
<attribute name="TP_SIGNAL_NAME" value="" constant="no"/>
</technology>
</technologies>
</device>
<device name="TP13R" package="TP13R">
<connects>
<connect gate="G$1" pin="TP" pad="TP"/>
</connects>
<package3dinstances>
<package3dinstance package3d_urn="urn:adsk.eagle:package:27967/1"/>
</package3dinstances>
<technologies>
<technology name="">
<attribute name="TP_SIGNAL_NAME" value="" constant="no"/>
</technology>
</technologies>
</device>
<device name="TP14R" package="TP14R">
<connects>
<connect gate="G$1" pin="TP" pad="TP"/>
</connects>
<package3dinstances>
<package3dinstance package3d_urn="urn:adsk.eagle:package:27966/1"/>
</package3dinstances>
<technologies>
<technology name="">
<attribute name="TP_SIGNAL_NAME" value="" constant="no"/>
</technology>
</technologies>
</device>
<device name="TP15R" package="TP15R">
<connects>
<connect gate="G$1" pin="TP" pad="TP"/>
</connects>
<package3dinstances>
<package3dinstance package3d_urn="urn:adsk.eagle:package:27968/1"/>
</package3dinstances>
<technologies>
<technology name="">
<attribute name="TP_SIGNAL_NAME" value="" constant="no"/>
</technology>
</technologies>
</device>
<device name="TP16R" package="TP16R">
<connects>
<connect gate="G$1" pin="TP" pad="TP"/>
</connects>
<package3dinstances>
<package3dinstance package3d_urn="urn:adsk.eagle:package:27969/1"/>
</package3dinstances>
<technologies>
<technology name="">
<attribute name="TP_SIGNAL_NAME" value="" constant="no"/>
</technology>
</technologies>
</device>
<device name="TP17R" package="TP17R">
<connects>
<connect gate="G$1" pin="TP" pad="TP"/>
</connects>
<package3dinstances>
<package3dinstance package3d_urn="urn:adsk.eagle:package:27971/1"/>
</package3dinstances>
<technologies>
<technology name="">
<attribute name="TP_SIGNAL_NAME" value="" constant="no"/>
</technology>
</technologies>
</device>
<device name="TP18R" package="TP18R">
<connects>
<connect gate="G$1" pin="TP" pad="TP"/>
</connects>
<package3dinstances>
<package3dinstance package3d_urn="urn:adsk.eagle:package:27981/1"/>
</package3dinstances>
<technologies>
<technology name="">
<attribute name="TP_SIGNAL_NAME" value="" constant="no"/>
</technology>
</technologies>
</device>
<device name="TP19R" package="TP19R">
<connects>
<connect gate="G$1" pin="TP" pad="TP"/>
</connects>
<package3dinstances>
<package3dinstance package3d_urn="urn:adsk.eagle:package:27972/1"/>
</package3dinstances>
<technologies>
<technology name="">
<attribute name="TP_SIGNAL_NAME" value="" constant="no"/>
</technology>
</technologies>
</device>
<device name="TP20R" package="TP20R">
<connects>
<connect gate="G$1" pin="TP" pad="TP"/>
</connects>
<package3dinstances>
<package3dinstance package3d_urn="urn:adsk.eagle:package:27973/1"/>
</package3dinstances>
<technologies>
<technology name="">
<attribute name="TP_SIGNAL_NAME" value="" constant="no"/>
</technology>
</technologies>
</device>
<device name="TP13SQ" package="TP13SQ">
<connects>
<connect gate="G$1" pin="TP" pad="TP"/>
</connects>
<package3dinstances>
<package3dinstance package3d_urn="urn:adsk.eagle:package:27974/1"/>
</package3dinstances>
<technologies>
<technology name="">
<attribute name="TP_SIGNAL_NAME" value="" constant="no"/>
</technology>
</technologies>
</device>
<device name="TP14SQ" package="TP14SQ">
<connects>
<connect gate="G$1" pin="TP" pad="TP"/>
</connects>
<package3dinstances>
<package3dinstance package3d_urn="urn:adsk.eagle:package:27984/1"/>
</package3dinstances>
<technologies>
<technology name="">
<attribute name="TP_SIGNAL_NAME" value="" constant="no"/>
</technology>
</technologies>
</device>
<device name="TP15SQ" package="TP15SQ">
<connects>
<connect gate="G$1" pin="TP" pad="TP"/>
</connects>
<package3dinstances>
<package3dinstance package3d_urn="urn:adsk.eagle:package:27975/1"/>
</package3dinstances>
<technologies>
<technology name="">
<attribute name="TP_SIGNAL_NAME" value="" constant="no"/>
</technology>
</technologies>
</device>
<device name="TP16SQ" package="TP16SQ">
<connects>
<connect gate="G$1" pin="TP" pad="TP"/>
</connects>
<package3dinstances>
<package3dinstance package3d_urn="urn:adsk.eagle:package:27976/1"/>
</package3dinstances>
<technologies>
<technology name="">
<attribute name="TP_SIGNAL_NAME" value="" constant="no"/>
</technology>
</technologies>
</device>
<device name="TP17SQ" package="TP17SQ">
<connects>
<connect gate="G$1" pin="TP" pad="TP"/>
</connects>
<package3dinstances>
<package3dinstance package3d_urn="urn:adsk.eagle:package:27977/1"/>
</package3dinstances>
<technologies>
<technology name="">
<attribute name="TP_SIGNAL_NAME" value="" constant="no"/>
</technology>
</technologies>
</device>
<device name="TP18SQ" package="TP18SQ">
<connects>
<connect gate="G$1" pin="TP" pad="TP"/>
</connects>
<package3dinstances>
<package3dinstance package3d_urn="urn:adsk.eagle:package:27979/1"/>
</package3dinstances>
<technologies>
<technology name="">
<attribute name="TP_SIGNAL_NAME" value="" constant="no"/>
</technology>
</technologies>
</device>
<device name="TP19SQ" package="TP19SQ">
<connects>
<connect gate="G$1" pin="TP" pad="TP"/>
</connects>
<package3dinstances>
<package3dinstance package3d_urn="urn:adsk.eagle:package:27978/1"/>
</package3dinstances>
<technologies>
<technology name="">
<attribute name="TP_SIGNAL_NAME" value="" constant="no"/>
</technology>
</technologies>
</device>
<device name="TP20SQ" package="TP20SQ">
<connects>
<connect gate="G$1" pin="TP" pad="TP"/>
</connects>
<package3dinstances>
<package3dinstance package3d_urn="urn:adsk.eagle:package:27980/1"/>
</package3dinstances>
<technologies>
<technology name="">
<attribute name="TP_SIGNAL_NAME" value="" constant="no"/>
</technology>
</technologies>
</device>
</devices>
</deviceset>
</devicesets>
</library>
<library name="ams1117-3.3v">
<description>&lt;1A LOW DROPOUT VOLTAGE REGULATOR, SOT-223&lt;/b&gt;&lt;p&gt;
&lt;author&gt;Created by SamacSys&lt;/author&gt;</description>
<packages>
<package name="SOT229P700X180-4N">
<description>&lt;b&gt;3 Lead SOT-223 Plastic Package&lt;/b&gt;&lt;br&gt;
</description>
<smd name="1" x="-3.35" y="2.29" dx="1.3" dy="0.95" layer="1"/>
<smd name="2" x="-3.35" y="0" dx="1.3" dy="0.95" layer="1"/>
<smd name="3" x="-3.35" y="-2.29" dx="1.3" dy="0.95" layer="1"/>
<smd name="4" x="3.35" y="0" dx="3.25" dy="1.3" layer="1" rot="R90"/>
<text x="0" y="0" size="1.27" layer="25" align="center">&gt;NAME</text>
<text x="0" y="0" size="1.27" layer="27" align="center">&gt;VALUE</text>
<wire x1="-4.25" y1="3.605" x2="4.25" y2="3.605" width="0.05" layer="51"/>
<wire x1="4.25" y1="3.605" x2="4.25" y2="-3.605" width="0.05" layer="51"/>
<wire x1="4.25" y1="-3.605" x2="-4.25" y2="-3.605" width="0.05" layer="51"/>
<wire x1="-4.25" y1="-3.605" x2="-4.25" y2="3.605" width="0.05" layer="51"/>
<wire x1="-1.752" y1="3.252" x2="1.752" y2="3.252" width="0.1" layer="51"/>
<wire x1="1.752" y1="3.252" x2="1.752" y2="-3.252" width="0.1" layer="51"/>
<wire x1="1.752" y1="-3.252" x2="-1.752" y2="-3.252" width="0.1" layer="51"/>
<wire x1="-1.752" y1="-3.252" x2="-1.752" y2="3.252" width="0.1" layer="51"/>
<wire x1="-1.752" y1="0.962" x2="0.538" y2="3.252" width="0.1" layer="51"/>
<wire x1="-1.752" y1="3.252" x2="1.752" y2="3.252" width="0.2" layer="21"/>
<wire x1="1.752" y1="3.252" x2="1.752" y2="-3.252" width="0.2" layer="21"/>
<wire x1="1.752" y1="-3.252" x2="-1.752" y2="-3.252" width="0.2" layer="21"/>
<wire x1="-1.752" y1="-3.252" x2="-1.752" y2="3.252" width="0.2" layer="21"/>
<wire x1="-4" y1="3.115" x2="-2.7" y2="3.115" width="0.2" layer="21"/>
</package>
</packages>
<symbols>
<symbol name="AMS1117-3.3V">
<wire x1="5.08" y1="2.54" x2="45.72" y2="2.54" width="0.254" layer="94"/>
<wire x1="45.72" y1="-7.62" x2="45.72" y2="2.54" width="0.254" layer="94"/>
<wire x1="45.72" y1="-7.62" x2="5.08" y2="-7.62" width="0.254" layer="94"/>
<wire x1="5.08" y1="2.54" x2="5.08" y2="-7.62" width="0.254" layer="94"/>
<text x="46.99" y="7.62" size="1.778" layer="95" align="center-left">&gt;NAME</text>
<text x="46.99" y="5.08" size="1.778" layer="96" align="center-left">&gt;VALUE</text>
<pin name="GROUND/ADJUST" x="0" y="0" length="middle"/>
<pin name="VOUT" x="0" y="-2.54" length="middle"/>
<pin name="VIN" x="0" y="-5.08" length="middle"/>
<pin name="TAB_(OUTPUT)" x="50.8" y="-2.54" length="middle" rot="R180"/>
</symbol>
</symbols>
<devicesets>
<deviceset name="AMS1117-3.3V" prefix="IC">
<description>&lt;b&gt;1A LOW DROPOUT VOLTAGE REGULATOR, SOT-223&lt;/b&gt;&lt;p&gt;
Source: &lt;a href="http://www.advanced-monolithic.com/pdf/ds1117.pdf"&gt; Datasheet &lt;/a&gt;</description>
<gates>
<gate name="G$1" symbol="AMS1117-3.3V" x="0" y="0"/>
</gates>
<devices>
<device name="" package="SOT229P700X180-4N">
<connects>
<connect gate="G$1" pin="GROUND/ADJUST" pad="1"/>
<connect gate="G$1" pin="TAB_(OUTPUT)" pad="4"/>
<connect gate="G$1" pin="VIN" pad="3"/>
<connect gate="G$1" pin="VOUT" pad="2"/>
</connects>
<technologies>
<technology name="">
<attribute name="DESCRIPTION" value="1A LOW DROPOUT VOLTAGE REGULATOR, SOT-223" constant="no"/>
<attribute name="HEIGHT" value="1.8mm" constant="no"/>
<attribute name="MANUFACTURER_NAME" value="Advanced Monolithic Systems" constant="no"/>
<attribute name="MANUFACTURER_PART_NUMBER" value="ams1117-3.3v" constant="no"/>
<attribute name="MOUSER_PART_NUMBER" value="" constant="no"/>
<attribute name="MOUSER_PRICE-STOCK" value="" constant="no"/>
<attribute name="RS_PART_NUMBER" value="" constant="no"/>
<attribute name="RS_PRICE-STOCK" value="" constant="no"/>
</technology>
</technologies>
</device>
</devices>
</deviceset>
</devicesets>
</library>
<library name="SparkFun-Switches">
<description>&lt;h3&gt;SparkFun Switches, Buttons, Encoders&lt;/h3&gt;
In this library you'll find switches, buttons, joysticks, and anything that moves to create or disrupt an electrical connection.
&lt;br&gt;
&lt;br&gt;
We've spent an enormous amount of time creating and checking these footprints and parts, but it is &lt;b&gt; the end user's responsibility&lt;/b&gt; to ensure correctness and suitablity for a given componet or application. 
&lt;br&gt;
&lt;br&gt;If you enjoy using this library, please buy one of our products at &lt;a href=" www.sparkfun.com"&gt;SparkFun.com&lt;/a&gt;.
&lt;br&gt;
&lt;br&gt;
&lt;b&gt;Licensing:&lt;/b&gt; Creative Commons ShareAlike 4.0 International - https://creativecommons.org/licenses/by-sa/4.0/ 
&lt;br&gt;
&lt;br&gt;
You are welcome to use this library for commercial purposes. For attribution, we ask that when you begin to sell your device using our footprint, you email us with a link to the product being sold. We want bragging rights that we helped (in a very small part) to create your 8th world wonder. We would like the opportunity to feature your device on our homepage.</description>
<packages>
<package name="SWITCH_SPDT_PTH_11.6X4.0MM">
<description>&lt;h3&gt;SPDT PTH Slide Switch&lt;/h3&gt;
&lt;p&gt;Single-pole, double-throw (SPDT) switch.&lt;/p&gt;
&lt;p&gt;&lt;a href="https://www.sparkfun.com/datasheets/Components/Buttons/P040040c.pdf"&gt;Dimensional Drawing&lt;/a&gt;&lt;/p&gt;</description>
<wire x1="2.175" y1="5.815" x2="-2.175" y2="5.815" width="0.2032" layer="21"/>
<wire x1="-2.175" y1="5.815" x2="-2.175" y2="-5.815" width="0.2032" layer="21"/>
<wire x1="-2.175" y1="-5.815" x2="2.175" y2="-5.815" width="0.2032" layer="21"/>
<wire x1="2.175" y1="-5.815" x2="2.175" y2="5.815" width="0.2032" layer="21"/>
<pad name="1" x="0" y="2.54" drill="1.016" diameter="1.8796"/>
<pad name="2" x="0" y="0" drill="1.016" diameter="1.8796"/>
<pad name="3" x="0" y="-2.54" drill="1.016" diameter="1.8796"/>
<text x="-2.413" y="0" size="0.6096" layer="25" font="vector" ratio="20" rot="R90" align="bottom-center">&gt;Name</text>
<text x="2.413" y="0" size="0.6096" layer="27" font="vector" ratio="20" rot="R90" align="top-center">&gt;Value</text>
</package>
<package name="SWITCH_DPDT_SMD_AYZ0202">
<description>&lt;h3&gt;ITT Industries AYZ0202 DPDT Switch - SMD&lt;/h3&gt;
&lt;p&gt;Double-pole, double-throw switches.&lt;/p&gt;
&lt;p&gt;&lt;a href="https://www.sparkfun.com/datasheets/Components/SW_slide_ayz.pdf"&gt;Datasheet&lt;/a&gt;&lt;/p&gt;</description>
<wire x1="-3.6" y1="1.75" x2="-3.6" y2="-1.75" width="0.2032" layer="21"/>
<wire x1="-3.6" y1="-1.75" x2="3.6" y2="-1.75" width="0.2032" layer="21"/>
<wire x1="3.6" y1="-1.75" x2="3.6" y2="1.75" width="0.2032" layer="21"/>
<wire x1="3.6" y1="1.75" x2="-3.6" y2="1.75" width="0.2032" layer="21"/>
<smd name="3" x="2.5" y="2.825" dx="1" dy="1.15" layer="1"/>
<smd name="2" x="0" y="2.825" dx="1" dy="1.15" layer="1"/>
<smd name="1" x="-2.5" y="2.825" dx="1" dy="1.15" layer="1"/>
<smd name="6" x="2.5" y="-2.825" dx="1" dy="1.15" layer="1"/>
<smd name="5" x="0" y="-2.825" dx="1" dy="1.15" layer="1"/>
<smd name="4" x="-2.5" y="-2.825" dx="1" dy="1.15" layer="1"/>
<hole x="1.5" y="0" drill="0.85"/>
<hole x="-1.5" y="0" drill="0.85"/>
<text x="-3.81" y="0" size="0.6096" layer="25" font="vector" ratio="20" rot="R90" align="bottom-center">&gt;Name</text>
<text x="3.81" y="0" size="0.6096" layer="27" font="vector" ratio="20" rot="R90" align="top-center">&gt;Value</text>
</package>
<package name="SWITCH_SPDT_PTH_11.6X4.0MM_LOCK">
<description>&lt;h3&gt;SPDT PTH Slide Switch - Locking Footprint&lt;/h3&gt;
&lt;p&gt;Single-pole, double-throw (SPDT) switch.&lt;/p&gt;
&lt;p&gt;&lt;b&gt;Warning:&lt;/b&gt; This is the LOCK version of this package. This package has offset PTH pins, which help to hold the part in place while soldering.&lt;/p&gt;
&lt;p&gt;&lt;a href="https://www.sparkfun.com/datasheets/Components/Buttons/P040040c.pdf"&gt;Dimensional Drawing&lt;/a&gt;&lt;/p&gt;</description>
<wire x1="2.175" y1="5.815" x2="-2.175" y2="5.815" width="0.2032" layer="21"/>
<wire x1="-2.175" y1="5.815" x2="-2.175" y2="-5.815" width="0.2032" layer="21"/>
<wire x1="-2.175" y1="-5.815" x2="2.175" y2="-5.815" width="0.2032" layer="21"/>
<wire x1="2.175" y1="-5.815" x2="2.175" y2="5.815" width="0.2032" layer="21"/>
<pad name="1" x="0" y="2.7178" drill="1.016" diameter="1.8796"/>
<pad name="2" x="0" y="0" drill="1.016" diameter="1.8796"/>
<pad name="3" x="0" y="-2.7178" drill="1.016" diameter="1.8796"/>
<rectangle x1="-0.2286" y1="-0.3048" x2="0.2286" y2="0.3048" layer="51"/>
<rectangle x1="-0.2286" y1="2.2352" x2="0.2286" y2="2.8448" layer="51"/>
<rectangle x1="-0.2286" y1="-2.8448" x2="0.2286" y2="-2.2352" layer="51"/>
<text x="-2.413" y="0" size="0.6096" layer="25" font="vector" ratio="20" rot="R90" align="bottom-center">&gt;Name</text>
<text x="2.413" y="0" size="0.6096" layer="27" font="vector" ratio="20" rot="R90" align="top-center">&gt;Value</text>
</package>
<package name="SWITCH_SPDT_PTH_11.6X4.0MM_KIT">
<description>&lt;h3&gt;SPDT PTH Slide Switch - KIT Footprint&lt;/h3&gt;
&lt;p&gt;Single-pole, double-throw (SPDT) switch.&lt;/p&gt;
&lt;p&gt;&lt;b&gt;Warning:&lt;/b&gt; This is the KIT version of this package. This package has a smaller diameter top stop mask, which doesn't cover the diameter of the pad. This means only the bottom side of the pads' copper will be exposed. You'll only be able to solder to the bottom side.&lt;/p&gt;
&lt;p&gt;&lt;a href="https://www.sparkfun.com/datasheets/Components/Buttons/P040040c.pdf"&gt;Dimensional Drawing&lt;/a&gt;&lt;/p&gt;</description>
<wire x1="2.175" y1="5.815" x2="-2.175" y2="5.815" width="0.2032" layer="21"/>
<wire x1="-2.175" y1="5.815" x2="-2.175" y2="-5.815" width="0.2032" layer="21"/>
<wire x1="-2.175" y1="-5.815" x2="2.175" y2="-5.815" width="0.2032" layer="21"/>
<wire x1="2.175" y1="-5.815" x2="2.175" y2="5.815" width="0.2032" layer="21"/>
<pad name="1" x="0" y="2.7178" drill="1.016" diameter="1.8796" stop="no"/>
<pad name="2" x="0" y="0" drill="1.016" diameter="1.8796" stop="no"/>
<pad name="3" x="0" y="-2.7178" drill="1.016" diameter="1.8796" stop="no"/>
<rectangle x1="-0.2286" y1="-0.3048" x2="0.2286" y2="0.3048" layer="51"/>
<rectangle x1="-0.2286" y1="2.2352" x2="0.2286" y2="2.8448" layer="51"/>
<rectangle x1="-0.2286" y1="-2.8448" x2="0.2286" y2="-2.2352" layer="51"/>
<polygon width="0.127" layer="30">
<vertex x="-0.0178" y="1.8414" curve="-90.039946"/>
<vertex x="-0.8787" y="2.6975" curve="-90"/>
<vertex x="-0.0026" y="3.5916" curve="-90.006409"/>
<vertex x="0.8738" y="2.6975" curve="-90.03214"/>
</polygon>
<polygon width="0.127" layer="30">
<vertex x="-0.0051" y="-3.5967" curve="-90.006558"/>
<vertex x="-0.8788" y="-2.7431" curve="-90.037923"/>
<vertex x="0.0128" y="-1.8363" curve="-90.006318"/>
<vertex x="0.8814" y="-2.7432" curve="-90.038792"/>
</polygon>
<polygon width="0.127" layer="30">
<vertex x="-0.0102" y="-0.8738" curve="-90.019852"/>
<vertex x="-0.8762" y="-0.0203" curve="-90.019119"/>
<vertex x="0.0153" y="0.8789" curve="-90"/>
<vertex x="0.8739" y="-0.0077" curve="-90.038897"/>
</polygon>
<polygon width="0.127" layer="29">
<vertex x="0" y="2.2758" curve="-90.012891"/>
<vertex x="-0.4445" y="2.7" curve="-90"/>
<vertex x="0" y="3.1673" curve="-90"/>
<vertex x="0.4419" y="2.7102" curve="-90.012967"/>
</polygon>
<polygon width="0.127" layer="29">
<vertex x="0.0026" y="-3.1648" curve="-90.012891"/>
<vertex x="-0.4419" y="-2.7406" curve="-90"/>
<vertex x="0.0026" y="-2.2733" curve="-90"/>
<vertex x="0.4445" y="-2.7304" curve="-90.012967"/>
</polygon>
<polygon width="0.127" layer="29">
<vertex x="0.0102" y="-0.4471" curve="-90.012891"/>
<vertex x="-0.4343" y="-0.0229" curve="-90"/>
<vertex x="0.0102" y="0.4444" curve="-90"/>
<vertex x="0.4521" y="-0.0127" curve="-90.012967"/>
</polygon>
<text x="-2.413" y="0" size="0.6096" layer="25" font="vector" ratio="20" rot="R90" align="bottom-center">&gt;Name</text>
<text x="2.413" y="0" size="0.6096" layer="27" font="vector" ratio="20" rot="R90" align="top-center">&gt;Value</text>
</package>
<package name="SWITCH_SPST_SMD_A">
<description>&lt;h3&gt;SPDT Slide Switch - SMD&lt;/h3&gt;
&lt;p&gt;Single-pole, double-throw (SPDT) switch.&lt;/p&gt;
&lt;p&gt;&lt;a href="http://cdn.sparkfun.com/datasheets/Components/Switches/SLIDE.pdf"&gt;Datasheet&lt;/a&gt;&lt;/p&gt;</description>
<wire x1="-3.35" y1="1.3" x2="-3.35" y2="-1.3" width="0.127" layer="51"/>
<wire x1="-3.35" y1="-1.3" x2="3.35" y2="-1.3" width="0.127" layer="51"/>
<wire x1="3.35" y1="-1.3" x2="3.35" y2="1.3" width="0.127" layer="51"/>
<wire x1="3.35" y1="1.3" x2="-0.1" y2="1.3" width="0.127" layer="51"/>
<wire x1="-0.1" y1="1.3" x2="-1.4" y2="1.3" width="0.127" layer="51"/>
<wire x1="-1.4" y1="1.3" x2="-3.35" y2="1.3" width="0.127" layer="51"/>
<wire x1="-0.1" y1="1.3" x2="-0.1" y2="2.8" width="0.127" layer="51"/>
<wire x1="-0.1" y1="2.8" x2="-1.4" y2="2.8" width="0.127" layer="51"/>
<wire x1="-1.4" y1="2.8" x2="-1.4" y2="1.3" width="0.127" layer="51"/>
<wire x1="-3.477" y1="0.427" x2="-3.477" y2="-0.427" width="0.2032" layer="21"/>
<wire x1="3.477" y1="0.427" x2="3.477" y2="-0.427" width="0.2032" layer="21"/>
<wire x1="2.7" y1="1.427" x2="-2.7" y2="1.427" width="0.2032" layer="21"/>
<wire x1="1.627" y1="-1.427" x2="-0.127" y2="-1.427" width="0.2032" layer="21"/>
<smd name="1" x="-2.25" y="-1.75" dx="0.7" dy="1.5" layer="1" rot="R180"/>
<smd name="2" x="-0.75" y="-1.75" dx="0.7" dy="1.5" layer="1" rot="R180"/>
<smd name="3" x="2.25" y="-1.75" dx="0.7" dy="1.5" layer="1" rot="R180"/>
<smd name="GND1" x="-3.65" y="1" dx="1" dy="0.6" layer="1"/>
<smd name="GND2" x="-3.65" y="-1.1" dx="1" dy="0.8" layer="1"/>
<smd name="GND3" x="3.65" y="1" dx="1" dy="0.6" layer="1"/>
<smd name="GND4" x="3.65" y="-1.1" dx="1" dy="0.8" layer="1"/>
<hole x="-1.5" y="0" drill="0.9"/>
<hole x="1.5" y="0" drill="0.9"/>
<text x="0.762" y="-1.397" size="0.6096" layer="25" font="vector" ratio="20" rot="R180" align="bottom-center">&gt;Name</text>
<text x="0" y="1.397" size="0.6096" layer="27" font="vector" ratio="20" rot="R180" align="top-center">&gt;Value</text>
</package>
</packages>
<symbols>
<symbol name="TOGGLE">
<description>&lt;h3&gt;Single Pole, Double Throw (SPDT) Switch&lt;/h3&gt;
&lt;p&gt;Single-pole, double-throw (SPDT) switch.&lt;/p&gt;</description>
<wire x1="0" y1="0" x2="2.54" y2="1.27" width="0.1524" layer="94"/>
<wire x1="2.54" y1="-2.54" x2="3.175" y2="-2.54" width="0.127" layer="94"/>
<wire x1="2.54" y1="2.54" x2="3.175" y2="2.54" width="0.1524" layer="94"/>
<circle x="2.54" y="2.54" radius="0.3592" width="0.2032" layer="94"/>
<circle x="2.54" y="-2.54" radius="0.3592" width="0.2032" layer="94"/>
<circle x="0" y="0" radius="0.3592" width="0.2032" layer="94"/>
<text x="1.27" y="3.048" size="1.778" layer="95" font="vector" align="bottom-center">&gt;NAME</text>
<text x="1.016" y="-3.302" size="1.778" layer="96" font="vector" align="top-center">&gt;VALUE</text>
<pin name="P" x="-2.54" y="0" visible="off" length="short" direction="pas"/>
<pin name="S" x="5.08" y="-2.54" visible="off" length="short" direction="pas" rot="R180"/>
<pin name="O" x="5.08" y="2.54" visible="off" length="short" direction="pas" rot="R180"/>
</symbol>
</symbols>
<devicesets>
<deviceset name="SWITCH-SPDT" prefix="S" uservalue="yes">
<description>&lt;h3&gt;Single Pole, Double Throw (SPDT) Switch&lt;/h3&gt;
&lt;p&gt;Single-pole, double-throw (SPDT) switch.&lt;/p&gt;
&lt;h4&gt;Variant Overview&lt;/h4&gt;
&lt;h5&gt;SMD-AYZ0202&lt;/h5&gt;
&lt;ul&gt;
&lt;li&gt;&lt;a href="https://www.sparkfun.com/products/597"&gt;Surface Mount DPDT Switch&lt;/a&gt; (COM-00597)&lt;/li&gt;
&lt;li&gt;Used on e.g. &lt;a href="https://www.sparkfun.com/products/12049"&gt;LilyPad Arduino USB - ATmega32U4 Board&lt;/a&gt;
&lt;/ul&gt;
&lt;h5&gt;PTH-11.6X4.0MM&lt;/h5&gt;
&lt;ul&gt;
&lt;li&gt;&lt;a href="https://www.sparkfun.com/products/102"&gt;SPDT Mini Power Switch&lt;/a&gt; (COM-00102)&lt;/li&gt;
&lt;li&gt;Used on e.g. &lt;a href="https://www.sparkfun.com/products/10547"&gt;SparkFun Simon Says - Through-Hole Soldering Kit&lt;/a&gt; (KIT-10547)&lt;/li&gt;
&lt;/ul&gt;
&lt;h5&gt;PTH-11.6X4.0MM-KIT&lt;/h5&gt;
&lt;ul&gt;
&lt;li&gt;KIT version of SPDT Mini Power Switch - Simplifies soldering by removing tStop of switch pins - only one side can be soldered.&lt;/li&gt;
&lt;/ul&gt;
&lt;h5&gt;PTH-11.6X4.0MM-LOCK&lt;/h5&gt;
&lt;ul&gt;
&lt;li&gt;LOCK version of SPDT Mini Power Switch - Offset pins hold switch in place for easier soldering.&lt;/li&gt;
&lt;/ul&gt;
&lt;h5&gt;SMD-RIGHT-ANGLE&lt;/h5&gt;
&lt;ul&gt;
&lt;li&gt;&lt;a href="https://www.sparkfun.com/products/10860"&gt;Surface Mount Right Angle Switch&lt;/a&gt; (COM-10860)&lt;/li&gt;
&lt;li&gt;Used on e.g. &lt;a href="https://www.sparkfun.com/products/13231"&gt;SparkFun ESP8266 Thing&lt;/a&gt;&lt;/li&gt;
&lt;/ul&gt;</description>
<gates>
<gate name="1" symbol="TOGGLE" x="-2.54" y="0"/>
</gates>
<devices>
<device name="-PTH-11.6X4.0MM" package="SWITCH_SPDT_PTH_11.6X4.0MM">
<connects>
<connect gate="1" pin="O" pad="1"/>
<connect gate="1" pin="P" pad="2"/>
<connect gate="1" pin="S" pad="3"/>
</connects>
<technologies>
<technology name="">
<attribute name="PROD_ID" value="SWCH-08261"/>
<attribute name="SF_SKU" value="COM-00102"/>
</technology>
</technologies>
</device>
<device name="-SMD-AYZ0202" package="SWITCH_DPDT_SMD_AYZ0202">
<connects>
<connect gate="1" pin="O" pad="1"/>
<connect gate="1" pin="P" pad="2"/>
<connect gate="1" pin="S" pad="3"/>
</connects>
<technologies>
<technology name="">
<attribute name="PROD_ID" value="SWCH-08179" constant="no"/>
<attribute name="SF_ID" value="COM-00597" constant="no"/>
</technology>
</technologies>
</device>
<device name="-PTH-11.6X4.0MM-LOCK" package="SWITCH_SPDT_PTH_11.6X4.0MM_LOCK">
<connects>
<connect gate="1" pin="O" pad="1"/>
<connect gate="1" pin="P" pad="2"/>
<connect gate="1" pin="S" pad="3"/>
</connects>
<technologies>
<technology name="">
<attribute name="PROD_ID" value="SWCH-08261"/>
<attribute name="SF_SKU" value="COM-00102 "/>
</technology>
</technologies>
</device>
<device name="-PTH-11.6X4.0MM-KIT" package="SWITCH_SPDT_PTH_11.6X4.0MM_KIT">
<connects>
<connect gate="1" pin="O" pad="1"/>
<connect gate="1" pin="P" pad="2"/>
<connect gate="1" pin="S" pad="3"/>
</connects>
<technologies>
<technology name="">
<attribute name="PROD_ID" value="SWCH-08261"/>
<attribute name="SF_SKU" value="COM-00102"/>
</technology>
</technologies>
</device>
<device name="-SMD-RIGHT-ANGLE" package="SWITCH_SPST_SMD_A">
<connects>
<connect gate="1" pin="O" pad="1"/>
<connect gate="1" pin="P" pad="2"/>
<connect gate="1" pin="S" pad="3"/>
</connects>
<technologies>
<technology name="">
<attribute name="PROD_ID" value="SWCH-10651"/>
<attribute name="SF_SKU" value="COM-10860"/>
</technology>
</technologies>
</device>
</devices>
</deviceset>
</devicesets>
</library>
</libraries>
<attributes>
</attributes>
<variantdefs>
</variantdefs>
<classes>
<class number="0" name="default" width="0" drill="0">
</class>
</classes>
<parts>
<part name="SV3" library="con-lstb" library_urn="urn:adsk.eagle:library:162" deviceset="MA05-2" device="" package3d_urn="urn:adsk.eagle:package:8329/1"/>
<part name="SUPPLY1" library="supply2" library_urn="urn:adsk.eagle:library:372" deviceset="GND" device=""/>
<part name="P+1" library="supply1" library_urn="urn:adsk.eagle:library:371" deviceset="VCC" device=""/>
<part name="Q1" library="adafruit" deviceset="MOSFET-N" device="REFLOW"/>
<part name="VCC" library="testpad" library_urn="urn:adsk.eagle:library:385" deviceset="TP" device="PAD1-13Y" package3d_urn="urn:adsk.eagle:package:27947/1"/>
<part name="GND" library="testpad" library_urn="urn:adsk.eagle:library:385" deviceset="TP" device="PAD1-13Y" package3d_urn="urn:adsk.eagle:package:27947/1"/>
<part name="RX" library="testpad" library_urn="urn:adsk.eagle:library:385" deviceset="TP" device="PAD1-13Y" package3d_urn="urn:adsk.eagle:package:27947/1"/>
<part name="TX" library="testpad" library_urn="urn:adsk.eagle:library:385" deviceset="TP" device="PAD1-13Y" package3d_urn="urn:adsk.eagle:package:27947/1"/>
<part name="GPIO0" library="testpad" library_urn="urn:adsk.eagle:library:385" deviceset="TP" device="PAD1-13Y" package3d_urn="urn:adsk.eagle:package:27947/1"/>
<part name="IC1" library="ams1117-3.3v" deviceset="AMS1117-3.3V" device=""/>
<part name="S1" library="SparkFun-Switches" deviceset="SWITCH-SPDT" device="-SMD-RIGHT-ANGLE"/>
</parts>
<sheets>
<sheet>
<plain>
</plain>
<instances>
<instance part="SV3" gate="G$1" x="48.26" y="48.26" smashed="yes">
<attribute name="VALUE" x="44.45" y="38.1" size="1.778" layer="96"/>
<attribute name="NAME" x="44.45" y="56.642" size="1.778" layer="95"/>
</instance>
<instance part="SUPPLY1" gate="GND" x="22.86" y="35.56" smashed="yes">
<attribute name="VALUE" x="20.955" y="32.385" size="1.778" layer="96"/>
</instance>
<instance part="P+1" gate="VCC" x="20.32" y="81.28" smashed="yes">
<attribute name="VALUE" x="17.78" y="78.74" size="1.778" layer="96" rot="R90"/>
</instance>
<instance part="Q1" gate="G$1" x="78.74" y="53.34" smashed="yes">
<attribute name="NAME" x="83.82" y="53.975" size="1.27" layer="95"/>
<attribute name="VALUE" x="83.82" y="52.07" size="1.27" layer="96"/>
</instance>
<instance part="VCC" gate="G$1" x="114.3" y="101.6" smashed="yes">
<attribute name="NAME" x="113.03" y="102.87" size="1.778" layer="95"/>
<attribute name="TP_SIGNAL_NAME" x="115.57" y="100.33" size="1.778" layer="97"/>
</instance>
<instance part="GND" gate="G$1" x="114.3" y="91.44" smashed="yes">
<attribute name="NAME" x="113.03" y="92.71" size="1.778" layer="95"/>
<attribute name="TP_SIGNAL_NAME" x="115.57" y="90.17" size="1.778" layer="97"/>
</instance>
<instance part="RX" gate="G$1" x="114.3" y="81.28" smashed="yes">
<attribute name="NAME" x="113.03" y="82.55" size="1.778" layer="95"/>
<attribute name="TP_SIGNAL_NAME" x="115.57" y="80.01" size="1.778" layer="97"/>
</instance>
<instance part="TX" gate="G$1" x="114.3" y="71.12" smashed="yes">
<attribute name="NAME" x="113.03" y="72.39" size="1.778" layer="95"/>
<attribute name="TP_SIGNAL_NAME" x="115.57" y="69.85" size="1.778" layer="97"/>
</instance>
<instance part="GPIO0" gate="G$1" x="114.3" y="60.96" smashed="yes">
<attribute name="NAME" x="113.03" y="62.23" size="1.778" layer="95"/>
<attribute name="TP_SIGNAL_NAME" x="115.57" y="59.69" size="1.778" layer="97"/>
</instance>
<instance part="IC1" gate="G$1" x="27.94" y="104.14" smashed="yes">
<attribute name="NAME" x="74.93" y="111.76" size="1.778" layer="95" align="center-left"/>
<attribute name="VALUE" x="74.93" y="109.22" size="1.778" layer="96" align="center-left"/>
</instance>
<instance part="S1" gate="1" x="134.62" y="99.06" smashed="yes">
<attribute name="NAME" x="135.89" y="102.108" size="1.778" layer="95" font="vector" align="bottom-center"/>
<attribute name="VALUE" x="135.636" y="95.758" size="1.778" layer="96" font="vector" align="top-center"/>
</instance>
</instances>
<busses>
</busses>
<nets>
<net name="VCC" class="0">
<segment>
<pinref part="P+1" gate="VCC" pin="VCC"/>
<wire x1="20.32" y1="78.74" x2="20.32" y2="76.2" width="0.1524" layer="91"/>
<label x="20.32" y="73.66" size="1.778" layer="95"/>
</segment>
<segment>
<pinref part="SV3" gate="G$1" pin="1"/>
<wire x1="55.88" y1="43.18" x2="58.42" y2="43.18" width="0.1524" layer="91"/>
<label x="58.42" y="43.18" size="1.778" layer="95"/>
</segment>
<segment>
<pinref part="IC1" gate="G$1" pin="VIN"/>
<wire x1="27.94" y1="99.06" x2="22.86" y2="99.06" width="0.1524" layer="91"/>
<label x="17.78" y="99.06" size="1.778" layer="95"/>
</segment>
<segment>
<pinref part="S1" gate="1" pin="O"/>
<wire x1="139.7" y1="101.6" x2="142.24" y2="101.6" width="0.1524" layer="91"/>
<label x="142.24" y="101.6" size="1.778" layer="95"/>
</segment>
</net>
<net name="GND" class="0">
<segment>
<pinref part="SUPPLY1" gate="GND" pin="GND"/>
<wire x1="22.86" y1="38.1" x2="22.86" y2="40.64" width="0.1524" layer="91"/>
<label x="22.86" y="43.18" size="1.778" layer="95"/>
</segment>
<segment>
<pinref part="SV3" gate="G$1" pin="9"/>
<wire x1="55.88" y1="53.34" x2="58.42" y2="53.34" width="0.1524" layer="91"/>
<label x="58.42" y="53.34" size="1.778" layer="95"/>
</segment>
<segment>
<pinref part="Q1" gate="G$1" pin="S"/>
<wire x1="81.28" y1="48.26" x2="81.28" y2="45.72" width="0.1524" layer="91"/>
<label x="81.28" y="43.18" size="1.778" layer="95"/>
</segment>
<segment>
<pinref part="IC1" gate="G$1" pin="GROUND/ADJUST"/>
<wire x1="27.94" y1="104.14" x2="22.86" y2="104.14" width="0.1524" layer="91"/>
<label x="17.78" y="104.14" size="1.778" layer="95"/>
</segment>
</net>
<net name="TX" class="0">
<segment>
<pinref part="SV3" gate="G$1" pin="7"/>
<wire x1="55.88" y1="50.8" x2="58.42" y2="50.8" width="0.1524" layer="91"/>
<label x="58.42" y="50.8" size="1.778" layer="95"/>
</segment>
<segment>
<pinref part="TX" gate="G$1" pin="TP"/>
<wire x1="114.3" y1="68.58" x2="106.68" y2="68.58" width="0.1524" layer="91"/>
<label x="101.6" y="68.58" size="1.778" layer="95"/>
</segment>
</net>
<net name="RX" class="0">
<segment>
<pinref part="SV3" gate="G$1" pin="5"/>
<wire x1="55.88" y1="48.26" x2="58.42" y2="48.26" width="0.1524" layer="91"/>
<label x="58.42" y="48.26" size="1.778" layer="95"/>
</segment>
<segment>
<pinref part="RX" gate="G$1" pin="TP"/>
<wire x1="114.3" y1="81.28" x2="114.3" y2="78.74" width="0.1524" layer="91"/>
<wire x1="114.3" y1="78.74" x2="106.68" y2="78.74" width="0.1524" layer="91"/>
<junction x="114.3" y="78.74"/>
<label x="101.6" y="78.74" size="1.778" layer="95"/>
</segment>
</net>
<net name="N$2" class="0">
<segment>
<pinref part="SV3" gate="G$1" pin="8"/>
<wire x1="40.64" y1="50.8" x2="38.1" y2="50.8" width="0.1524" layer="91"/>
</segment>
</net>
<net name="RTS" class="0">
<segment>
<pinref part="SV3" gate="G$1" pin="4"/>
<wire x1="40.64" y1="45.72" x2="38.1" y2="45.72" width="0.1524" layer="91"/>
<label x="35.56" y="45.72" size="1.778" layer="95"/>
</segment>
<segment>
<pinref part="Q1" gate="G$1" pin="G"/>
<wire x1="76.2" y1="50.8" x2="73.66" y2="50.8" width="0.1524" layer="91"/>
<label x="68.58" y="50.8" size="1.778" layer="95"/>
</segment>
</net>
<net name="DTR" class="0">
<segment>
<pinref part="SV3" gate="G$1" pin="3"/>
<wire x1="55.88" y1="45.72" x2="58.42" y2="45.72" width="0.1524" layer="91"/>
<label x="58.42" y="45.72" size="1.778" layer="95"/>
</segment>
<segment>
<wire x1="104.14" y1="53.34" x2="96.52" y2="58.42" width="0.1524" layer="91"/>
<label x="93.98" y="58.42" size="1.778" layer="95"/>
<pinref part="GPIO0" gate="G$1" pin="TP"/>
<wire x1="104.14" y1="53.34" x2="114.3" y2="58.42" width="0.1524" layer="91"/>
</segment>
</net>
<net name="N$1" class="0">
<segment>
<pinref part="Q1" gate="G$1" pin="D"/>
<wire x1="81.28" y1="58.42" x2="81.28" y2="88.9" width="0.1524" layer="91"/>
<pinref part="GND" gate="G$1" pin="TP"/>
<wire x1="114.3" y1="88.9" x2="81.28" y2="88.9" width="0.1524" layer="91"/>
</segment>
</net>
<net name="VCC33" class="0">
<segment>
<pinref part="IC1" gate="G$1" pin="VOUT"/>
<wire x1="27.94" y1="101.6" x2="22.86" y2="101.6" width="0.1524" layer="91"/>
<label x="15.24" y="101.6" size="1.778" layer="95"/>
</segment>
<segment>
<pinref part="S1" gate="1" pin="S"/>
<wire x1="139.7" y1="96.52" x2="142.24" y2="96.52" width="0.1524" layer="91"/>
<label x="142.24" y="96.52" size="1.778" layer="95"/>
</segment>
</net>
<net name="N$3" class="0">
<segment>
<pinref part="VCC" gate="G$1" pin="TP"/>
<pinref part="S1" gate="1" pin="P"/>
<wire x1="114.3" y1="99.06" x2="132.08" y2="99.06" width="0.1524" layer="91"/>
</segment>
</net>
</nets>
</sheet>
</sheets>
</schematic>
</drawing>
<compatibility>
<note version="8.2" severity="warning">
Since Version 8.2, EAGLE supports online libraries. The ids
of those online libraries will not be understood (or retained)
with this version.
</note>
<note version="8.3" severity="warning">
Since Version 8.3, EAGLE supports URNs for individual library
assets (packages, symbols, and devices). The URNs of those assets
will not be understood (or retained) with this version.
</note>
<note version="8.3" severity="warning">
Since Version 8.3, EAGLE supports the association of 3D packages
with devices in libraries, schematics, and board files. Those 3D
packages will not be understood (or retained) with this version.
</note>
</compatibility>
</eagle>
