%TF.GenerationSoftware,KiCad,Pcbnew,7.0.2-0*%
%TF.CreationDate,2023-05-10T12:40:45-06:00*%
%TF.ProjectId,bl616_usb,626c3631-365f-4757-9362-2e6b69636164,rev?*%
%TF.SameCoordinates,Original*%
%TF.FileFunction,Profile,NP*%
%FSLAX46Y46*%
G04 Gerber Fmt 4.6, Leading zero omitted, Abs format (unit mm)*
G04 Created by KiCad (PCBNEW 7.0.2-0) date 2023-05-10 12:40:45*
%MOMM*%
%LPD*%
G01*
G04 APERTURE LIST*
%TA.AperFunction,Profile*%
%ADD10C,0.100000*%
%TD*%
G04 APERTURE END LIST*
D10*
X166116000Y-56642000D02*
X166116000Y-72644000D01*
X133604000Y-72644000D02*
X133604000Y-56642000D01*
X166116000Y-72644000D02*
X133604000Y-72644000D01*
X133604000Y-56642000D02*
X166116000Y-56642000D01*
M02*
