%TF.GenerationSoftware,KiCad,Pcbnew,7.0.2-0*%
%TF.CreationDate,2023-05-10T12:40:45-06:00*%
%TF.ProjectId,bl616_usb,626c3631-365f-4757-9362-2e6b69636164,rev?*%
%TF.SameCoordinates,Original*%
%TF.FileFunction,Soldermask,Bot*%
%TF.FilePolarity,Negative*%
%FSLAX46Y46*%
G04 Gerber Fmt 4.6, Leading zero omitted, Abs format (unit mm)*
G04 Created by KiCad (PCBNEW 7.0.2-0) date 2023-05-10 12:40:45*
%MOMM*%
%LPD*%
G01*
G04 APERTURE LIST*
G04 Aperture macros list*
%AMRoundRect*
0 Rectangle with rounded corners*
0 $1 Rounding radius*
0 $2 $3 $4 $5 $6 $7 $8 $9 X,Y pos of 4 corners*
0 Add a 4 corners polygon primitive as box body*
4,1,4,$2,$3,$4,$5,$6,$7,$8,$9,$2,$3,0*
0 Add four circle primitives for the rounded corners*
1,1,$1+$1,$2,$3*
1,1,$1+$1,$4,$5*
1,1,$1+$1,$6,$7*
1,1,$1+$1,$8,$9*
0 Add four rect primitives between the rounded corners*
20,1,$1+$1,$2,$3,$4,$5,0*
20,1,$1+$1,$4,$5,$6,$7,0*
20,1,$1+$1,$6,$7,$8,$9,0*
20,1,$1+$1,$8,$9,$2,$3,0*%
G04 Aperture macros list end*
%ADD10RoundRect,0.190500X0.190500X-0.571500X0.190500X0.571500X-0.190500X0.571500X-0.190500X-0.571500X0*%
%ADD11RoundRect,0.190500X0.571500X0.190500X-0.571500X0.190500X-0.571500X-0.190500X0.571500X-0.190500X0*%
%ADD12O,3.500000X1.900000*%
%ADD13C,1.100000*%
G04 APERTURE END LIST*
D10*
%TO.C,U1*%
X147600000Y-59600000D03*
X148600000Y-59600000D03*
X149600000Y-59600000D03*
X150600000Y-59600000D03*
X151600000Y-59600000D03*
X152600000Y-59600000D03*
X153600000Y-59600000D03*
X154600000Y-59600000D03*
X155600000Y-59600000D03*
D11*
X156600000Y-61600000D03*
X156600000Y-62600000D03*
X156600000Y-63600000D03*
X156600000Y-64600000D03*
X156600000Y-65600000D03*
X156600000Y-66600000D03*
X156600000Y-67600000D03*
D10*
X155600000Y-69600000D03*
X154600000Y-69600000D03*
X153600000Y-69600000D03*
X152600000Y-69600000D03*
X151600000Y-69600000D03*
X150600000Y-69600000D03*
X149600000Y-69600000D03*
X148600000Y-69600000D03*
X147600000Y-69600000D03*
%TD*%
D12*
%TO.C,J2*%
X163788000Y-70470000D03*
X163788000Y-59070000D03*
D13*
X163788000Y-67070000D03*
X163788000Y-62470000D03*
%TD*%
M02*
