%TF.GenerationSoftware,KiCad,Pcbnew,7.0.2-0*%
%TF.CreationDate,2023-08-30T00:00:47-06:00*%
%TF.ProjectId,bl616_usb_single,626c3631-365f-4757-9362-5f73696e676c,rev?*%
%TF.SameCoordinates,Original*%
%TF.FileFunction,Soldermask,Top*%
%TF.FilePolarity,Negative*%
%FSLAX46Y46*%
G04 Gerber Fmt 4.6, Leading zero omitted, Abs format (unit mm)*
G04 Created by KiCad (PCBNEW 7.0.2-0) date 2023-08-30 00:00:47*
%MOMM*%
%LPD*%
G01*
G04 APERTURE LIST*
G04 Aperture macros list*
%AMRoundRect*
0 Rectangle with rounded corners*
0 $1 Rounding radius*
0 $2 $3 $4 $5 $6 $7 $8 $9 X,Y pos of 4 corners*
0 Add a 4 corners polygon primitive as box body*
4,1,4,$2,$3,$4,$5,$6,$7,$8,$9,$2,$3,0*
0 Add four circle primitives for the rounded corners*
1,1,$1+$1,$2,$3*
1,1,$1+$1,$4,$5*
1,1,$1+$1,$6,$7*
1,1,$1+$1,$8,$9*
0 Add four rect primitives between the rounded corners*
20,1,$1+$1,$2,$3,$4,$5,0*
20,1,$1+$1,$4,$5,$6,$7,0*
20,1,$1+$1,$6,$7,$8,$9,0*
20,1,$1+$1,$8,$9,$2,$3,0*%
G04 Aperture macros list end*
%ADD10R,8.000000X1.900000*%
%ADD11R,7.500000X2.000000*%
%ADD12RoundRect,0.190500X0.190500X-0.571500X0.190500X0.571500X-0.190500X0.571500X-0.190500X-0.571500X0*%
%ADD13RoundRect,0.190500X0.571500X0.190500X-0.571500X0.190500X-0.571500X-0.190500X0.571500X-0.190500X0*%
%ADD14RoundRect,0.228600X0.914400X0.914400X-0.914400X0.914400X-0.914400X-0.914400X0.914400X-0.914400X0*%
G04 APERTURE END LIST*
D10*
%TO.C,J2*%
X173212500Y-60990000D03*
D11*
X172962500Y-63500000D03*
X172962500Y-66100000D03*
D10*
X173212500Y-68610000D03*
%TD*%
D12*
%TO.C,U1*%
X156269000Y-69800000D03*
X157269000Y-69800000D03*
X158269000Y-69800000D03*
X159269000Y-69800000D03*
X160269000Y-69800000D03*
X161269000Y-69800000D03*
X162269000Y-69800000D03*
X163269000Y-69800000D03*
X164269000Y-69800000D03*
D13*
X165269000Y-67800000D03*
X165269000Y-66800000D03*
X165269000Y-65800000D03*
X165269000Y-64800000D03*
X165269000Y-63800000D03*
X165269000Y-62800000D03*
X165269000Y-61800000D03*
D12*
X164269000Y-59800000D03*
X163269000Y-59800000D03*
X162269000Y-59800000D03*
X161269000Y-59800000D03*
X160269000Y-59800000D03*
X159269000Y-59800000D03*
X158269000Y-59800000D03*
X157269000Y-59800000D03*
X156269000Y-59800000D03*
D13*
X154269000Y-63526200D03*
D14*
X160907820Y-65050200D03*
%TD*%
M02*
