%TF.GenerationSoftware,KiCad,Pcbnew,7.0.2-0*%
%TF.CreationDate,2023-08-30T00:00:47-06:00*%
%TF.ProjectId,bl616_usb_single,626c3631-365f-4757-9362-5f73696e676c,rev?*%
%TF.SameCoordinates,Original*%
%TF.FileFunction,Legend,Top*%
%TF.FilePolarity,Positive*%
%FSLAX46Y46*%
G04 Gerber Fmt 4.6, Leading zero omitted, Abs format (unit mm)*
G04 Created by KiCad (PCBNEW 7.0.2-0) date 2023-08-30 00:00:47*
%MOMM*%
%LPD*%
G01*
G04 APERTURE LIST*
%ADD10C,0.150000*%
%ADD11C,0.120000*%
G04 APERTURE END LIST*
D10*
%TO.C,U1*%
X158231619Y-65561904D02*
X159041142Y-65561904D01*
X159041142Y-65561904D02*
X159136380Y-65514285D01*
X159136380Y-65514285D02*
X159184000Y-65466666D01*
X159184000Y-65466666D02*
X159231619Y-65371428D01*
X159231619Y-65371428D02*
X159231619Y-65180952D01*
X159231619Y-65180952D02*
X159184000Y-65085714D01*
X159184000Y-65085714D02*
X159136380Y-65038095D01*
X159136380Y-65038095D02*
X159041142Y-64990476D01*
X159041142Y-64990476D02*
X158231619Y-64990476D01*
X159231619Y-63990476D02*
X159231619Y-64561904D01*
X159231619Y-64276190D02*
X158231619Y-64276190D01*
X158231619Y-64276190D02*
X158374476Y-64371428D01*
X158374476Y-64371428D02*
X158469714Y-64466666D01*
X158469714Y-64466666D02*
X158517333Y-64561904D01*
D11*
X154269000Y-69800000D02*
X154269000Y-64800000D01*
X155269000Y-69800000D02*
X154269000Y-69800000D01*
X155269000Y-69800000D02*
X155769000Y-69800000D01*
X164769000Y-69800000D02*
X165269000Y-69800000D01*
X165269000Y-69800000D02*
X165269000Y-68300000D01*
X154269000Y-64800000D02*
X154269000Y-64300000D01*
X154269000Y-62300000D02*
X154269000Y-62800000D01*
X165269000Y-61300000D02*
X165269000Y-59800000D01*
X154269000Y-59800000D02*
X154269000Y-62300000D01*
X155769000Y-59800000D02*
X154269000Y-59800000D01*
X165269000Y-59800000D02*
X164769000Y-59800000D01*
%TD*%
M02*
