%TF.GenerationSoftware,KiCad,Pcbnew,7.0.2-0*%
%TF.CreationDate,2023-05-10T12:40:45-06:00*%
%TF.ProjectId,bl616_usb,626c3631-365f-4757-9362-2e6b69636164,rev?*%
%TF.SameCoordinates,Original*%
%TF.FileFunction,Paste,Top*%
%TF.FilePolarity,Positive*%
%FSLAX46Y46*%
G04 Gerber Fmt 4.6, Leading zero omitted, Abs format (unit mm)*
G04 Created by KiCad (PCBNEW 7.0.2-0) date 2023-05-10 12:40:45*
%MOMM*%
%LPD*%
G01*
G04 APERTURE LIST*
G04 Aperture macros list*
%AMRoundRect*
0 Rectangle with rounded corners*
0 $1 Rounding radius*
0 $2 $3 $4 $5 $6 $7 $8 $9 X,Y pos of 4 corners*
0 Add a 4 corners polygon primitive as box body*
4,1,4,$2,$3,$4,$5,$6,$7,$8,$9,$2,$3,0*
0 Add four circle primitives for the rounded corners*
1,1,$1+$1,$2,$3*
1,1,$1+$1,$4,$5*
1,1,$1+$1,$6,$7*
1,1,$1+$1,$8,$9*
0 Add four rect primitives between the rounded corners*
20,1,$1+$1,$2,$3,$4,$5,0*
20,1,$1+$1,$4,$5,$6,$7,0*
20,1,$1+$1,$6,$7,$8,$9,0*
20,1,$1+$1,$8,$9,$2,$3,0*%
G04 Aperture macros list end*
%ADD10RoundRect,0.250000X-0.337500X-0.475000X0.337500X-0.475000X0.337500X0.475000X-0.337500X0.475000X0*%
%ADD11R,2.000000X1.500000*%
%ADD12R,2.000000X3.800000*%
%ADD13R,1.250000X1.000000*%
%ADD14RoundRect,0.228600X0.914400X0.914400X-0.914400X0.914400X-0.914400X-0.914400X0.914400X-0.914400X0*%
%ADD15RoundRect,0.190500X0.571500X0.190500X-0.571500X0.190500X-0.571500X-0.190500X0.571500X-0.190500X0*%
%ADD16R,2.500000X1.100000*%
G04 APERTURE END LIST*
D10*
%TO.C,C1*%
X158474500Y-58420000D03*
X160549500Y-58420000D03*
%TD*%
D11*
%TO.C,U2*%
X135250000Y-58500000D03*
X135250000Y-60800000D03*
D12*
X141550000Y-60800000D03*
D11*
X135250000Y-63100000D03*
%TD*%
D13*
%TO.C,SW2*%
X134525000Y-68400000D03*
X142275000Y-68400000D03*
%TD*%
D14*
%TO.C,U1*%
X152238820Y-64850200D03*
D15*
X145600000Y-63326200D03*
%TD*%
D16*
%TO.C,J2*%
X161038000Y-68270000D03*
X161038000Y-65770000D03*
X161038000Y-63770000D03*
X161038000Y-61270000D03*
%TD*%
M02*
