(kicad_sch (version 20230121) (generator eeschema)

  (uuid 25126869-f940-4545-aee1-0c3ab7c8eb07)

  (paper "A4")

  (lib_symbols
    (symbol "Connector:USB_A" (pin_names (offset 1.016)) (in_bom yes) (on_board yes)
      (property "Reference" "J" (at -5.08 11.43 0)
        (effects (font (size 1.27 1.27)) (justify left))
      )
      (property "Value" "USB_A" (at -5.08 8.89 0)
        (effects (font (size 1.27 1.27)) (justify left))
      )
      (property "Footprint" "" (at 3.81 -1.27 0)
        (effects (font (size 1.27 1.27)) hide)
      )
      (property "Datasheet" " ~" (at 3.81 -1.27 0)
        (effects (font (size 1.27 1.27)) hide)
      )
      (property "ki_keywords" "connector USB" (at 0 0 0)
        (effects (font (size 1.27 1.27)) hide)
      )
      (property "ki_description" "USB Type A connector" (at 0 0 0)
        (effects (font (size 1.27 1.27)) hide)
      )
      (property "ki_fp_filters" "USB*" (at 0 0 0)
        (effects (font (size 1.27 1.27)) hide)
      )
      (symbol "USB_A_0_1"
        (rectangle (start -5.08 -7.62) (end 5.08 7.62)
          (stroke (width 0.254) (type default))
          (fill (type background))
        )
        (circle (center -3.81 2.159) (radius 0.635)
          (stroke (width 0.254) (type default))
          (fill (type outline))
        )
        (rectangle (start -1.524 4.826) (end -4.318 5.334)
          (stroke (width 0) (type default))
          (fill (type outline))
        )
        (rectangle (start -1.27 4.572) (end -4.572 5.842)
          (stroke (width 0) (type default))
          (fill (type none))
        )
        (circle (center -0.635 3.429) (radius 0.381)
          (stroke (width 0.254) (type default))
          (fill (type outline))
        )
        (rectangle (start -0.127 -7.62) (end 0.127 -6.858)
          (stroke (width 0) (type default))
          (fill (type none))
        )
        (polyline
          (pts
            (xy -3.175 2.159)
            (xy -2.54 2.159)
            (xy -1.27 3.429)
            (xy -0.635 3.429)
          )
          (stroke (width 0.254) (type default))
          (fill (type none))
        )
        (polyline
          (pts
            (xy -2.54 2.159)
            (xy -1.905 2.159)
            (xy -1.27 0.889)
            (xy 0 0.889)
          )
          (stroke (width 0.254) (type default))
          (fill (type none))
        )
        (polyline
          (pts
            (xy 0.635 2.794)
            (xy 0.635 1.524)
            (xy 1.905 2.159)
            (xy 0.635 2.794)
          )
          (stroke (width 0.254) (type default))
          (fill (type outline))
        )
        (rectangle (start 0.254 1.27) (end -0.508 0.508)
          (stroke (width 0.254) (type default))
          (fill (type outline))
        )
        (rectangle (start 5.08 -2.667) (end 4.318 -2.413)
          (stroke (width 0) (type default))
          (fill (type none))
        )
        (rectangle (start 5.08 -0.127) (end 4.318 0.127)
          (stroke (width 0) (type default))
          (fill (type none))
        )
        (rectangle (start 5.08 4.953) (end 4.318 5.207)
          (stroke (width 0) (type default))
          (fill (type none))
        )
      )
      (symbol "USB_A_1_1"
        (polyline
          (pts
            (xy -1.905 2.159)
            (xy 0.635 2.159)
          )
          (stroke (width 0.254) (type default))
          (fill (type none))
        )
        (pin power_in line (at 7.62 5.08 180) (length 2.54)
          (name "VBUS" (effects (font (size 1.27 1.27))))
          (number "1" (effects (font (size 1.27 1.27))))
        )
        (pin bidirectional line (at 7.62 -2.54 180) (length 2.54)
          (name "D-" (effects (font (size 1.27 1.27))))
          (number "2" (effects (font (size 1.27 1.27))))
        )
        (pin bidirectional line (at 7.62 0 180) (length 2.54)
          (name "D+" (effects (font (size 1.27 1.27))))
          (number "3" (effects (font (size 1.27 1.27))))
        )
        (pin power_in line (at 0 -10.16 90) (length 2.54)
          (name "GND" (effects (font (size 1.27 1.27))))
          (number "4" (effects (font (size 1.27 1.27))))
        )
        (pin passive line (at -2.54 -10.16 90) (length 2.54)
          (name "Shield" (effects (font (size 1.27 1.27))))
          (number "5" (effects (font (size 1.27 1.27))))
        )
      )
    )
    (symbol "Device:C" (pin_numbers hide) (pin_names (offset 0.254)) (in_bom yes) (on_board yes)
      (property "Reference" "C" (at 0.635 2.54 0)
        (effects (font (size 1.27 1.27)) (justify left))
      )
      (property "Value" "C" (at 0.635 -2.54 0)
        (effects (font (size 1.27 1.27)) (justify left))
      )
      (property "Footprint" "" (at 0.9652 -3.81 0)
        (effects (font (size 1.27 1.27)) hide)
      )
      (property "Datasheet" "~" (at 0 0 0)
        (effects (font (size 1.27 1.27)) hide)
      )
      (property "ki_keywords" "cap capacitor" (at 0 0 0)
        (effects (font (size 1.27 1.27)) hide)
      )
      (property "ki_description" "Unpolarized capacitor" (at 0 0 0)
        (effects (font (size 1.27 1.27)) hide)
      )
      (property "ki_fp_filters" "C_*" (at 0 0 0)
        (effects (font (size 1.27 1.27)) hide)
      )
      (symbol "C_0_1"
        (polyline
          (pts
            (xy -2.032 -0.762)
            (xy 2.032 -0.762)
          )
          (stroke (width 0.508) (type default))
          (fill (type none))
        )
        (polyline
          (pts
            (xy -2.032 0.762)
            (xy 2.032 0.762)
          )
          (stroke (width 0.508) (type default))
          (fill (type none))
        )
      )
      (symbol "C_1_1"
        (pin passive line (at 0 3.81 270) (length 2.794)
          (name "~" (effects (font (size 1.27 1.27))))
          (number "1" (effects (font (size 1.27 1.27))))
        )
        (pin passive line (at 0 -3.81 90) (length 2.794)
          (name "~" (effects (font (size 1.27 1.27))))
          (number "2" (effects (font (size 1.27 1.27))))
        )
      )
    )
    (symbol "M0S:M0S" (in_bom yes) (on_board yes)
      (property "Reference" "U" (at 1.27 39.37 0)
        (effects (font (size 1.27 1.27)))
      )
      (property "Value" "M0S" (at 2.54 39.37 0)
        (effects (font (size 1.27 1.27)))
      )
      (property "Footprint" "" (at 8.89 20.32 0)
        (effects (font (size 1.27 1.27)) hide)
      )
      (property "Datasheet" "" (at 8.89 20.32 0)
        (effects (font (size 1.27 1.27)) hide)
      )
      (symbol "M0S_0_1"
        (rectangle (start 0 38.1) (end 27.94 0)
          (stroke (width 0.1524) (type default))
          (fill (type background))
        )
      )
      (symbol "M0S_1_1"
        (pin power_out line (at -2.54 29.21 0) (length 2.54)
          (name "GND" (effects (font (size 1.27 1.27))))
          (number "1" (effects (font (size 1.27 1.27))))
        )
        (pin bidirectional line (at 6.35 -2.54 90) (length 2.54)
          (name "GPIO16" (effects (font (size 1.27 1.27))))
          (number "10" (effects (font (size 1.27 1.27))))
        )
        (pin bidirectional line (at 8.89 -2.54 90) (length 2.54)
          (name "GPIO17" (effects (font (size 1.27 1.27))))
          (number "11" (effects (font (size 1.27 1.27))))
        )
        (pin bidirectional line (at 11.43 -2.54 90) (length 2.54)
          (name "USB_DP" (effects (font (size 1.27 1.27))))
          (number "12" (effects (font (size 1.27 1.27))))
        )
        (pin bidirectional line (at 13.97 -2.54 90) (length 2.54)
          (name "USB_DN" (effects (font (size 1.27 1.27))))
          (number "13" (effects (font (size 1.27 1.27))))
        )
        (pin bidirectional line (at 16.51 -2.54 90) (length 2.54)
          (name "GPIO20" (effects (font (size 1.27 1.27))))
          (number "14" (effects (font (size 1.27 1.27))))
        )
        (pin bidirectional line (at 19.05 -2.54 90) (length 2.54)
          (name "GPIO21" (effects (font (size 1.27 1.27))))
          (number "15" (effects (font (size 1.27 1.27))))
        )
        (pin bidirectional line (at 21.59 -2.54 90) (length 2.54)
          (name "GPIO22" (effects (font (size 1.27 1.27))))
          (number "16" (effects (font (size 1.27 1.27))))
        )
        (pin bidirectional line (at 30.48 8.89 180) (length 2.54)
          (name "GPIO27" (effects (font (size 1.27 1.27))))
          (number "17" (effects (font (size 1.27 1.27))))
        )
        (pin bidirectional line (at 30.48 11.43 180) (length 2.54)
          (name "GPIO28" (effects (font (size 1.27 1.27))))
          (number "18" (effects (font (size 1.27 1.27))))
        )
        (pin bidirectional line (at 30.48 13.97 180) (length 2.54)
          (name "GPIO29" (effects (font (size 1.27 1.27))))
          (number "19" (effects (font (size 1.27 1.27))))
        )
        (pin power_in line (at -2.54 26.67 0) (length 2.54)
          (name "VDD3V3" (effects (font (size 1.27 1.27))))
          (number "2" (effects (font (size 1.27 1.27))))
        )
        (pin bidirectional line (at 30.48 16.51 180) (length 2.54)
          (name "GPIO30" (effects (font (size 1.27 1.27))))
          (number "20" (effects (font (size 1.27 1.27))))
        )
        (pin bidirectional line (at 30.48 19.05 180) (length 2.54)
          (name "GPIO0" (effects (font (size 1.27 1.27))))
          (number "21" (effects (font (size 1.27 1.27))))
        )
        (pin bidirectional line (at 30.48 21.59 180) (length 2.54)
          (name "GPIO1" (effects (font (size 1.27 1.27))))
          (number "22" (effects (font (size 1.27 1.27))))
        )
        (pin bidirectional line (at 30.48 24.13 180) (length 2.54)
          (name "GPIO2" (effects (font (size 1.27 1.27))))
          (number "23" (effects (font (size 1.27 1.27))))
        )
        (pin bidirectional line (at 30.48 26.67 180) (length 2.54)
          (name "GPIO3" (effects (font (size 1.27 1.27))))
          (number "24" (effects (font (size 1.27 1.27))))
        )
        (pin power_out line (at 30.48 29.21 180) (length 2.54)
          (name "GND" (effects (font (size 1.27 1.27))))
          (number "25" (effects (font (size 1.27 1.27))))
        )
        (pin output line (at 17.78 40.64 270) (length 2.54)
          (name "ANT" (effects (font (size 1.27 1.27))))
          (number "26" (effects (font (size 1.27 1.27))))
        )
        (pin power_out line (at 30.48 31.75 180) (length 2.54)
          (name "EPAD" (effects (font (size 1.27 1.27))))
          (number "27" (effects (font (size 1.27 1.27))))
        )
        (pin input line (at -2.54 24.13 0) (length 2.54)
          (name "CHIP_EN" (effects (font (size 1.27 1.27))))
          (number "3" (effects (font (size 1.27 1.27))))
        )
        (pin bidirectional line (at -2.54 21.59 0) (length 2.54)
          (name "GPIO10" (effects (font (size 1.27 1.27))))
          (number "4" (effects (font (size 1.27 1.27))))
        )
        (pin bidirectional line (at -2.54 19.05 0) (length 2.54)
          (name "GPIO11" (effects (font (size 1.27 1.27))))
          (number "5" (effects (font (size 1.27 1.27))))
        )
        (pin bidirectional line (at -2.54 16.51 0) (length 2.54)
          (name "GPIO12" (effects (font (size 1.27 1.27))))
          (number "6" (effects (font (size 1.27 1.27))))
        )
        (pin bidirectional line (at -2.54 13.97 0) (length 2.54)
          (name "GPIO13" (effects (font (size 1.27 1.27))))
          (number "7" (effects (font (size 1.27 1.27))))
        )
        (pin bidirectional line (at -2.54 11.43 0) (length 2.54)
          (name "GPIO14" (effects (font (size 1.27 1.27))))
          (number "8" (effects (font (size 1.27 1.27))))
        )
        (pin bidirectional line (at -2.54 8.89 0) (length 2.54)
          (name "GPIO15" (effects (font (size 1.27 1.27))))
          (number "9" (effects (font (size 1.27 1.27))))
        )
      )
    )
    (symbol "Regulator_Linear:HT75xx-1-SOT89" (in_bom yes) (on_board yes)
      (property "Reference" "U" (at -5.08 -3.81 0)
        (effects (font (size 1.27 1.27)) (justify left))
      )
      (property "Value" "HT75xx-1-SOT89" (at 0 6.35 0)
        (effects (font (size 1.27 1.27)))
      )
      (property "Footprint" "Package_TO_SOT_SMD:SOT-89-3" (at 0 8.255 0)
        (effects (font (size 1.27 1.27) italic) hide)
      )
      (property "Datasheet" "https://www.holtek.com/documents/10179/116711/HT75xx-1v250.pdf" (at 0 2.54 0)
        (effects (font (size 1.27 1.27)) hide)
      )
      (property "ki_keywords" "100mA LDO Regulator Fixed Positive" (at 0 0 0)
        (effects (font (size 1.27 1.27)) hide)
      )
      (property "ki_description" "100mA Low Dropout Voltage Regulator, Fixed Output, SOT89" (at 0 0 0)
        (effects (font (size 1.27 1.27)) hide)
      )
      (property "ki_fp_filters" "SOT?89*" (at 0 0 0)
        (effects (font (size 1.27 1.27)) hide)
      )
      (symbol "HT75xx-1-SOT89_0_1"
        (rectangle (start -5.08 5.08) (end 5.08 -2.54)
          (stroke (width 0.254) (type default))
          (fill (type background))
        )
      )
      (symbol "HT75xx-1-SOT89_1_1"
        (pin power_in line (at 0 -5.08 90) (length 2.54)
          (name "GND" (effects (font (size 1.27 1.27))))
          (number "1" (effects (font (size 1.27 1.27))))
        )
        (pin power_in line (at -7.62 2.54 0) (length 2.54)
          (name "VIN" (effects (font (size 1.27 1.27))))
          (number "2" (effects (font (size 1.27 1.27))))
        )
        (pin power_out line (at 7.62 2.54 180) (length 2.54)
          (name "VOUT" (effects (font (size 1.27 1.27))))
          (number "3" (effects (font (size 1.27 1.27))))
        )
      )
    )
    (symbol "Switch:SW_Push" (pin_numbers hide) (pin_names (offset 1.016) hide) (in_bom yes) (on_board yes)
      (property "Reference" "SW" (at 1.27 2.54 0)
        (effects (font (size 1.27 1.27)) (justify left))
      )
      (property "Value" "SW_Push" (at 0 -1.524 0)
        (effects (font (size 1.27 1.27)))
      )
      (property "Footprint" "" (at 0 5.08 0)
        (effects (font (size 1.27 1.27)) hide)
      )
      (property "Datasheet" "~" (at 0 5.08 0)
        (effects (font (size 1.27 1.27)) hide)
      )
      (property "ki_keywords" "switch normally-open pushbutton push-button" (at 0 0 0)
        (effects (font (size 1.27 1.27)) hide)
      )
      (property "ki_description" "Push button switch, generic, two pins" (at 0 0 0)
        (effects (font (size 1.27 1.27)) hide)
      )
      (symbol "SW_Push_0_1"
        (circle (center -2.032 0) (radius 0.508)
          (stroke (width 0) (type default))
          (fill (type none))
        )
        (polyline
          (pts
            (xy 0 1.27)
            (xy 0 3.048)
          )
          (stroke (width 0) (type default))
          (fill (type none))
        )
        (polyline
          (pts
            (xy 2.54 1.27)
            (xy -2.54 1.27)
          )
          (stroke (width 0) (type default))
          (fill (type none))
        )
        (circle (center 2.032 0) (radius 0.508)
          (stroke (width 0) (type default))
          (fill (type none))
        )
        (pin passive line (at -5.08 0 0) (length 2.54)
          (name "1" (effects (font (size 1.27 1.27))))
          (number "1" (effects (font (size 1.27 1.27))))
        )
        (pin passive line (at 5.08 0 180) (length 2.54)
          (name "2" (effects (font (size 1.27 1.27))))
          (number "2" (effects (font (size 1.27 1.27))))
        )
      )
    )
    (symbol "electroniccats:AP2112K-3.3TRG1" (pin_names (offset 1.016)) (in_bom yes) (on_board yes)
      (property "Reference" "U" (at -7.6708 8.6614 0)
        (effects (font (size 1.27 1.27)) (justify left bottom))
      )
      (property "Value" "AP2112K-3.3TRG1" (at -7.6454 -11.6586 0)
        (effects (font (size 1.27 1.27)) (justify left bottom))
      )
      (property "Footprint" "SOT95P285X140-5N" (at 0 0 0)
        (effects (font (size 1.27 1.27)) (justify left bottom) hide)
      )
      (property "Datasheet" "SOT-753 Diodes Inc." (at 0 0 0)
        (effects (font (size 1.27 1.27)) (justify left bottom) hide)
      )
      (property "Field4" "0.15 USD" (at 0 0 0)
        (effects (font (size 1.27 1.27)) (justify left bottom) hide)
      )
      (property "Field5" "Diodes Inc." (at 0 0 0)
        (effects (font (size 1.27 1.27)) (justify left bottom) hide)
      )
      (property "Field6" "AP2112K-3.3TRG1" (at 0 0 0)
        (effects (font (size 1.27 1.27)) (justify left bottom) hide)
      )
      (property "Field7" "Good" (at 0 0 0)
        (effects (font (size 1.27 1.27)) (justify left bottom) hide)
      )
      (property "Field8" "AP2112 Series 0.6 A 3.3 V Fixed Output SMT LDO Linear Regulator - SOT23-5" (at 0 0 0)
        (effects (font (size 1.27 1.27)) (justify left bottom) hide)
      )
      (property "ki_locked" "" (at 0 0 0)
        (effects (font (size 1.27 1.27)))
      )
      (symbol "AP2112K-3.3TRG1_0_0"
        (polyline
          (pts
            (xy -7.62 -7.62)
            (xy -7.62 7.62)
          )
          (stroke (width 0.4064) (type solid))
          (fill (type none))
        )
        (polyline
          (pts
            (xy -7.62 7.62)
            (xy 7.62 7.62)
          )
          (stroke (width 0.4064) (type solid))
          (fill (type none))
        )
        (polyline
          (pts
            (xy 7.62 -7.62)
            (xy -7.62 -7.62)
          )
          (stroke (width 0.4064) (type solid))
          (fill (type none))
        )
        (polyline
          (pts
            (xy 7.62 7.62)
            (xy 7.62 -7.62)
          )
          (stroke (width 0.4064) (type solid))
          (fill (type none))
        )
        (pin power_in line (at -12.7 5.08 0) (length 5.08)
          (name "VIN" (effects (font (size 1.016 1.016))))
          (number "1" (effects (font (size 1.016 1.016))))
        )
        (pin power_in line (at 12.7 -5.08 180) (length 5.08)
          (name "GND" (effects (font (size 1.016 1.016))))
          (number "2" (effects (font (size 1.016 1.016))))
        )
        (pin input line (at -12.7 0 0) (length 5.08)
          (name "EN" (effects (font (size 1.016 1.016))))
          (number "3" (effects (font (size 1.016 1.016))))
        )
        (pin power_in line (at 12.7 5.08 180) (length 5.08)
          (name "VOUT" (effects (font (size 1.016 1.016))))
          (number "5" (effects (font (size 1.016 1.016))))
        )
      )
    )
    (symbol "power:GND" (power) (pin_names (offset 0)) (in_bom yes) (on_board yes)
      (property "Reference" "#PWR" (at 0 -6.35 0)
        (effects (font (size 1.27 1.27)) hide)
      )
      (property "Value" "GND" (at 0 -3.81 0)
        (effects (font (size 1.27 1.27)))
      )
      (property "Footprint" "" (at 0 0 0)
        (effects (font (size 1.27 1.27)) hide)
      )
      (property "Datasheet" "" (at 0 0 0)
        (effects (font (size 1.27 1.27)) hide)
      )
      (property "ki_keywords" "global power" (at 0 0 0)
        (effects (font (size 1.27 1.27)) hide)
      )
      (property "ki_description" "Power symbol creates a global label with name \"GND\" , ground" (at 0 0 0)
        (effects (font (size 1.27 1.27)) hide)
      )
      (symbol "GND_0_1"
        (polyline
          (pts
            (xy 0 0)
            (xy 0 -1.27)
            (xy 1.27 -1.27)
            (xy 0 -2.54)
            (xy -1.27 -1.27)
            (xy 0 -1.27)
          )
          (stroke (width 0) (type default))
          (fill (type none))
        )
      )
      (symbol "GND_1_1"
        (pin power_in line (at 0 0 270) (length 0) hide
          (name "GND" (effects (font (size 1.27 1.27))))
          (number "1" (effects (font (size 1.27 1.27))))
        )
      )
    )
  )

  (junction (at 74.93 41.91) (diameter 0) (color 0 0 0 0)
    (uuid 11e2008c-4d81-49d7-81ad-c04fd76e62ca)
  )
  (junction (at 129.54 57.15) (diameter 0) (color 0 0 0 0)
    (uuid 155c51f6-deab-4831-803f-f1a8df1c88d3)
  )
  (junction (at 67.31 31.75) (diameter 0) (color 0 0 0 0)
    (uuid 5112dc5c-711b-46bd-9052-310c409faf25)
  )
  (junction (at 104.14 27.94) (diameter 0) (color 0 0 0 0)
    (uuid 854b80d9-35a0-4806-9f97-1a55e7ec36be)
  )
  (junction (at 140.97 62.23) (diameter 0) (color 0 0 0 0)
    (uuid bb8373f8-3d56-4291-8524-e9a200133f98)
  )
  (junction (at 87.63 31.75) (diameter 0) (color 0 0 0 0)
    (uuid e1228e4e-e63f-41a8-9efd-6429a453fae2)
  )

  (wire (pts (xy 74.93 45.72) (xy 78.74 45.72))
    (stroke (width 0) (type default))
    (uuid 032b2ea8-4241-462d-a592-1122d785bc0a)
  )
  (wire (pts (xy 55.88 34.29) (xy 67.31 34.29))
    (stroke (width 0) (type default))
    (uuid 0bf3de91-e8bb-4273-98c7-561bdb249d22)
  )
  (wire (pts (xy 104.14 27.94) (xy 104.14 33.02))
    (stroke (width 0) (type default))
    (uuid 13701532-54f3-49ae-a733-55fffbe8ec69)
  )
  (wire (pts (xy 168.91 62.23) (xy 172.72 62.23))
    (stroke (width 0) (type default))
    (uuid 1624811e-f588-4dc2-8620-cbe1fbf938a2)
  )
  (wire (pts (xy 74.93 41.91) (xy 74.93 45.72))
    (stroke (width 0) (type default))
    (uuid 23e55822-0f5e-4d5c-9b19-4043433ae0c5)
  )
  (wire (pts (xy 73.66 59.69) (xy 92.71 59.69))
    (stroke (width 0) (type default))
    (uuid 252e9f03-c6cc-4d84-b055-c4520b330404)
  )
  (wire (pts (xy 91.44 31.75) (xy 91.44 34.29))
    (stroke (width 0) (type default))
    (uuid 28414647-89b4-490e-8931-b5d8a26e0d9f)
  )
  (wire (pts (xy 52.07 58.42) (xy 52.07 63.5))
    (stroke (width 0) (type default))
    (uuid 2af7b80d-b436-4ce2-be24-d7eadfd104d7)
  )
  (wire (pts (xy 67.31 34.29) (xy 67.31 31.75))
    (stroke (width 0) (type default))
    (uuid 2f4a359f-4f91-43e8-a6a2-c01930b765b7)
  )
  (wire (pts (xy 80.01 53.34) (xy 80.01 55.88))
    (stroke (width 0) (type default))
    (uuid 35e25fdf-646f-49b8-9e5d-40dc01c35cc8)
  )
  (wire (pts (xy 140.97 69.85) (xy 140.97 72.39))
    (stroke (width 0) (type default))
    (uuid 41817929-76ce-4d9c-b0ee-e6a001d2b9d3)
  )
  (wire (pts (xy 74.93 41.91) (xy 87.63 41.91))
    (stroke (width 0) (type default))
    (uuid 48f4b968-e1a3-4114-97f6-601258f7c3e8)
  )
  (wire (pts (xy 87.63 21.59) (xy 87.63 31.75))
    (stroke (width 0) (type default))
    (uuid 4afc10f8-9818-40d8-b1fe-d5150ec3a8c1)
  )
  (wire (pts (xy 129.54 27.94) (xy 129.54 21.59))
    (stroke (width 0) (type default))
    (uuid 4b3e9d65-b2b3-4a7f-94f7-a3f6ca000c30)
  )
  (wire (pts (xy 129.54 38.1) (xy 129.54 57.15))
    (stroke (width 0) (type default))
    (uuid 51d33da4-fad0-4755-86a2-3aee01d7674e)
  )
  (wire (pts (xy 129.54 21.59) (xy 87.63 21.59))
    (stroke (width 0) (type default))
    (uuid 5d98d462-0daf-471b-9c1d-26b8992d447b)
  )
  (wire (pts (xy 48.26 49.53) (xy 48.26 50.8))
    (stroke (width 0) (type default))
    (uuid 614ce2bc-da6e-4e5d-a1ba-1db9967c93e0)
  )
  (wire (pts (xy 125.73 57.15) (xy 129.54 57.15))
    (stroke (width 0) (type default))
    (uuid 7b1e38dd-da21-4c1e-87d1-e8ddbf8dd214)
  )
  (wire (pts (xy 87.63 31.75) (xy 91.44 31.75))
    (stroke (width 0) (type default))
    (uuid 7d466ce6-4d56-4510-9be8-66328dbb6e42)
  )
  (wire (pts (xy 88.9 55.88) (xy 88.9 57.15))
    (stroke (width 0) (type default))
    (uuid 86a24a8d-b076-4902-b49e-b164c2f6695d)
  )
  (wire (pts (xy 52.07 58.42) (xy 58.42 58.42))
    (stroke (width 0) (type default))
    (uuid 8e6888a6-b1ee-4488-abaf-8e0e2b5205b2)
  )
  (wire (pts (xy 140.97 62.23) (xy 158.75 62.23))
    (stroke (width 0) (type default))
    (uuid 8ef8fdfc-efcb-41db-a0a4-3313aabd01bf)
  )
  (wire (pts (xy 106.68 88.9) (xy 106.68 97.79))
    (stroke (width 0) (type default))
    (uuid 947dfe22-ac2d-486c-9120-f555924a7213)
  )
  (wire (pts (xy 129.54 57.15) (xy 132.08 57.15))
    (stroke (width 0) (type default))
    (uuid 95662b04-8666-4df5-9412-22a4db17cfdd)
  )
  (wire (pts (xy 109.22 88.9) (xy 109.22 93.98))
    (stroke (width 0) (type default))
    (uuid a882c8b5-7989-48a8-a629-2911639023f1)
  )
  (wire (pts (xy 55.88 39.37) (xy 59.69 39.37))
    (stroke (width 0) (type default))
    (uuid aab541b3-4134-468d-80eb-35a80c63d93e)
  )
  (wire (pts (xy 109.22 93.98) (xy 110.49 93.98))
    (stroke (width 0) (type default))
    (uuid b4b74d2e-9b7c-4c29-9966-dd52077e2796)
  )
  (wire (pts (xy 67.31 27.94) (xy 104.14 27.94))
    (stroke (width 0) (type default))
    (uuid bb054e85-c830-4d0b-837e-efbb492c3e4c)
  )
  (wire (pts (xy 125.73 62.23) (xy 140.97 62.23))
    (stroke (width 0) (type default))
    (uuid c33c9170-0090-4518-a3ce-0f972129e55c)
  )
  (wire (pts (xy 140.97 72.39) (xy 142.24 72.39))
    (stroke (width 0) (type default))
    (uuid c915c2b4-604e-4be5-8fed-f4c4a2d7ce23)
  )
  (wire (pts (xy 74.93 39.37) (xy 74.93 41.91))
    (stroke (width 0) (type default))
    (uuid cefb479f-f0c9-45e1-bb1f-952efe2f84bf)
  )
  (wire (pts (xy 88.9 57.15) (xy 92.71 57.15))
    (stroke (width 0) (type default))
    (uuid d38c9b97-a182-47b3-b5c9-6f44b48f1094)
  )
  (wire (pts (xy 87.63 31.75) (xy 87.63 34.29))
    (stroke (width 0) (type default))
    (uuid dd9535af-96b1-43e0-b37a-0b2b2e429c25)
  )
  (wire (pts (xy 55.88 41.91) (xy 59.69 41.91))
    (stroke (width 0) (type default))
    (uuid e357ddd5-7699-4549-a1e1-97f2fb0f75f5)
  )
  (wire (pts (xy 67.31 27.94) (xy 67.31 31.75))
    (stroke (width 0) (type default))
    (uuid e3a5b28d-8330-4bea-8071-23a7848dbcea)
  )
  (wire (pts (xy 73.66 59.69) (xy 73.66 63.5))
    (stroke (width 0) (type default))
    (uuid f3219284-608b-43f4-bb3a-7d408c51e711)
  )
  (wire (pts (xy 80.01 55.88) (xy 88.9 55.88))
    (stroke (width 0) (type default))
    (uuid fce4cb5b-4016-4922-b1ba-2d80643201e2)
  )
  (wire (pts (xy 82.55 31.75) (xy 87.63 31.75))
    (stroke (width 0) (type default))
    (uuid ff9f59a2-ce79-4545-a80e-2b11dbcc9f4a)
  )

  (label "gnd" (at 76.2 44.45 0) (fields_autoplaced)
    (effects (font (size 1.27 1.27)) (justify left bottom))
    (uuid 0bc21828-dd3f-4a8b-8589-8ea18e6372c8)
  )
  (label "gnd" (at 52.07 58.42 0) (fields_autoplaced)
    (effects (font (size 1.27 1.27)) (justify left bottom))
    (uuid 1b306402-f5e6-4539-b93b-81c1fec110f8)
  )
  (label "gnd" (at 88.9 57.15 0) (fields_autoplaced)
    (effects (font (size 1.27 1.27)) (justify left bottom))
    (uuid 4210049e-a252-4f3c-97a0-e510918f0832)
  )

  (global_label "D-" (shape input) (at 110.49 93.98 0) (fields_autoplaced)
    (effects (font (size 1.27 1.27)) (justify left))
    (uuid 1661d2c0-bb8b-431a-8543-b9e44d1aeb9e)
    (property "Intersheetrefs" "${INTERSHEET_REFS}" (at 116.2382 93.98 0)
      (effects (font (size 1.27 1.27)) (justify left) hide)
    )
  )
  (global_label "GND" (shape input) (at 80.01 53.34 0) (fields_autoplaced)
    (effects (font (size 1.27 1.27)) (justify left))
    (uuid 25fd9d4b-77a3-46df-8579-ed71ff9841d6)
    (property "Intersheetrefs" "${INTERSHEET_REFS}" (at 86.7863 53.34 0)
      (effects (font (size 1.27 1.27)) (justify left) hide)
    )
  )
  (global_label "vcc33" (shape input) (at 73.66 63.5 0) (fields_autoplaced)
    (effects (font (size 1.27 1.27)) (justify left))
    (uuid 2e5f0915-6ddf-4625-891a-c66270b3242e)
    (property "Intersheetrefs" "${INTERSHEET_REFS}" (at 82.1296 63.5 0)
      (effects (font (size 1.27 1.27)) (justify left) hide)
    )
  )
  (global_label "D+" (shape input) (at 59.69 39.37 0) (fields_autoplaced)
    (effects (font (size 1.27 1.27)) (justify left))
    (uuid 51edc5b1-9131-44d1-ba6b-fd36d4452fc5)
    (property "Intersheetrefs" "${INTERSHEET_REFS}" (at 65.4382 39.37 0)
      (effects (font (size 1.27 1.27)) (justify left) hide)
    )
  )
  (global_label "vcc33" (shape input) (at 91.44 34.29 0) (fields_autoplaced)
    (effects (font (size 1.27 1.27)) (justify left))
    (uuid 52b93456-17b5-4075-aa3e-38c8d3cd07d6)
    (property "Intersheetrefs" "${INTERSHEET_REFS}" (at 99.9096 34.29 0)
      (effects (font (size 1.27 1.27)) (justify left) hide)
    )
  )
  (global_label "GND" (shape input) (at 58.42 58.42 0) (fields_autoplaced)
    (effects (font (size 1.27 1.27)) (justify left))
    (uuid 52f4725c-dbbe-45e8-bf81-02ca91f257bf)
    (property "Intersheetrefs" "${INTERSHEET_REFS}" (at 65.1963 58.42 0)
      (effects (font (size 1.27 1.27)) (justify left) hide)
    )
  )
  (global_label "D-" (shape input) (at 59.69 41.91 0) (fields_autoplaced)
    (effects (font (size 1.27 1.27)) (justify left))
    (uuid 7fa300d0-14e2-44aa-9b41-70f9d005673b)
    (property "Intersheetrefs" "${INTERSHEET_REFS}" (at 65.4382 41.91 0)
      (effects (font (size 1.27 1.27)) (justify left) hide)
    )
  )
  (global_label "GND" (shape input) (at 78.74 45.72 0) (fields_autoplaced)
    (effects (font (size 1.27 1.27)) (justify left))
    (uuid 88f46e32-72b2-4bad-b36b-06d7f51d9e0b)
    (property "Intersheetrefs" "${INTERSHEET_REFS}" (at 85.5163 45.72 0)
      (effects (font (size 1.27 1.27)) (justify left) hide)
    )
  )
  (global_label "GND" (shape input) (at 48.26 50.8 0) (fields_autoplaced)
    (effects (font (size 1.27 1.27)) (justify left))
    (uuid a4acef79-6815-47eb-9bb0-48f9f4614e62)
    (property "Intersheetrefs" "${INTERSHEET_REFS}" (at 55.0363 50.8 0)
      (effects (font (size 1.27 1.27)) (justify left) hide)
    )
  )
  (global_label "GND" (shape input) (at 142.24 72.39 0) (fields_autoplaced)
    (effects (font (size 1.27 1.27)) (justify left))
    (uuid c11da491-fdb8-4d6c-9221-2cb06b142d5e)
    (property "Intersheetrefs" "${INTERSHEET_REFS}" (at 149.0163 72.39 0)
      (effects (font (size 1.27 1.27)) (justify left) hide)
    )
  )
  (global_label "D+" (shape input) (at 106.68 97.79 0) (fields_autoplaced)
    (effects (font (size 1.27 1.27)) (justify left))
    (uuid c8c29053-ed15-44cb-be1f-1537f8db2a25)
    (property "Intersheetrefs" "${INTERSHEET_REFS}" (at 112.4282 97.79 0)
      (effects (font (size 1.27 1.27)) (justify left) hide)
    )
  )
  (global_label "vcc33" (shape input) (at 172.72 62.23 0) (fields_autoplaced)
    (effects (font (size 1.27 1.27)) (justify left))
    (uuid d696999c-b71e-4bdc-9518-9c4bee70abf9)
    (property "Intersheetrefs" "${INTERSHEET_REFS}" (at 181.1896 62.23 0)
      (effects (font (size 1.27 1.27)) (justify left) hide)
    )
  )
  (global_label "GND" (shape input) (at 132.08 57.15 0) (fields_autoplaced)
    (effects (font (size 1.27 1.27)) (justify left))
    (uuid ffb9a04f-250c-4b7d-a49e-05ef7e706178)
    (property "Intersheetrefs" "${INTERSHEET_REFS}" (at 138.8563 57.15 0)
      (effects (font (size 1.27 1.27)) (justify left) hide)
    )
  )

  (symbol (lib_id "Connector:USB_A") (at 48.26 39.37 0) (unit 1)
    (in_bom yes) (on_board yes) (dnp no) (fields_autoplaced)
    (uuid 554ac07d-4bb7-4169-a190-4b7babc89878)
    (property "Reference" "J2" (at 48.26 27.94 0)
      (effects (font (size 1.27 1.27)))
    )
    (property "Value" "USB_A" (at 48.26 30.48 0)
      (effects (font (size 1.27 1.27)))
    )
    (property "Footprint" "Connectors:usb-PCB" (at 52.07 40.64 0)
      (effects (font (size 1.27 1.27)) hide)
    )
    (property "Datasheet" " ~" (at 52.07 40.64 0)
      (effects (font (size 1.27 1.27)) hide)
    )
    (pin "1" (uuid 6f8471de-dd6d-4b53-840e-02f884eb293d))
    (pin "2" (uuid 02f102f0-1fc4-46b4-8d12-2d6657908c22))
    (pin "3" (uuid 9ae21ac1-cc53-41af-9ead-45f676764000))
    (pin "4" (uuid 6e7e899d-841b-405c-984a-4deea8b87c3d))
    (pin "5" (uuid 2714ad13-79a2-49db-9f3b-846381dc053b))
    (instances
      (project "bl616_usb_single"
        (path "/25126869-f940-4545-aee1-0c3ab7c8eb07"
          (reference "J2") (unit 1)
        )
      )
    )
  )

  (symbol (lib_id "M0S:M0S") (at 95.25 86.36 0) (unit 1)
    (in_bom yes) (on_board yes) (dnp no) (fields_autoplaced)
    (uuid 743531ed-3b66-478b-9213-347d20e4395d)
    (property "Reference" "U1" (at 114.9859 44.45 0)
      (effects (font (size 1.27 1.27)) (justify left))
    )
    (property "Value" "M0S" (at 114.9859 46.99 0)
      (effects (font (size 1.27 1.27)) (justify left))
    )
    (property "Footprint" "M0S:M0S" (at 104.14 66.04 0)
      (effects (font (size 1.27 1.27)) hide)
    )
    (property "Datasheet" "" (at 104.14 66.04 0)
      (effects (font (size 1.27 1.27)) hide)
    )
    (pin "1" (uuid e355733d-06e3-4e38-939b-5804fcdca575))
    (pin "10" (uuid 6f67fbf3-25ce-41f0-be69-e31eb1e92b0b))
    (pin "11" (uuid b5d7d6ff-b015-4b08-a3aa-cef282f64b56))
    (pin "12" (uuid f30e2584-32e6-4976-adfd-8c83639f3e17))
    (pin "13" (uuid 559ea20a-19d9-4603-866f-735abe512b18))
    (pin "14" (uuid eaf0c5ce-2138-401d-8c5e-28107212afda))
    (pin "15" (uuid d46bcb68-9c1b-4043-8de3-24218f7e8b3e))
    (pin "16" (uuid 35c0ac28-2312-42b9-8176-7285fa79d75d))
    (pin "17" (uuid 7f44f616-e314-4643-b847-27c3ab193bc0))
    (pin "18" (uuid 26a3d293-8c05-496c-b0ed-63f49b970309))
    (pin "19" (uuid 67eb604e-bbc7-4b59-a8b9-e65653dde840))
    (pin "2" (uuid 3b7a044c-8490-4ac1-aff6-914e3a007b29))
    (pin "20" (uuid 0726bb33-5c25-4910-bfe1-012f4944e927))
    (pin "21" (uuid c79cfc7e-3f4a-47c2-a769-5e7ef6877ec8))
    (pin "22" (uuid a9d1aef3-bbbd-4bdb-8b53-034bbdf231be))
    (pin "23" (uuid d25b661c-cfdb-4925-82b7-ba200ed56a9b))
    (pin "24" (uuid aed318d7-f393-4c5b-a48e-3b08a09021da))
    (pin "25" (uuid e6037a87-0c30-4cdf-8b05-f2550f13f7bb))
    (pin "26" (uuid e6a2376a-8fcc-4d3c-ac71-8a573f77c894))
    (pin "27" (uuid 7fe1aab4-3cc2-4056-9216-12d4029d70b6))
    (pin "3" (uuid eac7f069-1007-407c-836e-5f25e8216c80))
    (pin "4" (uuid 836a0e94-7732-437a-89ec-1b5fca6dd94c))
    (pin "5" (uuid 79b705ca-79c0-4377-bc5c-33cd4ae1c3f0))
    (pin "6" (uuid 1a05d4f2-6af4-4043-9383-eb80e3068e54))
    (pin "7" (uuid 6f6508f6-0e94-4ed9-a289-eadb99c61c76))
    (pin "8" (uuid 425ba898-ac82-4db0-bc87-1f25e20f9440))
    (pin "9" (uuid 78978bf3-d463-41fa-9d72-268a34e82349))
    (instances
      (project "bl616_usb_single"
        (path "/25126869-f940-4545-aee1-0c3ab7c8eb07"
          (reference "U1") (unit 1)
        )
      )
    )
  )

  (symbol (lib_id "Device:C") (at 87.63 38.1 0) (unit 1)
    (in_bom yes) (on_board yes) (dnp no) (fields_autoplaced)
    (uuid 86ddc0aa-5993-46b1-94e1-44d56e405175)
    (property "Reference" "C2" (at 91.44 37.465 0)
      (effects (font (size 1.27 1.27)) (justify left))
    )
    (property "Value" "100uF" (at 91.44 40.005 0)
      (effects (font (size 1.27 1.27)) (justify left))
    )
    (property "Footprint" "Capacitor_SMD:C_0805_2012Metric" (at 88.5952 41.91 0)
      (effects (font (size 1.27 1.27)) hide)
    )
    (property "Datasheet" "~" (at 87.63 38.1 0)
      (effects (font (size 1.27 1.27)) hide)
    )
    (pin "1" (uuid 5a6f341b-e8a2-4731-afe8-98dd1bdd6c3a))
    (pin "2" (uuid 89a6a69d-d667-4a0b-bdd2-3d55dd4d9673))
    (instances
      (project "bl616_usb_single"
        (path "/25126869-f940-4545-aee1-0c3ab7c8eb07"
          (reference "C2") (unit 1)
        )
      )
    )
  )

  (symbol (lib_id "electroniccats:AP2112K-3.3TRG1") (at 116.84 33.02 0) (unit 1)
    (in_bom yes) (on_board yes) (dnp no) (fields_autoplaced)
    (uuid 8b91f53b-5017-407e-9d6b-0f399b0b62fb)
    (property "Reference" "U2" (at 116.84 21.59 0)
      (effects (font (size 1.27 1.27)))
    )
    (property "Value" "AP2112K-3.3TRG1" (at 116.84 24.13 0)
      (effects (font (size 1.27 1.27)))
    )
    (property "Footprint" "Package_TO_SOT_SMD:SOT-23-5" (at 116.84 33.02 0)
      (effects (font (size 1.27 1.27)) (justify left bottom) hide)
    )
    (property "Datasheet" "SOT-753 Diodes Inc." (at 116.84 33.02 0)
      (effects (font (size 1.27 1.27)) (justify left bottom) hide)
    )
    (property "Description" "AP2112 Series 0.6 A 3.3 V Fixed Output SMT LDO Linear Regulator - SOT23-5" (at 116.84 33.02 0)
      (effects (font (size 1.27 1.27)) (justify left bottom) hide)
    )
    (pin "1" (uuid 891a44f7-3c8f-49b9-8e50-bac02a94efbc))
    (pin "2" (uuid 8ac6d7b1-a125-4cfe-9794-7caeca3aa929))
    (pin "3" (uuid 3990bb43-4244-46f8-bf74-0a9c4afe7412))
    (pin "5" (uuid 7cd4d223-3317-479f-b846-9a1d26a0478e))
    (instances
      (project "bl616_usb_single"
        (path "/25126869-f940-4545-aee1-0c3ab7c8eb07"
          (reference "U2") (unit 1)
        )
      )
    )
  )

  (symbol (lib_id "Device:C") (at 140.97 66.04 0) (unit 1)
    (in_bom yes) (on_board yes) (dnp no) (fields_autoplaced)
    (uuid 9a41fd78-16bb-4131-9010-bff7df779e2b)
    (property "Reference" "C1" (at 144.78 65.405 0)
      (effects (font (size 1.27 1.27)) (justify left))
    )
    (property "Value" "C" (at 144.78 67.945 0)
      (effects (font (size 1.27 1.27)) (justify left))
    )
    (property "Footprint" "Capacitor_SMD:C_0805_2012Metric_Pad1.18x1.45mm_HandSolder" (at 141.9352 69.85 0)
      (effects (font (size 1.27 1.27)) hide)
    )
    (property "Datasheet" "~" (at 140.97 66.04 0)
      (effects (font (size 1.27 1.27)) hide)
    )
    (pin "1" (uuid 0b21ac86-8929-42b0-8782-5aa724ed0d39))
    (pin "2" (uuid 7ca8204b-ff93-4bbf-8730-09623476acd4))
    (instances
      (project "bl616_usb_single"
        (path "/25126869-f940-4545-aee1-0c3ab7c8eb07"
          (reference "C1") (unit 1)
        )
      )
    )
  )

  (symbol (lib_id "Regulator_Linear:HT75xx-1-SOT89") (at 74.93 34.29 0) (unit 1)
    (in_bom yes) (on_board yes) (dnp no) (fields_autoplaced)
    (uuid c0cdff74-d6ce-42f3-b1b9-a72997f832f7)
    (property "Reference" "U3" (at 74.93 25.4 0)
      (effects (font (size 1.27 1.27)))
    )
    (property "Value" "HT75xx-1-SOT89" (at 74.93 27.94 0)
      (effects (font (size 1.27 1.27)))
    )
    (property "Footprint" "Package_TO_SOT_SMD:SOT-89-3" (at 74.93 26.035 0)
      (effects (font (size 1.27 1.27) italic) hide)
    )
    (property "Datasheet" "https://www.holtek.com/documents/10179/116711/HT75xx-1v250.pdf" (at 74.93 31.75 0)
      (effects (font (size 1.27 1.27)) hide)
    )
    (pin "1" (uuid 9b49a914-aa74-48ac-8489-7312d44285f0))
    (pin "2" (uuid d1343032-c804-4155-9d0a-bf4cfad3da44))
    (pin "3" (uuid 4d6a1090-5b00-4b13-8f69-0a18edf574af))
    (instances
      (project "bl616_usb_single"
        (path "/25126869-f940-4545-aee1-0c3ab7c8eb07"
          (reference "U3") (unit 1)
        )
      )
    )
  )

  (symbol (lib_id "power:GND") (at 52.07 63.5 0) (unit 1)
    (in_bom yes) (on_board yes) (dnp no) (fields_autoplaced)
    (uuid c671757a-f702-44ef-98b1-ead95a7aa200)
    (property "Reference" "#PWR01" (at 52.07 69.85 0)
      (effects (font (size 1.27 1.27)) hide)
    )
    (property "Value" "GND" (at 52.07 68.58 0)
      (effects (font (size 1.27 1.27)))
    )
    (property "Footprint" "" (at 52.07 63.5 0)
      (effects (font (size 1.27 1.27)) hide)
    )
    (property "Datasheet" "" (at 52.07 63.5 0)
      (effects (font (size 1.27 1.27)) hide)
    )
    (pin "1" (uuid 10a54423-d993-46e5-b5de-054319f7fe8d))
    (instances
      (project "bl616_usb_single"
        (path "/25126869-f940-4545-aee1-0c3ab7c8eb07"
          (reference "#PWR01") (unit 1)
        )
      )
    )
  )

  (symbol (lib_id "Switch:SW_Push") (at 163.83 62.23 0) (unit 1)
    (in_bom yes) (on_board yes) (dnp no) (fields_autoplaced)
    (uuid d5f1bd88-1914-4322-8851-4000b1d2cb6c)
    (property "Reference" "SW2" (at 163.83 53.34 0)
      (effects (font (size 1.27 1.27)))
    )
    (property "Value" "Flash" (at 163.83 55.88 0)
      (effects (font (size 1.27 1.27)))
    )
    (property "Footprint" "Button_Switch_SMD:SW_Tactile_SPST_NO_Straight_CK_PTS636Sx25SMTRLFS" (at 163.83 58.42 0)
      (effects (font (size 1.27 1.27)))
    )
    (property "Datasheet" "~" (at 163.83 57.15 0)
      (effects (font (size 1.27 1.27)) hide)
    )
    (pin "1" (uuid 9c03070a-96d4-4eba-b89e-2672aa282405))
    (pin "2" (uuid b1ce1d01-86a5-40eb-be3e-1c13d7fb442a))
    (instances
      (project "bl616_usb_single"
        (path "/25126869-f940-4545-aee1-0c3ab7c8eb07"
          (reference "SW2") (unit 1)
        )
      )
    )
  )

  (sheet_instances
    (path "/" (page "1"))
  )
)
