%TF.GenerationSoftware,KiCad,Pcbnew,7.0.2-0*%
%TF.CreationDate,2023-08-30T00:09:34-06:00*%
%TF.ProjectId,panel,70616e65-6c2e-46b6-9963-61645f706362,rev?*%
%TF.SameCoordinates,Original*%
%TF.FileFunction,Paste,Bot*%
%TF.FilePolarity,Positive*%
%FSLAX46Y46*%
G04 Gerber Fmt 4.6, Leading zero omitted, Abs format (unit mm)*
G04 Created by KiCad (PCBNEW 7.0.2-0) date 2023-08-30 00:09:34*
%MOMM*%
%LPD*%
G01*
G04 APERTURE LIST*
G04 Aperture macros list*
%AMRoundRect*
0 Rectangle with rounded corners*
0 $1 Rounding radius*
0 $2 $3 $4 $5 $6 $7 $8 $9 X,Y pos of 4 corners*
0 Add a 4 corners polygon primitive as box body*
4,1,4,$2,$3,$4,$5,$6,$7,$8,$9,$2,$3,0*
0 Add four circle primitives for the rounded corners*
1,1,$1+$1,$2,$3*
1,1,$1+$1,$4,$5*
1,1,$1+$1,$6,$7*
1,1,$1+$1,$8,$9*
0 Add four rect primitives between the rounded corners*
20,1,$1+$1,$2,$3,$4,$5,0*
20,1,$1+$1,$4,$5,$6,$7,0*
20,1,$1+$1,$6,$7,$8,$9,0*
20,1,$1+$1,$8,$9,$2,$3,0*%
%AMFreePoly0*
4,1,9,3.862500,-0.866500,0.737500,-0.866500,0.737500,-0.450000,-0.737500,-0.450000,-0.737500,0.450000,0.737500,0.450000,0.737500,0.866500,3.862500,0.866500,3.862500,-0.866500,3.862500,-0.866500,$1*%
G04 Aperture macros list end*
%ADD10RoundRect,0.250000X-0.475000X0.250000X-0.475000X-0.250000X0.475000X-0.250000X0.475000X0.250000X0*%
%ADD11R,1.300000X0.900000*%
%ADD12FreePoly0,180.000000*%
%ADD13RoundRect,0.150000X0.512500X0.150000X-0.512500X0.150000X-0.512500X-0.150000X0.512500X-0.150000X0*%
%ADD14R,1.000000X1.250000*%
%ADD15RoundRect,0.250000X0.337500X0.475000X-0.337500X0.475000X-0.337500X-0.475000X0.337500X-0.475000X0*%
G04 APERTURE END LIST*
D10*
%TO.C,C2*%
X171200000Y-53200000D03*
X171200000Y-55100000D03*
%TD*%
D11*
%TO.C,U3*%
X176987500Y-52600000D03*
D12*
X176900000Y-54100000D03*
D11*
X176987500Y-55600000D03*
%TD*%
D13*
%TO.C,U2*%
X142825000Y-42650000D03*
X142825000Y-43600000D03*
X142825000Y-44550000D03*
X140550000Y-44550000D03*
X140550000Y-42650000D03*
%TD*%
%TO.C,U2*%
X113025000Y-72650000D03*
X113025000Y-73600000D03*
X113025000Y-74550000D03*
X110750000Y-74550000D03*
X110750000Y-72650000D03*
%TD*%
D10*
%TO.C,C2*%
X111600000Y-38200000D03*
X111600000Y-40100000D03*
%TD*%
D14*
%TO.C,SW2*%
X107650000Y-29625000D03*
X107650000Y-21875000D03*
%TD*%
D15*
%TO.C,C1*%
X117137500Y-89000000D03*
X115062500Y-89000000D03*
%TD*%
D14*
%TO.C,SW2*%
X107650000Y-44625000D03*
X107650000Y-36875000D03*
%TD*%
D11*
%TO.C,U3*%
X176987500Y-37600000D03*
D12*
X176900000Y-39100000D03*
D11*
X176987500Y-40600000D03*
%TD*%
%TO.C,U3*%
X147187500Y-37600000D03*
D12*
X147100000Y-39100000D03*
D11*
X147187500Y-40600000D03*
%TD*%
D13*
%TO.C,U2*%
X142825000Y-87650000D03*
X142825000Y-88600000D03*
X142825000Y-89550000D03*
X140550000Y-89550000D03*
X140550000Y-87650000D03*
%TD*%
D10*
%TO.C,C2*%
X171200000Y-83200000D03*
X171200000Y-85100000D03*
%TD*%
%TO.C,C2*%
X141400000Y-53200000D03*
X141400000Y-55100000D03*
%TD*%
D15*
%TO.C,C1*%
X117137500Y-44000000D03*
X115062500Y-44000000D03*
%TD*%
D10*
%TO.C,C2*%
X171200000Y-68200000D03*
X171200000Y-70100000D03*
%TD*%
%TO.C,C2*%
X111600000Y-23200000D03*
X111600000Y-25100000D03*
%TD*%
D14*
%TO.C,SW2*%
X167250000Y-89625000D03*
X167250000Y-81875000D03*
%TD*%
D10*
%TO.C,C2*%
X141400000Y-23200000D03*
X141400000Y-25100000D03*
%TD*%
D13*
%TO.C,U2*%
X113025000Y-57650000D03*
X113025000Y-58600000D03*
X113025000Y-59550000D03*
X110750000Y-59550000D03*
X110750000Y-57650000D03*
%TD*%
D10*
%TO.C,C2*%
X111600000Y-68200000D03*
X111600000Y-70100000D03*
%TD*%
D15*
%TO.C,C1*%
X176737500Y-29000000D03*
X174662500Y-29000000D03*
%TD*%
%TO.C,C1*%
X146937500Y-29000000D03*
X144862500Y-29000000D03*
%TD*%
%TO.C,C1*%
X146937500Y-74000000D03*
X144862500Y-74000000D03*
%TD*%
%TO.C,C1*%
X117137500Y-29000000D03*
X115062500Y-29000000D03*
%TD*%
D11*
%TO.C,U3*%
X176987500Y-22600000D03*
D12*
X176900000Y-24100000D03*
D11*
X176987500Y-25600000D03*
%TD*%
%TO.C,U3*%
X176987500Y-82600000D03*
D12*
X176900000Y-84100000D03*
D11*
X176987500Y-85600000D03*
%TD*%
D14*
%TO.C,SW2*%
X137450000Y-59625000D03*
X137450000Y-51875000D03*
%TD*%
D13*
%TO.C,U2*%
X172625000Y-72650000D03*
X172625000Y-73600000D03*
X172625000Y-74550000D03*
X170350000Y-74550000D03*
X170350000Y-72650000D03*
%TD*%
D15*
%TO.C,C1*%
X176737500Y-59000000D03*
X174662500Y-59000000D03*
%TD*%
%TO.C,C1*%
X117137500Y-59000000D03*
X115062500Y-59000000D03*
%TD*%
D10*
%TO.C,C2*%
X141400000Y-83200000D03*
X141400000Y-85100000D03*
%TD*%
D11*
%TO.C,U3*%
X147187500Y-22600000D03*
D12*
X147100000Y-24100000D03*
D11*
X147187500Y-25600000D03*
%TD*%
D14*
%TO.C,SW2*%
X137450000Y-89625000D03*
X137450000Y-81875000D03*
%TD*%
D13*
%TO.C,U2*%
X142825000Y-57650000D03*
X142825000Y-58600000D03*
X142825000Y-59550000D03*
X140550000Y-59550000D03*
X140550000Y-57650000D03*
%TD*%
%TO.C,U2*%
X172625000Y-42650000D03*
X172625000Y-43600000D03*
X172625000Y-44550000D03*
X170350000Y-44550000D03*
X170350000Y-42650000D03*
%TD*%
D14*
%TO.C,SW2*%
X137450000Y-29625000D03*
X137450000Y-21875000D03*
%TD*%
D13*
%TO.C,U2*%
X142825000Y-27650000D03*
X142825000Y-28600000D03*
X142825000Y-29550000D03*
X140550000Y-29550000D03*
X140550000Y-27650000D03*
%TD*%
%TO.C,U2*%
X113025000Y-87650000D03*
X113025000Y-88600000D03*
X113025000Y-89550000D03*
X110750000Y-89550000D03*
X110750000Y-87650000D03*
%TD*%
D10*
%TO.C,C2*%
X141400000Y-38200000D03*
X141400000Y-40100000D03*
%TD*%
D14*
%TO.C,SW2*%
X107650000Y-74625000D03*
X107650000Y-66875000D03*
%TD*%
D15*
%TO.C,C1*%
X146937500Y-59000000D03*
X144862500Y-59000000D03*
%TD*%
D13*
%TO.C,U2*%
X172625000Y-27650000D03*
X172625000Y-28600000D03*
X172625000Y-29550000D03*
X170350000Y-29550000D03*
X170350000Y-27650000D03*
%TD*%
D11*
%TO.C,U3*%
X147187500Y-67600000D03*
D12*
X147100000Y-69100000D03*
D11*
X147187500Y-70600000D03*
%TD*%
D13*
%TO.C,U2*%
X113025000Y-42650000D03*
X113025000Y-43600000D03*
X113025000Y-44550000D03*
X110750000Y-44550000D03*
X110750000Y-42650000D03*
%TD*%
%TO.C,U2*%
X172625000Y-57650000D03*
X172625000Y-58600000D03*
X172625000Y-59550000D03*
X170350000Y-59550000D03*
X170350000Y-57650000D03*
%TD*%
D14*
%TO.C,SW2*%
X107650000Y-89625000D03*
X107650000Y-81875000D03*
%TD*%
D11*
%TO.C,U3*%
X117387500Y-37600000D03*
D12*
X117300000Y-39100000D03*
D11*
X117387500Y-40600000D03*
%TD*%
D15*
%TO.C,C1*%
X146937500Y-89000000D03*
X144862500Y-89000000D03*
%TD*%
D14*
%TO.C,SW2*%
X137450000Y-44625000D03*
X137450000Y-36875000D03*
%TD*%
D15*
%TO.C,C1*%
X176737500Y-89000000D03*
X174662500Y-89000000D03*
%TD*%
D10*
%TO.C,C2*%
X141400000Y-68200000D03*
X141400000Y-70100000D03*
%TD*%
D14*
%TO.C,SW2*%
X167250000Y-29625000D03*
X167250000Y-21875000D03*
%TD*%
D11*
%TO.C,U3*%
X147187500Y-82600000D03*
D12*
X147100000Y-84100000D03*
D11*
X147187500Y-85600000D03*
%TD*%
D14*
%TO.C,SW2*%
X167250000Y-59625000D03*
X167250000Y-51875000D03*
%TD*%
D11*
%TO.C,U3*%
X117387500Y-22600000D03*
D12*
X117300000Y-24100000D03*
D11*
X117387500Y-25600000D03*
%TD*%
D13*
%TO.C,U2*%
X172625000Y-87650000D03*
X172625000Y-88600000D03*
X172625000Y-89550000D03*
X170350000Y-89550000D03*
X170350000Y-87650000D03*
%TD*%
D10*
%TO.C,C2*%
X171200000Y-23200000D03*
X171200000Y-25100000D03*
%TD*%
D13*
%TO.C,U2*%
X113025000Y-27650000D03*
X113025000Y-28600000D03*
X113025000Y-29550000D03*
X110750000Y-29550000D03*
X110750000Y-27650000D03*
%TD*%
%TO.C,U2*%
X142825000Y-72650000D03*
X142825000Y-73600000D03*
X142825000Y-74550000D03*
X140550000Y-74550000D03*
X140550000Y-72650000D03*
%TD*%
D10*
%TO.C,C2*%
X111600000Y-83200000D03*
X111600000Y-85100000D03*
%TD*%
%TO.C,C2*%
X111600000Y-53200000D03*
X111600000Y-55100000D03*
%TD*%
D11*
%TO.C,U3*%
X117387500Y-67600000D03*
D12*
X117300000Y-69100000D03*
D11*
X117387500Y-70600000D03*
%TD*%
%TO.C,U3*%
X176987500Y-67600000D03*
D12*
X176900000Y-69100000D03*
D11*
X176987500Y-70600000D03*
%TD*%
D15*
%TO.C,C1*%
X176737500Y-74000000D03*
X174662500Y-74000000D03*
%TD*%
%TO.C,C1*%
X117137500Y-74000000D03*
X115062500Y-74000000D03*
%TD*%
D14*
%TO.C,SW2*%
X167250000Y-44625000D03*
X167250000Y-36875000D03*
%TD*%
D15*
%TO.C,C1*%
X146937500Y-44000000D03*
X144862500Y-44000000D03*
%TD*%
D11*
%TO.C,U3*%
X117387500Y-82600000D03*
D12*
X117300000Y-84100000D03*
D11*
X117387500Y-85600000D03*
%TD*%
%TO.C,U3*%
X147187500Y-52600000D03*
D12*
X147100000Y-54100000D03*
D11*
X147187500Y-55600000D03*
%TD*%
D10*
%TO.C,C2*%
X171200000Y-38200000D03*
X171200000Y-40100000D03*
%TD*%
D14*
%TO.C,SW2*%
X137450000Y-74625000D03*
X137450000Y-66875000D03*
%TD*%
D11*
%TO.C,U3*%
X117387500Y-52600000D03*
D12*
X117300000Y-54100000D03*
D11*
X117387500Y-55600000D03*
%TD*%
D14*
%TO.C,SW2*%
X167250000Y-74625000D03*
X167250000Y-66875000D03*
%TD*%
%TO.C,SW2*%
X107650000Y-59625000D03*
X107650000Y-51875000D03*
%TD*%
D15*
%TO.C,C1*%
X176737500Y-44000000D03*
X174662500Y-44000000D03*
%TD*%
M02*
