%TF.GenerationSoftware,KiCad,Pcbnew,7.0.2-0*%
%TF.CreationDate,2023-08-30T00:09:34-06:00*%
%TF.ProjectId,panel,70616e65-6c2e-46b6-9963-61645f706362,rev?*%
%TF.SameCoordinates,Original*%
%TF.FileFunction,Soldermask,Bot*%
%TF.FilePolarity,Negative*%
%FSLAX46Y46*%
G04 Gerber Fmt 4.6, Leading zero omitted, Abs format (unit mm)*
G04 Created by KiCad (PCBNEW 7.0.2-0) date 2023-08-30 00:09:34*
%MOMM*%
%LPD*%
G01*
G04 APERTURE LIST*
G04 Aperture macros list*
%AMRoundRect*
0 Rectangle with rounded corners*
0 $1 Rounding radius*
0 $2 $3 $4 $5 $6 $7 $8 $9 X,Y pos of 4 corners*
0 Add a 4 corners polygon primitive as box body*
4,1,4,$2,$3,$4,$5,$6,$7,$8,$9,$2,$3,0*
0 Add four circle primitives for the rounded corners*
1,1,$1+$1,$2,$3*
1,1,$1+$1,$4,$5*
1,1,$1+$1,$6,$7*
1,1,$1+$1,$8,$9*
0 Add four rect primitives between the rounded corners*
20,1,$1+$1,$2,$3,$4,$5,0*
20,1,$1+$1,$4,$5,$6,$7,0*
20,1,$1+$1,$6,$7,$8,$9,0*
20,1,$1+$1,$8,$9,$2,$3,0*%
%AMFreePoly0*
4,1,9,3.862500,-0.866500,0.737500,-0.866500,0.737500,-0.450000,-0.737500,-0.450000,-0.737500,0.450000,0.737500,0.450000,0.737500,0.866500,3.862500,0.866500,3.862500,-0.866500,3.862500,-0.866500,$1*%
G04 Aperture macros list end*
%ADD10C,0.500000*%
%ADD11RoundRect,0.190500X0.190500X-0.571500X0.190500X0.571500X-0.190500X0.571500X-0.190500X-0.571500X0*%
%ADD12RoundRect,0.190500X0.571500X0.190500X-0.571500X0.190500X-0.571500X-0.190500X0.571500X-0.190500X0*%
%ADD13RoundRect,0.250000X-0.475000X0.250000X-0.475000X-0.250000X0.475000X-0.250000X0.475000X0.250000X0*%
%ADD14R,1.300000X0.900000*%
%ADD15FreePoly0,180.000000*%
%ADD16RoundRect,0.150000X0.512500X0.150000X-0.512500X0.150000X-0.512500X-0.150000X0.512500X-0.150000X0*%
%ADD17R,1.000000X1.250000*%
%ADD18RoundRect,0.250000X0.337500X0.475000X-0.337500X0.475000X-0.337500X-0.475000X0.337500X-0.475000X0*%
G04 APERTURE END LIST*
D10*
%TO.C,REF\u002A\u002A*%
X131900000Y-42500000D03*
%TD*%
%TO.C,REF\u002A\u002A*%
X119200000Y-61800000D03*
%TD*%
%TO.C,REF\u002A\u002A*%
X178800000Y-50200000D03*
%TD*%
D11*
%TO.C,U1*%
X139969000Y-31000000D03*
X140969000Y-31000000D03*
X141969000Y-31000000D03*
X142969000Y-31000000D03*
X143969000Y-31000000D03*
X144969000Y-31000000D03*
X145969000Y-31000000D03*
X146969000Y-31000000D03*
X147969000Y-31000000D03*
D12*
X148969000Y-29000000D03*
X148969000Y-28000000D03*
X148969000Y-27000000D03*
X148969000Y-26000000D03*
X148969000Y-25000000D03*
X148969000Y-24000000D03*
X148969000Y-23000000D03*
D11*
X147969000Y-21000000D03*
X146969000Y-21000000D03*
X145969000Y-21000000D03*
X144969000Y-21000000D03*
X143969000Y-21000000D03*
X142969000Y-21000000D03*
X141969000Y-21000000D03*
X140969000Y-21000000D03*
X139969000Y-21000000D03*
%TD*%
D10*
%TO.C,REF\u002A\u002A*%
X179800000Y-50200000D03*
%TD*%
%TO.C,REF\u002A\u002A*%
X161700000Y-55500000D03*
%TD*%
%TO.C,REF\u002A\u002A*%
X135300000Y-54500000D03*
%TD*%
D11*
%TO.C,U1*%
X139969000Y-61000000D03*
X140969000Y-61000000D03*
X141969000Y-61000000D03*
X142969000Y-61000000D03*
X143969000Y-61000000D03*
X144969000Y-61000000D03*
X145969000Y-61000000D03*
X146969000Y-61000000D03*
X147969000Y-61000000D03*
D12*
X148969000Y-59000000D03*
X148969000Y-58000000D03*
X148969000Y-57000000D03*
X148969000Y-56000000D03*
X148969000Y-55000000D03*
X148969000Y-54000000D03*
X148969000Y-53000000D03*
D11*
X147969000Y-51000000D03*
X146969000Y-51000000D03*
X145969000Y-51000000D03*
X144969000Y-51000000D03*
X143969000Y-51000000D03*
X142969000Y-51000000D03*
X141969000Y-51000000D03*
X140969000Y-51000000D03*
X139969000Y-51000000D03*
%TD*%
D10*
%TO.C,REF\u002A\u002A*%
X178800000Y-31800000D03*
%TD*%
%TO.C,REF\u002A\u002A*%
X161700000Y-84500000D03*
%TD*%
%TO.C,REF\u002A\u002A*%
X120200000Y-80200000D03*
%TD*%
%TO.C,REF\u002A\u002A*%
X135300000Y-56500000D03*
%TD*%
%TO.C,REF\u002A\u002A*%
X176800000Y-46800000D03*
%TD*%
D11*
%TO.C,U1*%
X169769000Y-91000000D03*
X170769000Y-91000000D03*
X171769000Y-91000000D03*
X172769000Y-91000000D03*
X173769000Y-91000000D03*
X174769000Y-91000000D03*
X175769000Y-91000000D03*
X176769000Y-91000000D03*
X177769000Y-91000000D03*
D12*
X178769000Y-89000000D03*
X178769000Y-88000000D03*
X178769000Y-87000000D03*
X178769000Y-86000000D03*
X178769000Y-85000000D03*
X178769000Y-84000000D03*
X178769000Y-83000000D03*
D11*
X177769000Y-81000000D03*
X176769000Y-81000000D03*
X175769000Y-81000000D03*
X174769000Y-81000000D03*
X173769000Y-81000000D03*
X172769000Y-81000000D03*
X171769000Y-81000000D03*
X170769000Y-81000000D03*
X169769000Y-81000000D03*
%TD*%
D10*
%TO.C,REF\u002A\u002A*%
X120200000Y-46800000D03*
%TD*%
%TO.C,REF\u002A\u002A*%
X165100000Y-57500000D03*
%TD*%
D11*
%TO.C,U1*%
X110169000Y-76000000D03*
X111169000Y-76000000D03*
X112169000Y-76000000D03*
X113169000Y-76000000D03*
X114169000Y-76000000D03*
X115169000Y-76000000D03*
X116169000Y-76000000D03*
X117169000Y-76000000D03*
X118169000Y-76000000D03*
D12*
X119169000Y-74000000D03*
X119169000Y-73000000D03*
X119169000Y-72000000D03*
X119169000Y-71000000D03*
X119169000Y-70000000D03*
X119169000Y-69000000D03*
X119169000Y-68000000D03*
D11*
X118169000Y-66000000D03*
X117169000Y-66000000D03*
X116169000Y-66000000D03*
X115169000Y-66000000D03*
X114169000Y-66000000D03*
X113169000Y-66000000D03*
X112169000Y-66000000D03*
X111169000Y-66000000D03*
X110169000Y-66000000D03*
%TD*%
D10*
%TO.C,REF\u002A\u002A*%
X117200000Y-31800000D03*
%TD*%
%TO.C,REF\u002A\u002A*%
X135300000Y-57500000D03*
%TD*%
%TO.C,REF\u002A\u002A*%
X177800000Y-35200000D03*
%TD*%
%TO.C,REF\u002A\u002A*%
X135300000Y-40500000D03*
%TD*%
%TO.C,REF\u002A\u002A*%
X161700000Y-57500000D03*
%TD*%
%TO.C,REF\u002A\u002A*%
X120200000Y-31800000D03*
%TD*%
%TO.C,REF\u002A\u002A*%
X149000000Y-65200000D03*
%TD*%
%TO.C,REF\u002A\u002A*%
X178800000Y-46800000D03*
%TD*%
%TO.C,REF\u002A\u002A*%
X119200000Y-65200000D03*
%TD*%
%TO.C,REF\u002A\u002A*%
X176800000Y-61800000D03*
%TD*%
%TO.C,REF\u002A\u002A*%
X150000000Y-76800000D03*
%TD*%
%TO.C,REF\u002A\u002A*%
X135300000Y-84500000D03*
%TD*%
%TO.C,REF\u002A\u002A*%
X165100000Y-71500000D03*
%TD*%
%TO.C,REF\u002A\u002A*%
X177800000Y-50200000D03*
%TD*%
%TO.C,REF\u002A\u002A*%
X135300000Y-41500000D03*
%TD*%
%TO.C,REF\u002A\u002A*%
X118200000Y-61800000D03*
%TD*%
%TO.C,REF\u002A\u002A*%
X148000000Y-65200000D03*
%TD*%
%TO.C,REF\u002A\u002A*%
X131900000Y-85500000D03*
%TD*%
%TO.C,REF\u002A\u002A*%
X165100000Y-40500000D03*
%TD*%
D11*
%TO.C,U1*%
X110169000Y-31000000D03*
X111169000Y-31000000D03*
X112169000Y-31000000D03*
X113169000Y-31000000D03*
X114169000Y-31000000D03*
X115169000Y-31000000D03*
X116169000Y-31000000D03*
X117169000Y-31000000D03*
X118169000Y-31000000D03*
D12*
X119169000Y-29000000D03*
X119169000Y-28000000D03*
X119169000Y-27000000D03*
X119169000Y-26000000D03*
X119169000Y-25000000D03*
X119169000Y-24000000D03*
X119169000Y-23000000D03*
D11*
X118169000Y-21000000D03*
X117169000Y-21000000D03*
X116169000Y-21000000D03*
X115169000Y-21000000D03*
X114169000Y-21000000D03*
X113169000Y-21000000D03*
X112169000Y-21000000D03*
X111169000Y-21000000D03*
X110169000Y-21000000D03*
%TD*%
D10*
%TO.C,REF\u002A\u002A*%
X179800000Y-31800000D03*
%TD*%
%TO.C,REF\u002A\u002A*%
X165100000Y-70500000D03*
%TD*%
%TO.C,REF\u002A\u002A*%
X165100000Y-39500000D03*
%TD*%
%TO.C,REF\u002A\u002A*%
X150000000Y-31800000D03*
%TD*%
%TO.C,REF\u002A\u002A*%
X135300000Y-42500000D03*
%TD*%
%TO.C,REF\u002A\u002A*%
X135300000Y-72500000D03*
%TD*%
%TO.C,REF\u002A\u002A*%
X147000000Y-80200000D03*
%TD*%
%TO.C,REF\u002A\u002A*%
X165100000Y-42500000D03*
%TD*%
%TO.C,REF\u002A\u002A*%
X161700000Y-72500000D03*
%TD*%
%TO.C,REF\u002A\u002A*%
X176800000Y-31800000D03*
%TD*%
%TO.C,REF\u002A\u002A*%
X149000000Y-61800000D03*
%TD*%
%TO.C,REF\u002A\u002A*%
X119200000Y-31800000D03*
%TD*%
%TO.C,REF\u002A\u002A*%
X165100000Y-56500000D03*
%TD*%
%TO.C,REF\u002A\u002A*%
X147000000Y-61800000D03*
%TD*%
%TO.C,REF\u002A\u002A*%
X150000000Y-50200000D03*
%TD*%
%TO.C,REF\u002A\u002A*%
X118200000Y-35200000D03*
%TD*%
D11*
%TO.C,U1*%
X139969000Y-91000000D03*
X140969000Y-91000000D03*
X141969000Y-91000000D03*
X142969000Y-91000000D03*
X143969000Y-91000000D03*
X144969000Y-91000000D03*
X145969000Y-91000000D03*
X146969000Y-91000000D03*
X147969000Y-91000000D03*
D12*
X148969000Y-89000000D03*
X148969000Y-88000000D03*
X148969000Y-87000000D03*
X148969000Y-86000000D03*
X148969000Y-85000000D03*
X148969000Y-84000000D03*
X148969000Y-83000000D03*
D11*
X147969000Y-81000000D03*
X146969000Y-81000000D03*
X145969000Y-81000000D03*
X144969000Y-81000000D03*
X143969000Y-81000000D03*
X142969000Y-81000000D03*
X141969000Y-81000000D03*
X140969000Y-81000000D03*
X139969000Y-81000000D03*
%TD*%
D10*
%TO.C,REF\u002A\u002A*%
X120200000Y-35200000D03*
%TD*%
%TO.C,REF\u002A\u002A*%
X135300000Y-87500000D03*
%TD*%
%TO.C,REF\u002A\u002A*%
X135300000Y-70500000D03*
%TD*%
%TO.C,REF\u002A\u002A*%
X165100000Y-69500000D03*
%TD*%
%TO.C,REF\u002A\u002A*%
X117200000Y-35200000D03*
%TD*%
%TO.C,REF\u002A\u002A*%
X131900000Y-39500000D03*
%TD*%
%TO.C,REF\u002A\u002A*%
X135300000Y-27500000D03*
%TD*%
%TO.C,REF\u002A\u002A*%
X147000000Y-35200000D03*
%TD*%
%TO.C,REF\u002A\u002A*%
X179800000Y-46800000D03*
%TD*%
D11*
%TO.C,U1*%
X169769000Y-76000000D03*
X170769000Y-76000000D03*
X171769000Y-76000000D03*
X172769000Y-76000000D03*
X173769000Y-76000000D03*
X174769000Y-76000000D03*
X175769000Y-76000000D03*
X176769000Y-76000000D03*
X177769000Y-76000000D03*
D12*
X178769000Y-74000000D03*
X178769000Y-73000000D03*
X178769000Y-72000000D03*
X178769000Y-71000000D03*
X178769000Y-70000000D03*
X178769000Y-69000000D03*
X178769000Y-68000000D03*
D11*
X177769000Y-66000000D03*
X176769000Y-66000000D03*
X175769000Y-66000000D03*
X174769000Y-66000000D03*
X173769000Y-66000000D03*
X172769000Y-66000000D03*
X171769000Y-66000000D03*
X170769000Y-66000000D03*
X169769000Y-66000000D03*
%TD*%
D10*
%TO.C,REF\u002A\u002A*%
X118200000Y-31800000D03*
%TD*%
%TO.C,REF\u002A\u002A*%
X147000000Y-46800000D03*
%TD*%
%TO.C,REF\u002A\u002A*%
X161700000Y-26500000D03*
%TD*%
%TO.C,REF\u002A\u002A*%
X161700000Y-41500000D03*
%TD*%
%TO.C,REF\u002A\u002A*%
X161700000Y-39500000D03*
%TD*%
%TO.C,REF\u002A\u002A*%
X150000000Y-46800000D03*
%TD*%
%TO.C,REF\u002A\u002A*%
X178800000Y-80200000D03*
%TD*%
%TO.C,REF\u002A\u002A*%
X131900000Y-41500000D03*
%TD*%
%TO.C,REF\u002A\u002A*%
X178800000Y-35200000D03*
%TD*%
%TO.C,REF\u002A\u002A*%
X131900000Y-87500000D03*
%TD*%
%TO.C,REF\u002A\u002A*%
X177800000Y-31800000D03*
%TD*%
%TO.C,REF\u002A\u002A*%
X161700000Y-86500000D03*
%TD*%
%TO.C,REF\u002A\u002A*%
X149000000Y-31800000D03*
%TD*%
%TO.C,REF\u002A\u002A*%
X131900000Y-72500000D03*
%TD*%
%TO.C,REF\u002A\u002A*%
X131900000Y-69500000D03*
%TD*%
%TO.C,REF\u002A\u002A*%
X131900000Y-40500000D03*
%TD*%
%TO.C,REF\u002A\u002A*%
X148000000Y-46800000D03*
%TD*%
%TO.C,REF\u002A\u002A*%
X117200000Y-61800000D03*
%TD*%
%TO.C,REF\u002A\u002A*%
X119200000Y-46800000D03*
%TD*%
%TO.C,REF\u002A\u002A*%
X161700000Y-85500000D03*
%TD*%
%TO.C,REF\u002A\u002A*%
X165100000Y-55500000D03*
%TD*%
D11*
%TO.C,U1*%
X139969000Y-46000000D03*
X140969000Y-46000000D03*
X141969000Y-46000000D03*
X142969000Y-46000000D03*
X143969000Y-46000000D03*
X144969000Y-46000000D03*
X145969000Y-46000000D03*
X146969000Y-46000000D03*
X147969000Y-46000000D03*
D12*
X148969000Y-44000000D03*
X148969000Y-43000000D03*
X148969000Y-42000000D03*
X148969000Y-41000000D03*
X148969000Y-40000000D03*
X148969000Y-39000000D03*
X148969000Y-38000000D03*
D11*
X147969000Y-36000000D03*
X146969000Y-36000000D03*
X145969000Y-36000000D03*
X144969000Y-36000000D03*
X143969000Y-36000000D03*
X142969000Y-36000000D03*
X141969000Y-36000000D03*
X140969000Y-36000000D03*
X139969000Y-36000000D03*
%TD*%
D10*
%TO.C,REF\u002A\u002A*%
X120200000Y-76800000D03*
%TD*%
%TO.C,REF\u002A\u002A*%
X119200000Y-80200000D03*
%TD*%
%TO.C,REF\u002A\u002A*%
X148000000Y-61800000D03*
%TD*%
%TO.C,REF\u002A\u002A*%
X178800000Y-65200000D03*
%TD*%
%TO.C,REF\u002A\u002A*%
X148000000Y-35200000D03*
%TD*%
%TO.C,REF\u002A\u002A*%
X165100000Y-24500000D03*
%TD*%
%TO.C,REF\u002A\u002A*%
X118200000Y-46800000D03*
%TD*%
%TO.C,REF\u002A\u002A*%
X165100000Y-26500000D03*
%TD*%
%TO.C,REF\u002A\u002A*%
X161700000Y-71500000D03*
%TD*%
%TO.C,REF\u002A\u002A*%
X147000000Y-65200000D03*
%TD*%
%TO.C,REF\u002A\u002A*%
X135300000Y-69500000D03*
%TD*%
%TO.C,REF\u002A\u002A*%
X176800000Y-76800000D03*
%TD*%
%TO.C,REF\u002A\u002A*%
X131900000Y-86500000D03*
%TD*%
%TO.C,REF\u002A\u002A*%
X118200000Y-76800000D03*
%TD*%
%TO.C,REF\u002A\u002A*%
X149000000Y-80200000D03*
%TD*%
%TO.C,REF\u002A\u002A*%
X120200000Y-50200000D03*
%TD*%
%TO.C,REF\u002A\u002A*%
X178800000Y-61800000D03*
%TD*%
%TO.C,REF\u002A\u002A*%
X118200000Y-80200000D03*
%TD*%
%TO.C,REF\u002A\u002A*%
X131900000Y-57500000D03*
%TD*%
%TO.C,REF\u002A\u002A*%
X135300000Y-25500000D03*
%TD*%
%TO.C,REF\u002A\u002A*%
X147000000Y-31800000D03*
%TD*%
%TO.C,REF\u002A\u002A*%
X179800000Y-35200000D03*
%TD*%
%TO.C,REF\u002A\u002A*%
X135300000Y-86500000D03*
%TD*%
%TO.C,REF\u002A\u002A*%
X148000000Y-31800000D03*
%TD*%
%TO.C,REF\u002A\u002A*%
X135300000Y-39500000D03*
%TD*%
%TO.C,REF\u002A\u002A*%
X161700000Y-87500000D03*
%TD*%
D11*
%TO.C,U1*%
X110169000Y-61000000D03*
X111169000Y-61000000D03*
X112169000Y-61000000D03*
X113169000Y-61000000D03*
X114169000Y-61000000D03*
X115169000Y-61000000D03*
X116169000Y-61000000D03*
X117169000Y-61000000D03*
X118169000Y-61000000D03*
D12*
X119169000Y-59000000D03*
X119169000Y-58000000D03*
X119169000Y-57000000D03*
X119169000Y-56000000D03*
X119169000Y-55000000D03*
X119169000Y-54000000D03*
X119169000Y-53000000D03*
D11*
X118169000Y-51000000D03*
X117169000Y-51000000D03*
X116169000Y-51000000D03*
X115169000Y-51000000D03*
X114169000Y-51000000D03*
X113169000Y-51000000D03*
X112169000Y-51000000D03*
X111169000Y-51000000D03*
X110169000Y-51000000D03*
%TD*%
D10*
%TO.C,REF\u002A\u002A*%
X177800000Y-65200000D03*
%TD*%
%TO.C,REF\u002A\u002A*%
X177800000Y-76800000D03*
%TD*%
%TO.C,REF\u002A\u002A*%
X161700000Y-25500000D03*
%TD*%
%TO.C,REF\u002A\u002A*%
X135300000Y-26500000D03*
%TD*%
%TO.C,REF\u002A\u002A*%
X161700000Y-42500000D03*
%TD*%
%TO.C,REF\u002A\u002A*%
X149000000Y-46800000D03*
%TD*%
%TO.C,REF\u002A\u002A*%
X150000000Y-61800000D03*
%TD*%
%TO.C,REF\u002A\u002A*%
X131900000Y-26500000D03*
%TD*%
%TO.C,REF\u002A\u002A*%
X178800000Y-76800000D03*
%TD*%
%TO.C,REF\u002A\u002A*%
X177800000Y-61800000D03*
%TD*%
%TO.C,REF\u002A\u002A*%
X150000000Y-80200000D03*
%TD*%
%TO.C,REF\u002A\u002A*%
X161700000Y-54500000D03*
%TD*%
%TO.C,REF\u002A\u002A*%
X179800000Y-80200000D03*
%TD*%
%TO.C,REF\u002A\u002A*%
X165100000Y-72500000D03*
%TD*%
%TO.C,REF\u002A\u002A*%
X165100000Y-25500000D03*
%TD*%
%TO.C,REF\u002A\u002A*%
X161700000Y-40500000D03*
%TD*%
%TO.C,REF\u002A\u002A*%
X179800000Y-76800000D03*
%TD*%
%TO.C,REF\u002A\u002A*%
X119200000Y-50200000D03*
%TD*%
%TO.C,REF\u002A\u002A*%
X118200000Y-50200000D03*
%TD*%
%TO.C,REF\u002A\u002A*%
X119200000Y-35200000D03*
%TD*%
%TO.C,REF\u002A\u002A*%
X161700000Y-70500000D03*
%TD*%
%TO.C,REF\u002A\u002A*%
X150000000Y-35200000D03*
%TD*%
%TO.C,REF\u002A\u002A*%
X161700000Y-69500000D03*
%TD*%
%TO.C,REF\u002A\u002A*%
X177800000Y-80200000D03*
%TD*%
%TO.C,REF\u002A\u002A*%
X117200000Y-80200000D03*
%TD*%
%TO.C,REF\u002A\u002A*%
X165100000Y-86500000D03*
%TD*%
%TO.C,REF\u002A\u002A*%
X135300000Y-24500000D03*
%TD*%
%TO.C,REF\u002A\u002A*%
X179800000Y-65200000D03*
%TD*%
%TO.C,REF\u002A\u002A*%
X176800000Y-50200000D03*
%TD*%
%TO.C,REF\u002A\u002A*%
X176800000Y-35200000D03*
%TD*%
%TO.C,REF\u002A\u002A*%
X131900000Y-55500000D03*
%TD*%
%TO.C,REF\u002A\u002A*%
X117200000Y-76800000D03*
%TD*%
%TO.C,REF\u002A\u002A*%
X147000000Y-50200000D03*
%TD*%
D11*
%TO.C,U1*%
X139969000Y-76000000D03*
X140969000Y-76000000D03*
X141969000Y-76000000D03*
X142969000Y-76000000D03*
X143969000Y-76000000D03*
X144969000Y-76000000D03*
X145969000Y-76000000D03*
X146969000Y-76000000D03*
X147969000Y-76000000D03*
D12*
X148969000Y-74000000D03*
X148969000Y-73000000D03*
X148969000Y-72000000D03*
X148969000Y-71000000D03*
X148969000Y-70000000D03*
X148969000Y-69000000D03*
X148969000Y-68000000D03*
D11*
X147969000Y-66000000D03*
X146969000Y-66000000D03*
X145969000Y-66000000D03*
X144969000Y-66000000D03*
X143969000Y-66000000D03*
X142969000Y-66000000D03*
X141969000Y-66000000D03*
X140969000Y-66000000D03*
X139969000Y-66000000D03*
%TD*%
D10*
%TO.C,REF\u002A\u002A*%
X135300000Y-71500000D03*
%TD*%
%TO.C,REF\u002A\u002A*%
X120200000Y-61800000D03*
%TD*%
D11*
%TO.C,U1*%
X110169000Y-91000000D03*
X111169000Y-91000000D03*
X112169000Y-91000000D03*
X113169000Y-91000000D03*
X114169000Y-91000000D03*
X115169000Y-91000000D03*
X116169000Y-91000000D03*
X117169000Y-91000000D03*
X118169000Y-91000000D03*
D12*
X119169000Y-89000000D03*
X119169000Y-88000000D03*
X119169000Y-87000000D03*
X119169000Y-86000000D03*
X119169000Y-85000000D03*
X119169000Y-84000000D03*
X119169000Y-83000000D03*
D11*
X118169000Y-81000000D03*
X117169000Y-81000000D03*
X116169000Y-81000000D03*
X115169000Y-81000000D03*
X114169000Y-81000000D03*
X113169000Y-81000000D03*
X112169000Y-81000000D03*
X111169000Y-81000000D03*
X110169000Y-81000000D03*
%TD*%
D10*
%TO.C,REF\u002A\u002A*%
X177800000Y-46800000D03*
%TD*%
%TO.C,REF\u002A\u002A*%
X165100000Y-54500000D03*
%TD*%
%TO.C,REF\u002A\u002A*%
X165100000Y-27500000D03*
%TD*%
%TO.C,REF\u002A\u002A*%
X161700000Y-24500000D03*
%TD*%
%TO.C,REF\u002A\u002A*%
X149000000Y-76800000D03*
%TD*%
%TO.C,REF\u002A\u002A*%
X117200000Y-50200000D03*
%TD*%
%TO.C,REF\u002A\u002A*%
X117200000Y-46800000D03*
%TD*%
%TO.C,REF\u002A\u002A*%
X148000000Y-76800000D03*
%TD*%
%TO.C,REF\u002A\u002A*%
X131900000Y-70500000D03*
%TD*%
%TO.C,REF\u002A\u002A*%
X165100000Y-41500000D03*
%TD*%
%TO.C,REF\u002A\u002A*%
X135300000Y-85500000D03*
%TD*%
D11*
%TO.C,U1*%
X169769000Y-61000000D03*
X170769000Y-61000000D03*
X171769000Y-61000000D03*
X172769000Y-61000000D03*
X173769000Y-61000000D03*
X174769000Y-61000000D03*
X175769000Y-61000000D03*
X176769000Y-61000000D03*
X177769000Y-61000000D03*
D12*
X178769000Y-59000000D03*
X178769000Y-58000000D03*
X178769000Y-57000000D03*
X178769000Y-56000000D03*
X178769000Y-55000000D03*
X178769000Y-54000000D03*
X178769000Y-53000000D03*
D11*
X177769000Y-51000000D03*
X176769000Y-51000000D03*
X175769000Y-51000000D03*
X174769000Y-51000000D03*
X173769000Y-51000000D03*
X172769000Y-51000000D03*
X171769000Y-51000000D03*
X170769000Y-51000000D03*
X169769000Y-51000000D03*
%TD*%
D10*
%TO.C,REF\u002A\u002A*%
X119200000Y-76800000D03*
%TD*%
D11*
%TO.C,U1*%
X169769000Y-31000000D03*
X170769000Y-31000000D03*
X171769000Y-31000000D03*
X172769000Y-31000000D03*
X173769000Y-31000000D03*
X174769000Y-31000000D03*
X175769000Y-31000000D03*
X176769000Y-31000000D03*
X177769000Y-31000000D03*
D12*
X178769000Y-29000000D03*
X178769000Y-28000000D03*
X178769000Y-27000000D03*
X178769000Y-26000000D03*
X178769000Y-25000000D03*
X178769000Y-24000000D03*
X178769000Y-23000000D03*
D11*
X177769000Y-21000000D03*
X176769000Y-21000000D03*
X175769000Y-21000000D03*
X174769000Y-21000000D03*
X173769000Y-21000000D03*
X172769000Y-21000000D03*
X171769000Y-21000000D03*
X170769000Y-21000000D03*
X169769000Y-21000000D03*
%TD*%
D10*
%TO.C,REF\u002A\u002A*%
X131900000Y-56500000D03*
%TD*%
%TO.C,REF\u002A\u002A*%
X148000000Y-50200000D03*
%TD*%
D11*
%TO.C,U1*%
X169769000Y-46000000D03*
X170769000Y-46000000D03*
X171769000Y-46000000D03*
X172769000Y-46000000D03*
X173769000Y-46000000D03*
X174769000Y-46000000D03*
X175769000Y-46000000D03*
X176769000Y-46000000D03*
X177769000Y-46000000D03*
D12*
X178769000Y-44000000D03*
X178769000Y-43000000D03*
X178769000Y-42000000D03*
X178769000Y-41000000D03*
X178769000Y-40000000D03*
X178769000Y-39000000D03*
X178769000Y-38000000D03*
D11*
X177769000Y-36000000D03*
X176769000Y-36000000D03*
X175769000Y-36000000D03*
X174769000Y-36000000D03*
X173769000Y-36000000D03*
X172769000Y-36000000D03*
X171769000Y-36000000D03*
X170769000Y-36000000D03*
X169769000Y-36000000D03*
%TD*%
D10*
%TO.C,REF\u002A\u002A*%
X179800000Y-61800000D03*
%TD*%
%TO.C,REF\u002A\u002A*%
X131900000Y-24500000D03*
%TD*%
%TO.C,REF\u002A\u002A*%
X165100000Y-84500000D03*
%TD*%
%TO.C,REF\u002A\u002A*%
X131900000Y-84500000D03*
%TD*%
%TO.C,REF\u002A\u002A*%
X118200000Y-65200000D03*
%TD*%
%TO.C,REF\u002A\u002A*%
X149000000Y-35200000D03*
%TD*%
%TO.C,REF\u002A\u002A*%
X131900000Y-54500000D03*
%TD*%
%TO.C,REF\u002A\u002A*%
X165100000Y-87500000D03*
%TD*%
%TO.C,REF\u002A\u002A*%
X135300000Y-55500000D03*
%TD*%
%TO.C,REF\u002A\u002A*%
X176800000Y-80200000D03*
%TD*%
%TO.C,REF\u002A\u002A*%
X131900000Y-27500000D03*
%TD*%
%TO.C,REF\u002A\u002A*%
X148000000Y-80200000D03*
%TD*%
%TO.C,REF\u002A\u002A*%
X150000000Y-65200000D03*
%TD*%
%TO.C,REF\u002A\u002A*%
X149000000Y-50200000D03*
%TD*%
D11*
%TO.C,U1*%
X110169000Y-46000000D03*
X111169000Y-46000000D03*
X112169000Y-46000000D03*
X113169000Y-46000000D03*
X114169000Y-46000000D03*
X115169000Y-46000000D03*
X116169000Y-46000000D03*
X117169000Y-46000000D03*
X118169000Y-46000000D03*
D12*
X119169000Y-44000000D03*
X119169000Y-43000000D03*
X119169000Y-42000000D03*
X119169000Y-41000000D03*
X119169000Y-40000000D03*
X119169000Y-39000000D03*
X119169000Y-38000000D03*
D11*
X118169000Y-36000000D03*
X117169000Y-36000000D03*
X116169000Y-36000000D03*
X115169000Y-36000000D03*
X114169000Y-36000000D03*
X113169000Y-36000000D03*
X112169000Y-36000000D03*
X111169000Y-36000000D03*
X110169000Y-36000000D03*
%TD*%
D10*
%TO.C,REF\u002A\u002A*%
X131900000Y-71500000D03*
%TD*%
%TO.C,REF\u002A\u002A*%
X117200000Y-65200000D03*
%TD*%
%TO.C,REF\u002A\u002A*%
X161700000Y-27500000D03*
%TD*%
%TO.C,REF\u002A\u002A*%
X147000000Y-76800000D03*
%TD*%
%TO.C,REF\u002A\u002A*%
X120200000Y-65200000D03*
%TD*%
%TO.C,REF\u002A\u002A*%
X176800000Y-65200000D03*
%TD*%
%TO.C,REF\u002A\u002A*%
X131900000Y-25500000D03*
%TD*%
%TO.C,REF\u002A\u002A*%
X165100000Y-85500000D03*
%TD*%
%TO.C,REF\u002A\u002A*%
X161700000Y-56500000D03*
%TD*%
D13*
%TO.C,C2*%
X171200000Y-53200000D03*
X171200000Y-55100000D03*
%TD*%
D14*
%TO.C,U3*%
X176987500Y-52600000D03*
D15*
X176900000Y-54100000D03*
D14*
X176987500Y-55600000D03*
%TD*%
D16*
%TO.C,U2*%
X142825000Y-42650000D03*
X142825000Y-43600000D03*
X142825000Y-44550000D03*
X140550000Y-44550000D03*
X140550000Y-42650000D03*
%TD*%
%TO.C,U2*%
X113025000Y-72650000D03*
X113025000Y-73600000D03*
X113025000Y-74550000D03*
X110750000Y-74550000D03*
X110750000Y-72650000D03*
%TD*%
D13*
%TO.C,C2*%
X111600000Y-38200000D03*
X111600000Y-40100000D03*
%TD*%
D17*
%TO.C,SW2*%
X107650000Y-29625000D03*
X107650000Y-21875000D03*
%TD*%
D18*
%TO.C,C1*%
X117137500Y-89000000D03*
X115062500Y-89000000D03*
%TD*%
D17*
%TO.C,SW2*%
X107650000Y-44625000D03*
X107650000Y-36875000D03*
%TD*%
D14*
%TO.C,U3*%
X176987500Y-37600000D03*
D15*
X176900000Y-39100000D03*
D14*
X176987500Y-40600000D03*
%TD*%
%TO.C,U3*%
X147187500Y-37600000D03*
D15*
X147100000Y-39100000D03*
D14*
X147187500Y-40600000D03*
%TD*%
D16*
%TO.C,U2*%
X142825000Y-87650000D03*
X142825000Y-88600000D03*
X142825000Y-89550000D03*
X140550000Y-89550000D03*
X140550000Y-87650000D03*
%TD*%
D13*
%TO.C,C2*%
X171200000Y-83200000D03*
X171200000Y-85100000D03*
%TD*%
%TO.C,C2*%
X141400000Y-53200000D03*
X141400000Y-55100000D03*
%TD*%
D18*
%TO.C,C1*%
X117137500Y-44000000D03*
X115062500Y-44000000D03*
%TD*%
D13*
%TO.C,C2*%
X171200000Y-68200000D03*
X171200000Y-70100000D03*
%TD*%
%TO.C,C2*%
X111600000Y-23200000D03*
X111600000Y-25100000D03*
%TD*%
D17*
%TO.C,SW2*%
X167250000Y-89625000D03*
X167250000Y-81875000D03*
%TD*%
D13*
%TO.C,C2*%
X141400000Y-23200000D03*
X141400000Y-25100000D03*
%TD*%
D16*
%TO.C,U2*%
X113025000Y-57650000D03*
X113025000Y-58600000D03*
X113025000Y-59550000D03*
X110750000Y-59550000D03*
X110750000Y-57650000D03*
%TD*%
D13*
%TO.C,C2*%
X111600000Y-68200000D03*
X111600000Y-70100000D03*
%TD*%
D18*
%TO.C,C1*%
X176737500Y-29000000D03*
X174662500Y-29000000D03*
%TD*%
%TO.C,C1*%
X146937500Y-29000000D03*
X144862500Y-29000000D03*
%TD*%
%TO.C,C1*%
X146937500Y-74000000D03*
X144862500Y-74000000D03*
%TD*%
%TO.C,C1*%
X117137500Y-29000000D03*
X115062500Y-29000000D03*
%TD*%
D14*
%TO.C,U3*%
X176987500Y-22600000D03*
D15*
X176900000Y-24100000D03*
D14*
X176987500Y-25600000D03*
%TD*%
%TO.C,U3*%
X176987500Y-82600000D03*
D15*
X176900000Y-84100000D03*
D14*
X176987500Y-85600000D03*
%TD*%
D17*
%TO.C,SW2*%
X137450000Y-59625000D03*
X137450000Y-51875000D03*
%TD*%
D16*
%TO.C,U2*%
X172625000Y-72650000D03*
X172625000Y-73600000D03*
X172625000Y-74550000D03*
X170350000Y-74550000D03*
X170350000Y-72650000D03*
%TD*%
D18*
%TO.C,C1*%
X176737500Y-59000000D03*
X174662500Y-59000000D03*
%TD*%
%TO.C,C1*%
X117137500Y-59000000D03*
X115062500Y-59000000D03*
%TD*%
D13*
%TO.C,C2*%
X141400000Y-83200000D03*
X141400000Y-85100000D03*
%TD*%
D14*
%TO.C,U3*%
X147187500Y-22600000D03*
D15*
X147100000Y-24100000D03*
D14*
X147187500Y-25600000D03*
%TD*%
D17*
%TO.C,SW2*%
X137450000Y-89625000D03*
X137450000Y-81875000D03*
%TD*%
D16*
%TO.C,U2*%
X142825000Y-57650000D03*
X142825000Y-58600000D03*
X142825000Y-59550000D03*
X140550000Y-59550000D03*
X140550000Y-57650000D03*
%TD*%
%TO.C,U2*%
X172625000Y-42650000D03*
X172625000Y-43600000D03*
X172625000Y-44550000D03*
X170350000Y-44550000D03*
X170350000Y-42650000D03*
%TD*%
D17*
%TO.C,SW2*%
X137450000Y-29625000D03*
X137450000Y-21875000D03*
%TD*%
D16*
%TO.C,U2*%
X142825000Y-27650000D03*
X142825000Y-28600000D03*
X142825000Y-29550000D03*
X140550000Y-29550000D03*
X140550000Y-27650000D03*
%TD*%
%TO.C,U2*%
X113025000Y-87650000D03*
X113025000Y-88600000D03*
X113025000Y-89550000D03*
X110750000Y-89550000D03*
X110750000Y-87650000D03*
%TD*%
D13*
%TO.C,C2*%
X141400000Y-38200000D03*
X141400000Y-40100000D03*
%TD*%
D17*
%TO.C,SW2*%
X107650000Y-74625000D03*
X107650000Y-66875000D03*
%TD*%
D18*
%TO.C,C1*%
X146937500Y-59000000D03*
X144862500Y-59000000D03*
%TD*%
D16*
%TO.C,U2*%
X172625000Y-27650000D03*
X172625000Y-28600000D03*
X172625000Y-29550000D03*
X170350000Y-29550000D03*
X170350000Y-27650000D03*
%TD*%
D14*
%TO.C,U3*%
X147187500Y-67600000D03*
D15*
X147100000Y-69100000D03*
D14*
X147187500Y-70600000D03*
%TD*%
D16*
%TO.C,U2*%
X113025000Y-42650000D03*
X113025000Y-43600000D03*
X113025000Y-44550000D03*
X110750000Y-44550000D03*
X110750000Y-42650000D03*
%TD*%
%TO.C,U2*%
X172625000Y-57650000D03*
X172625000Y-58600000D03*
X172625000Y-59550000D03*
X170350000Y-59550000D03*
X170350000Y-57650000D03*
%TD*%
D17*
%TO.C,SW2*%
X107650000Y-89625000D03*
X107650000Y-81875000D03*
%TD*%
D14*
%TO.C,U3*%
X117387500Y-37600000D03*
D15*
X117300000Y-39100000D03*
D14*
X117387500Y-40600000D03*
%TD*%
D18*
%TO.C,C1*%
X146937500Y-89000000D03*
X144862500Y-89000000D03*
%TD*%
D17*
%TO.C,SW2*%
X137450000Y-44625000D03*
X137450000Y-36875000D03*
%TD*%
D18*
%TO.C,C1*%
X176737500Y-89000000D03*
X174662500Y-89000000D03*
%TD*%
D13*
%TO.C,C2*%
X141400000Y-68200000D03*
X141400000Y-70100000D03*
%TD*%
D17*
%TO.C,SW2*%
X167250000Y-29625000D03*
X167250000Y-21875000D03*
%TD*%
D14*
%TO.C,U3*%
X147187500Y-82600000D03*
D15*
X147100000Y-84100000D03*
D14*
X147187500Y-85600000D03*
%TD*%
D17*
%TO.C,SW2*%
X167250000Y-59625000D03*
X167250000Y-51875000D03*
%TD*%
D14*
%TO.C,U3*%
X117387500Y-22600000D03*
D15*
X117300000Y-24100000D03*
D14*
X117387500Y-25600000D03*
%TD*%
D16*
%TO.C,U2*%
X172625000Y-87650000D03*
X172625000Y-88600000D03*
X172625000Y-89550000D03*
X170350000Y-89550000D03*
X170350000Y-87650000D03*
%TD*%
D13*
%TO.C,C2*%
X171200000Y-23200000D03*
X171200000Y-25100000D03*
%TD*%
D16*
%TO.C,U2*%
X113025000Y-27650000D03*
X113025000Y-28600000D03*
X113025000Y-29550000D03*
X110750000Y-29550000D03*
X110750000Y-27650000D03*
%TD*%
%TO.C,U2*%
X142825000Y-72650000D03*
X142825000Y-73600000D03*
X142825000Y-74550000D03*
X140550000Y-74550000D03*
X140550000Y-72650000D03*
%TD*%
D13*
%TO.C,C2*%
X111600000Y-83200000D03*
X111600000Y-85100000D03*
%TD*%
%TO.C,C2*%
X111600000Y-53200000D03*
X111600000Y-55100000D03*
%TD*%
D14*
%TO.C,U3*%
X117387500Y-67600000D03*
D15*
X117300000Y-69100000D03*
D14*
X117387500Y-70600000D03*
%TD*%
%TO.C,U3*%
X176987500Y-67600000D03*
D15*
X176900000Y-69100000D03*
D14*
X176987500Y-70600000D03*
%TD*%
D18*
%TO.C,C1*%
X176737500Y-74000000D03*
X174662500Y-74000000D03*
%TD*%
%TO.C,C1*%
X117137500Y-74000000D03*
X115062500Y-74000000D03*
%TD*%
D17*
%TO.C,SW2*%
X167250000Y-44625000D03*
X167250000Y-36875000D03*
%TD*%
D18*
%TO.C,C1*%
X146937500Y-44000000D03*
X144862500Y-44000000D03*
%TD*%
D14*
%TO.C,U3*%
X117387500Y-82600000D03*
D15*
X117300000Y-84100000D03*
D14*
X117387500Y-85600000D03*
%TD*%
%TO.C,U3*%
X147187500Y-52600000D03*
D15*
X147100000Y-54100000D03*
D14*
X147187500Y-55600000D03*
%TD*%
D13*
%TO.C,C2*%
X171200000Y-38200000D03*
X171200000Y-40100000D03*
%TD*%
D17*
%TO.C,SW2*%
X137450000Y-74625000D03*
X137450000Y-66875000D03*
%TD*%
D14*
%TO.C,U3*%
X117387500Y-52600000D03*
D15*
X117300000Y-54100000D03*
D14*
X117387500Y-55600000D03*
%TD*%
D17*
%TO.C,SW2*%
X167250000Y-74625000D03*
X167250000Y-66875000D03*
%TD*%
%TO.C,SW2*%
X107650000Y-59625000D03*
X107650000Y-51875000D03*
%TD*%
D18*
%TO.C,C1*%
X176737500Y-44000000D03*
X174662500Y-44000000D03*
%TD*%
M02*
