%TF.GenerationSoftware,KiCad,Pcbnew,7.0.2-0*%
%TF.CreationDate,2023-08-30T00:09:34-06:00*%
%TF.ProjectId,panel,70616e65-6c2e-46b6-9963-61645f706362,rev?*%
%TF.SameCoordinates,Original*%
%TF.FileFunction,Copper,L2,Bot*%
%TF.FilePolarity,Positive*%
%FSLAX46Y46*%
G04 Gerber Fmt 4.6, Leading zero omitted, Abs format (unit mm)*
G04 Created by KiCad (PCBNEW 7.0.2-0) date 2023-08-30 00:09:34*
%MOMM*%
%LPD*%
G01*
G04 APERTURE LIST*
G04 Aperture macros list*
%AMRoundRect*
0 Rectangle with rounded corners*
0 $1 Rounding radius*
0 $2 $3 $4 $5 $6 $7 $8 $9 X,Y pos of 4 corners*
0 Add a 4 corners polygon primitive as box body*
4,1,4,$2,$3,$4,$5,$6,$7,$8,$9,$2,$3,0*
0 Add four circle primitives for the rounded corners*
1,1,$1+$1,$2,$3*
1,1,$1+$1,$4,$5*
1,1,$1+$1,$6,$7*
1,1,$1+$1,$8,$9*
0 Add four rect primitives between the rounded corners*
20,1,$1+$1,$2,$3,$4,$5,0*
20,1,$1+$1,$4,$5,$6,$7,0*
20,1,$1+$1,$6,$7,$8,$9,0*
20,1,$1+$1,$8,$9,$2,$3,0*%
%AMFreePoly0*
4,1,9,3.862500,-0.866500,0.737500,-0.866500,0.737500,-0.450000,-0.737500,-0.450000,-0.737500,0.450000,0.737500,0.450000,0.737500,0.866500,3.862500,0.866500,3.862500,-0.866500,3.862500,-0.866500,$1*%
G04 Aperture macros list end*
%TA.AperFunction,ComponentPad*%
%ADD10RoundRect,0.190500X0.190500X-0.571500X0.190500X0.571500X-0.190500X0.571500X-0.190500X-0.571500X0*%
%TD*%
%TA.AperFunction,ComponentPad*%
%ADD11RoundRect,0.190500X0.571500X0.190500X-0.571500X0.190500X-0.571500X-0.190500X0.571500X-0.190500X0*%
%TD*%
%TA.AperFunction,SMDPad,CuDef*%
%ADD12RoundRect,0.250000X-0.475000X0.250000X-0.475000X-0.250000X0.475000X-0.250000X0.475000X0.250000X0*%
%TD*%
%TA.AperFunction,SMDPad,CuDef*%
%ADD13R,1.300000X0.900000*%
%TD*%
%TA.AperFunction,SMDPad,CuDef*%
%ADD14FreePoly0,180.000000*%
%TD*%
%TA.AperFunction,SMDPad,CuDef*%
%ADD15RoundRect,0.150000X0.512500X0.150000X-0.512500X0.150000X-0.512500X-0.150000X0.512500X-0.150000X0*%
%TD*%
%TA.AperFunction,SMDPad,CuDef*%
%ADD16R,1.000000X1.250000*%
%TD*%
%TA.AperFunction,SMDPad,CuDef*%
%ADD17RoundRect,0.250000X0.337500X0.475000X-0.337500X0.475000X-0.337500X-0.475000X0.337500X-0.475000X0*%
%TD*%
%TA.AperFunction,ViaPad*%
%ADD18C,0.800000*%
%TD*%
%TA.AperFunction,Conductor*%
%ADD19C,0.250000*%
%TD*%
G04 APERTURE END LIST*
D10*
%TO.P,U1,1,GND*%
%TO.N,Board_1-GND*%
X139969000Y-31000000D03*
%TO.P,U1,2,VDD3V3*%
%TO.N,Board_1-vcc33*%
X140969000Y-31000000D03*
%TO.P,U1,3,CHIP_EN*%
%TO.N,Board_1-unconnected-(U1-CHIP_EN-Pad3)*%
X141969000Y-31000000D03*
%TO.P,U1,4,GPIO10*%
%TO.N,Board_1-unconnected-(U1-GPIO10-Pad4)*%
X142969000Y-31000000D03*
%TO.P,U1,5,GPIO11*%
%TO.N,Board_1-unconnected-(U1-GPIO11-Pad5)*%
X143969000Y-31000000D03*
%TO.P,U1,6,GPIO12*%
%TO.N,Board_1-unconnected-(U1-GPIO12-Pad6)*%
X144969000Y-31000000D03*
%TO.P,U1,7,GPIO13*%
%TO.N,Board_1-unconnected-(U1-GPIO13-Pad7)*%
X145969000Y-31000000D03*
%TO.P,U1,8,GPIO14*%
%TO.N,Board_1-unconnected-(U1-GPIO14-Pad8)*%
X146969000Y-31000000D03*
%TO.P,U1,9,GPIO15*%
%TO.N,Board_1-unconnected-(U1-GPIO15-Pad9)*%
X147969000Y-31000000D03*
D11*
%TO.P,U1,10,GPIO16*%
%TO.N,Board_1-unconnected-(U1-GPIO16-Pad10)*%
X148969000Y-29000000D03*
%TO.P,U1,11,GPIO17*%
%TO.N,Board_1-unconnected-(U1-GPIO17-Pad11)*%
X148969000Y-28000000D03*
%TO.P,U1,12,USB_DP*%
%TO.N,Board_1-D+*%
X148969000Y-27000000D03*
%TO.P,U1,13,USB_DN*%
%TO.N,Board_1-D-*%
X148969000Y-26000000D03*
%TO.P,U1,14,GPIO20*%
%TO.N,Board_1-unconnected-(U1-GPIO20-Pad14)*%
X148969000Y-25000000D03*
%TO.P,U1,15,GPIO21*%
%TO.N,Board_1-unconnected-(U1-GPIO21-Pad15)*%
X148969000Y-24000000D03*
%TO.P,U1,16,GPIO22*%
%TO.N,Board_1-unconnected-(U1-GPIO22-Pad16)*%
X148969000Y-23000000D03*
D10*
%TO.P,U1,17,GPIO27*%
%TO.N,Board_1-unconnected-(U1-GPIO27-Pad17)*%
X147969000Y-21000000D03*
%TO.P,U1,18,GPIO28*%
%TO.N,Board_1-unconnected-(U1-GPIO28-Pad18)*%
X146969000Y-21000000D03*
%TO.P,U1,19,GPIO29*%
%TO.N,Board_1-unconnected-(U1-GPIO29-Pad19)*%
X145969000Y-21000000D03*
%TO.P,U1,20,GPIO30*%
%TO.N,Board_1-unconnected-(U1-GPIO30-Pad20)*%
X144969000Y-21000000D03*
%TO.P,U1,21,GPIO0*%
%TO.N,Board_1-unconnected-(U1-GPIO0-Pad21)*%
X143969000Y-21000000D03*
%TO.P,U1,22,GPIO1*%
%TO.N,Board_1-unconnected-(U1-GPIO1-Pad22)*%
X142969000Y-21000000D03*
%TO.P,U1,23,GPIO2*%
%TO.N,Board_1-Net-(U1-GPIO2)*%
X141969000Y-21000000D03*
%TO.P,U1,24,GPIO3*%
%TO.N,Board_1-unconnected-(U1-GPIO3-Pad24)*%
X140969000Y-21000000D03*
%TO.P,U1,25,GND*%
%TO.N,Board_1-GND*%
X139969000Y-21000000D03*
%TD*%
%TO.P,U1,1,GND*%
%TO.N,Board_7-GND*%
X139969000Y-61000000D03*
%TO.P,U1,2,VDD3V3*%
%TO.N,Board_7-vcc33*%
X140969000Y-61000000D03*
%TO.P,U1,3,CHIP_EN*%
%TO.N,Board_7-unconnected-(U1-CHIP_EN-Pad3)*%
X141969000Y-61000000D03*
%TO.P,U1,4,GPIO10*%
%TO.N,Board_7-unconnected-(U1-GPIO10-Pad4)*%
X142969000Y-61000000D03*
%TO.P,U1,5,GPIO11*%
%TO.N,Board_7-unconnected-(U1-GPIO11-Pad5)*%
X143969000Y-61000000D03*
%TO.P,U1,6,GPIO12*%
%TO.N,Board_7-unconnected-(U1-GPIO12-Pad6)*%
X144969000Y-61000000D03*
%TO.P,U1,7,GPIO13*%
%TO.N,Board_7-unconnected-(U1-GPIO13-Pad7)*%
X145969000Y-61000000D03*
%TO.P,U1,8,GPIO14*%
%TO.N,Board_7-unconnected-(U1-GPIO14-Pad8)*%
X146969000Y-61000000D03*
%TO.P,U1,9,GPIO15*%
%TO.N,Board_7-unconnected-(U1-GPIO15-Pad9)*%
X147969000Y-61000000D03*
D11*
%TO.P,U1,10,GPIO16*%
%TO.N,Board_7-unconnected-(U1-GPIO16-Pad10)*%
X148969000Y-59000000D03*
%TO.P,U1,11,GPIO17*%
%TO.N,Board_7-unconnected-(U1-GPIO17-Pad11)*%
X148969000Y-58000000D03*
%TO.P,U1,12,USB_DP*%
%TO.N,Board_7-D+*%
X148969000Y-57000000D03*
%TO.P,U1,13,USB_DN*%
%TO.N,Board_7-D-*%
X148969000Y-56000000D03*
%TO.P,U1,14,GPIO20*%
%TO.N,Board_7-unconnected-(U1-GPIO20-Pad14)*%
X148969000Y-55000000D03*
%TO.P,U1,15,GPIO21*%
%TO.N,Board_7-unconnected-(U1-GPIO21-Pad15)*%
X148969000Y-54000000D03*
%TO.P,U1,16,GPIO22*%
%TO.N,Board_7-unconnected-(U1-GPIO22-Pad16)*%
X148969000Y-53000000D03*
D10*
%TO.P,U1,17,GPIO27*%
%TO.N,Board_7-unconnected-(U1-GPIO27-Pad17)*%
X147969000Y-51000000D03*
%TO.P,U1,18,GPIO28*%
%TO.N,Board_7-unconnected-(U1-GPIO28-Pad18)*%
X146969000Y-51000000D03*
%TO.P,U1,19,GPIO29*%
%TO.N,Board_7-unconnected-(U1-GPIO29-Pad19)*%
X145969000Y-51000000D03*
%TO.P,U1,20,GPIO30*%
%TO.N,Board_7-unconnected-(U1-GPIO30-Pad20)*%
X144969000Y-51000000D03*
%TO.P,U1,21,GPIO0*%
%TO.N,Board_7-unconnected-(U1-GPIO0-Pad21)*%
X143969000Y-51000000D03*
%TO.P,U1,22,GPIO1*%
%TO.N,Board_7-unconnected-(U1-GPIO1-Pad22)*%
X142969000Y-51000000D03*
%TO.P,U1,23,GPIO2*%
%TO.N,Board_7-Net-(U1-GPIO2)*%
X141969000Y-51000000D03*
%TO.P,U1,24,GPIO3*%
%TO.N,Board_7-unconnected-(U1-GPIO3-Pad24)*%
X140969000Y-51000000D03*
%TO.P,U1,25,GND*%
%TO.N,Board_7-GND*%
X139969000Y-51000000D03*
%TD*%
%TO.P,U1,1,GND*%
%TO.N,Board_14-GND*%
X169769000Y-91000000D03*
%TO.P,U1,2,VDD3V3*%
%TO.N,Board_14-vcc33*%
X170769000Y-91000000D03*
%TO.P,U1,3,CHIP_EN*%
%TO.N,Board_14-unconnected-(U1-CHIP_EN-Pad3)*%
X171769000Y-91000000D03*
%TO.P,U1,4,GPIO10*%
%TO.N,Board_14-unconnected-(U1-GPIO10-Pad4)*%
X172769000Y-91000000D03*
%TO.P,U1,5,GPIO11*%
%TO.N,Board_14-unconnected-(U1-GPIO11-Pad5)*%
X173769000Y-91000000D03*
%TO.P,U1,6,GPIO12*%
%TO.N,Board_14-unconnected-(U1-GPIO12-Pad6)*%
X174769000Y-91000000D03*
%TO.P,U1,7,GPIO13*%
%TO.N,Board_14-unconnected-(U1-GPIO13-Pad7)*%
X175769000Y-91000000D03*
%TO.P,U1,8,GPIO14*%
%TO.N,Board_14-unconnected-(U1-GPIO14-Pad8)*%
X176769000Y-91000000D03*
%TO.P,U1,9,GPIO15*%
%TO.N,Board_14-unconnected-(U1-GPIO15-Pad9)*%
X177769000Y-91000000D03*
D11*
%TO.P,U1,10,GPIO16*%
%TO.N,Board_14-unconnected-(U1-GPIO16-Pad10)*%
X178769000Y-89000000D03*
%TO.P,U1,11,GPIO17*%
%TO.N,Board_14-unconnected-(U1-GPIO17-Pad11)*%
X178769000Y-88000000D03*
%TO.P,U1,12,USB_DP*%
%TO.N,Board_14-D+*%
X178769000Y-87000000D03*
%TO.P,U1,13,USB_DN*%
%TO.N,Board_14-D-*%
X178769000Y-86000000D03*
%TO.P,U1,14,GPIO20*%
%TO.N,Board_14-unconnected-(U1-GPIO20-Pad14)*%
X178769000Y-85000000D03*
%TO.P,U1,15,GPIO21*%
%TO.N,Board_14-unconnected-(U1-GPIO21-Pad15)*%
X178769000Y-84000000D03*
%TO.P,U1,16,GPIO22*%
%TO.N,Board_14-unconnected-(U1-GPIO22-Pad16)*%
X178769000Y-83000000D03*
D10*
%TO.P,U1,17,GPIO27*%
%TO.N,Board_14-unconnected-(U1-GPIO27-Pad17)*%
X177769000Y-81000000D03*
%TO.P,U1,18,GPIO28*%
%TO.N,Board_14-unconnected-(U1-GPIO28-Pad18)*%
X176769000Y-81000000D03*
%TO.P,U1,19,GPIO29*%
%TO.N,Board_14-unconnected-(U1-GPIO29-Pad19)*%
X175769000Y-81000000D03*
%TO.P,U1,20,GPIO30*%
%TO.N,Board_14-unconnected-(U1-GPIO30-Pad20)*%
X174769000Y-81000000D03*
%TO.P,U1,21,GPIO0*%
%TO.N,Board_14-unconnected-(U1-GPIO0-Pad21)*%
X173769000Y-81000000D03*
%TO.P,U1,22,GPIO1*%
%TO.N,Board_14-unconnected-(U1-GPIO1-Pad22)*%
X172769000Y-81000000D03*
%TO.P,U1,23,GPIO2*%
%TO.N,Board_14-Net-(U1-GPIO2)*%
X171769000Y-81000000D03*
%TO.P,U1,24,GPIO3*%
%TO.N,Board_14-unconnected-(U1-GPIO3-Pad24)*%
X170769000Y-81000000D03*
%TO.P,U1,25,GND*%
%TO.N,Board_14-GND*%
X169769000Y-81000000D03*
%TD*%
%TO.P,U1,1,GND*%
%TO.N,Board_9-GND*%
X110169000Y-76000000D03*
%TO.P,U1,2,VDD3V3*%
%TO.N,Board_9-vcc33*%
X111169000Y-76000000D03*
%TO.P,U1,3,CHIP_EN*%
%TO.N,Board_9-unconnected-(U1-CHIP_EN-Pad3)*%
X112169000Y-76000000D03*
%TO.P,U1,4,GPIO10*%
%TO.N,Board_9-unconnected-(U1-GPIO10-Pad4)*%
X113169000Y-76000000D03*
%TO.P,U1,5,GPIO11*%
%TO.N,Board_9-unconnected-(U1-GPIO11-Pad5)*%
X114169000Y-76000000D03*
%TO.P,U1,6,GPIO12*%
%TO.N,Board_9-unconnected-(U1-GPIO12-Pad6)*%
X115169000Y-76000000D03*
%TO.P,U1,7,GPIO13*%
%TO.N,Board_9-unconnected-(U1-GPIO13-Pad7)*%
X116169000Y-76000000D03*
%TO.P,U1,8,GPIO14*%
%TO.N,Board_9-unconnected-(U1-GPIO14-Pad8)*%
X117169000Y-76000000D03*
%TO.P,U1,9,GPIO15*%
%TO.N,Board_9-unconnected-(U1-GPIO15-Pad9)*%
X118169000Y-76000000D03*
D11*
%TO.P,U1,10,GPIO16*%
%TO.N,Board_9-unconnected-(U1-GPIO16-Pad10)*%
X119169000Y-74000000D03*
%TO.P,U1,11,GPIO17*%
%TO.N,Board_9-unconnected-(U1-GPIO17-Pad11)*%
X119169000Y-73000000D03*
%TO.P,U1,12,USB_DP*%
%TO.N,Board_9-D+*%
X119169000Y-72000000D03*
%TO.P,U1,13,USB_DN*%
%TO.N,Board_9-D-*%
X119169000Y-71000000D03*
%TO.P,U1,14,GPIO20*%
%TO.N,Board_9-unconnected-(U1-GPIO20-Pad14)*%
X119169000Y-70000000D03*
%TO.P,U1,15,GPIO21*%
%TO.N,Board_9-unconnected-(U1-GPIO21-Pad15)*%
X119169000Y-69000000D03*
%TO.P,U1,16,GPIO22*%
%TO.N,Board_9-unconnected-(U1-GPIO22-Pad16)*%
X119169000Y-68000000D03*
D10*
%TO.P,U1,17,GPIO27*%
%TO.N,Board_9-unconnected-(U1-GPIO27-Pad17)*%
X118169000Y-66000000D03*
%TO.P,U1,18,GPIO28*%
%TO.N,Board_9-unconnected-(U1-GPIO28-Pad18)*%
X117169000Y-66000000D03*
%TO.P,U1,19,GPIO29*%
%TO.N,Board_9-unconnected-(U1-GPIO29-Pad19)*%
X116169000Y-66000000D03*
%TO.P,U1,20,GPIO30*%
%TO.N,Board_9-unconnected-(U1-GPIO30-Pad20)*%
X115169000Y-66000000D03*
%TO.P,U1,21,GPIO0*%
%TO.N,Board_9-unconnected-(U1-GPIO0-Pad21)*%
X114169000Y-66000000D03*
%TO.P,U1,22,GPIO1*%
%TO.N,Board_9-unconnected-(U1-GPIO1-Pad22)*%
X113169000Y-66000000D03*
%TO.P,U1,23,GPIO2*%
%TO.N,Board_9-Net-(U1-GPIO2)*%
X112169000Y-66000000D03*
%TO.P,U1,24,GPIO3*%
%TO.N,Board_9-unconnected-(U1-GPIO3-Pad24)*%
X111169000Y-66000000D03*
%TO.P,U1,25,GND*%
%TO.N,Board_9-GND*%
X110169000Y-66000000D03*
%TD*%
%TO.P,U1,1,GND*%
%TO.N,Board_0-GND*%
X110169000Y-31000000D03*
%TO.P,U1,2,VDD3V3*%
%TO.N,Board_0-vcc33*%
X111169000Y-31000000D03*
%TO.P,U1,3,CHIP_EN*%
%TO.N,Board_0-unconnected-(U1-CHIP_EN-Pad3)*%
X112169000Y-31000000D03*
%TO.P,U1,4,GPIO10*%
%TO.N,Board_0-unconnected-(U1-GPIO10-Pad4)*%
X113169000Y-31000000D03*
%TO.P,U1,5,GPIO11*%
%TO.N,Board_0-unconnected-(U1-GPIO11-Pad5)*%
X114169000Y-31000000D03*
%TO.P,U1,6,GPIO12*%
%TO.N,Board_0-unconnected-(U1-GPIO12-Pad6)*%
X115169000Y-31000000D03*
%TO.P,U1,7,GPIO13*%
%TO.N,Board_0-unconnected-(U1-GPIO13-Pad7)*%
X116169000Y-31000000D03*
%TO.P,U1,8,GPIO14*%
%TO.N,Board_0-unconnected-(U1-GPIO14-Pad8)*%
X117169000Y-31000000D03*
%TO.P,U1,9,GPIO15*%
%TO.N,Board_0-unconnected-(U1-GPIO15-Pad9)*%
X118169000Y-31000000D03*
D11*
%TO.P,U1,10,GPIO16*%
%TO.N,Board_0-unconnected-(U1-GPIO16-Pad10)*%
X119169000Y-29000000D03*
%TO.P,U1,11,GPIO17*%
%TO.N,Board_0-unconnected-(U1-GPIO17-Pad11)*%
X119169000Y-28000000D03*
%TO.P,U1,12,USB_DP*%
%TO.N,Board_0-D+*%
X119169000Y-27000000D03*
%TO.P,U1,13,USB_DN*%
%TO.N,Board_0-D-*%
X119169000Y-26000000D03*
%TO.P,U1,14,GPIO20*%
%TO.N,Board_0-unconnected-(U1-GPIO20-Pad14)*%
X119169000Y-25000000D03*
%TO.P,U1,15,GPIO21*%
%TO.N,Board_0-unconnected-(U1-GPIO21-Pad15)*%
X119169000Y-24000000D03*
%TO.P,U1,16,GPIO22*%
%TO.N,Board_0-unconnected-(U1-GPIO22-Pad16)*%
X119169000Y-23000000D03*
D10*
%TO.P,U1,17,GPIO27*%
%TO.N,Board_0-unconnected-(U1-GPIO27-Pad17)*%
X118169000Y-21000000D03*
%TO.P,U1,18,GPIO28*%
%TO.N,Board_0-unconnected-(U1-GPIO28-Pad18)*%
X117169000Y-21000000D03*
%TO.P,U1,19,GPIO29*%
%TO.N,Board_0-unconnected-(U1-GPIO29-Pad19)*%
X116169000Y-21000000D03*
%TO.P,U1,20,GPIO30*%
%TO.N,Board_0-unconnected-(U1-GPIO30-Pad20)*%
X115169000Y-21000000D03*
%TO.P,U1,21,GPIO0*%
%TO.N,Board_0-unconnected-(U1-GPIO0-Pad21)*%
X114169000Y-21000000D03*
%TO.P,U1,22,GPIO1*%
%TO.N,Board_0-unconnected-(U1-GPIO1-Pad22)*%
X113169000Y-21000000D03*
%TO.P,U1,23,GPIO2*%
%TO.N,Board_0-Net-(U1-GPIO2)*%
X112169000Y-21000000D03*
%TO.P,U1,24,GPIO3*%
%TO.N,Board_0-unconnected-(U1-GPIO3-Pad24)*%
X111169000Y-21000000D03*
%TO.P,U1,25,GND*%
%TO.N,Board_0-GND*%
X110169000Y-21000000D03*
%TD*%
%TO.P,U1,1,GND*%
%TO.N,Board_13-GND*%
X139969000Y-91000000D03*
%TO.P,U1,2,VDD3V3*%
%TO.N,Board_13-vcc33*%
X140969000Y-91000000D03*
%TO.P,U1,3,CHIP_EN*%
%TO.N,Board_13-unconnected-(U1-CHIP_EN-Pad3)*%
X141969000Y-91000000D03*
%TO.P,U1,4,GPIO10*%
%TO.N,Board_13-unconnected-(U1-GPIO10-Pad4)*%
X142969000Y-91000000D03*
%TO.P,U1,5,GPIO11*%
%TO.N,Board_13-unconnected-(U1-GPIO11-Pad5)*%
X143969000Y-91000000D03*
%TO.P,U1,6,GPIO12*%
%TO.N,Board_13-unconnected-(U1-GPIO12-Pad6)*%
X144969000Y-91000000D03*
%TO.P,U1,7,GPIO13*%
%TO.N,Board_13-unconnected-(U1-GPIO13-Pad7)*%
X145969000Y-91000000D03*
%TO.P,U1,8,GPIO14*%
%TO.N,Board_13-unconnected-(U1-GPIO14-Pad8)*%
X146969000Y-91000000D03*
%TO.P,U1,9,GPIO15*%
%TO.N,Board_13-unconnected-(U1-GPIO15-Pad9)*%
X147969000Y-91000000D03*
D11*
%TO.P,U1,10,GPIO16*%
%TO.N,Board_13-unconnected-(U1-GPIO16-Pad10)*%
X148969000Y-89000000D03*
%TO.P,U1,11,GPIO17*%
%TO.N,Board_13-unconnected-(U1-GPIO17-Pad11)*%
X148969000Y-88000000D03*
%TO.P,U1,12,USB_DP*%
%TO.N,Board_13-D+*%
X148969000Y-87000000D03*
%TO.P,U1,13,USB_DN*%
%TO.N,Board_13-D-*%
X148969000Y-86000000D03*
%TO.P,U1,14,GPIO20*%
%TO.N,Board_13-unconnected-(U1-GPIO20-Pad14)*%
X148969000Y-85000000D03*
%TO.P,U1,15,GPIO21*%
%TO.N,Board_13-unconnected-(U1-GPIO21-Pad15)*%
X148969000Y-84000000D03*
%TO.P,U1,16,GPIO22*%
%TO.N,Board_13-unconnected-(U1-GPIO22-Pad16)*%
X148969000Y-83000000D03*
D10*
%TO.P,U1,17,GPIO27*%
%TO.N,Board_13-unconnected-(U1-GPIO27-Pad17)*%
X147969000Y-81000000D03*
%TO.P,U1,18,GPIO28*%
%TO.N,Board_13-unconnected-(U1-GPIO28-Pad18)*%
X146969000Y-81000000D03*
%TO.P,U1,19,GPIO29*%
%TO.N,Board_13-unconnected-(U1-GPIO29-Pad19)*%
X145969000Y-81000000D03*
%TO.P,U1,20,GPIO30*%
%TO.N,Board_13-unconnected-(U1-GPIO30-Pad20)*%
X144969000Y-81000000D03*
%TO.P,U1,21,GPIO0*%
%TO.N,Board_13-unconnected-(U1-GPIO0-Pad21)*%
X143969000Y-81000000D03*
%TO.P,U1,22,GPIO1*%
%TO.N,Board_13-unconnected-(U1-GPIO1-Pad22)*%
X142969000Y-81000000D03*
%TO.P,U1,23,GPIO2*%
%TO.N,Board_13-Net-(U1-GPIO2)*%
X141969000Y-81000000D03*
%TO.P,U1,24,GPIO3*%
%TO.N,Board_13-unconnected-(U1-GPIO3-Pad24)*%
X140969000Y-81000000D03*
%TO.P,U1,25,GND*%
%TO.N,Board_13-GND*%
X139969000Y-81000000D03*
%TD*%
%TO.P,U1,1,GND*%
%TO.N,Board_11-GND*%
X169769000Y-76000000D03*
%TO.P,U1,2,VDD3V3*%
%TO.N,Board_11-vcc33*%
X170769000Y-76000000D03*
%TO.P,U1,3,CHIP_EN*%
%TO.N,Board_11-unconnected-(U1-CHIP_EN-Pad3)*%
X171769000Y-76000000D03*
%TO.P,U1,4,GPIO10*%
%TO.N,Board_11-unconnected-(U1-GPIO10-Pad4)*%
X172769000Y-76000000D03*
%TO.P,U1,5,GPIO11*%
%TO.N,Board_11-unconnected-(U1-GPIO11-Pad5)*%
X173769000Y-76000000D03*
%TO.P,U1,6,GPIO12*%
%TO.N,Board_11-unconnected-(U1-GPIO12-Pad6)*%
X174769000Y-76000000D03*
%TO.P,U1,7,GPIO13*%
%TO.N,Board_11-unconnected-(U1-GPIO13-Pad7)*%
X175769000Y-76000000D03*
%TO.P,U1,8,GPIO14*%
%TO.N,Board_11-unconnected-(U1-GPIO14-Pad8)*%
X176769000Y-76000000D03*
%TO.P,U1,9,GPIO15*%
%TO.N,Board_11-unconnected-(U1-GPIO15-Pad9)*%
X177769000Y-76000000D03*
D11*
%TO.P,U1,10,GPIO16*%
%TO.N,Board_11-unconnected-(U1-GPIO16-Pad10)*%
X178769000Y-74000000D03*
%TO.P,U1,11,GPIO17*%
%TO.N,Board_11-unconnected-(U1-GPIO17-Pad11)*%
X178769000Y-73000000D03*
%TO.P,U1,12,USB_DP*%
%TO.N,Board_11-D+*%
X178769000Y-72000000D03*
%TO.P,U1,13,USB_DN*%
%TO.N,Board_11-D-*%
X178769000Y-71000000D03*
%TO.P,U1,14,GPIO20*%
%TO.N,Board_11-unconnected-(U1-GPIO20-Pad14)*%
X178769000Y-70000000D03*
%TO.P,U1,15,GPIO21*%
%TO.N,Board_11-unconnected-(U1-GPIO21-Pad15)*%
X178769000Y-69000000D03*
%TO.P,U1,16,GPIO22*%
%TO.N,Board_11-unconnected-(U1-GPIO22-Pad16)*%
X178769000Y-68000000D03*
D10*
%TO.P,U1,17,GPIO27*%
%TO.N,Board_11-unconnected-(U1-GPIO27-Pad17)*%
X177769000Y-66000000D03*
%TO.P,U1,18,GPIO28*%
%TO.N,Board_11-unconnected-(U1-GPIO28-Pad18)*%
X176769000Y-66000000D03*
%TO.P,U1,19,GPIO29*%
%TO.N,Board_11-unconnected-(U1-GPIO29-Pad19)*%
X175769000Y-66000000D03*
%TO.P,U1,20,GPIO30*%
%TO.N,Board_11-unconnected-(U1-GPIO30-Pad20)*%
X174769000Y-66000000D03*
%TO.P,U1,21,GPIO0*%
%TO.N,Board_11-unconnected-(U1-GPIO0-Pad21)*%
X173769000Y-66000000D03*
%TO.P,U1,22,GPIO1*%
%TO.N,Board_11-unconnected-(U1-GPIO1-Pad22)*%
X172769000Y-66000000D03*
%TO.P,U1,23,GPIO2*%
%TO.N,Board_11-Net-(U1-GPIO2)*%
X171769000Y-66000000D03*
%TO.P,U1,24,GPIO3*%
%TO.N,Board_11-unconnected-(U1-GPIO3-Pad24)*%
X170769000Y-66000000D03*
%TO.P,U1,25,GND*%
%TO.N,Board_11-GND*%
X169769000Y-66000000D03*
%TD*%
%TO.P,U1,1,GND*%
%TO.N,Board_4-GND*%
X139969000Y-46000000D03*
%TO.P,U1,2,VDD3V3*%
%TO.N,Board_4-vcc33*%
X140969000Y-46000000D03*
%TO.P,U1,3,CHIP_EN*%
%TO.N,Board_4-unconnected-(U1-CHIP_EN-Pad3)*%
X141969000Y-46000000D03*
%TO.P,U1,4,GPIO10*%
%TO.N,Board_4-unconnected-(U1-GPIO10-Pad4)*%
X142969000Y-46000000D03*
%TO.P,U1,5,GPIO11*%
%TO.N,Board_4-unconnected-(U1-GPIO11-Pad5)*%
X143969000Y-46000000D03*
%TO.P,U1,6,GPIO12*%
%TO.N,Board_4-unconnected-(U1-GPIO12-Pad6)*%
X144969000Y-46000000D03*
%TO.P,U1,7,GPIO13*%
%TO.N,Board_4-unconnected-(U1-GPIO13-Pad7)*%
X145969000Y-46000000D03*
%TO.P,U1,8,GPIO14*%
%TO.N,Board_4-unconnected-(U1-GPIO14-Pad8)*%
X146969000Y-46000000D03*
%TO.P,U1,9,GPIO15*%
%TO.N,Board_4-unconnected-(U1-GPIO15-Pad9)*%
X147969000Y-46000000D03*
D11*
%TO.P,U1,10,GPIO16*%
%TO.N,Board_4-unconnected-(U1-GPIO16-Pad10)*%
X148969000Y-44000000D03*
%TO.P,U1,11,GPIO17*%
%TO.N,Board_4-unconnected-(U1-GPIO17-Pad11)*%
X148969000Y-43000000D03*
%TO.P,U1,12,USB_DP*%
%TO.N,Board_4-D+*%
X148969000Y-42000000D03*
%TO.P,U1,13,USB_DN*%
%TO.N,Board_4-D-*%
X148969000Y-41000000D03*
%TO.P,U1,14,GPIO20*%
%TO.N,Board_4-unconnected-(U1-GPIO20-Pad14)*%
X148969000Y-40000000D03*
%TO.P,U1,15,GPIO21*%
%TO.N,Board_4-unconnected-(U1-GPIO21-Pad15)*%
X148969000Y-39000000D03*
%TO.P,U1,16,GPIO22*%
%TO.N,Board_4-unconnected-(U1-GPIO22-Pad16)*%
X148969000Y-38000000D03*
D10*
%TO.P,U1,17,GPIO27*%
%TO.N,Board_4-unconnected-(U1-GPIO27-Pad17)*%
X147969000Y-36000000D03*
%TO.P,U1,18,GPIO28*%
%TO.N,Board_4-unconnected-(U1-GPIO28-Pad18)*%
X146969000Y-36000000D03*
%TO.P,U1,19,GPIO29*%
%TO.N,Board_4-unconnected-(U1-GPIO29-Pad19)*%
X145969000Y-36000000D03*
%TO.P,U1,20,GPIO30*%
%TO.N,Board_4-unconnected-(U1-GPIO30-Pad20)*%
X144969000Y-36000000D03*
%TO.P,U1,21,GPIO0*%
%TO.N,Board_4-unconnected-(U1-GPIO0-Pad21)*%
X143969000Y-36000000D03*
%TO.P,U1,22,GPIO1*%
%TO.N,Board_4-unconnected-(U1-GPIO1-Pad22)*%
X142969000Y-36000000D03*
%TO.P,U1,23,GPIO2*%
%TO.N,Board_4-Net-(U1-GPIO2)*%
X141969000Y-36000000D03*
%TO.P,U1,24,GPIO3*%
%TO.N,Board_4-unconnected-(U1-GPIO3-Pad24)*%
X140969000Y-36000000D03*
%TO.P,U1,25,GND*%
%TO.N,Board_4-GND*%
X139969000Y-36000000D03*
%TD*%
%TO.P,U1,1,GND*%
%TO.N,Board_6-GND*%
X110169000Y-61000000D03*
%TO.P,U1,2,VDD3V3*%
%TO.N,Board_6-vcc33*%
X111169000Y-61000000D03*
%TO.P,U1,3,CHIP_EN*%
%TO.N,Board_6-unconnected-(U1-CHIP_EN-Pad3)*%
X112169000Y-61000000D03*
%TO.P,U1,4,GPIO10*%
%TO.N,Board_6-unconnected-(U1-GPIO10-Pad4)*%
X113169000Y-61000000D03*
%TO.P,U1,5,GPIO11*%
%TO.N,Board_6-unconnected-(U1-GPIO11-Pad5)*%
X114169000Y-61000000D03*
%TO.P,U1,6,GPIO12*%
%TO.N,Board_6-unconnected-(U1-GPIO12-Pad6)*%
X115169000Y-61000000D03*
%TO.P,U1,7,GPIO13*%
%TO.N,Board_6-unconnected-(U1-GPIO13-Pad7)*%
X116169000Y-61000000D03*
%TO.P,U1,8,GPIO14*%
%TO.N,Board_6-unconnected-(U1-GPIO14-Pad8)*%
X117169000Y-61000000D03*
%TO.P,U1,9,GPIO15*%
%TO.N,Board_6-unconnected-(U1-GPIO15-Pad9)*%
X118169000Y-61000000D03*
D11*
%TO.P,U1,10,GPIO16*%
%TO.N,Board_6-unconnected-(U1-GPIO16-Pad10)*%
X119169000Y-59000000D03*
%TO.P,U1,11,GPIO17*%
%TO.N,Board_6-unconnected-(U1-GPIO17-Pad11)*%
X119169000Y-58000000D03*
%TO.P,U1,12,USB_DP*%
%TO.N,Board_6-D+*%
X119169000Y-57000000D03*
%TO.P,U1,13,USB_DN*%
%TO.N,Board_6-D-*%
X119169000Y-56000000D03*
%TO.P,U1,14,GPIO20*%
%TO.N,Board_6-unconnected-(U1-GPIO20-Pad14)*%
X119169000Y-55000000D03*
%TO.P,U1,15,GPIO21*%
%TO.N,Board_6-unconnected-(U1-GPIO21-Pad15)*%
X119169000Y-54000000D03*
%TO.P,U1,16,GPIO22*%
%TO.N,Board_6-unconnected-(U1-GPIO22-Pad16)*%
X119169000Y-53000000D03*
D10*
%TO.P,U1,17,GPIO27*%
%TO.N,Board_6-unconnected-(U1-GPIO27-Pad17)*%
X118169000Y-51000000D03*
%TO.P,U1,18,GPIO28*%
%TO.N,Board_6-unconnected-(U1-GPIO28-Pad18)*%
X117169000Y-51000000D03*
%TO.P,U1,19,GPIO29*%
%TO.N,Board_6-unconnected-(U1-GPIO29-Pad19)*%
X116169000Y-51000000D03*
%TO.P,U1,20,GPIO30*%
%TO.N,Board_6-unconnected-(U1-GPIO30-Pad20)*%
X115169000Y-51000000D03*
%TO.P,U1,21,GPIO0*%
%TO.N,Board_6-unconnected-(U1-GPIO0-Pad21)*%
X114169000Y-51000000D03*
%TO.P,U1,22,GPIO1*%
%TO.N,Board_6-unconnected-(U1-GPIO1-Pad22)*%
X113169000Y-51000000D03*
%TO.P,U1,23,GPIO2*%
%TO.N,Board_6-Net-(U1-GPIO2)*%
X112169000Y-51000000D03*
%TO.P,U1,24,GPIO3*%
%TO.N,Board_6-unconnected-(U1-GPIO3-Pad24)*%
X111169000Y-51000000D03*
%TO.P,U1,25,GND*%
%TO.N,Board_6-GND*%
X110169000Y-51000000D03*
%TD*%
%TO.P,U1,1,GND*%
%TO.N,Board_10-GND*%
X139969000Y-76000000D03*
%TO.P,U1,2,VDD3V3*%
%TO.N,Board_10-vcc33*%
X140969000Y-76000000D03*
%TO.P,U1,3,CHIP_EN*%
%TO.N,Board_10-unconnected-(U1-CHIP_EN-Pad3)*%
X141969000Y-76000000D03*
%TO.P,U1,4,GPIO10*%
%TO.N,Board_10-unconnected-(U1-GPIO10-Pad4)*%
X142969000Y-76000000D03*
%TO.P,U1,5,GPIO11*%
%TO.N,Board_10-unconnected-(U1-GPIO11-Pad5)*%
X143969000Y-76000000D03*
%TO.P,U1,6,GPIO12*%
%TO.N,Board_10-unconnected-(U1-GPIO12-Pad6)*%
X144969000Y-76000000D03*
%TO.P,U1,7,GPIO13*%
%TO.N,Board_10-unconnected-(U1-GPIO13-Pad7)*%
X145969000Y-76000000D03*
%TO.P,U1,8,GPIO14*%
%TO.N,Board_10-unconnected-(U1-GPIO14-Pad8)*%
X146969000Y-76000000D03*
%TO.P,U1,9,GPIO15*%
%TO.N,Board_10-unconnected-(U1-GPIO15-Pad9)*%
X147969000Y-76000000D03*
D11*
%TO.P,U1,10,GPIO16*%
%TO.N,Board_10-unconnected-(U1-GPIO16-Pad10)*%
X148969000Y-74000000D03*
%TO.P,U1,11,GPIO17*%
%TO.N,Board_10-unconnected-(U1-GPIO17-Pad11)*%
X148969000Y-73000000D03*
%TO.P,U1,12,USB_DP*%
%TO.N,Board_10-D+*%
X148969000Y-72000000D03*
%TO.P,U1,13,USB_DN*%
%TO.N,Board_10-D-*%
X148969000Y-71000000D03*
%TO.P,U1,14,GPIO20*%
%TO.N,Board_10-unconnected-(U1-GPIO20-Pad14)*%
X148969000Y-70000000D03*
%TO.P,U1,15,GPIO21*%
%TO.N,Board_10-unconnected-(U1-GPIO21-Pad15)*%
X148969000Y-69000000D03*
%TO.P,U1,16,GPIO22*%
%TO.N,Board_10-unconnected-(U1-GPIO22-Pad16)*%
X148969000Y-68000000D03*
D10*
%TO.P,U1,17,GPIO27*%
%TO.N,Board_10-unconnected-(U1-GPIO27-Pad17)*%
X147969000Y-66000000D03*
%TO.P,U1,18,GPIO28*%
%TO.N,Board_10-unconnected-(U1-GPIO28-Pad18)*%
X146969000Y-66000000D03*
%TO.P,U1,19,GPIO29*%
%TO.N,Board_10-unconnected-(U1-GPIO29-Pad19)*%
X145969000Y-66000000D03*
%TO.P,U1,20,GPIO30*%
%TO.N,Board_10-unconnected-(U1-GPIO30-Pad20)*%
X144969000Y-66000000D03*
%TO.P,U1,21,GPIO0*%
%TO.N,Board_10-unconnected-(U1-GPIO0-Pad21)*%
X143969000Y-66000000D03*
%TO.P,U1,22,GPIO1*%
%TO.N,Board_10-unconnected-(U1-GPIO1-Pad22)*%
X142969000Y-66000000D03*
%TO.P,U1,23,GPIO2*%
%TO.N,Board_10-Net-(U1-GPIO2)*%
X141969000Y-66000000D03*
%TO.P,U1,24,GPIO3*%
%TO.N,Board_10-unconnected-(U1-GPIO3-Pad24)*%
X140969000Y-66000000D03*
%TO.P,U1,25,GND*%
%TO.N,Board_10-GND*%
X139969000Y-66000000D03*
%TD*%
%TO.P,U1,1,GND*%
%TO.N,Board_12-GND*%
X110169000Y-91000000D03*
%TO.P,U1,2,VDD3V3*%
%TO.N,Board_12-vcc33*%
X111169000Y-91000000D03*
%TO.P,U1,3,CHIP_EN*%
%TO.N,Board_12-unconnected-(U1-CHIP_EN-Pad3)*%
X112169000Y-91000000D03*
%TO.P,U1,4,GPIO10*%
%TO.N,Board_12-unconnected-(U1-GPIO10-Pad4)*%
X113169000Y-91000000D03*
%TO.P,U1,5,GPIO11*%
%TO.N,Board_12-unconnected-(U1-GPIO11-Pad5)*%
X114169000Y-91000000D03*
%TO.P,U1,6,GPIO12*%
%TO.N,Board_12-unconnected-(U1-GPIO12-Pad6)*%
X115169000Y-91000000D03*
%TO.P,U1,7,GPIO13*%
%TO.N,Board_12-unconnected-(U1-GPIO13-Pad7)*%
X116169000Y-91000000D03*
%TO.P,U1,8,GPIO14*%
%TO.N,Board_12-unconnected-(U1-GPIO14-Pad8)*%
X117169000Y-91000000D03*
%TO.P,U1,9,GPIO15*%
%TO.N,Board_12-unconnected-(U1-GPIO15-Pad9)*%
X118169000Y-91000000D03*
D11*
%TO.P,U1,10,GPIO16*%
%TO.N,Board_12-unconnected-(U1-GPIO16-Pad10)*%
X119169000Y-89000000D03*
%TO.P,U1,11,GPIO17*%
%TO.N,Board_12-unconnected-(U1-GPIO17-Pad11)*%
X119169000Y-88000000D03*
%TO.P,U1,12,USB_DP*%
%TO.N,Board_12-D+*%
X119169000Y-87000000D03*
%TO.P,U1,13,USB_DN*%
%TO.N,Board_12-D-*%
X119169000Y-86000000D03*
%TO.P,U1,14,GPIO20*%
%TO.N,Board_12-unconnected-(U1-GPIO20-Pad14)*%
X119169000Y-85000000D03*
%TO.P,U1,15,GPIO21*%
%TO.N,Board_12-unconnected-(U1-GPIO21-Pad15)*%
X119169000Y-84000000D03*
%TO.P,U1,16,GPIO22*%
%TO.N,Board_12-unconnected-(U1-GPIO22-Pad16)*%
X119169000Y-83000000D03*
D10*
%TO.P,U1,17,GPIO27*%
%TO.N,Board_12-unconnected-(U1-GPIO27-Pad17)*%
X118169000Y-81000000D03*
%TO.P,U1,18,GPIO28*%
%TO.N,Board_12-unconnected-(U1-GPIO28-Pad18)*%
X117169000Y-81000000D03*
%TO.P,U1,19,GPIO29*%
%TO.N,Board_12-unconnected-(U1-GPIO29-Pad19)*%
X116169000Y-81000000D03*
%TO.P,U1,20,GPIO30*%
%TO.N,Board_12-unconnected-(U1-GPIO30-Pad20)*%
X115169000Y-81000000D03*
%TO.P,U1,21,GPIO0*%
%TO.N,Board_12-unconnected-(U1-GPIO0-Pad21)*%
X114169000Y-81000000D03*
%TO.P,U1,22,GPIO1*%
%TO.N,Board_12-unconnected-(U1-GPIO1-Pad22)*%
X113169000Y-81000000D03*
%TO.P,U1,23,GPIO2*%
%TO.N,Board_12-Net-(U1-GPIO2)*%
X112169000Y-81000000D03*
%TO.P,U1,24,GPIO3*%
%TO.N,Board_12-unconnected-(U1-GPIO3-Pad24)*%
X111169000Y-81000000D03*
%TO.P,U1,25,GND*%
%TO.N,Board_12-GND*%
X110169000Y-81000000D03*
%TD*%
%TO.P,U1,1,GND*%
%TO.N,Board_8-GND*%
X169769000Y-61000000D03*
%TO.P,U1,2,VDD3V3*%
%TO.N,Board_8-vcc33*%
X170769000Y-61000000D03*
%TO.P,U1,3,CHIP_EN*%
%TO.N,Board_8-unconnected-(U1-CHIP_EN-Pad3)*%
X171769000Y-61000000D03*
%TO.P,U1,4,GPIO10*%
%TO.N,Board_8-unconnected-(U1-GPIO10-Pad4)*%
X172769000Y-61000000D03*
%TO.P,U1,5,GPIO11*%
%TO.N,Board_8-unconnected-(U1-GPIO11-Pad5)*%
X173769000Y-61000000D03*
%TO.P,U1,6,GPIO12*%
%TO.N,Board_8-unconnected-(U1-GPIO12-Pad6)*%
X174769000Y-61000000D03*
%TO.P,U1,7,GPIO13*%
%TO.N,Board_8-unconnected-(U1-GPIO13-Pad7)*%
X175769000Y-61000000D03*
%TO.P,U1,8,GPIO14*%
%TO.N,Board_8-unconnected-(U1-GPIO14-Pad8)*%
X176769000Y-61000000D03*
%TO.P,U1,9,GPIO15*%
%TO.N,Board_8-unconnected-(U1-GPIO15-Pad9)*%
X177769000Y-61000000D03*
D11*
%TO.P,U1,10,GPIO16*%
%TO.N,Board_8-unconnected-(U1-GPIO16-Pad10)*%
X178769000Y-59000000D03*
%TO.P,U1,11,GPIO17*%
%TO.N,Board_8-unconnected-(U1-GPIO17-Pad11)*%
X178769000Y-58000000D03*
%TO.P,U1,12,USB_DP*%
%TO.N,Board_8-D+*%
X178769000Y-57000000D03*
%TO.P,U1,13,USB_DN*%
%TO.N,Board_8-D-*%
X178769000Y-56000000D03*
%TO.P,U1,14,GPIO20*%
%TO.N,Board_8-unconnected-(U1-GPIO20-Pad14)*%
X178769000Y-55000000D03*
%TO.P,U1,15,GPIO21*%
%TO.N,Board_8-unconnected-(U1-GPIO21-Pad15)*%
X178769000Y-54000000D03*
%TO.P,U1,16,GPIO22*%
%TO.N,Board_8-unconnected-(U1-GPIO22-Pad16)*%
X178769000Y-53000000D03*
D10*
%TO.P,U1,17,GPIO27*%
%TO.N,Board_8-unconnected-(U1-GPIO27-Pad17)*%
X177769000Y-51000000D03*
%TO.P,U1,18,GPIO28*%
%TO.N,Board_8-unconnected-(U1-GPIO28-Pad18)*%
X176769000Y-51000000D03*
%TO.P,U1,19,GPIO29*%
%TO.N,Board_8-unconnected-(U1-GPIO29-Pad19)*%
X175769000Y-51000000D03*
%TO.P,U1,20,GPIO30*%
%TO.N,Board_8-unconnected-(U1-GPIO30-Pad20)*%
X174769000Y-51000000D03*
%TO.P,U1,21,GPIO0*%
%TO.N,Board_8-unconnected-(U1-GPIO0-Pad21)*%
X173769000Y-51000000D03*
%TO.P,U1,22,GPIO1*%
%TO.N,Board_8-unconnected-(U1-GPIO1-Pad22)*%
X172769000Y-51000000D03*
%TO.P,U1,23,GPIO2*%
%TO.N,Board_8-Net-(U1-GPIO2)*%
X171769000Y-51000000D03*
%TO.P,U1,24,GPIO3*%
%TO.N,Board_8-unconnected-(U1-GPIO3-Pad24)*%
X170769000Y-51000000D03*
%TO.P,U1,25,GND*%
%TO.N,Board_8-GND*%
X169769000Y-51000000D03*
%TD*%
%TO.P,U1,1,GND*%
%TO.N,Board_2-GND*%
X169769000Y-31000000D03*
%TO.P,U1,2,VDD3V3*%
%TO.N,Board_2-vcc33*%
X170769000Y-31000000D03*
%TO.P,U1,3,CHIP_EN*%
%TO.N,Board_2-unconnected-(U1-CHIP_EN-Pad3)*%
X171769000Y-31000000D03*
%TO.P,U1,4,GPIO10*%
%TO.N,Board_2-unconnected-(U1-GPIO10-Pad4)*%
X172769000Y-31000000D03*
%TO.P,U1,5,GPIO11*%
%TO.N,Board_2-unconnected-(U1-GPIO11-Pad5)*%
X173769000Y-31000000D03*
%TO.P,U1,6,GPIO12*%
%TO.N,Board_2-unconnected-(U1-GPIO12-Pad6)*%
X174769000Y-31000000D03*
%TO.P,U1,7,GPIO13*%
%TO.N,Board_2-unconnected-(U1-GPIO13-Pad7)*%
X175769000Y-31000000D03*
%TO.P,U1,8,GPIO14*%
%TO.N,Board_2-unconnected-(U1-GPIO14-Pad8)*%
X176769000Y-31000000D03*
%TO.P,U1,9,GPIO15*%
%TO.N,Board_2-unconnected-(U1-GPIO15-Pad9)*%
X177769000Y-31000000D03*
D11*
%TO.P,U1,10,GPIO16*%
%TO.N,Board_2-unconnected-(U1-GPIO16-Pad10)*%
X178769000Y-29000000D03*
%TO.P,U1,11,GPIO17*%
%TO.N,Board_2-unconnected-(U1-GPIO17-Pad11)*%
X178769000Y-28000000D03*
%TO.P,U1,12,USB_DP*%
%TO.N,Board_2-D+*%
X178769000Y-27000000D03*
%TO.P,U1,13,USB_DN*%
%TO.N,Board_2-D-*%
X178769000Y-26000000D03*
%TO.P,U1,14,GPIO20*%
%TO.N,Board_2-unconnected-(U1-GPIO20-Pad14)*%
X178769000Y-25000000D03*
%TO.P,U1,15,GPIO21*%
%TO.N,Board_2-unconnected-(U1-GPIO21-Pad15)*%
X178769000Y-24000000D03*
%TO.P,U1,16,GPIO22*%
%TO.N,Board_2-unconnected-(U1-GPIO22-Pad16)*%
X178769000Y-23000000D03*
D10*
%TO.P,U1,17,GPIO27*%
%TO.N,Board_2-unconnected-(U1-GPIO27-Pad17)*%
X177769000Y-21000000D03*
%TO.P,U1,18,GPIO28*%
%TO.N,Board_2-unconnected-(U1-GPIO28-Pad18)*%
X176769000Y-21000000D03*
%TO.P,U1,19,GPIO29*%
%TO.N,Board_2-unconnected-(U1-GPIO29-Pad19)*%
X175769000Y-21000000D03*
%TO.P,U1,20,GPIO30*%
%TO.N,Board_2-unconnected-(U1-GPIO30-Pad20)*%
X174769000Y-21000000D03*
%TO.P,U1,21,GPIO0*%
%TO.N,Board_2-unconnected-(U1-GPIO0-Pad21)*%
X173769000Y-21000000D03*
%TO.P,U1,22,GPIO1*%
%TO.N,Board_2-unconnected-(U1-GPIO1-Pad22)*%
X172769000Y-21000000D03*
%TO.P,U1,23,GPIO2*%
%TO.N,Board_2-Net-(U1-GPIO2)*%
X171769000Y-21000000D03*
%TO.P,U1,24,GPIO3*%
%TO.N,Board_2-unconnected-(U1-GPIO3-Pad24)*%
X170769000Y-21000000D03*
%TO.P,U1,25,GND*%
%TO.N,Board_2-GND*%
X169769000Y-21000000D03*
%TD*%
%TO.P,U1,1,GND*%
%TO.N,Board_5-GND*%
X169769000Y-46000000D03*
%TO.P,U1,2,VDD3V3*%
%TO.N,Board_5-vcc33*%
X170769000Y-46000000D03*
%TO.P,U1,3,CHIP_EN*%
%TO.N,Board_5-unconnected-(U1-CHIP_EN-Pad3)*%
X171769000Y-46000000D03*
%TO.P,U1,4,GPIO10*%
%TO.N,Board_5-unconnected-(U1-GPIO10-Pad4)*%
X172769000Y-46000000D03*
%TO.P,U1,5,GPIO11*%
%TO.N,Board_5-unconnected-(U1-GPIO11-Pad5)*%
X173769000Y-46000000D03*
%TO.P,U1,6,GPIO12*%
%TO.N,Board_5-unconnected-(U1-GPIO12-Pad6)*%
X174769000Y-46000000D03*
%TO.P,U1,7,GPIO13*%
%TO.N,Board_5-unconnected-(U1-GPIO13-Pad7)*%
X175769000Y-46000000D03*
%TO.P,U1,8,GPIO14*%
%TO.N,Board_5-unconnected-(U1-GPIO14-Pad8)*%
X176769000Y-46000000D03*
%TO.P,U1,9,GPIO15*%
%TO.N,Board_5-unconnected-(U1-GPIO15-Pad9)*%
X177769000Y-46000000D03*
D11*
%TO.P,U1,10,GPIO16*%
%TO.N,Board_5-unconnected-(U1-GPIO16-Pad10)*%
X178769000Y-44000000D03*
%TO.P,U1,11,GPIO17*%
%TO.N,Board_5-unconnected-(U1-GPIO17-Pad11)*%
X178769000Y-43000000D03*
%TO.P,U1,12,USB_DP*%
%TO.N,Board_5-D+*%
X178769000Y-42000000D03*
%TO.P,U1,13,USB_DN*%
%TO.N,Board_5-D-*%
X178769000Y-41000000D03*
%TO.P,U1,14,GPIO20*%
%TO.N,Board_5-unconnected-(U1-GPIO20-Pad14)*%
X178769000Y-40000000D03*
%TO.P,U1,15,GPIO21*%
%TO.N,Board_5-unconnected-(U1-GPIO21-Pad15)*%
X178769000Y-39000000D03*
%TO.P,U1,16,GPIO22*%
%TO.N,Board_5-unconnected-(U1-GPIO22-Pad16)*%
X178769000Y-38000000D03*
D10*
%TO.P,U1,17,GPIO27*%
%TO.N,Board_5-unconnected-(U1-GPIO27-Pad17)*%
X177769000Y-36000000D03*
%TO.P,U1,18,GPIO28*%
%TO.N,Board_5-unconnected-(U1-GPIO28-Pad18)*%
X176769000Y-36000000D03*
%TO.P,U1,19,GPIO29*%
%TO.N,Board_5-unconnected-(U1-GPIO29-Pad19)*%
X175769000Y-36000000D03*
%TO.P,U1,20,GPIO30*%
%TO.N,Board_5-unconnected-(U1-GPIO30-Pad20)*%
X174769000Y-36000000D03*
%TO.P,U1,21,GPIO0*%
%TO.N,Board_5-unconnected-(U1-GPIO0-Pad21)*%
X173769000Y-36000000D03*
%TO.P,U1,22,GPIO1*%
%TO.N,Board_5-unconnected-(U1-GPIO1-Pad22)*%
X172769000Y-36000000D03*
%TO.P,U1,23,GPIO2*%
%TO.N,Board_5-Net-(U1-GPIO2)*%
X171769000Y-36000000D03*
%TO.P,U1,24,GPIO3*%
%TO.N,Board_5-unconnected-(U1-GPIO3-Pad24)*%
X170769000Y-36000000D03*
%TO.P,U1,25,GND*%
%TO.N,Board_5-GND*%
X169769000Y-36000000D03*
%TD*%
%TO.P,U1,1,GND*%
%TO.N,Board_3-GND*%
X110169000Y-46000000D03*
%TO.P,U1,2,VDD3V3*%
%TO.N,Board_3-vcc33*%
X111169000Y-46000000D03*
%TO.P,U1,3,CHIP_EN*%
%TO.N,Board_3-unconnected-(U1-CHIP_EN-Pad3)*%
X112169000Y-46000000D03*
%TO.P,U1,4,GPIO10*%
%TO.N,Board_3-unconnected-(U1-GPIO10-Pad4)*%
X113169000Y-46000000D03*
%TO.P,U1,5,GPIO11*%
%TO.N,Board_3-unconnected-(U1-GPIO11-Pad5)*%
X114169000Y-46000000D03*
%TO.P,U1,6,GPIO12*%
%TO.N,Board_3-unconnected-(U1-GPIO12-Pad6)*%
X115169000Y-46000000D03*
%TO.P,U1,7,GPIO13*%
%TO.N,Board_3-unconnected-(U1-GPIO13-Pad7)*%
X116169000Y-46000000D03*
%TO.P,U1,8,GPIO14*%
%TO.N,Board_3-unconnected-(U1-GPIO14-Pad8)*%
X117169000Y-46000000D03*
%TO.P,U1,9,GPIO15*%
%TO.N,Board_3-unconnected-(U1-GPIO15-Pad9)*%
X118169000Y-46000000D03*
D11*
%TO.P,U1,10,GPIO16*%
%TO.N,Board_3-unconnected-(U1-GPIO16-Pad10)*%
X119169000Y-44000000D03*
%TO.P,U1,11,GPIO17*%
%TO.N,Board_3-unconnected-(U1-GPIO17-Pad11)*%
X119169000Y-43000000D03*
%TO.P,U1,12,USB_DP*%
%TO.N,Board_3-D+*%
X119169000Y-42000000D03*
%TO.P,U1,13,USB_DN*%
%TO.N,Board_3-D-*%
X119169000Y-41000000D03*
%TO.P,U1,14,GPIO20*%
%TO.N,Board_3-unconnected-(U1-GPIO20-Pad14)*%
X119169000Y-40000000D03*
%TO.P,U1,15,GPIO21*%
%TO.N,Board_3-unconnected-(U1-GPIO21-Pad15)*%
X119169000Y-39000000D03*
%TO.P,U1,16,GPIO22*%
%TO.N,Board_3-unconnected-(U1-GPIO22-Pad16)*%
X119169000Y-38000000D03*
D10*
%TO.P,U1,17,GPIO27*%
%TO.N,Board_3-unconnected-(U1-GPIO27-Pad17)*%
X118169000Y-36000000D03*
%TO.P,U1,18,GPIO28*%
%TO.N,Board_3-unconnected-(U1-GPIO28-Pad18)*%
X117169000Y-36000000D03*
%TO.P,U1,19,GPIO29*%
%TO.N,Board_3-unconnected-(U1-GPIO29-Pad19)*%
X116169000Y-36000000D03*
%TO.P,U1,20,GPIO30*%
%TO.N,Board_3-unconnected-(U1-GPIO30-Pad20)*%
X115169000Y-36000000D03*
%TO.P,U1,21,GPIO0*%
%TO.N,Board_3-unconnected-(U1-GPIO0-Pad21)*%
X114169000Y-36000000D03*
%TO.P,U1,22,GPIO1*%
%TO.N,Board_3-unconnected-(U1-GPIO1-Pad22)*%
X113169000Y-36000000D03*
%TO.P,U1,23,GPIO2*%
%TO.N,Board_3-Net-(U1-GPIO2)*%
X112169000Y-36000000D03*
%TO.P,U1,24,GPIO3*%
%TO.N,Board_3-unconnected-(U1-GPIO3-Pad24)*%
X111169000Y-36000000D03*
%TO.P,U1,25,GND*%
%TO.N,Board_3-GND*%
X110169000Y-36000000D03*
%TD*%
D12*
%TO.P,C2,1*%
%TO.N,Board_8-vcc33*%
X171200000Y-53200000D03*
%TO.P,C2,2*%
%TO.N,Board_8-GND*%
X171200000Y-55100000D03*
%TD*%
D13*
%TO.P,U3,1,GND*%
%TO.N,Board_8-GND*%
X176987500Y-52600000D03*
D14*
%TO.P,U3,2,VIN*%
%TO.N,Board_8-Net-(J2-VBUS)*%
X176900000Y-54100000D03*
D13*
%TO.P,U3,3,VOUT*%
%TO.N,Board_8-vcc33*%
X176987500Y-55600000D03*
%TD*%
D15*
%TO.P,U2,1,VIN*%
%TO.N,Board_4-Net-(J2-VBUS)*%
X142825000Y-42650000D03*
%TO.P,U2,2,GND*%
%TO.N,Board_4-GND*%
X142825000Y-43600000D03*
%TO.P,U2,3,EN*%
%TO.N,Board_4-Net-(J2-VBUS)*%
X142825000Y-44550000D03*
%TO.P,U2,4*%
%TO.N,N/C*%
X140550000Y-44550000D03*
%TO.P,U2,5,VOUT*%
%TO.N,Board_4-vcc33*%
X140550000Y-42650000D03*
%TD*%
%TO.P,U2,1,VIN*%
%TO.N,Board_9-Net-(J2-VBUS)*%
X113025000Y-72650000D03*
%TO.P,U2,2,GND*%
%TO.N,Board_9-GND*%
X113025000Y-73600000D03*
%TO.P,U2,3,EN*%
%TO.N,Board_9-Net-(J2-VBUS)*%
X113025000Y-74550000D03*
%TO.P,U2,4*%
%TO.N,N/C*%
X110750000Y-74550000D03*
%TO.P,U2,5,VOUT*%
%TO.N,Board_9-vcc33*%
X110750000Y-72650000D03*
%TD*%
D12*
%TO.P,C2,1*%
%TO.N,Board_3-vcc33*%
X111600000Y-38200000D03*
%TO.P,C2,2*%
%TO.N,Board_3-GND*%
X111600000Y-40100000D03*
%TD*%
D16*
%TO.P,SW2,1,1*%
%TO.N,Board_0-Net-(U1-GPIO2)*%
X107650000Y-29625000D03*
%TO.P,SW2,2,2*%
%TO.N,Board_0-vcc33*%
X107650000Y-21875000D03*
%TD*%
D17*
%TO.P,C1,1*%
%TO.N,Board_12-Net-(U1-GPIO2)*%
X117137500Y-89000000D03*
%TO.P,C1,2*%
%TO.N,Board_12-GND*%
X115062500Y-89000000D03*
%TD*%
D16*
%TO.P,SW2,1,1*%
%TO.N,Board_3-Net-(U1-GPIO2)*%
X107650000Y-44625000D03*
%TO.P,SW2,2,2*%
%TO.N,Board_3-vcc33*%
X107650000Y-36875000D03*
%TD*%
D13*
%TO.P,U3,1,GND*%
%TO.N,Board_5-GND*%
X176987500Y-37600000D03*
D14*
%TO.P,U3,2,VIN*%
%TO.N,Board_5-Net-(J2-VBUS)*%
X176900000Y-39100000D03*
D13*
%TO.P,U3,3,VOUT*%
%TO.N,Board_5-vcc33*%
X176987500Y-40600000D03*
%TD*%
%TO.P,U3,1,GND*%
%TO.N,Board_4-GND*%
X147187500Y-37600000D03*
D14*
%TO.P,U3,2,VIN*%
%TO.N,Board_4-Net-(J2-VBUS)*%
X147100000Y-39100000D03*
D13*
%TO.P,U3,3,VOUT*%
%TO.N,Board_4-vcc33*%
X147187500Y-40600000D03*
%TD*%
D15*
%TO.P,U2,1,VIN*%
%TO.N,Board_13-Net-(J2-VBUS)*%
X142825000Y-87650000D03*
%TO.P,U2,2,GND*%
%TO.N,Board_13-GND*%
X142825000Y-88600000D03*
%TO.P,U2,3,EN*%
%TO.N,Board_13-Net-(J2-VBUS)*%
X142825000Y-89550000D03*
%TO.P,U2,4*%
%TO.N,N/C*%
X140550000Y-89550000D03*
%TO.P,U2,5,VOUT*%
%TO.N,Board_13-vcc33*%
X140550000Y-87650000D03*
%TD*%
D12*
%TO.P,C2,1*%
%TO.N,Board_14-vcc33*%
X171200000Y-83200000D03*
%TO.P,C2,2*%
%TO.N,Board_14-GND*%
X171200000Y-85100000D03*
%TD*%
%TO.P,C2,1*%
%TO.N,Board_7-vcc33*%
X141400000Y-53200000D03*
%TO.P,C2,2*%
%TO.N,Board_7-GND*%
X141400000Y-55100000D03*
%TD*%
D17*
%TO.P,C1,1*%
%TO.N,Board_3-Net-(U1-GPIO2)*%
X117137500Y-44000000D03*
%TO.P,C1,2*%
%TO.N,Board_3-GND*%
X115062500Y-44000000D03*
%TD*%
D12*
%TO.P,C2,1*%
%TO.N,Board_11-vcc33*%
X171200000Y-68200000D03*
%TO.P,C2,2*%
%TO.N,Board_11-GND*%
X171200000Y-70100000D03*
%TD*%
%TO.P,C2,1*%
%TO.N,Board_0-vcc33*%
X111600000Y-23200000D03*
%TO.P,C2,2*%
%TO.N,Board_0-GND*%
X111600000Y-25100000D03*
%TD*%
D16*
%TO.P,SW2,1,1*%
%TO.N,Board_14-Net-(U1-GPIO2)*%
X167250000Y-89625000D03*
%TO.P,SW2,2,2*%
%TO.N,Board_14-vcc33*%
X167250000Y-81875000D03*
%TD*%
D12*
%TO.P,C2,1*%
%TO.N,Board_1-vcc33*%
X141400000Y-23200000D03*
%TO.P,C2,2*%
%TO.N,Board_1-GND*%
X141400000Y-25100000D03*
%TD*%
D15*
%TO.P,U2,1,VIN*%
%TO.N,Board_6-Net-(J2-VBUS)*%
X113025000Y-57650000D03*
%TO.P,U2,2,GND*%
%TO.N,Board_6-GND*%
X113025000Y-58600000D03*
%TO.P,U2,3,EN*%
%TO.N,Board_6-Net-(J2-VBUS)*%
X113025000Y-59550000D03*
%TO.P,U2,4*%
%TO.N,N/C*%
X110750000Y-59550000D03*
%TO.P,U2,5,VOUT*%
%TO.N,Board_6-vcc33*%
X110750000Y-57650000D03*
%TD*%
D12*
%TO.P,C2,1*%
%TO.N,Board_9-vcc33*%
X111600000Y-68200000D03*
%TO.P,C2,2*%
%TO.N,Board_9-GND*%
X111600000Y-70100000D03*
%TD*%
D17*
%TO.P,C1,1*%
%TO.N,Board_2-Net-(U1-GPIO2)*%
X176737500Y-29000000D03*
%TO.P,C1,2*%
%TO.N,Board_2-GND*%
X174662500Y-29000000D03*
%TD*%
%TO.P,C1,1*%
%TO.N,Board_1-Net-(U1-GPIO2)*%
X146937500Y-29000000D03*
%TO.P,C1,2*%
%TO.N,Board_1-GND*%
X144862500Y-29000000D03*
%TD*%
%TO.P,C1,1*%
%TO.N,Board_10-Net-(U1-GPIO2)*%
X146937500Y-74000000D03*
%TO.P,C1,2*%
%TO.N,Board_10-GND*%
X144862500Y-74000000D03*
%TD*%
%TO.P,C1,1*%
%TO.N,Board_0-Net-(U1-GPIO2)*%
X117137500Y-29000000D03*
%TO.P,C1,2*%
%TO.N,Board_0-GND*%
X115062500Y-29000000D03*
%TD*%
D13*
%TO.P,U3,1,GND*%
%TO.N,Board_2-GND*%
X176987500Y-22600000D03*
D14*
%TO.P,U3,2,VIN*%
%TO.N,Board_2-Net-(J2-VBUS)*%
X176900000Y-24100000D03*
D13*
%TO.P,U3,3,VOUT*%
%TO.N,Board_2-vcc33*%
X176987500Y-25600000D03*
%TD*%
%TO.P,U3,1,GND*%
%TO.N,Board_14-GND*%
X176987500Y-82600000D03*
D14*
%TO.P,U3,2,VIN*%
%TO.N,Board_14-Net-(J2-VBUS)*%
X176900000Y-84100000D03*
D13*
%TO.P,U3,3,VOUT*%
%TO.N,Board_14-vcc33*%
X176987500Y-85600000D03*
%TD*%
D16*
%TO.P,SW2,1,1*%
%TO.N,Board_7-Net-(U1-GPIO2)*%
X137450000Y-59625000D03*
%TO.P,SW2,2,2*%
%TO.N,Board_7-vcc33*%
X137450000Y-51875000D03*
%TD*%
D15*
%TO.P,U2,1,VIN*%
%TO.N,Board_11-Net-(J2-VBUS)*%
X172625000Y-72650000D03*
%TO.P,U2,2,GND*%
%TO.N,Board_11-GND*%
X172625000Y-73600000D03*
%TO.P,U2,3,EN*%
%TO.N,Board_11-Net-(J2-VBUS)*%
X172625000Y-74550000D03*
%TO.P,U2,4*%
%TO.N,N/C*%
X170350000Y-74550000D03*
%TO.P,U2,5,VOUT*%
%TO.N,Board_11-vcc33*%
X170350000Y-72650000D03*
%TD*%
D17*
%TO.P,C1,1*%
%TO.N,Board_8-Net-(U1-GPIO2)*%
X176737500Y-59000000D03*
%TO.P,C1,2*%
%TO.N,Board_8-GND*%
X174662500Y-59000000D03*
%TD*%
%TO.P,C1,1*%
%TO.N,Board_6-Net-(U1-GPIO2)*%
X117137500Y-59000000D03*
%TO.P,C1,2*%
%TO.N,Board_6-GND*%
X115062500Y-59000000D03*
%TD*%
D12*
%TO.P,C2,1*%
%TO.N,Board_13-vcc33*%
X141400000Y-83200000D03*
%TO.P,C2,2*%
%TO.N,Board_13-GND*%
X141400000Y-85100000D03*
%TD*%
D13*
%TO.P,U3,1,GND*%
%TO.N,Board_1-GND*%
X147187500Y-22600000D03*
D14*
%TO.P,U3,2,VIN*%
%TO.N,Board_1-Net-(J2-VBUS)*%
X147100000Y-24100000D03*
D13*
%TO.P,U3,3,VOUT*%
%TO.N,Board_1-vcc33*%
X147187500Y-25600000D03*
%TD*%
D16*
%TO.P,SW2,1,1*%
%TO.N,Board_13-Net-(U1-GPIO2)*%
X137450000Y-89625000D03*
%TO.P,SW2,2,2*%
%TO.N,Board_13-vcc33*%
X137450000Y-81875000D03*
%TD*%
D15*
%TO.P,U2,1,VIN*%
%TO.N,Board_7-Net-(J2-VBUS)*%
X142825000Y-57650000D03*
%TO.P,U2,2,GND*%
%TO.N,Board_7-GND*%
X142825000Y-58600000D03*
%TO.P,U2,3,EN*%
%TO.N,Board_7-Net-(J2-VBUS)*%
X142825000Y-59550000D03*
%TO.P,U2,4*%
%TO.N,N/C*%
X140550000Y-59550000D03*
%TO.P,U2,5,VOUT*%
%TO.N,Board_7-vcc33*%
X140550000Y-57650000D03*
%TD*%
%TO.P,U2,1,VIN*%
%TO.N,Board_5-Net-(J2-VBUS)*%
X172625000Y-42650000D03*
%TO.P,U2,2,GND*%
%TO.N,Board_5-GND*%
X172625000Y-43600000D03*
%TO.P,U2,3,EN*%
%TO.N,Board_5-Net-(J2-VBUS)*%
X172625000Y-44550000D03*
%TO.P,U2,4*%
%TO.N,N/C*%
X170350000Y-44550000D03*
%TO.P,U2,5,VOUT*%
%TO.N,Board_5-vcc33*%
X170350000Y-42650000D03*
%TD*%
D16*
%TO.P,SW2,1,1*%
%TO.N,Board_1-Net-(U1-GPIO2)*%
X137450000Y-29625000D03*
%TO.P,SW2,2,2*%
%TO.N,Board_1-vcc33*%
X137450000Y-21875000D03*
%TD*%
D15*
%TO.P,U2,1,VIN*%
%TO.N,Board_1-Net-(J2-VBUS)*%
X142825000Y-27650000D03*
%TO.P,U2,2,GND*%
%TO.N,Board_1-GND*%
X142825000Y-28600000D03*
%TO.P,U2,3,EN*%
%TO.N,Board_1-Net-(J2-VBUS)*%
X142825000Y-29550000D03*
%TO.P,U2,4*%
%TO.N,N/C*%
X140550000Y-29550000D03*
%TO.P,U2,5,VOUT*%
%TO.N,Board_1-vcc33*%
X140550000Y-27650000D03*
%TD*%
%TO.P,U2,1,VIN*%
%TO.N,Board_12-Net-(J2-VBUS)*%
X113025000Y-87650000D03*
%TO.P,U2,2,GND*%
%TO.N,Board_12-GND*%
X113025000Y-88600000D03*
%TO.P,U2,3,EN*%
%TO.N,Board_12-Net-(J2-VBUS)*%
X113025000Y-89550000D03*
%TO.P,U2,4*%
%TO.N,N/C*%
X110750000Y-89550000D03*
%TO.P,U2,5,VOUT*%
%TO.N,Board_12-vcc33*%
X110750000Y-87650000D03*
%TD*%
D12*
%TO.P,C2,1*%
%TO.N,Board_4-vcc33*%
X141400000Y-38200000D03*
%TO.P,C2,2*%
%TO.N,Board_4-GND*%
X141400000Y-40100000D03*
%TD*%
D16*
%TO.P,SW2,1,1*%
%TO.N,Board_9-Net-(U1-GPIO2)*%
X107650000Y-74625000D03*
%TO.P,SW2,2,2*%
%TO.N,Board_9-vcc33*%
X107650000Y-66875000D03*
%TD*%
D17*
%TO.P,C1,1*%
%TO.N,Board_7-Net-(U1-GPIO2)*%
X146937500Y-59000000D03*
%TO.P,C1,2*%
%TO.N,Board_7-GND*%
X144862500Y-59000000D03*
%TD*%
D15*
%TO.P,U2,1,VIN*%
%TO.N,Board_2-Net-(J2-VBUS)*%
X172625000Y-27650000D03*
%TO.P,U2,2,GND*%
%TO.N,Board_2-GND*%
X172625000Y-28600000D03*
%TO.P,U2,3,EN*%
%TO.N,Board_2-Net-(J2-VBUS)*%
X172625000Y-29550000D03*
%TO.P,U2,4*%
%TO.N,N/C*%
X170350000Y-29550000D03*
%TO.P,U2,5,VOUT*%
%TO.N,Board_2-vcc33*%
X170350000Y-27650000D03*
%TD*%
D13*
%TO.P,U3,1,GND*%
%TO.N,Board_10-GND*%
X147187500Y-67600000D03*
D14*
%TO.P,U3,2,VIN*%
%TO.N,Board_10-Net-(J2-VBUS)*%
X147100000Y-69100000D03*
D13*
%TO.P,U3,3,VOUT*%
%TO.N,Board_10-vcc33*%
X147187500Y-70600000D03*
%TD*%
D15*
%TO.P,U2,1,VIN*%
%TO.N,Board_3-Net-(J2-VBUS)*%
X113025000Y-42650000D03*
%TO.P,U2,2,GND*%
%TO.N,Board_3-GND*%
X113025000Y-43600000D03*
%TO.P,U2,3,EN*%
%TO.N,Board_3-Net-(J2-VBUS)*%
X113025000Y-44550000D03*
%TO.P,U2,4*%
%TO.N,N/C*%
X110750000Y-44550000D03*
%TO.P,U2,5,VOUT*%
%TO.N,Board_3-vcc33*%
X110750000Y-42650000D03*
%TD*%
%TO.P,U2,1,VIN*%
%TO.N,Board_8-Net-(J2-VBUS)*%
X172625000Y-57650000D03*
%TO.P,U2,2,GND*%
%TO.N,Board_8-GND*%
X172625000Y-58600000D03*
%TO.P,U2,3,EN*%
%TO.N,Board_8-Net-(J2-VBUS)*%
X172625000Y-59550000D03*
%TO.P,U2,4*%
%TO.N,N/C*%
X170350000Y-59550000D03*
%TO.P,U2,5,VOUT*%
%TO.N,Board_8-vcc33*%
X170350000Y-57650000D03*
%TD*%
D16*
%TO.P,SW2,1,1*%
%TO.N,Board_12-Net-(U1-GPIO2)*%
X107650000Y-89625000D03*
%TO.P,SW2,2,2*%
%TO.N,Board_12-vcc33*%
X107650000Y-81875000D03*
%TD*%
D13*
%TO.P,U3,1,GND*%
%TO.N,Board_3-GND*%
X117387500Y-37600000D03*
D14*
%TO.P,U3,2,VIN*%
%TO.N,Board_3-Net-(J2-VBUS)*%
X117300000Y-39100000D03*
D13*
%TO.P,U3,3,VOUT*%
%TO.N,Board_3-vcc33*%
X117387500Y-40600000D03*
%TD*%
D17*
%TO.P,C1,1*%
%TO.N,Board_13-Net-(U1-GPIO2)*%
X146937500Y-89000000D03*
%TO.P,C1,2*%
%TO.N,Board_13-GND*%
X144862500Y-89000000D03*
%TD*%
D16*
%TO.P,SW2,1,1*%
%TO.N,Board_4-Net-(U1-GPIO2)*%
X137450000Y-44625000D03*
%TO.P,SW2,2,2*%
%TO.N,Board_4-vcc33*%
X137450000Y-36875000D03*
%TD*%
D17*
%TO.P,C1,1*%
%TO.N,Board_14-Net-(U1-GPIO2)*%
X176737500Y-89000000D03*
%TO.P,C1,2*%
%TO.N,Board_14-GND*%
X174662500Y-89000000D03*
%TD*%
D12*
%TO.P,C2,1*%
%TO.N,Board_10-vcc33*%
X141400000Y-68200000D03*
%TO.P,C2,2*%
%TO.N,Board_10-GND*%
X141400000Y-70100000D03*
%TD*%
D16*
%TO.P,SW2,1,1*%
%TO.N,Board_2-Net-(U1-GPIO2)*%
X167250000Y-29625000D03*
%TO.P,SW2,2,2*%
%TO.N,Board_2-vcc33*%
X167250000Y-21875000D03*
%TD*%
D13*
%TO.P,U3,1,GND*%
%TO.N,Board_13-GND*%
X147187500Y-82600000D03*
D14*
%TO.P,U3,2,VIN*%
%TO.N,Board_13-Net-(J2-VBUS)*%
X147100000Y-84100000D03*
D13*
%TO.P,U3,3,VOUT*%
%TO.N,Board_13-vcc33*%
X147187500Y-85600000D03*
%TD*%
D16*
%TO.P,SW2,1,1*%
%TO.N,Board_8-Net-(U1-GPIO2)*%
X167250000Y-59625000D03*
%TO.P,SW2,2,2*%
%TO.N,Board_8-vcc33*%
X167250000Y-51875000D03*
%TD*%
D13*
%TO.P,U3,1,GND*%
%TO.N,Board_0-GND*%
X117387500Y-22600000D03*
D14*
%TO.P,U3,2,VIN*%
%TO.N,Board_0-Net-(J2-VBUS)*%
X117300000Y-24100000D03*
D13*
%TO.P,U3,3,VOUT*%
%TO.N,Board_0-vcc33*%
X117387500Y-25600000D03*
%TD*%
D15*
%TO.P,U2,1,VIN*%
%TO.N,Board_14-Net-(J2-VBUS)*%
X172625000Y-87650000D03*
%TO.P,U2,2,GND*%
%TO.N,Board_14-GND*%
X172625000Y-88600000D03*
%TO.P,U2,3,EN*%
%TO.N,Board_14-Net-(J2-VBUS)*%
X172625000Y-89550000D03*
%TO.P,U2,4*%
%TO.N,N/C*%
X170350000Y-89550000D03*
%TO.P,U2,5,VOUT*%
%TO.N,Board_14-vcc33*%
X170350000Y-87650000D03*
%TD*%
D12*
%TO.P,C2,1*%
%TO.N,Board_2-vcc33*%
X171200000Y-23200000D03*
%TO.P,C2,2*%
%TO.N,Board_2-GND*%
X171200000Y-25100000D03*
%TD*%
D15*
%TO.P,U2,1,VIN*%
%TO.N,Board_0-Net-(J2-VBUS)*%
X113025000Y-27650000D03*
%TO.P,U2,2,GND*%
%TO.N,Board_0-GND*%
X113025000Y-28600000D03*
%TO.P,U2,3,EN*%
%TO.N,Board_0-Net-(J2-VBUS)*%
X113025000Y-29550000D03*
%TO.P,U2,4*%
%TO.N,N/C*%
X110750000Y-29550000D03*
%TO.P,U2,5,VOUT*%
%TO.N,Board_0-vcc33*%
X110750000Y-27650000D03*
%TD*%
%TO.P,U2,1,VIN*%
%TO.N,Board_10-Net-(J2-VBUS)*%
X142825000Y-72650000D03*
%TO.P,U2,2,GND*%
%TO.N,Board_10-GND*%
X142825000Y-73600000D03*
%TO.P,U2,3,EN*%
%TO.N,Board_10-Net-(J2-VBUS)*%
X142825000Y-74550000D03*
%TO.P,U2,4*%
%TO.N,N/C*%
X140550000Y-74550000D03*
%TO.P,U2,5,VOUT*%
%TO.N,Board_10-vcc33*%
X140550000Y-72650000D03*
%TD*%
D12*
%TO.P,C2,1*%
%TO.N,Board_12-vcc33*%
X111600000Y-83200000D03*
%TO.P,C2,2*%
%TO.N,Board_12-GND*%
X111600000Y-85100000D03*
%TD*%
%TO.P,C2,1*%
%TO.N,Board_6-vcc33*%
X111600000Y-53200000D03*
%TO.P,C2,2*%
%TO.N,Board_6-GND*%
X111600000Y-55100000D03*
%TD*%
D13*
%TO.P,U3,1,GND*%
%TO.N,Board_9-GND*%
X117387500Y-67600000D03*
D14*
%TO.P,U3,2,VIN*%
%TO.N,Board_9-Net-(J2-VBUS)*%
X117300000Y-69100000D03*
D13*
%TO.P,U3,3,VOUT*%
%TO.N,Board_9-vcc33*%
X117387500Y-70600000D03*
%TD*%
%TO.P,U3,1,GND*%
%TO.N,Board_11-GND*%
X176987500Y-67600000D03*
D14*
%TO.P,U3,2,VIN*%
%TO.N,Board_11-Net-(J2-VBUS)*%
X176900000Y-69100000D03*
D13*
%TO.P,U3,3,VOUT*%
%TO.N,Board_11-vcc33*%
X176987500Y-70600000D03*
%TD*%
D17*
%TO.P,C1,1*%
%TO.N,Board_11-Net-(U1-GPIO2)*%
X176737500Y-74000000D03*
%TO.P,C1,2*%
%TO.N,Board_11-GND*%
X174662500Y-74000000D03*
%TD*%
%TO.P,C1,1*%
%TO.N,Board_9-Net-(U1-GPIO2)*%
X117137500Y-74000000D03*
%TO.P,C1,2*%
%TO.N,Board_9-GND*%
X115062500Y-74000000D03*
%TD*%
D16*
%TO.P,SW2,1,1*%
%TO.N,Board_5-Net-(U1-GPIO2)*%
X167250000Y-44625000D03*
%TO.P,SW2,2,2*%
%TO.N,Board_5-vcc33*%
X167250000Y-36875000D03*
%TD*%
D17*
%TO.P,C1,1*%
%TO.N,Board_4-Net-(U1-GPIO2)*%
X146937500Y-44000000D03*
%TO.P,C1,2*%
%TO.N,Board_4-GND*%
X144862500Y-44000000D03*
%TD*%
D13*
%TO.P,U3,1,GND*%
%TO.N,Board_12-GND*%
X117387500Y-82600000D03*
D14*
%TO.P,U3,2,VIN*%
%TO.N,Board_12-Net-(J2-VBUS)*%
X117300000Y-84100000D03*
D13*
%TO.P,U3,3,VOUT*%
%TO.N,Board_12-vcc33*%
X117387500Y-85600000D03*
%TD*%
%TO.P,U3,1,GND*%
%TO.N,Board_7-GND*%
X147187500Y-52600000D03*
D14*
%TO.P,U3,2,VIN*%
%TO.N,Board_7-Net-(J2-VBUS)*%
X147100000Y-54100000D03*
D13*
%TO.P,U3,3,VOUT*%
%TO.N,Board_7-vcc33*%
X147187500Y-55600000D03*
%TD*%
D12*
%TO.P,C2,1*%
%TO.N,Board_5-vcc33*%
X171200000Y-38200000D03*
%TO.P,C2,2*%
%TO.N,Board_5-GND*%
X171200000Y-40100000D03*
%TD*%
D16*
%TO.P,SW2,1,1*%
%TO.N,Board_10-Net-(U1-GPIO2)*%
X137450000Y-74625000D03*
%TO.P,SW2,2,2*%
%TO.N,Board_10-vcc33*%
X137450000Y-66875000D03*
%TD*%
D13*
%TO.P,U3,1,GND*%
%TO.N,Board_6-GND*%
X117387500Y-52600000D03*
D14*
%TO.P,U3,2,VIN*%
%TO.N,Board_6-Net-(J2-VBUS)*%
X117300000Y-54100000D03*
D13*
%TO.P,U3,3,VOUT*%
%TO.N,Board_6-vcc33*%
X117387500Y-55600000D03*
%TD*%
D16*
%TO.P,SW2,1,1*%
%TO.N,Board_11-Net-(U1-GPIO2)*%
X167250000Y-74625000D03*
%TO.P,SW2,2,2*%
%TO.N,Board_11-vcc33*%
X167250000Y-66875000D03*
%TD*%
%TO.P,SW2,1,1*%
%TO.N,Board_6-Net-(U1-GPIO2)*%
X107650000Y-59625000D03*
%TO.P,SW2,2,2*%
%TO.N,Board_6-vcc33*%
X107650000Y-51875000D03*
%TD*%
D17*
%TO.P,C1,1*%
%TO.N,Board_5-Net-(U1-GPIO2)*%
X176737500Y-44000000D03*
%TO.P,C1,2*%
%TO.N,Board_5-GND*%
X174662500Y-44000000D03*
%TD*%
D18*
%TO.N,Board_0-GND*%
X121874300Y-30557500D03*
%TO.N,Board_0-Net-(J2-VBUS)*%
X112416700Y-26256200D03*
X110027500Y-26448700D03*
%TO.N,Board_0-Net-(U1-GPIO2)*%
X117758900Y-27417300D03*
X107959300Y-26917700D03*
%TO.N,Board_0-vcc33*%
X116577900Y-27396000D03*
X109597800Y-28235900D03*
%TO.N,Board_1-GND*%
X151674300Y-30557500D03*
%TO.N,Board_1-Net-(J2-VBUS)*%
X139827500Y-26448700D03*
X142216700Y-26256200D03*
%TO.N,Board_1-Net-(U1-GPIO2)*%
X147558900Y-27417300D03*
X137759300Y-26917700D03*
%TO.N,Board_1-vcc33*%
X146377900Y-27396000D03*
X139397800Y-28235900D03*
%TO.N,Board_2-GND*%
X181474300Y-30557500D03*
%TO.N,Board_2-Net-(J2-VBUS)*%
X172016700Y-26256200D03*
X169627500Y-26448700D03*
%TO.N,Board_2-Net-(U1-GPIO2)*%
X167559300Y-26917700D03*
X177358900Y-27417300D03*
%TO.N,Board_2-vcc33*%
X169197800Y-28235900D03*
X176177900Y-27396000D03*
%TO.N,Board_3-GND*%
X121874300Y-45557500D03*
%TO.N,Board_3-Net-(J2-VBUS)*%
X112416700Y-41256200D03*
X110027500Y-41448700D03*
%TO.N,Board_3-Net-(U1-GPIO2)*%
X117758900Y-42417300D03*
X107959300Y-41917700D03*
%TO.N,Board_3-vcc33*%
X109597800Y-43235900D03*
X116577900Y-42396000D03*
%TO.N,Board_4-GND*%
X151674300Y-45557500D03*
%TO.N,Board_4-Net-(J2-VBUS)*%
X139827500Y-41448700D03*
X142216700Y-41256200D03*
%TO.N,Board_4-Net-(U1-GPIO2)*%
X137759300Y-41917700D03*
X147558900Y-42417300D03*
%TO.N,Board_4-vcc33*%
X139397800Y-43235900D03*
X146377900Y-42396000D03*
%TO.N,Board_5-GND*%
X181474300Y-45557500D03*
%TO.N,Board_5-Net-(J2-VBUS)*%
X169627500Y-41448700D03*
X172016700Y-41256200D03*
%TO.N,Board_5-Net-(U1-GPIO2)*%
X177358900Y-42417300D03*
X167559300Y-41917700D03*
%TO.N,Board_5-vcc33*%
X169197800Y-43235900D03*
X176177900Y-42396000D03*
%TO.N,Board_6-GND*%
X121874300Y-60557500D03*
%TO.N,Board_6-Net-(J2-VBUS)*%
X110027500Y-56448700D03*
X112416700Y-56256200D03*
%TO.N,Board_6-Net-(U1-GPIO2)*%
X107959300Y-56917700D03*
X117758900Y-57417300D03*
%TO.N,Board_6-vcc33*%
X109597800Y-58235900D03*
X116577900Y-57396000D03*
%TO.N,Board_7-GND*%
X151674300Y-60557500D03*
%TO.N,Board_7-Net-(J2-VBUS)*%
X139827500Y-56448700D03*
X142216700Y-56256200D03*
%TO.N,Board_7-Net-(U1-GPIO2)*%
X147558900Y-57417300D03*
X137759300Y-56917700D03*
%TO.N,Board_7-vcc33*%
X146377900Y-57396000D03*
X139397800Y-58235900D03*
%TO.N,Board_8-GND*%
X181474300Y-60557500D03*
%TO.N,Board_8-Net-(J2-VBUS)*%
X172016700Y-56256200D03*
X169627500Y-56448700D03*
%TO.N,Board_8-Net-(U1-GPIO2)*%
X167559300Y-56917700D03*
X177358900Y-57417300D03*
%TO.N,Board_8-vcc33*%
X176177900Y-57396000D03*
X169197800Y-58235900D03*
%TO.N,Board_9-GND*%
X121874300Y-75557500D03*
%TO.N,Board_9-Net-(J2-VBUS)*%
X110027500Y-71448700D03*
X112416700Y-71256200D03*
%TO.N,Board_9-Net-(U1-GPIO2)*%
X107959300Y-71917700D03*
X117758900Y-72417300D03*
%TO.N,Board_9-vcc33*%
X116577900Y-72396000D03*
X109597800Y-73235900D03*
%TO.N,Board_10-GND*%
X151674300Y-75557500D03*
%TO.N,Board_10-Net-(J2-VBUS)*%
X139827500Y-71448700D03*
X142216700Y-71256200D03*
%TO.N,Board_10-Net-(U1-GPIO2)*%
X137759300Y-71917700D03*
X147558900Y-72417300D03*
%TO.N,Board_10-vcc33*%
X139397800Y-73235900D03*
X146377900Y-72396000D03*
%TO.N,Board_11-GND*%
X181474300Y-75557500D03*
%TO.N,Board_11-Net-(J2-VBUS)*%
X172016700Y-71256200D03*
X169627500Y-71448700D03*
%TO.N,Board_11-Net-(U1-GPIO2)*%
X167559300Y-71917700D03*
X177358900Y-72417300D03*
%TO.N,Board_11-vcc33*%
X169197800Y-73235900D03*
X176177900Y-72396000D03*
%TO.N,Board_12-GND*%
X121874300Y-90557500D03*
%TO.N,Board_12-Net-(J2-VBUS)*%
X112416700Y-86256200D03*
X110027500Y-86448700D03*
%TO.N,Board_12-Net-(U1-GPIO2)*%
X107959300Y-86917700D03*
X117758900Y-87417300D03*
%TO.N,Board_12-vcc33*%
X109597800Y-88235900D03*
X116577900Y-87396000D03*
%TO.N,Board_13-GND*%
X151674300Y-90557500D03*
%TO.N,Board_13-Net-(J2-VBUS)*%
X142216700Y-86256200D03*
X139827500Y-86448700D03*
%TO.N,Board_13-Net-(U1-GPIO2)*%
X137759300Y-86917700D03*
X147558900Y-87417300D03*
%TO.N,Board_13-vcc33*%
X146377900Y-87396000D03*
X139397800Y-88235900D03*
%TO.N,Board_14-GND*%
X181474300Y-90557500D03*
%TO.N,Board_14-Net-(J2-VBUS)*%
X172016700Y-86256200D03*
X169627500Y-86448700D03*
%TO.N,Board_14-Net-(U1-GPIO2)*%
X177358900Y-87417300D03*
X167559300Y-86917700D03*
%TO.N,Board_14-vcc33*%
X176177900Y-87396000D03*
X169197800Y-88235900D03*
%TD*%
D19*
%TO.N,Board_0-GND*%
X114662500Y-28600000D02*
X113025000Y-28600000D01*
X113076000Y-23078700D02*
X113554700Y-22600000D01*
X110961500Y-22291800D02*
X110169000Y-21499300D01*
X112036700Y-27369300D02*
X111600000Y-26932600D01*
X112722500Y-23432200D02*
X113076000Y-23078700D01*
X121874300Y-24150500D02*
X120016900Y-22293100D01*
X112289000Y-22291800D02*
X110961500Y-22291800D01*
X113076000Y-23078700D02*
X112289000Y-22291800D01*
X113554700Y-22600000D02*
X117387500Y-22600000D01*
X110169000Y-21499300D02*
X110169000Y-21000000D01*
X112036700Y-27996900D02*
X112036700Y-27369300D01*
X112722500Y-23977500D02*
X112722500Y-23432200D01*
X113025000Y-28600000D02*
X112639800Y-28600000D01*
X121874300Y-30557500D02*
X121874300Y-24150500D01*
X111600000Y-26932600D02*
X111600000Y-25100000D01*
X117694400Y-22293100D02*
X117387500Y-22600000D01*
X112639800Y-28600000D02*
X112036700Y-27996900D01*
X120016900Y-22293100D02*
X117694400Y-22293100D01*
X111600000Y-25100000D02*
X112722500Y-23977500D01*
X115062500Y-29000000D02*
X114662500Y-28600000D01*
%TO.N,Board_0-Net-(J2-VBUS)*%
X114535500Y-26864500D02*
X113025000Y-26864500D01*
X109293600Y-28964500D02*
X109894900Y-28964500D01*
X111622300Y-28924200D02*
X112248100Y-29550000D01*
X113025000Y-27650000D02*
X113025000Y-26864500D01*
X108862300Y-28533200D02*
X109293600Y-28964500D01*
X109894900Y-28964500D02*
X109935200Y-28924200D01*
X113025000Y-26864500D02*
X112416700Y-26256200D01*
X109935200Y-28924200D02*
X111622300Y-28924200D01*
X117300000Y-24100000D02*
X114535500Y-26864500D01*
X108862300Y-27841200D02*
X108862300Y-28533200D01*
X112248100Y-29550000D02*
X113025000Y-29550000D01*
X110027500Y-26676000D02*
X108862300Y-27841200D01*
X110027500Y-26448700D02*
X110027500Y-26676000D01*
%TO.N,Board_0-Net-(U1-GPIO2)*%
X117758900Y-27417300D02*
X117758900Y-28378600D01*
X107650000Y-29625000D02*
X107650000Y-28674900D01*
X117758900Y-28378600D02*
X117137500Y-29000000D01*
X107650000Y-28674900D02*
X107959300Y-28365600D01*
X107959300Y-28365600D02*
X107959300Y-26917700D01*
%TO.N,Board_0-vcc33*%
X107650000Y-21875000D02*
X108475100Y-21875000D01*
X109800100Y-23200000D02*
X110518500Y-23200000D01*
X110752600Y-27647400D02*
X110752600Y-26148300D01*
X117387500Y-25600000D02*
X117387500Y-26375100D01*
X110518500Y-25914200D02*
X110518500Y-23200000D01*
X110750000Y-27650000D02*
X110752600Y-27647400D01*
X110518500Y-23200000D02*
X111600000Y-23200000D01*
X110750000Y-27650000D02*
X110164100Y-28235900D01*
X117387500Y-26375100D02*
X116577900Y-27184700D01*
X110752600Y-26148300D02*
X110518500Y-25914200D01*
X108475100Y-21875000D02*
X109800100Y-23200000D01*
X110164100Y-28235900D02*
X109597800Y-28235900D01*
X116577900Y-27184700D02*
X116577900Y-27396000D01*
%TO.N,Board_1-GND*%
X142825000Y-28600000D02*
X142439800Y-28600000D01*
X141836700Y-27996900D02*
X141836700Y-27369300D01*
X144862500Y-29000000D02*
X144462500Y-28600000D01*
X144462500Y-28600000D02*
X142825000Y-28600000D01*
X142876000Y-23078700D02*
X143354700Y-22600000D01*
X142522500Y-23432200D02*
X142876000Y-23078700D01*
X139969000Y-21499300D02*
X139969000Y-21000000D01*
X147494400Y-22293100D02*
X147187500Y-22600000D01*
X142439800Y-28600000D02*
X141836700Y-27996900D01*
X151674300Y-30557500D02*
X151674300Y-24150500D01*
X142876000Y-23078700D02*
X142089000Y-22291800D01*
X149816900Y-22293100D02*
X147494400Y-22293100D01*
X141400000Y-26932600D02*
X141400000Y-25100000D01*
X142089000Y-22291800D02*
X140761500Y-22291800D01*
X142522500Y-23977500D02*
X142522500Y-23432200D01*
X140761500Y-22291800D02*
X139969000Y-21499300D01*
X141836700Y-27369300D02*
X141400000Y-26932600D01*
X143354700Y-22600000D02*
X147187500Y-22600000D01*
X151674300Y-24150500D02*
X149816900Y-22293100D01*
X141400000Y-25100000D02*
X142522500Y-23977500D01*
%TO.N,Board_1-Net-(J2-VBUS)*%
X139827500Y-26448700D02*
X139827500Y-26676000D01*
X142048100Y-29550000D02*
X142825000Y-29550000D01*
X138662300Y-27841200D02*
X138662300Y-28533200D01*
X142825000Y-27650000D02*
X142825000Y-26864500D01*
X139093600Y-28964500D02*
X139694900Y-28964500D01*
X139827500Y-26676000D02*
X138662300Y-27841200D01*
X142825000Y-26864500D02*
X142216700Y-26256200D01*
X138662300Y-28533200D02*
X139093600Y-28964500D01*
X139735200Y-28924200D02*
X141422300Y-28924200D01*
X144335500Y-26864500D02*
X142825000Y-26864500D01*
X141422300Y-28924200D02*
X142048100Y-29550000D01*
X139694900Y-28964500D02*
X139735200Y-28924200D01*
X147100000Y-24100000D02*
X144335500Y-26864500D01*
%TO.N,Board_1-Net-(U1-GPIO2)*%
X137450000Y-28674900D02*
X137759300Y-28365600D01*
X147558900Y-27417300D02*
X147558900Y-28378600D01*
X137759300Y-28365600D02*
X137759300Y-26917700D01*
X147558900Y-28378600D02*
X146937500Y-29000000D01*
X137450000Y-29625000D02*
X137450000Y-28674900D01*
%TO.N,Board_1-vcc33*%
X146377900Y-27184700D02*
X146377900Y-27396000D01*
X140552600Y-27647400D02*
X140552600Y-26148300D01*
X140318500Y-23200000D02*
X141400000Y-23200000D01*
X140550000Y-27650000D02*
X140552600Y-27647400D01*
X140550000Y-27650000D02*
X139964100Y-28235900D01*
X140318500Y-25914200D02*
X140318500Y-23200000D01*
X139964100Y-28235900D02*
X139397800Y-28235900D01*
X140552600Y-26148300D02*
X140318500Y-25914200D01*
X147187500Y-26375100D02*
X146377900Y-27184700D01*
X147187500Y-25600000D02*
X147187500Y-26375100D01*
X138275100Y-21875000D02*
X139600100Y-23200000D01*
X139600100Y-23200000D02*
X140318500Y-23200000D01*
X137450000Y-21875000D02*
X138275100Y-21875000D01*
%TO.N,Board_2-GND*%
X172239800Y-28600000D02*
X171636700Y-27996900D01*
X170561500Y-22291800D02*
X169769000Y-21499300D01*
X171200000Y-26932600D02*
X171200000Y-25100000D01*
X181474300Y-24150500D02*
X179616900Y-22293100D01*
X172676000Y-23078700D02*
X171889000Y-22291800D01*
X169769000Y-21499300D02*
X169769000Y-21000000D01*
X172625000Y-28600000D02*
X172239800Y-28600000D01*
X171200000Y-25100000D02*
X172322500Y-23977500D01*
X172676000Y-23078700D02*
X173154700Y-22600000D01*
X172322500Y-23977500D02*
X172322500Y-23432200D01*
X177294400Y-22293100D02*
X176987500Y-22600000D01*
X181474300Y-30557500D02*
X181474300Y-24150500D01*
X174262500Y-28600000D02*
X172625000Y-28600000D01*
X173154700Y-22600000D02*
X176987500Y-22600000D01*
X179616900Y-22293100D02*
X177294400Y-22293100D01*
X172322500Y-23432200D02*
X172676000Y-23078700D01*
X171889000Y-22291800D02*
X170561500Y-22291800D01*
X174662500Y-29000000D02*
X174262500Y-28600000D01*
X171636700Y-27996900D02*
X171636700Y-27369300D01*
X171636700Y-27369300D02*
X171200000Y-26932600D01*
%TO.N,Board_2-Net-(J2-VBUS)*%
X174135500Y-26864500D02*
X172625000Y-26864500D01*
X168893600Y-28964500D02*
X169494900Y-28964500D01*
X169535200Y-28924200D02*
X171222300Y-28924200D01*
X168462300Y-28533200D02*
X168893600Y-28964500D01*
X176900000Y-24100000D02*
X174135500Y-26864500D01*
X168462300Y-27841200D02*
X168462300Y-28533200D01*
X169627500Y-26676000D02*
X168462300Y-27841200D01*
X169627500Y-26448700D02*
X169627500Y-26676000D01*
X169494900Y-28964500D02*
X169535200Y-28924200D01*
X171222300Y-28924200D02*
X171848100Y-29550000D01*
X172625000Y-27650000D02*
X172625000Y-26864500D01*
X171848100Y-29550000D02*
X172625000Y-29550000D01*
X172625000Y-26864500D02*
X172016700Y-26256200D01*
%TO.N,Board_2-Net-(U1-GPIO2)*%
X177358900Y-27417300D02*
X177358900Y-28378600D01*
X167559300Y-28365600D02*
X167559300Y-26917700D01*
X167250000Y-29625000D02*
X167250000Y-28674900D01*
X177358900Y-28378600D02*
X176737500Y-29000000D01*
X167250000Y-28674900D02*
X167559300Y-28365600D01*
%TO.N,Board_2-vcc33*%
X169400100Y-23200000D02*
X170118500Y-23200000D01*
X169764100Y-28235900D02*
X169197800Y-28235900D01*
X170352600Y-27647400D02*
X170352600Y-26148300D01*
X170350000Y-27650000D02*
X169764100Y-28235900D01*
X176987500Y-26375100D02*
X176177900Y-27184700D01*
X176987500Y-25600000D02*
X176987500Y-26375100D01*
X170118500Y-23200000D02*
X171200000Y-23200000D01*
X176177900Y-27184700D02*
X176177900Y-27396000D01*
X170118500Y-25914200D02*
X170118500Y-23200000D01*
X167250000Y-21875000D02*
X168075100Y-21875000D01*
X170350000Y-27650000D02*
X170352600Y-27647400D01*
X170352600Y-26148300D02*
X170118500Y-25914200D01*
X168075100Y-21875000D02*
X169400100Y-23200000D01*
%TO.N,Board_3-GND*%
X112289000Y-37291800D02*
X110961500Y-37291800D01*
X114662500Y-43600000D02*
X113025000Y-43600000D01*
X112036700Y-42996900D02*
X112036700Y-42369300D01*
X112722500Y-38432200D02*
X113076000Y-38078700D01*
X121874300Y-39150500D02*
X120016900Y-37293100D01*
X112722500Y-38977500D02*
X112722500Y-38432200D01*
X113554700Y-37600000D02*
X117387500Y-37600000D01*
X110961500Y-37291800D02*
X110169000Y-36499300D01*
X113076000Y-38078700D02*
X112289000Y-37291800D01*
X117694400Y-37293100D02*
X117387500Y-37600000D01*
X110169000Y-36499300D02*
X110169000Y-36000000D01*
X111600000Y-40100000D02*
X112722500Y-38977500D01*
X111600000Y-41932600D02*
X111600000Y-40100000D01*
X112036700Y-42369300D02*
X111600000Y-41932600D01*
X121874300Y-45557500D02*
X121874300Y-39150500D01*
X113025000Y-43600000D02*
X112639800Y-43600000D01*
X113076000Y-38078700D02*
X113554700Y-37600000D01*
X120016900Y-37293100D02*
X117694400Y-37293100D01*
X115062500Y-44000000D02*
X114662500Y-43600000D01*
X112639800Y-43600000D02*
X112036700Y-42996900D01*
%TO.N,Board_3-Net-(J2-VBUS)*%
X109935200Y-43924200D02*
X111622300Y-43924200D01*
X110027500Y-41448700D02*
X110027500Y-41676000D01*
X110027500Y-41676000D02*
X108862300Y-42841200D01*
X113025000Y-41864500D02*
X112416700Y-41256200D01*
X114535500Y-41864500D02*
X113025000Y-41864500D01*
X117300000Y-39100000D02*
X114535500Y-41864500D01*
X109293600Y-43964500D02*
X109894900Y-43964500D01*
X108862300Y-43533200D02*
X109293600Y-43964500D01*
X111622300Y-43924200D02*
X112248100Y-44550000D01*
X108862300Y-42841200D02*
X108862300Y-43533200D01*
X109894900Y-43964500D02*
X109935200Y-43924200D01*
X112248100Y-44550000D02*
X113025000Y-44550000D01*
X113025000Y-42650000D02*
X113025000Y-41864500D01*
%TO.N,Board_3-Net-(U1-GPIO2)*%
X107959300Y-43365600D02*
X107959300Y-41917700D01*
X117758900Y-43378600D02*
X117137500Y-44000000D01*
X107650000Y-43674900D02*
X107959300Y-43365600D01*
X117758900Y-42417300D02*
X117758900Y-43378600D01*
X107650000Y-44625000D02*
X107650000Y-43674900D01*
%TO.N,Board_3-vcc33*%
X109800100Y-38200000D02*
X110518500Y-38200000D01*
X110750000Y-42650000D02*
X110164100Y-43235900D01*
X108475100Y-36875000D02*
X109800100Y-38200000D01*
X110518500Y-38200000D02*
X111600000Y-38200000D01*
X116577900Y-42184700D02*
X116577900Y-42396000D01*
X117387500Y-41375100D02*
X116577900Y-42184700D01*
X110752600Y-41148300D02*
X110518500Y-40914200D01*
X110518500Y-40914200D02*
X110518500Y-38200000D01*
X110750000Y-42650000D02*
X110752600Y-42647400D01*
X110752600Y-42647400D02*
X110752600Y-41148300D01*
X117387500Y-40600000D02*
X117387500Y-41375100D01*
X107650000Y-36875000D02*
X108475100Y-36875000D01*
X110164100Y-43235900D02*
X109597800Y-43235900D01*
%TO.N,Board_4-GND*%
X141836700Y-42369300D02*
X141400000Y-41932600D01*
X142825000Y-43600000D02*
X142439800Y-43600000D01*
X142522500Y-38432200D02*
X142876000Y-38078700D01*
X151674300Y-45557500D02*
X151674300Y-39150500D01*
X142876000Y-38078700D02*
X143354700Y-37600000D01*
X141400000Y-40100000D02*
X142522500Y-38977500D01*
X142522500Y-38977500D02*
X142522500Y-38432200D01*
X142089000Y-37291800D02*
X140761500Y-37291800D01*
X142876000Y-38078700D02*
X142089000Y-37291800D01*
X142439800Y-43600000D02*
X141836700Y-42996900D01*
X140761500Y-37291800D02*
X139969000Y-36499300D01*
X141836700Y-42996900D02*
X141836700Y-42369300D01*
X144462500Y-43600000D02*
X142825000Y-43600000D01*
X139969000Y-36499300D02*
X139969000Y-36000000D01*
X143354700Y-37600000D02*
X147187500Y-37600000D01*
X151674300Y-39150500D02*
X149816900Y-37293100D01*
X144862500Y-44000000D02*
X144462500Y-43600000D01*
X149816900Y-37293100D02*
X147494400Y-37293100D01*
X141400000Y-41932600D02*
X141400000Y-40100000D01*
X147494400Y-37293100D02*
X147187500Y-37600000D01*
%TO.N,Board_4-Net-(J2-VBUS)*%
X139735200Y-43924200D02*
X141422300Y-43924200D01*
X138662300Y-43533200D02*
X139093600Y-43964500D01*
X144335500Y-41864500D02*
X142825000Y-41864500D01*
X147100000Y-39100000D02*
X144335500Y-41864500D01*
X139827500Y-41676000D02*
X138662300Y-42841200D01*
X139827500Y-41448700D02*
X139827500Y-41676000D01*
X139694900Y-43964500D02*
X139735200Y-43924200D01*
X139093600Y-43964500D02*
X139694900Y-43964500D01*
X142825000Y-42650000D02*
X142825000Y-41864500D01*
X138662300Y-42841200D02*
X138662300Y-43533200D01*
X142825000Y-41864500D02*
X142216700Y-41256200D01*
X141422300Y-43924200D02*
X142048100Y-44550000D01*
X142048100Y-44550000D02*
X142825000Y-44550000D01*
%TO.N,Board_4-Net-(U1-GPIO2)*%
X137759300Y-43365600D02*
X137759300Y-41917700D01*
X147558900Y-43378600D02*
X146937500Y-44000000D01*
X147558900Y-42417300D02*
X147558900Y-43378600D01*
X137450000Y-43674900D02*
X137759300Y-43365600D01*
X137450000Y-44625000D02*
X137450000Y-43674900D01*
%TO.N,Board_4-vcc33*%
X138275100Y-36875000D02*
X139600100Y-38200000D01*
X147187500Y-41375100D02*
X146377900Y-42184700D01*
X140552600Y-42647400D02*
X140552600Y-41148300D01*
X140318500Y-40914200D02*
X140318500Y-38200000D01*
X140552600Y-41148300D02*
X140318500Y-40914200D01*
X140550000Y-42650000D02*
X140552600Y-42647400D01*
X139600100Y-38200000D02*
X140318500Y-38200000D01*
X140318500Y-38200000D02*
X141400000Y-38200000D01*
X140550000Y-42650000D02*
X139964100Y-43235900D01*
X139964100Y-43235900D02*
X139397800Y-43235900D01*
X137450000Y-36875000D02*
X138275100Y-36875000D01*
X146377900Y-42184700D02*
X146377900Y-42396000D01*
X147187500Y-40600000D02*
X147187500Y-41375100D01*
%TO.N,Board_5-GND*%
X169769000Y-36499300D02*
X169769000Y-36000000D01*
X171200000Y-40100000D02*
X172322500Y-38977500D01*
X181474300Y-39150500D02*
X179616900Y-37293100D01*
X174662500Y-44000000D02*
X174262500Y-43600000D01*
X177294400Y-37293100D02*
X176987500Y-37600000D01*
X179616900Y-37293100D02*
X177294400Y-37293100D01*
X171636700Y-42369300D02*
X171200000Y-41932600D01*
X172676000Y-38078700D02*
X171889000Y-37291800D01*
X171200000Y-41932600D02*
X171200000Y-40100000D01*
X172322500Y-38432200D02*
X172676000Y-38078700D01*
X172676000Y-38078700D02*
X173154700Y-37600000D01*
X171636700Y-42996900D02*
X171636700Y-42369300D01*
X171889000Y-37291800D02*
X170561500Y-37291800D01*
X174262500Y-43600000D02*
X172625000Y-43600000D01*
X172239800Y-43600000D02*
X171636700Y-42996900D01*
X172625000Y-43600000D02*
X172239800Y-43600000D01*
X173154700Y-37600000D02*
X176987500Y-37600000D01*
X172322500Y-38977500D02*
X172322500Y-38432200D01*
X181474300Y-45557500D02*
X181474300Y-39150500D01*
X170561500Y-37291800D02*
X169769000Y-36499300D01*
%TO.N,Board_5-Net-(J2-VBUS)*%
X174135500Y-41864500D02*
X172625000Y-41864500D01*
X172625000Y-41864500D02*
X172016700Y-41256200D01*
X168893600Y-43964500D02*
X169494900Y-43964500D01*
X176900000Y-39100000D02*
X174135500Y-41864500D01*
X171222300Y-43924200D02*
X171848100Y-44550000D01*
X171848100Y-44550000D02*
X172625000Y-44550000D01*
X172625000Y-42650000D02*
X172625000Y-41864500D01*
X169627500Y-41448700D02*
X169627500Y-41676000D01*
X169627500Y-41676000D02*
X168462300Y-42841200D01*
X168462300Y-42841200D02*
X168462300Y-43533200D01*
X168462300Y-43533200D02*
X168893600Y-43964500D01*
X169494900Y-43964500D02*
X169535200Y-43924200D01*
X169535200Y-43924200D02*
X171222300Y-43924200D01*
%TO.N,Board_5-Net-(U1-GPIO2)*%
X177358900Y-42417300D02*
X177358900Y-43378600D01*
X167250000Y-43674900D02*
X167559300Y-43365600D01*
X167250000Y-44625000D02*
X167250000Y-43674900D01*
X177358900Y-43378600D02*
X176737500Y-44000000D01*
X167559300Y-43365600D02*
X167559300Y-41917700D01*
%TO.N,Board_5-vcc33*%
X170352600Y-41148300D02*
X170118500Y-40914200D01*
X176177900Y-42184700D02*
X176177900Y-42396000D01*
X176987500Y-41375100D02*
X176177900Y-42184700D01*
X169764100Y-43235900D02*
X169197800Y-43235900D01*
X170118500Y-38200000D02*
X171200000Y-38200000D01*
X170352600Y-42647400D02*
X170352600Y-41148300D01*
X169400100Y-38200000D02*
X170118500Y-38200000D01*
X170350000Y-42650000D02*
X169764100Y-43235900D01*
X167250000Y-36875000D02*
X168075100Y-36875000D01*
X168075100Y-36875000D02*
X169400100Y-38200000D01*
X176987500Y-40600000D02*
X176987500Y-41375100D01*
X170118500Y-40914200D02*
X170118500Y-38200000D01*
X170350000Y-42650000D02*
X170352600Y-42647400D01*
%TO.N,Board_6-GND*%
X113076000Y-53078700D02*
X113554700Y-52600000D01*
X117694400Y-52293100D02*
X117387500Y-52600000D01*
X110169000Y-51499300D02*
X110169000Y-51000000D01*
X121874300Y-60557500D02*
X121874300Y-54150500D01*
X111600000Y-55100000D02*
X112722500Y-53977500D01*
X115062500Y-59000000D02*
X114662500Y-58600000D01*
X120016900Y-52293100D02*
X117694400Y-52293100D01*
X114662500Y-58600000D02*
X113025000Y-58600000D01*
X113554700Y-52600000D02*
X117387500Y-52600000D01*
X112722500Y-53432200D02*
X113076000Y-53078700D01*
X110961500Y-52291800D02*
X110169000Y-51499300D01*
X112036700Y-57996900D02*
X112036700Y-57369300D01*
X112722500Y-53977500D02*
X112722500Y-53432200D01*
X112639800Y-58600000D02*
X112036700Y-57996900D01*
X113076000Y-53078700D02*
X112289000Y-52291800D01*
X121874300Y-54150500D02*
X120016900Y-52293100D01*
X112289000Y-52291800D02*
X110961500Y-52291800D01*
X113025000Y-58600000D02*
X112639800Y-58600000D01*
X112036700Y-57369300D02*
X111600000Y-56932600D01*
X111600000Y-56932600D02*
X111600000Y-55100000D01*
%TO.N,Board_6-Net-(J2-VBUS)*%
X109293600Y-58964500D02*
X109894900Y-58964500D01*
X108862300Y-58533200D02*
X109293600Y-58964500D01*
X117300000Y-54100000D02*
X114535500Y-56864500D01*
X114535500Y-56864500D02*
X113025000Y-56864500D01*
X109935200Y-58924200D02*
X111622300Y-58924200D01*
X109894900Y-58964500D02*
X109935200Y-58924200D01*
X108862300Y-57841200D02*
X108862300Y-58533200D01*
X112248100Y-59550000D02*
X113025000Y-59550000D01*
X113025000Y-56864500D02*
X112416700Y-56256200D01*
X111622300Y-58924200D02*
X112248100Y-59550000D01*
X113025000Y-57650000D02*
X113025000Y-56864500D01*
X110027500Y-56676000D02*
X108862300Y-57841200D01*
X110027500Y-56448700D02*
X110027500Y-56676000D01*
%TO.N,Board_6-Net-(U1-GPIO2)*%
X107959300Y-58365600D02*
X107959300Y-56917700D01*
X107650000Y-59625000D02*
X107650000Y-58674900D01*
X117758900Y-57417300D02*
X117758900Y-58378600D01*
X117758900Y-58378600D02*
X117137500Y-59000000D01*
X107650000Y-58674900D02*
X107959300Y-58365600D01*
%TO.N,Board_6-vcc33*%
X107650000Y-51875000D02*
X108475100Y-51875000D01*
X110518500Y-55914200D02*
X110518500Y-53200000D01*
X110518500Y-53200000D02*
X111600000Y-53200000D01*
X110164100Y-58235900D02*
X109597800Y-58235900D01*
X117387500Y-55600000D02*
X117387500Y-56375100D01*
X116577900Y-57184700D02*
X116577900Y-57396000D01*
X108475100Y-51875000D02*
X109800100Y-53200000D01*
X110750000Y-57650000D02*
X110752600Y-57647400D01*
X110752600Y-56148300D02*
X110518500Y-55914200D01*
X110752600Y-57647400D02*
X110752600Y-56148300D01*
X117387500Y-56375100D02*
X116577900Y-57184700D01*
X109800100Y-53200000D02*
X110518500Y-53200000D01*
X110750000Y-57650000D02*
X110164100Y-58235900D01*
%TO.N,Board_7-GND*%
X142089000Y-52291800D02*
X140761500Y-52291800D01*
X140761500Y-52291800D02*
X139969000Y-51499300D01*
X147494400Y-52293100D02*
X147187500Y-52600000D01*
X142876000Y-53078700D02*
X143354700Y-52600000D01*
X142522500Y-53977500D02*
X142522500Y-53432200D01*
X142439800Y-58600000D02*
X141836700Y-57996900D01*
X141836700Y-57996900D02*
X141836700Y-57369300D01*
X151674300Y-54150500D02*
X149816900Y-52293100D01*
X141400000Y-56932600D02*
X141400000Y-55100000D01*
X142876000Y-53078700D02*
X142089000Y-52291800D01*
X139969000Y-51499300D02*
X139969000Y-51000000D01*
X144862500Y-59000000D02*
X144462500Y-58600000D01*
X149816900Y-52293100D02*
X147494400Y-52293100D01*
X141400000Y-55100000D02*
X142522500Y-53977500D01*
X142825000Y-58600000D02*
X142439800Y-58600000D01*
X142522500Y-53432200D02*
X142876000Y-53078700D01*
X144462500Y-58600000D02*
X142825000Y-58600000D01*
X141836700Y-57369300D02*
X141400000Y-56932600D01*
X143354700Y-52600000D02*
X147187500Y-52600000D01*
X151674300Y-60557500D02*
X151674300Y-54150500D01*
%TO.N,Board_7-Net-(J2-VBUS)*%
X139694900Y-58964500D02*
X139735200Y-58924200D01*
X138662300Y-58533200D02*
X139093600Y-58964500D01*
X147100000Y-54100000D02*
X144335500Y-56864500D01*
X144335500Y-56864500D02*
X142825000Y-56864500D01*
X138662300Y-57841200D02*
X138662300Y-58533200D01*
X139827500Y-56676000D02*
X138662300Y-57841200D01*
X141422300Y-58924200D02*
X142048100Y-59550000D01*
X142825000Y-57650000D02*
X142825000Y-56864500D01*
X139827500Y-56448700D02*
X139827500Y-56676000D01*
X142825000Y-56864500D02*
X142216700Y-56256200D01*
X139093600Y-58964500D02*
X139694900Y-58964500D01*
X142048100Y-59550000D02*
X142825000Y-59550000D01*
X139735200Y-58924200D02*
X141422300Y-58924200D01*
%TO.N,Board_7-Net-(U1-GPIO2)*%
X137450000Y-58674900D02*
X137759300Y-58365600D01*
X137450000Y-59625000D02*
X137450000Y-58674900D01*
X147558900Y-57417300D02*
X147558900Y-58378600D01*
X137759300Y-58365600D02*
X137759300Y-56917700D01*
X147558900Y-58378600D02*
X146937500Y-59000000D01*
%TO.N,Board_7-vcc33*%
X140550000Y-57650000D02*
X140552600Y-57647400D01*
X139600100Y-53200000D02*
X140318500Y-53200000D01*
X139964100Y-58235900D02*
X139397800Y-58235900D01*
X147187500Y-56375100D02*
X146377900Y-57184700D01*
X140318500Y-55914200D02*
X140318500Y-53200000D01*
X138275100Y-51875000D02*
X139600100Y-53200000D01*
X146377900Y-57184700D02*
X146377900Y-57396000D01*
X140552600Y-57647400D02*
X140552600Y-56148300D01*
X147187500Y-55600000D02*
X147187500Y-56375100D01*
X140318500Y-53200000D02*
X141400000Y-53200000D01*
X137450000Y-51875000D02*
X138275100Y-51875000D01*
X140552600Y-56148300D02*
X140318500Y-55914200D01*
X140550000Y-57650000D02*
X139964100Y-58235900D01*
%TO.N,Board_8-GND*%
X174262500Y-58600000D02*
X172625000Y-58600000D01*
X171889000Y-52291800D02*
X170561500Y-52291800D01*
X171200000Y-56932600D02*
X171200000Y-55100000D01*
X172322500Y-53432200D02*
X172676000Y-53078700D01*
X172239800Y-58600000D02*
X171636700Y-57996900D01*
X171200000Y-55100000D02*
X172322500Y-53977500D01*
X179616900Y-52293100D02*
X177294400Y-52293100D01*
X170561500Y-52291800D02*
X169769000Y-51499300D01*
X174662500Y-59000000D02*
X174262500Y-58600000D01*
X181474300Y-60557500D02*
X181474300Y-54150500D01*
X172625000Y-58600000D02*
X172239800Y-58600000D01*
X169769000Y-51499300D02*
X169769000Y-51000000D01*
X172676000Y-53078700D02*
X171889000Y-52291800D01*
X171636700Y-57369300D02*
X171200000Y-56932600D01*
X171636700Y-57996900D02*
X171636700Y-57369300D01*
X181474300Y-54150500D02*
X179616900Y-52293100D01*
X172322500Y-53977500D02*
X172322500Y-53432200D01*
X173154700Y-52600000D02*
X176987500Y-52600000D01*
X172676000Y-53078700D02*
X173154700Y-52600000D01*
X177294400Y-52293100D02*
X176987500Y-52600000D01*
%TO.N,Board_8-Net-(J2-VBUS)*%
X176900000Y-54100000D02*
X174135500Y-56864500D01*
X171222300Y-58924200D02*
X171848100Y-59550000D01*
X171848100Y-59550000D02*
X172625000Y-59550000D01*
X169494900Y-58964500D02*
X169535200Y-58924200D01*
X168462300Y-57841200D02*
X168462300Y-58533200D01*
X169627500Y-56676000D02*
X168462300Y-57841200D01*
X169535200Y-58924200D02*
X171222300Y-58924200D01*
X168462300Y-58533200D02*
X168893600Y-58964500D01*
X172625000Y-57650000D02*
X172625000Y-56864500D01*
X169627500Y-56448700D02*
X169627500Y-56676000D01*
X174135500Y-56864500D02*
X172625000Y-56864500D01*
X172625000Y-56864500D02*
X172016700Y-56256200D01*
X168893600Y-58964500D02*
X169494900Y-58964500D01*
%TO.N,Board_8-Net-(U1-GPIO2)*%
X177358900Y-58378600D02*
X176737500Y-59000000D01*
X167559300Y-58365600D02*
X167559300Y-56917700D01*
X167250000Y-59625000D02*
X167250000Y-58674900D01*
X167250000Y-58674900D02*
X167559300Y-58365600D01*
X177358900Y-57417300D02*
X177358900Y-58378600D01*
%TO.N,Board_8-vcc33*%
X176987500Y-56375100D02*
X176177900Y-57184700D01*
X170352600Y-56148300D02*
X170118500Y-55914200D01*
X170352600Y-57647400D02*
X170352600Y-56148300D01*
X170118500Y-53200000D02*
X171200000Y-53200000D01*
X170350000Y-57650000D02*
X169764100Y-58235900D01*
X170118500Y-55914200D02*
X170118500Y-53200000D01*
X169764100Y-58235900D02*
X169197800Y-58235900D01*
X176987500Y-55600000D02*
X176987500Y-56375100D01*
X167250000Y-51875000D02*
X168075100Y-51875000D01*
X170350000Y-57650000D02*
X170352600Y-57647400D01*
X168075100Y-51875000D02*
X169400100Y-53200000D01*
X176177900Y-57184700D02*
X176177900Y-57396000D01*
X169400100Y-53200000D02*
X170118500Y-53200000D01*
%TO.N,Board_9-GND*%
X120016900Y-67293100D02*
X117694400Y-67293100D01*
X111600000Y-70100000D02*
X112722500Y-68977500D01*
X112289000Y-67291800D02*
X110961500Y-67291800D01*
X112036700Y-72369300D02*
X111600000Y-71932600D01*
X113076000Y-68078700D02*
X113554700Y-67600000D01*
X110169000Y-66499300D02*
X110169000Y-66000000D01*
X110961500Y-67291800D02*
X110169000Y-66499300D01*
X111600000Y-71932600D02*
X111600000Y-70100000D01*
X112036700Y-72996900D02*
X112036700Y-72369300D01*
X121874300Y-69150500D02*
X120016900Y-67293100D01*
X113025000Y-73600000D02*
X112639800Y-73600000D01*
X117694400Y-67293100D02*
X117387500Y-67600000D01*
X112722500Y-68432200D02*
X113076000Y-68078700D01*
X114662500Y-73600000D02*
X113025000Y-73600000D01*
X112639800Y-73600000D02*
X112036700Y-72996900D01*
X113554700Y-67600000D02*
X117387500Y-67600000D01*
X115062500Y-74000000D02*
X114662500Y-73600000D01*
X112722500Y-68977500D02*
X112722500Y-68432200D01*
X113076000Y-68078700D02*
X112289000Y-67291800D01*
X121874300Y-75557500D02*
X121874300Y-69150500D01*
%TO.N,Board_9-Net-(J2-VBUS)*%
X113025000Y-71864500D02*
X112416700Y-71256200D01*
X108862300Y-72841200D02*
X108862300Y-73533200D01*
X108862300Y-73533200D02*
X109293600Y-73964500D01*
X117300000Y-69100000D02*
X114535500Y-71864500D01*
X114535500Y-71864500D02*
X113025000Y-71864500D01*
X112248100Y-74550000D02*
X113025000Y-74550000D01*
X110027500Y-71676000D02*
X108862300Y-72841200D01*
X110027500Y-71448700D02*
X110027500Y-71676000D01*
X109293600Y-73964500D02*
X109894900Y-73964500D01*
X113025000Y-72650000D02*
X113025000Y-71864500D01*
X109894900Y-73964500D02*
X109935200Y-73924200D01*
X111622300Y-73924200D02*
X112248100Y-74550000D01*
X109935200Y-73924200D02*
X111622300Y-73924200D01*
%TO.N,Board_9-Net-(U1-GPIO2)*%
X117758900Y-72417300D02*
X117758900Y-73378600D01*
X117758900Y-73378600D02*
X117137500Y-74000000D01*
X107959300Y-73365600D02*
X107959300Y-71917700D01*
X107650000Y-73674900D02*
X107959300Y-73365600D01*
X107650000Y-74625000D02*
X107650000Y-73674900D01*
%TO.N,Board_9-vcc33*%
X109800100Y-68200000D02*
X110518500Y-68200000D01*
X110752600Y-72647400D02*
X110752600Y-71148300D01*
X110518500Y-70914200D02*
X110518500Y-68200000D01*
X110750000Y-72650000D02*
X110752600Y-72647400D01*
X116577900Y-72184700D02*
X116577900Y-72396000D01*
X110518500Y-68200000D02*
X111600000Y-68200000D01*
X110164100Y-73235900D02*
X109597800Y-73235900D01*
X117387500Y-71375100D02*
X116577900Y-72184700D01*
X107650000Y-66875000D02*
X108475100Y-66875000D01*
X108475100Y-66875000D02*
X109800100Y-68200000D01*
X110750000Y-72650000D02*
X110164100Y-73235900D01*
X117387500Y-70600000D02*
X117387500Y-71375100D01*
X110752600Y-71148300D02*
X110518500Y-70914200D01*
%TO.N,Board_10-GND*%
X149816900Y-67293100D02*
X147494400Y-67293100D01*
X139969000Y-66499300D02*
X139969000Y-66000000D01*
X142876000Y-68078700D02*
X143354700Y-67600000D01*
X151674300Y-75557500D02*
X151674300Y-69150500D01*
X141400000Y-71932600D02*
X141400000Y-70100000D01*
X142089000Y-67291800D02*
X140761500Y-67291800D01*
X141400000Y-70100000D02*
X142522500Y-68977500D01*
X142439800Y-73600000D02*
X141836700Y-72996900D01*
X142522500Y-68432200D02*
X142876000Y-68078700D01*
X142876000Y-68078700D02*
X142089000Y-67291800D01*
X151674300Y-69150500D02*
X149816900Y-67293100D01*
X140761500Y-67291800D02*
X139969000Y-66499300D01*
X142522500Y-68977500D02*
X142522500Y-68432200D01*
X143354700Y-67600000D02*
X147187500Y-67600000D01*
X141836700Y-72369300D02*
X141400000Y-71932600D01*
X147494400Y-67293100D02*
X147187500Y-67600000D01*
X144462500Y-73600000D02*
X142825000Y-73600000D01*
X144862500Y-74000000D02*
X144462500Y-73600000D01*
X142825000Y-73600000D02*
X142439800Y-73600000D01*
X141836700Y-72996900D02*
X141836700Y-72369300D01*
%TO.N,Board_10-Net-(J2-VBUS)*%
X139827500Y-71448700D02*
X139827500Y-71676000D01*
X139093600Y-73964500D02*
X139694900Y-73964500D01*
X142825000Y-72650000D02*
X142825000Y-71864500D01*
X139827500Y-71676000D02*
X138662300Y-72841200D01*
X138662300Y-73533200D02*
X139093600Y-73964500D01*
X142048100Y-74550000D02*
X142825000Y-74550000D01*
X147100000Y-69100000D02*
X144335500Y-71864500D01*
X141422300Y-73924200D02*
X142048100Y-74550000D01*
X144335500Y-71864500D02*
X142825000Y-71864500D01*
X138662300Y-72841200D02*
X138662300Y-73533200D01*
X139694900Y-73964500D02*
X139735200Y-73924200D01*
X142825000Y-71864500D02*
X142216700Y-71256200D01*
X139735200Y-73924200D02*
X141422300Y-73924200D01*
%TO.N,Board_10-Net-(U1-GPIO2)*%
X137450000Y-73674900D02*
X137759300Y-73365600D01*
X147558900Y-73378600D02*
X146937500Y-74000000D01*
X137450000Y-74625000D02*
X137450000Y-73674900D01*
X137759300Y-73365600D02*
X137759300Y-71917700D01*
X147558900Y-72417300D02*
X147558900Y-73378600D01*
%TO.N,Board_10-vcc33*%
X140552600Y-72647400D02*
X140552600Y-71148300D01*
X138275100Y-66875000D02*
X139600100Y-68200000D01*
X137450000Y-66875000D02*
X138275100Y-66875000D01*
X146377900Y-72184700D02*
X146377900Y-72396000D01*
X147187500Y-70600000D02*
X147187500Y-71375100D01*
X139964100Y-73235900D02*
X139397800Y-73235900D01*
X140550000Y-72650000D02*
X139964100Y-73235900D01*
X147187500Y-71375100D02*
X146377900Y-72184700D01*
X140552600Y-71148300D02*
X140318500Y-70914200D01*
X140318500Y-70914200D02*
X140318500Y-68200000D01*
X140550000Y-72650000D02*
X140552600Y-72647400D01*
X140318500Y-68200000D02*
X141400000Y-68200000D01*
X139600100Y-68200000D02*
X140318500Y-68200000D01*
%TO.N,Board_11-GND*%
X174262500Y-73600000D02*
X172625000Y-73600000D01*
X174662500Y-74000000D02*
X174262500Y-73600000D01*
X171200000Y-70100000D02*
X172322500Y-68977500D01*
X172625000Y-73600000D02*
X172239800Y-73600000D01*
X172676000Y-68078700D02*
X173154700Y-67600000D01*
X172322500Y-68432200D02*
X172676000Y-68078700D01*
X181474300Y-69150500D02*
X179616900Y-67293100D01*
X172322500Y-68977500D02*
X172322500Y-68432200D01*
X177294400Y-67293100D02*
X176987500Y-67600000D01*
X172239800Y-73600000D02*
X171636700Y-72996900D01*
X181474300Y-75557500D02*
X181474300Y-69150500D01*
X171200000Y-71932600D02*
X171200000Y-70100000D01*
X169769000Y-66499300D02*
X169769000Y-66000000D01*
X170561500Y-67291800D02*
X169769000Y-66499300D01*
X171889000Y-67291800D02*
X170561500Y-67291800D01*
X179616900Y-67293100D02*
X177294400Y-67293100D01*
X173154700Y-67600000D02*
X176987500Y-67600000D01*
X171636700Y-72996900D02*
X171636700Y-72369300D01*
X172676000Y-68078700D02*
X171889000Y-67291800D01*
X171636700Y-72369300D02*
X171200000Y-71932600D01*
%TO.N,Board_11-Net-(J2-VBUS)*%
X172625000Y-71864500D02*
X172016700Y-71256200D01*
X174135500Y-71864500D02*
X172625000Y-71864500D01*
X171222300Y-73924200D02*
X171848100Y-74550000D01*
X172625000Y-72650000D02*
X172625000Y-71864500D01*
X168893600Y-73964500D02*
X169494900Y-73964500D01*
X168462300Y-73533200D02*
X168893600Y-73964500D01*
X168462300Y-72841200D02*
X168462300Y-73533200D01*
X169627500Y-71676000D02*
X168462300Y-72841200D01*
X176900000Y-69100000D02*
X174135500Y-71864500D01*
X169627500Y-71448700D02*
X169627500Y-71676000D01*
X169494900Y-73964500D02*
X169535200Y-73924200D01*
X169535200Y-73924200D02*
X171222300Y-73924200D01*
X171848100Y-74550000D02*
X172625000Y-74550000D01*
%TO.N,Board_11-Net-(U1-GPIO2)*%
X167250000Y-74625000D02*
X167250000Y-73674900D01*
X167559300Y-73365600D02*
X167559300Y-71917700D01*
X167250000Y-73674900D02*
X167559300Y-73365600D01*
X177358900Y-72417300D02*
X177358900Y-73378600D01*
X177358900Y-73378600D02*
X176737500Y-74000000D01*
%TO.N,Board_11-vcc33*%
X168075100Y-66875000D02*
X169400100Y-68200000D01*
X170350000Y-72650000D02*
X169764100Y-73235900D01*
X170352600Y-72647400D02*
X170352600Y-71148300D01*
X167250000Y-66875000D02*
X168075100Y-66875000D01*
X176987500Y-70600000D02*
X176987500Y-71375100D01*
X169400100Y-68200000D02*
X170118500Y-68200000D01*
X170352600Y-71148300D02*
X170118500Y-70914200D01*
X176177900Y-72184700D02*
X176177900Y-72396000D01*
X170350000Y-72650000D02*
X170352600Y-72647400D01*
X170118500Y-68200000D02*
X171200000Y-68200000D01*
X169764100Y-73235900D02*
X169197800Y-73235900D01*
X176987500Y-71375100D02*
X176177900Y-72184700D01*
X170118500Y-70914200D02*
X170118500Y-68200000D01*
%TO.N,Board_12-GND*%
X115062500Y-89000000D02*
X114662500Y-88600000D01*
X111600000Y-85100000D02*
X112722500Y-83977500D01*
X121874300Y-84150500D02*
X120016900Y-82293100D01*
X117694400Y-82293100D02*
X117387500Y-82600000D01*
X110169000Y-81499300D02*
X110169000Y-81000000D01*
X113554700Y-82600000D02*
X117387500Y-82600000D01*
X112289000Y-82291800D02*
X110961500Y-82291800D01*
X113076000Y-83078700D02*
X112289000Y-82291800D01*
X111600000Y-86932600D02*
X111600000Y-85100000D01*
X114662500Y-88600000D02*
X113025000Y-88600000D01*
X121874300Y-90557500D02*
X121874300Y-84150500D01*
X112036700Y-87996900D02*
X112036700Y-87369300D01*
X112722500Y-83432200D02*
X113076000Y-83078700D01*
X110961500Y-82291800D02*
X110169000Y-81499300D01*
X112722500Y-83977500D02*
X112722500Y-83432200D01*
X120016900Y-82293100D02*
X117694400Y-82293100D01*
X112639800Y-88600000D02*
X112036700Y-87996900D01*
X113076000Y-83078700D02*
X113554700Y-82600000D01*
X112036700Y-87369300D02*
X111600000Y-86932600D01*
X113025000Y-88600000D02*
X112639800Y-88600000D01*
%TO.N,Board_12-Net-(J2-VBUS)*%
X110027500Y-86448700D02*
X110027500Y-86676000D01*
X114535500Y-86864500D02*
X113025000Y-86864500D01*
X113025000Y-86864500D02*
X112416700Y-86256200D01*
X108862300Y-88533200D02*
X109293600Y-88964500D01*
X109894900Y-88964500D02*
X109935200Y-88924200D01*
X117300000Y-84100000D02*
X114535500Y-86864500D01*
X110027500Y-86676000D02*
X108862300Y-87841200D01*
X111622300Y-88924200D02*
X112248100Y-89550000D01*
X108862300Y-87841200D02*
X108862300Y-88533200D01*
X112248100Y-89550000D02*
X113025000Y-89550000D01*
X109293600Y-88964500D02*
X109894900Y-88964500D01*
X113025000Y-87650000D02*
X113025000Y-86864500D01*
X109935200Y-88924200D02*
X111622300Y-88924200D01*
%TO.N,Board_12-Net-(U1-GPIO2)*%
X107650000Y-89625000D02*
X107650000Y-88674900D01*
X107650000Y-88674900D02*
X107959300Y-88365600D01*
X117758900Y-88378600D02*
X117137500Y-89000000D01*
X117758900Y-87417300D02*
X117758900Y-88378600D01*
X107959300Y-88365600D02*
X107959300Y-86917700D01*
%TO.N,Board_12-vcc33*%
X108475100Y-81875000D02*
X109800100Y-83200000D01*
X110750000Y-87650000D02*
X110752600Y-87647400D01*
X109800100Y-83200000D02*
X110518500Y-83200000D01*
X110752600Y-86148300D02*
X110518500Y-85914200D01*
X116577900Y-87184700D02*
X116577900Y-87396000D01*
X110752600Y-87647400D02*
X110752600Y-86148300D01*
X117387500Y-86375100D02*
X116577900Y-87184700D01*
X117387500Y-85600000D02*
X117387500Y-86375100D01*
X107650000Y-81875000D02*
X108475100Y-81875000D01*
X110518500Y-83200000D02*
X111600000Y-83200000D01*
X110518500Y-85914200D02*
X110518500Y-83200000D01*
X110164100Y-88235900D02*
X109597800Y-88235900D01*
X110750000Y-87650000D02*
X110164100Y-88235900D01*
%TO.N,Board_13-GND*%
X139969000Y-81499300D02*
X139969000Y-81000000D01*
X151674300Y-90557500D02*
X151674300Y-84150500D01*
X142876000Y-83078700D02*
X143354700Y-82600000D01*
X142439800Y-88600000D02*
X141836700Y-87996900D01*
X149816900Y-82293100D02*
X147494400Y-82293100D01*
X151674300Y-84150500D02*
X149816900Y-82293100D01*
X142089000Y-82291800D02*
X140761500Y-82291800D01*
X140761500Y-82291800D02*
X139969000Y-81499300D01*
X144862500Y-89000000D02*
X144462500Y-88600000D01*
X141400000Y-85100000D02*
X142522500Y-83977500D01*
X141836700Y-87369300D02*
X141400000Y-86932600D01*
X142522500Y-83432200D02*
X142876000Y-83078700D01*
X143354700Y-82600000D02*
X147187500Y-82600000D01*
X144462500Y-88600000D02*
X142825000Y-88600000D01*
X147494400Y-82293100D02*
X147187500Y-82600000D01*
X141400000Y-86932600D02*
X141400000Y-85100000D01*
X142825000Y-88600000D02*
X142439800Y-88600000D01*
X141836700Y-87996900D02*
X141836700Y-87369300D01*
X142876000Y-83078700D02*
X142089000Y-82291800D01*
X142522500Y-83977500D02*
X142522500Y-83432200D01*
%TO.N,Board_13-Net-(J2-VBUS)*%
X142825000Y-86864500D02*
X142216700Y-86256200D01*
X139827500Y-86448700D02*
X139827500Y-86676000D01*
X144335500Y-86864500D02*
X142825000Y-86864500D01*
X139735200Y-88924200D02*
X141422300Y-88924200D01*
X141422300Y-88924200D02*
X142048100Y-89550000D01*
X142825000Y-87650000D02*
X142825000Y-86864500D01*
X139827500Y-86676000D02*
X138662300Y-87841200D01*
X139093600Y-88964500D02*
X139694900Y-88964500D01*
X138662300Y-87841200D02*
X138662300Y-88533200D01*
X147100000Y-84100000D02*
X144335500Y-86864500D01*
X138662300Y-88533200D02*
X139093600Y-88964500D01*
X142048100Y-89550000D02*
X142825000Y-89550000D01*
X139694900Y-88964500D02*
X139735200Y-88924200D01*
%TO.N,Board_13-Net-(U1-GPIO2)*%
X137450000Y-88674900D02*
X137759300Y-88365600D01*
X137759300Y-88365600D02*
X137759300Y-86917700D01*
X147558900Y-88378600D02*
X146937500Y-89000000D01*
X147558900Y-87417300D02*
X147558900Y-88378600D01*
X137450000Y-89625000D02*
X137450000Y-88674900D01*
%TO.N,Board_13-vcc33*%
X147187500Y-86375100D02*
X146377900Y-87184700D01*
X137450000Y-81875000D02*
X138275100Y-81875000D01*
X139964100Y-88235900D02*
X139397800Y-88235900D01*
X140552600Y-87647400D02*
X140552600Y-86148300D01*
X140550000Y-87650000D02*
X139964100Y-88235900D01*
X139600100Y-83200000D02*
X140318500Y-83200000D01*
X146377900Y-87184700D02*
X146377900Y-87396000D01*
X147187500Y-85600000D02*
X147187500Y-86375100D01*
X140552600Y-86148300D02*
X140318500Y-85914200D01*
X140318500Y-85914200D02*
X140318500Y-83200000D01*
X140550000Y-87650000D02*
X140552600Y-87647400D01*
X138275100Y-81875000D02*
X139600100Y-83200000D01*
X140318500Y-83200000D02*
X141400000Y-83200000D01*
%TO.N,Board_14-GND*%
X172239800Y-88600000D02*
X171636700Y-87996900D01*
X181474300Y-84150500D02*
X179616900Y-82293100D01*
X171889000Y-82291800D02*
X170561500Y-82291800D01*
X177294400Y-82293100D02*
X176987500Y-82600000D01*
X171636700Y-87996900D02*
X171636700Y-87369300D01*
X174262500Y-88600000D02*
X172625000Y-88600000D01*
X172676000Y-83078700D02*
X171889000Y-82291800D01*
X172625000Y-88600000D02*
X172239800Y-88600000D01*
X172676000Y-83078700D02*
X173154700Y-82600000D01*
X169769000Y-81499300D02*
X169769000Y-81000000D01*
X172322500Y-83432200D02*
X172676000Y-83078700D01*
X171200000Y-85100000D02*
X172322500Y-83977500D01*
X171200000Y-86932600D02*
X171200000Y-85100000D01*
X173154700Y-82600000D02*
X176987500Y-82600000D01*
X174662500Y-89000000D02*
X174262500Y-88600000D01*
X172322500Y-83977500D02*
X172322500Y-83432200D01*
X170561500Y-82291800D02*
X169769000Y-81499300D01*
X179616900Y-82293100D02*
X177294400Y-82293100D01*
X181474300Y-90557500D02*
X181474300Y-84150500D01*
X171636700Y-87369300D02*
X171200000Y-86932600D01*
%TO.N,Board_14-Net-(J2-VBUS)*%
X172625000Y-87650000D02*
X172625000Y-86864500D01*
X171848100Y-89550000D02*
X172625000Y-89550000D01*
X171222300Y-88924200D02*
X171848100Y-89550000D01*
X172625000Y-86864500D02*
X172016700Y-86256200D01*
X169494900Y-88964500D02*
X169535200Y-88924200D01*
X176900000Y-84100000D02*
X174135500Y-86864500D01*
X169627500Y-86448700D02*
X169627500Y-86676000D01*
X174135500Y-86864500D02*
X172625000Y-86864500D01*
X168893600Y-88964500D02*
X169494900Y-88964500D01*
X168462300Y-88533200D02*
X168893600Y-88964500D01*
X168462300Y-87841200D02*
X168462300Y-88533200D01*
X169535200Y-88924200D02*
X171222300Y-88924200D01*
X169627500Y-86676000D02*
X168462300Y-87841200D01*
%TO.N,Board_14-Net-(U1-GPIO2)*%
X167559300Y-88365600D02*
X167559300Y-86917700D01*
X167250000Y-88674900D02*
X167559300Y-88365600D01*
X177358900Y-88378600D02*
X176737500Y-89000000D01*
X177358900Y-87417300D02*
X177358900Y-88378600D01*
X167250000Y-89625000D02*
X167250000Y-88674900D01*
%TO.N,Board_14-vcc33*%
X176987500Y-85600000D02*
X176987500Y-86375100D01*
X176987500Y-86375100D02*
X176177900Y-87184700D01*
X170352600Y-87647400D02*
X170352600Y-86148300D01*
X169400100Y-83200000D02*
X170118500Y-83200000D01*
X170118500Y-85914200D02*
X170118500Y-83200000D01*
X170118500Y-83200000D02*
X171200000Y-83200000D01*
X176177900Y-87184700D02*
X176177900Y-87396000D01*
X170352600Y-86148300D02*
X170118500Y-85914200D01*
X170350000Y-87650000D02*
X169764100Y-88235900D01*
X168075100Y-81875000D02*
X169400100Y-83200000D01*
X167250000Y-81875000D02*
X168075100Y-81875000D01*
X169764100Y-88235900D02*
X169197800Y-88235900D01*
X170350000Y-87650000D02*
X170352600Y-87647400D01*
%TD*%
M02*
