%TF.GenerationSoftware,KiCad,Pcbnew,7.0.2-0*%
%TF.CreationDate,2023-08-30T00:09:34-06:00*%
%TF.ProjectId,panel,70616e65-6c2e-46b6-9963-61645f706362,rev?*%
%TF.SameCoordinates,Original*%
%TF.FileFunction,Copper,L1,Top*%
%TF.FilePolarity,Positive*%
%FSLAX46Y46*%
G04 Gerber Fmt 4.6, Leading zero omitted, Abs format (unit mm)*
G04 Created by KiCad (PCBNEW 7.0.2-0) date 2023-08-30 00:09:34*
%MOMM*%
%LPD*%
G01*
G04 APERTURE LIST*
G04 Aperture macros list*
%AMRoundRect*
0 Rectangle with rounded corners*
0 $1 Rounding radius*
0 $2 $3 $4 $5 $6 $7 $8 $9 X,Y pos of 4 corners*
0 Add a 4 corners polygon primitive as box body*
4,1,4,$2,$3,$4,$5,$6,$7,$8,$9,$2,$3,0*
0 Add four circle primitives for the rounded corners*
1,1,$1+$1,$2,$3*
1,1,$1+$1,$4,$5*
1,1,$1+$1,$6,$7*
1,1,$1+$1,$8,$9*
0 Add four rect primitives between the rounded corners*
20,1,$1+$1,$2,$3,$4,$5,0*
20,1,$1+$1,$4,$5,$6,$7,0*
20,1,$1+$1,$6,$7,$8,$9,0*
20,1,$1+$1,$8,$9,$2,$3,0*%
G04 Aperture macros list end*
%TA.AperFunction,ComponentPad*%
%ADD10RoundRect,0.190500X0.190500X-0.571500X0.190500X0.571500X-0.190500X0.571500X-0.190500X-0.571500X0*%
%TD*%
%TA.AperFunction,ComponentPad*%
%ADD11RoundRect,0.190500X0.571500X0.190500X-0.571500X0.190500X-0.571500X-0.190500X0.571500X-0.190500X0*%
%TD*%
%TA.AperFunction,SMDPad,CuDef*%
%ADD12RoundRect,0.190500X0.571500X0.190500X-0.571500X0.190500X-0.571500X-0.190500X0.571500X-0.190500X0*%
%TD*%
%TA.AperFunction,SMDPad,CuDef*%
%ADD13RoundRect,0.228600X0.914400X0.914400X-0.914400X0.914400X-0.914400X-0.914400X0.914400X-0.914400X0*%
%TD*%
%TA.AperFunction,ConnectorPad*%
%ADD14R,8.000000X1.900000*%
%TD*%
%TA.AperFunction,ConnectorPad*%
%ADD15R,7.500000X2.000000*%
%TD*%
%TA.AperFunction,ViaPad*%
%ADD16C,0.800000*%
%TD*%
%TA.AperFunction,Conductor*%
%ADD17C,0.250000*%
%TD*%
G04 APERTURE END LIST*
D10*
%TO.P,U1,1,GND*%
%TO.N,Board_1-GND*%
X139969000Y-31000000D03*
%TO.P,U1,2,VDD3V3*%
%TO.N,Board_1-vcc33*%
X140969000Y-31000000D03*
%TO.P,U1,3,CHIP_EN*%
%TO.N,Board_1-unconnected-(U1-CHIP_EN-Pad3)*%
X141969000Y-31000000D03*
%TO.P,U1,4,GPIO10*%
%TO.N,Board_1-unconnected-(U1-GPIO10-Pad4)*%
X142969000Y-31000000D03*
%TO.P,U1,5,GPIO11*%
%TO.N,Board_1-unconnected-(U1-GPIO11-Pad5)*%
X143969000Y-31000000D03*
%TO.P,U1,6,GPIO12*%
%TO.N,Board_1-unconnected-(U1-GPIO12-Pad6)*%
X144969000Y-31000000D03*
%TO.P,U1,7,GPIO13*%
%TO.N,Board_1-unconnected-(U1-GPIO13-Pad7)*%
X145969000Y-31000000D03*
%TO.P,U1,8,GPIO14*%
%TO.N,Board_1-unconnected-(U1-GPIO14-Pad8)*%
X146969000Y-31000000D03*
%TO.P,U1,9,GPIO15*%
%TO.N,Board_1-unconnected-(U1-GPIO15-Pad9)*%
X147969000Y-31000000D03*
D11*
%TO.P,U1,10,GPIO16*%
%TO.N,Board_1-unconnected-(U1-GPIO16-Pad10)*%
X148969000Y-29000000D03*
%TO.P,U1,11,GPIO17*%
%TO.N,Board_1-unconnected-(U1-GPIO17-Pad11)*%
X148969000Y-28000000D03*
%TO.P,U1,12,USB_DP*%
%TO.N,Board_1-D+*%
X148969000Y-27000000D03*
%TO.P,U1,13,USB_DN*%
%TO.N,Board_1-D-*%
X148969000Y-26000000D03*
%TO.P,U1,14,GPIO20*%
%TO.N,Board_1-unconnected-(U1-GPIO20-Pad14)*%
X148969000Y-25000000D03*
%TO.P,U1,15,GPIO21*%
%TO.N,Board_1-unconnected-(U1-GPIO21-Pad15)*%
X148969000Y-24000000D03*
%TO.P,U1,16,GPIO22*%
%TO.N,Board_1-unconnected-(U1-GPIO22-Pad16)*%
X148969000Y-23000000D03*
D10*
%TO.P,U1,17,GPIO27*%
%TO.N,Board_1-unconnected-(U1-GPIO27-Pad17)*%
X147969000Y-21000000D03*
%TO.P,U1,18,GPIO28*%
%TO.N,Board_1-unconnected-(U1-GPIO28-Pad18)*%
X146969000Y-21000000D03*
%TO.P,U1,19,GPIO29*%
%TO.N,Board_1-unconnected-(U1-GPIO29-Pad19)*%
X145969000Y-21000000D03*
%TO.P,U1,20,GPIO30*%
%TO.N,Board_1-unconnected-(U1-GPIO30-Pad20)*%
X144969000Y-21000000D03*
%TO.P,U1,21,GPIO0*%
%TO.N,Board_1-unconnected-(U1-GPIO0-Pad21)*%
X143969000Y-21000000D03*
%TO.P,U1,22,GPIO1*%
%TO.N,Board_1-unconnected-(U1-GPIO1-Pad22)*%
X142969000Y-21000000D03*
%TO.P,U1,23,GPIO2*%
%TO.N,Board_1-Net-(U1-GPIO2)*%
X141969000Y-21000000D03*
%TO.P,U1,24,GPIO3*%
%TO.N,Board_1-unconnected-(U1-GPIO3-Pad24)*%
X140969000Y-21000000D03*
%TO.P,U1,25,GND*%
%TO.N,Board_1-GND*%
X139969000Y-21000000D03*
D12*
%TO.P,U1,26,ANT*%
%TO.N,Board_1-unconnected-(U1-ANT-Pad26)*%
X137969000Y-24726200D03*
D13*
%TO.P,U1,27,EPAD*%
%TO.N,Board_1-unconnected-(U1-EPAD-Pad27)*%
X144607820Y-26250200D03*
%TD*%
D10*
%TO.P,U1,1,GND*%
%TO.N,Board_7-GND*%
X139969000Y-61000000D03*
%TO.P,U1,2,VDD3V3*%
%TO.N,Board_7-vcc33*%
X140969000Y-61000000D03*
%TO.P,U1,3,CHIP_EN*%
%TO.N,Board_7-unconnected-(U1-CHIP_EN-Pad3)*%
X141969000Y-61000000D03*
%TO.P,U1,4,GPIO10*%
%TO.N,Board_7-unconnected-(U1-GPIO10-Pad4)*%
X142969000Y-61000000D03*
%TO.P,U1,5,GPIO11*%
%TO.N,Board_7-unconnected-(U1-GPIO11-Pad5)*%
X143969000Y-61000000D03*
%TO.P,U1,6,GPIO12*%
%TO.N,Board_7-unconnected-(U1-GPIO12-Pad6)*%
X144969000Y-61000000D03*
%TO.P,U1,7,GPIO13*%
%TO.N,Board_7-unconnected-(U1-GPIO13-Pad7)*%
X145969000Y-61000000D03*
%TO.P,U1,8,GPIO14*%
%TO.N,Board_7-unconnected-(U1-GPIO14-Pad8)*%
X146969000Y-61000000D03*
%TO.P,U1,9,GPIO15*%
%TO.N,Board_7-unconnected-(U1-GPIO15-Pad9)*%
X147969000Y-61000000D03*
D11*
%TO.P,U1,10,GPIO16*%
%TO.N,Board_7-unconnected-(U1-GPIO16-Pad10)*%
X148969000Y-59000000D03*
%TO.P,U1,11,GPIO17*%
%TO.N,Board_7-unconnected-(U1-GPIO17-Pad11)*%
X148969000Y-58000000D03*
%TO.P,U1,12,USB_DP*%
%TO.N,Board_7-D+*%
X148969000Y-57000000D03*
%TO.P,U1,13,USB_DN*%
%TO.N,Board_7-D-*%
X148969000Y-56000000D03*
%TO.P,U1,14,GPIO20*%
%TO.N,Board_7-unconnected-(U1-GPIO20-Pad14)*%
X148969000Y-55000000D03*
%TO.P,U1,15,GPIO21*%
%TO.N,Board_7-unconnected-(U1-GPIO21-Pad15)*%
X148969000Y-54000000D03*
%TO.P,U1,16,GPIO22*%
%TO.N,Board_7-unconnected-(U1-GPIO22-Pad16)*%
X148969000Y-53000000D03*
D10*
%TO.P,U1,17,GPIO27*%
%TO.N,Board_7-unconnected-(U1-GPIO27-Pad17)*%
X147969000Y-51000000D03*
%TO.P,U1,18,GPIO28*%
%TO.N,Board_7-unconnected-(U1-GPIO28-Pad18)*%
X146969000Y-51000000D03*
%TO.P,U1,19,GPIO29*%
%TO.N,Board_7-unconnected-(U1-GPIO29-Pad19)*%
X145969000Y-51000000D03*
%TO.P,U1,20,GPIO30*%
%TO.N,Board_7-unconnected-(U1-GPIO30-Pad20)*%
X144969000Y-51000000D03*
%TO.P,U1,21,GPIO0*%
%TO.N,Board_7-unconnected-(U1-GPIO0-Pad21)*%
X143969000Y-51000000D03*
%TO.P,U1,22,GPIO1*%
%TO.N,Board_7-unconnected-(U1-GPIO1-Pad22)*%
X142969000Y-51000000D03*
%TO.P,U1,23,GPIO2*%
%TO.N,Board_7-Net-(U1-GPIO2)*%
X141969000Y-51000000D03*
%TO.P,U1,24,GPIO3*%
%TO.N,Board_7-unconnected-(U1-GPIO3-Pad24)*%
X140969000Y-51000000D03*
%TO.P,U1,25,GND*%
%TO.N,Board_7-GND*%
X139969000Y-51000000D03*
D12*
%TO.P,U1,26,ANT*%
%TO.N,Board_7-unconnected-(U1-ANT-Pad26)*%
X137969000Y-54726200D03*
D13*
%TO.P,U1,27,EPAD*%
%TO.N,Board_7-unconnected-(U1-EPAD-Pad27)*%
X144607820Y-56250200D03*
%TD*%
D10*
%TO.P,U1,1,GND*%
%TO.N,Board_14-GND*%
X169769000Y-91000000D03*
%TO.P,U1,2,VDD3V3*%
%TO.N,Board_14-vcc33*%
X170769000Y-91000000D03*
%TO.P,U1,3,CHIP_EN*%
%TO.N,Board_14-unconnected-(U1-CHIP_EN-Pad3)*%
X171769000Y-91000000D03*
%TO.P,U1,4,GPIO10*%
%TO.N,Board_14-unconnected-(U1-GPIO10-Pad4)*%
X172769000Y-91000000D03*
%TO.P,U1,5,GPIO11*%
%TO.N,Board_14-unconnected-(U1-GPIO11-Pad5)*%
X173769000Y-91000000D03*
%TO.P,U1,6,GPIO12*%
%TO.N,Board_14-unconnected-(U1-GPIO12-Pad6)*%
X174769000Y-91000000D03*
%TO.P,U1,7,GPIO13*%
%TO.N,Board_14-unconnected-(U1-GPIO13-Pad7)*%
X175769000Y-91000000D03*
%TO.P,U1,8,GPIO14*%
%TO.N,Board_14-unconnected-(U1-GPIO14-Pad8)*%
X176769000Y-91000000D03*
%TO.P,U1,9,GPIO15*%
%TO.N,Board_14-unconnected-(U1-GPIO15-Pad9)*%
X177769000Y-91000000D03*
D11*
%TO.P,U1,10,GPIO16*%
%TO.N,Board_14-unconnected-(U1-GPIO16-Pad10)*%
X178769000Y-89000000D03*
%TO.P,U1,11,GPIO17*%
%TO.N,Board_14-unconnected-(U1-GPIO17-Pad11)*%
X178769000Y-88000000D03*
%TO.P,U1,12,USB_DP*%
%TO.N,Board_14-D+*%
X178769000Y-87000000D03*
%TO.P,U1,13,USB_DN*%
%TO.N,Board_14-D-*%
X178769000Y-86000000D03*
%TO.P,U1,14,GPIO20*%
%TO.N,Board_14-unconnected-(U1-GPIO20-Pad14)*%
X178769000Y-85000000D03*
%TO.P,U1,15,GPIO21*%
%TO.N,Board_14-unconnected-(U1-GPIO21-Pad15)*%
X178769000Y-84000000D03*
%TO.P,U1,16,GPIO22*%
%TO.N,Board_14-unconnected-(U1-GPIO22-Pad16)*%
X178769000Y-83000000D03*
D10*
%TO.P,U1,17,GPIO27*%
%TO.N,Board_14-unconnected-(U1-GPIO27-Pad17)*%
X177769000Y-81000000D03*
%TO.P,U1,18,GPIO28*%
%TO.N,Board_14-unconnected-(U1-GPIO28-Pad18)*%
X176769000Y-81000000D03*
%TO.P,U1,19,GPIO29*%
%TO.N,Board_14-unconnected-(U1-GPIO29-Pad19)*%
X175769000Y-81000000D03*
%TO.P,U1,20,GPIO30*%
%TO.N,Board_14-unconnected-(U1-GPIO30-Pad20)*%
X174769000Y-81000000D03*
%TO.P,U1,21,GPIO0*%
%TO.N,Board_14-unconnected-(U1-GPIO0-Pad21)*%
X173769000Y-81000000D03*
%TO.P,U1,22,GPIO1*%
%TO.N,Board_14-unconnected-(U1-GPIO1-Pad22)*%
X172769000Y-81000000D03*
%TO.P,U1,23,GPIO2*%
%TO.N,Board_14-Net-(U1-GPIO2)*%
X171769000Y-81000000D03*
%TO.P,U1,24,GPIO3*%
%TO.N,Board_14-unconnected-(U1-GPIO3-Pad24)*%
X170769000Y-81000000D03*
%TO.P,U1,25,GND*%
%TO.N,Board_14-GND*%
X169769000Y-81000000D03*
D12*
%TO.P,U1,26,ANT*%
%TO.N,Board_14-unconnected-(U1-ANT-Pad26)*%
X167769000Y-84726200D03*
D13*
%TO.P,U1,27,EPAD*%
%TO.N,Board_14-unconnected-(U1-EPAD-Pad27)*%
X174407820Y-86250200D03*
%TD*%
D10*
%TO.P,U1,1,GND*%
%TO.N,Board_9-GND*%
X110169000Y-76000000D03*
%TO.P,U1,2,VDD3V3*%
%TO.N,Board_9-vcc33*%
X111169000Y-76000000D03*
%TO.P,U1,3,CHIP_EN*%
%TO.N,Board_9-unconnected-(U1-CHIP_EN-Pad3)*%
X112169000Y-76000000D03*
%TO.P,U1,4,GPIO10*%
%TO.N,Board_9-unconnected-(U1-GPIO10-Pad4)*%
X113169000Y-76000000D03*
%TO.P,U1,5,GPIO11*%
%TO.N,Board_9-unconnected-(U1-GPIO11-Pad5)*%
X114169000Y-76000000D03*
%TO.P,U1,6,GPIO12*%
%TO.N,Board_9-unconnected-(U1-GPIO12-Pad6)*%
X115169000Y-76000000D03*
%TO.P,U1,7,GPIO13*%
%TO.N,Board_9-unconnected-(U1-GPIO13-Pad7)*%
X116169000Y-76000000D03*
%TO.P,U1,8,GPIO14*%
%TO.N,Board_9-unconnected-(U1-GPIO14-Pad8)*%
X117169000Y-76000000D03*
%TO.P,U1,9,GPIO15*%
%TO.N,Board_9-unconnected-(U1-GPIO15-Pad9)*%
X118169000Y-76000000D03*
D11*
%TO.P,U1,10,GPIO16*%
%TO.N,Board_9-unconnected-(U1-GPIO16-Pad10)*%
X119169000Y-74000000D03*
%TO.P,U1,11,GPIO17*%
%TO.N,Board_9-unconnected-(U1-GPIO17-Pad11)*%
X119169000Y-73000000D03*
%TO.P,U1,12,USB_DP*%
%TO.N,Board_9-D+*%
X119169000Y-72000000D03*
%TO.P,U1,13,USB_DN*%
%TO.N,Board_9-D-*%
X119169000Y-71000000D03*
%TO.P,U1,14,GPIO20*%
%TO.N,Board_9-unconnected-(U1-GPIO20-Pad14)*%
X119169000Y-70000000D03*
%TO.P,U1,15,GPIO21*%
%TO.N,Board_9-unconnected-(U1-GPIO21-Pad15)*%
X119169000Y-69000000D03*
%TO.P,U1,16,GPIO22*%
%TO.N,Board_9-unconnected-(U1-GPIO22-Pad16)*%
X119169000Y-68000000D03*
D10*
%TO.P,U1,17,GPIO27*%
%TO.N,Board_9-unconnected-(U1-GPIO27-Pad17)*%
X118169000Y-66000000D03*
%TO.P,U1,18,GPIO28*%
%TO.N,Board_9-unconnected-(U1-GPIO28-Pad18)*%
X117169000Y-66000000D03*
%TO.P,U1,19,GPIO29*%
%TO.N,Board_9-unconnected-(U1-GPIO29-Pad19)*%
X116169000Y-66000000D03*
%TO.P,U1,20,GPIO30*%
%TO.N,Board_9-unconnected-(U1-GPIO30-Pad20)*%
X115169000Y-66000000D03*
%TO.P,U1,21,GPIO0*%
%TO.N,Board_9-unconnected-(U1-GPIO0-Pad21)*%
X114169000Y-66000000D03*
%TO.P,U1,22,GPIO1*%
%TO.N,Board_9-unconnected-(U1-GPIO1-Pad22)*%
X113169000Y-66000000D03*
%TO.P,U1,23,GPIO2*%
%TO.N,Board_9-Net-(U1-GPIO2)*%
X112169000Y-66000000D03*
%TO.P,U1,24,GPIO3*%
%TO.N,Board_9-unconnected-(U1-GPIO3-Pad24)*%
X111169000Y-66000000D03*
%TO.P,U1,25,GND*%
%TO.N,Board_9-GND*%
X110169000Y-66000000D03*
D12*
%TO.P,U1,26,ANT*%
%TO.N,Board_9-unconnected-(U1-ANT-Pad26)*%
X108169000Y-69726200D03*
D13*
%TO.P,U1,27,EPAD*%
%TO.N,Board_9-unconnected-(U1-EPAD-Pad27)*%
X114807820Y-71250200D03*
%TD*%
D14*
%TO.P,J2,1,VBUS*%
%TO.N,Board_7-Net-(J2-VBUS)*%
X156912500Y-52190000D03*
D15*
%TO.P,J2,2,D-*%
%TO.N,Board_7-D-*%
X156662500Y-54700000D03*
%TO.P,J2,3,D+*%
%TO.N,Board_7-D+*%
X156662500Y-57300000D03*
D14*
%TO.P,J2,4,GND*%
%TO.N,Board_7-GND*%
X156912500Y-59810000D03*
%TD*%
D10*
%TO.P,U1,1,GND*%
%TO.N,Board_0-GND*%
X110169000Y-31000000D03*
%TO.P,U1,2,VDD3V3*%
%TO.N,Board_0-vcc33*%
X111169000Y-31000000D03*
%TO.P,U1,3,CHIP_EN*%
%TO.N,Board_0-unconnected-(U1-CHIP_EN-Pad3)*%
X112169000Y-31000000D03*
%TO.P,U1,4,GPIO10*%
%TO.N,Board_0-unconnected-(U1-GPIO10-Pad4)*%
X113169000Y-31000000D03*
%TO.P,U1,5,GPIO11*%
%TO.N,Board_0-unconnected-(U1-GPIO11-Pad5)*%
X114169000Y-31000000D03*
%TO.P,U1,6,GPIO12*%
%TO.N,Board_0-unconnected-(U1-GPIO12-Pad6)*%
X115169000Y-31000000D03*
%TO.P,U1,7,GPIO13*%
%TO.N,Board_0-unconnected-(U1-GPIO13-Pad7)*%
X116169000Y-31000000D03*
%TO.P,U1,8,GPIO14*%
%TO.N,Board_0-unconnected-(U1-GPIO14-Pad8)*%
X117169000Y-31000000D03*
%TO.P,U1,9,GPIO15*%
%TO.N,Board_0-unconnected-(U1-GPIO15-Pad9)*%
X118169000Y-31000000D03*
D11*
%TO.P,U1,10,GPIO16*%
%TO.N,Board_0-unconnected-(U1-GPIO16-Pad10)*%
X119169000Y-29000000D03*
%TO.P,U1,11,GPIO17*%
%TO.N,Board_0-unconnected-(U1-GPIO17-Pad11)*%
X119169000Y-28000000D03*
%TO.P,U1,12,USB_DP*%
%TO.N,Board_0-D+*%
X119169000Y-27000000D03*
%TO.P,U1,13,USB_DN*%
%TO.N,Board_0-D-*%
X119169000Y-26000000D03*
%TO.P,U1,14,GPIO20*%
%TO.N,Board_0-unconnected-(U1-GPIO20-Pad14)*%
X119169000Y-25000000D03*
%TO.P,U1,15,GPIO21*%
%TO.N,Board_0-unconnected-(U1-GPIO21-Pad15)*%
X119169000Y-24000000D03*
%TO.P,U1,16,GPIO22*%
%TO.N,Board_0-unconnected-(U1-GPIO22-Pad16)*%
X119169000Y-23000000D03*
D10*
%TO.P,U1,17,GPIO27*%
%TO.N,Board_0-unconnected-(U1-GPIO27-Pad17)*%
X118169000Y-21000000D03*
%TO.P,U1,18,GPIO28*%
%TO.N,Board_0-unconnected-(U1-GPIO28-Pad18)*%
X117169000Y-21000000D03*
%TO.P,U1,19,GPIO29*%
%TO.N,Board_0-unconnected-(U1-GPIO29-Pad19)*%
X116169000Y-21000000D03*
%TO.P,U1,20,GPIO30*%
%TO.N,Board_0-unconnected-(U1-GPIO30-Pad20)*%
X115169000Y-21000000D03*
%TO.P,U1,21,GPIO0*%
%TO.N,Board_0-unconnected-(U1-GPIO0-Pad21)*%
X114169000Y-21000000D03*
%TO.P,U1,22,GPIO1*%
%TO.N,Board_0-unconnected-(U1-GPIO1-Pad22)*%
X113169000Y-21000000D03*
%TO.P,U1,23,GPIO2*%
%TO.N,Board_0-Net-(U1-GPIO2)*%
X112169000Y-21000000D03*
%TO.P,U1,24,GPIO3*%
%TO.N,Board_0-unconnected-(U1-GPIO3-Pad24)*%
X111169000Y-21000000D03*
%TO.P,U1,25,GND*%
%TO.N,Board_0-GND*%
X110169000Y-21000000D03*
D12*
%TO.P,U1,26,ANT*%
%TO.N,Board_0-unconnected-(U1-ANT-Pad26)*%
X108169000Y-24726200D03*
D13*
%TO.P,U1,27,EPAD*%
%TO.N,Board_0-unconnected-(U1-EPAD-Pad27)*%
X114807820Y-26250200D03*
%TD*%
D14*
%TO.P,J2,1,VBUS*%
%TO.N,Board_11-Net-(J2-VBUS)*%
X186712500Y-67190000D03*
D15*
%TO.P,J2,2,D-*%
%TO.N,Board_11-D-*%
X186462500Y-69700000D03*
%TO.P,J2,3,D+*%
%TO.N,Board_11-D+*%
X186462500Y-72300000D03*
D14*
%TO.P,J2,4,GND*%
%TO.N,Board_11-GND*%
X186712500Y-74810000D03*
%TD*%
%TO.P,J2,1,VBUS*%
%TO.N,Board_8-Net-(J2-VBUS)*%
X186712500Y-52190000D03*
D15*
%TO.P,J2,2,D-*%
%TO.N,Board_8-D-*%
X186462500Y-54700000D03*
%TO.P,J2,3,D+*%
%TO.N,Board_8-D+*%
X186462500Y-57300000D03*
D14*
%TO.P,J2,4,GND*%
%TO.N,Board_8-GND*%
X186712500Y-59810000D03*
%TD*%
%TO.P,J2,1,VBUS*%
%TO.N,Board_4-Net-(J2-VBUS)*%
X156912500Y-37190000D03*
D15*
%TO.P,J2,2,D-*%
%TO.N,Board_4-D-*%
X156662500Y-39700000D03*
%TO.P,J2,3,D+*%
%TO.N,Board_4-D+*%
X156662500Y-42300000D03*
D14*
%TO.P,J2,4,GND*%
%TO.N,Board_4-GND*%
X156912500Y-44810000D03*
%TD*%
%TO.P,J2,1,VBUS*%
%TO.N,Board_13-Net-(J2-VBUS)*%
X156912500Y-82190000D03*
D15*
%TO.P,J2,2,D-*%
%TO.N,Board_13-D-*%
X156662500Y-84700000D03*
%TO.P,J2,3,D+*%
%TO.N,Board_13-D+*%
X156662500Y-87300000D03*
D14*
%TO.P,J2,4,GND*%
%TO.N,Board_13-GND*%
X156912500Y-89810000D03*
%TD*%
D10*
%TO.P,U1,1,GND*%
%TO.N,Board_13-GND*%
X139969000Y-91000000D03*
%TO.P,U1,2,VDD3V3*%
%TO.N,Board_13-vcc33*%
X140969000Y-91000000D03*
%TO.P,U1,3,CHIP_EN*%
%TO.N,Board_13-unconnected-(U1-CHIP_EN-Pad3)*%
X141969000Y-91000000D03*
%TO.P,U1,4,GPIO10*%
%TO.N,Board_13-unconnected-(U1-GPIO10-Pad4)*%
X142969000Y-91000000D03*
%TO.P,U1,5,GPIO11*%
%TO.N,Board_13-unconnected-(U1-GPIO11-Pad5)*%
X143969000Y-91000000D03*
%TO.P,U1,6,GPIO12*%
%TO.N,Board_13-unconnected-(U1-GPIO12-Pad6)*%
X144969000Y-91000000D03*
%TO.P,U1,7,GPIO13*%
%TO.N,Board_13-unconnected-(U1-GPIO13-Pad7)*%
X145969000Y-91000000D03*
%TO.P,U1,8,GPIO14*%
%TO.N,Board_13-unconnected-(U1-GPIO14-Pad8)*%
X146969000Y-91000000D03*
%TO.P,U1,9,GPIO15*%
%TO.N,Board_13-unconnected-(U1-GPIO15-Pad9)*%
X147969000Y-91000000D03*
D11*
%TO.P,U1,10,GPIO16*%
%TO.N,Board_13-unconnected-(U1-GPIO16-Pad10)*%
X148969000Y-89000000D03*
%TO.P,U1,11,GPIO17*%
%TO.N,Board_13-unconnected-(U1-GPIO17-Pad11)*%
X148969000Y-88000000D03*
%TO.P,U1,12,USB_DP*%
%TO.N,Board_13-D+*%
X148969000Y-87000000D03*
%TO.P,U1,13,USB_DN*%
%TO.N,Board_13-D-*%
X148969000Y-86000000D03*
%TO.P,U1,14,GPIO20*%
%TO.N,Board_13-unconnected-(U1-GPIO20-Pad14)*%
X148969000Y-85000000D03*
%TO.P,U1,15,GPIO21*%
%TO.N,Board_13-unconnected-(U1-GPIO21-Pad15)*%
X148969000Y-84000000D03*
%TO.P,U1,16,GPIO22*%
%TO.N,Board_13-unconnected-(U1-GPIO22-Pad16)*%
X148969000Y-83000000D03*
D10*
%TO.P,U1,17,GPIO27*%
%TO.N,Board_13-unconnected-(U1-GPIO27-Pad17)*%
X147969000Y-81000000D03*
%TO.P,U1,18,GPIO28*%
%TO.N,Board_13-unconnected-(U1-GPIO28-Pad18)*%
X146969000Y-81000000D03*
%TO.P,U1,19,GPIO29*%
%TO.N,Board_13-unconnected-(U1-GPIO29-Pad19)*%
X145969000Y-81000000D03*
%TO.P,U1,20,GPIO30*%
%TO.N,Board_13-unconnected-(U1-GPIO30-Pad20)*%
X144969000Y-81000000D03*
%TO.P,U1,21,GPIO0*%
%TO.N,Board_13-unconnected-(U1-GPIO0-Pad21)*%
X143969000Y-81000000D03*
%TO.P,U1,22,GPIO1*%
%TO.N,Board_13-unconnected-(U1-GPIO1-Pad22)*%
X142969000Y-81000000D03*
%TO.P,U1,23,GPIO2*%
%TO.N,Board_13-Net-(U1-GPIO2)*%
X141969000Y-81000000D03*
%TO.P,U1,24,GPIO3*%
%TO.N,Board_13-unconnected-(U1-GPIO3-Pad24)*%
X140969000Y-81000000D03*
%TO.P,U1,25,GND*%
%TO.N,Board_13-GND*%
X139969000Y-81000000D03*
D12*
%TO.P,U1,26,ANT*%
%TO.N,Board_13-unconnected-(U1-ANT-Pad26)*%
X137969000Y-84726200D03*
D13*
%TO.P,U1,27,EPAD*%
%TO.N,Board_13-unconnected-(U1-EPAD-Pad27)*%
X144607820Y-86250200D03*
%TD*%
D14*
%TO.P,J2,1,VBUS*%
%TO.N,Board_3-Net-(J2-VBUS)*%
X127112500Y-37190000D03*
D15*
%TO.P,J2,2,D-*%
%TO.N,Board_3-D-*%
X126862500Y-39700000D03*
%TO.P,J2,3,D+*%
%TO.N,Board_3-D+*%
X126862500Y-42300000D03*
D14*
%TO.P,J2,4,GND*%
%TO.N,Board_3-GND*%
X127112500Y-44810000D03*
%TD*%
D10*
%TO.P,U1,1,GND*%
%TO.N,Board_11-GND*%
X169769000Y-76000000D03*
%TO.P,U1,2,VDD3V3*%
%TO.N,Board_11-vcc33*%
X170769000Y-76000000D03*
%TO.P,U1,3,CHIP_EN*%
%TO.N,Board_11-unconnected-(U1-CHIP_EN-Pad3)*%
X171769000Y-76000000D03*
%TO.P,U1,4,GPIO10*%
%TO.N,Board_11-unconnected-(U1-GPIO10-Pad4)*%
X172769000Y-76000000D03*
%TO.P,U1,5,GPIO11*%
%TO.N,Board_11-unconnected-(U1-GPIO11-Pad5)*%
X173769000Y-76000000D03*
%TO.P,U1,6,GPIO12*%
%TO.N,Board_11-unconnected-(U1-GPIO12-Pad6)*%
X174769000Y-76000000D03*
%TO.P,U1,7,GPIO13*%
%TO.N,Board_11-unconnected-(U1-GPIO13-Pad7)*%
X175769000Y-76000000D03*
%TO.P,U1,8,GPIO14*%
%TO.N,Board_11-unconnected-(U1-GPIO14-Pad8)*%
X176769000Y-76000000D03*
%TO.P,U1,9,GPIO15*%
%TO.N,Board_11-unconnected-(U1-GPIO15-Pad9)*%
X177769000Y-76000000D03*
D11*
%TO.P,U1,10,GPIO16*%
%TO.N,Board_11-unconnected-(U1-GPIO16-Pad10)*%
X178769000Y-74000000D03*
%TO.P,U1,11,GPIO17*%
%TO.N,Board_11-unconnected-(U1-GPIO17-Pad11)*%
X178769000Y-73000000D03*
%TO.P,U1,12,USB_DP*%
%TO.N,Board_11-D+*%
X178769000Y-72000000D03*
%TO.P,U1,13,USB_DN*%
%TO.N,Board_11-D-*%
X178769000Y-71000000D03*
%TO.P,U1,14,GPIO20*%
%TO.N,Board_11-unconnected-(U1-GPIO20-Pad14)*%
X178769000Y-70000000D03*
%TO.P,U1,15,GPIO21*%
%TO.N,Board_11-unconnected-(U1-GPIO21-Pad15)*%
X178769000Y-69000000D03*
%TO.P,U1,16,GPIO22*%
%TO.N,Board_11-unconnected-(U1-GPIO22-Pad16)*%
X178769000Y-68000000D03*
D10*
%TO.P,U1,17,GPIO27*%
%TO.N,Board_11-unconnected-(U1-GPIO27-Pad17)*%
X177769000Y-66000000D03*
%TO.P,U1,18,GPIO28*%
%TO.N,Board_11-unconnected-(U1-GPIO28-Pad18)*%
X176769000Y-66000000D03*
%TO.P,U1,19,GPIO29*%
%TO.N,Board_11-unconnected-(U1-GPIO29-Pad19)*%
X175769000Y-66000000D03*
%TO.P,U1,20,GPIO30*%
%TO.N,Board_11-unconnected-(U1-GPIO30-Pad20)*%
X174769000Y-66000000D03*
%TO.P,U1,21,GPIO0*%
%TO.N,Board_11-unconnected-(U1-GPIO0-Pad21)*%
X173769000Y-66000000D03*
%TO.P,U1,22,GPIO1*%
%TO.N,Board_11-unconnected-(U1-GPIO1-Pad22)*%
X172769000Y-66000000D03*
%TO.P,U1,23,GPIO2*%
%TO.N,Board_11-Net-(U1-GPIO2)*%
X171769000Y-66000000D03*
%TO.P,U1,24,GPIO3*%
%TO.N,Board_11-unconnected-(U1-GPIO3-Pad24)*%
X170769000Y-66000000D03*
%TO.P,U1,25,GND*%
%TO.N,Board_11-GND*%
X169769000Y-66000000D03*
D12*
%TO.P,U1,26,ANT*%
%TO.N,Board_11-unconnected-(U1-ANT-Pad26)*%
X167769000Y-69726200D03*
D13*
%TO.P,U1,27,EPAD*%
%TO.N,Board_11-unconnected-(U1-EPAD-Pad27)*%
X174407820Y-71250200D03*
%TD*%
D14*
%TO.P,J2,1,VBUS*%
%TO.N,Board_1-Net-(J2-VBUS)*%
X156912500Y-22190000D03*
D15*
%TO.P,J2,2,D-*%
%TO.N,Board_1-D-*%
X156662500Y-24700000D03*
%TO.P,J2,3,D+*%
%TO.N,Board_1-D+*%
X156662500Y-27300000D03*
D14*
%TO.P,J2,4,GND*%
%TO.N,Board_1-GND*%
X156912500Y-29810000D03*
%TD*%
%TO.P,J2,1,VBUS*%
%TO.N,Board_2-Net-(J2-VBUS)*%
X186712500Y-22190000D03*
D15*
%TO.P,J2,2,D-*%
%TO.N,Board_2-D-*%
X186462500Y-24700000D03*
%TO.P,J2,3,D+*%
%TO.N,Board_2-D+*%
X186462500Y-27300000D03*
D14*
%TO.P,J2,4,GND*%
%TO.N,Board_2-GND*%
X186712500Y-29810000D03*
%TD*%
D10*
%TO.P,U1,1,GND*%
%TO.N,Board_4-GND*%
X139969000Y-46000000D03*
%TO.P,U1,2,VDD3V3*%
%TO.N,Board_4-vcc33*%
X140969000Y-46000000D03*
%TO.P,U1,3,CHIP_EN*%
%TO.N,Board_4-unconnected-(U1-CHIP_EN-Pad3)*%
X141969000Y-46000000D03*
%TO.P,U1,4,GPIO10*%
%TO.N,Board_4-unconnected-(U1-GPIO10-Pad4)*%
X142969000Y-46000000D03*
%TO.P,U1,5,GPIO11*%
%TO.N,Board_4-unconnected-(U1-GPIO11-Pad5)*%
X143969000Y-46000000D03*
%TO.P,U1,6,GPIO12*%
%TO.N,Board_4-unconnected-(U1-GPIO12-Pad6)*%
X144969000Y-46000000D03*
%TO.P,U1,7,GPIO13*%
%TO.N,Board_4-unconnected-(U1-GPIO13-Pad7)*%
X145969000Y-46000000D03*
%TO.P,U1,8,GPIO14*%
%TO.N,Board_4-unconnected-(U1-GPIO14-Pad8)*%
X146969000Y-46000000D03*
%TO.P,U1,9,GPIO15*%
%TO.N,Board_4-unconnected-(U1-GPIO15-Pad9)*%
X147969000Y-46000000D03*
D11*
%TO.P,U1,10,GPIO16*%
%TO.N,Board_4-unconnected-(U1-GPIO16-Pad10)*%
X148969000Y-44000000D03*
%TO.P,U1,11,GPIO17*%
%TO.N,Board_4-unconnected-(U1-GPIO17-Pad11)*%
X148969000Y-43000000D03*
%TO.P,U1,12,USB_DP*%
%TO.N,Board_4-D+*%
X148969000Y-42000000D03*
%TO.P,U1,13,USB_DN*%
%TO.N,Board_4-D-*%
X148969000Y-41000000D03*
%TO.P,U1,14,GPIO20*%
%TO.N,Board_4-unconnected-(U1-GPIO20-Pad14)*%
X148969000Y-40000000D03*
%TO.P,U1,15,GPIO21*%
%TO.N,Board_4-unconnected-(U1-GPIO21-Pad15)*%
X148969000Y-39000000D03*
%TO.P,U1,16,GPIO22*%
%TO.N,Board_4-unconnected-(U1-GPIO22-Pad16)*%
X148969000Y-38000000D03*
D10*
%TO.P,U1,17,GPIO27*%
%TO.N,Board_4-unconnected-(U1-GPIO27-Pad17)*%
X147969000Y-36000000D03*
%TO.P,U1,18,GPIO28*%
%TO.N,Board_4-unconnected-(U1-GPIO28-Pad18)*%
X146969000Y-36000000D03*
%TO.P,U1,19,GPIO29*%
%TO.N,Board_4-unconnected-(U1-GPIO29-Pad19)*%
X145969000Y-36000000D03*
%TO.P,U1,20,GPIO30*%
%TO.N,Board_4-unconnected-(U1-GPIO30-Pad20)*%
X144969000Y-36000000D03*
%TO.P,U1,21,GPIO0*%
%TO.N,Board_4-unconnected-(U1-GPIO0-Pad21)*%
X143969000Y-36000000D03*
%TO.P,U1,22,GPIO1*%
%TO.N,Board_4-unconnected-(U1-GPIO1-Pad22)*%
X142969000Y-36000000D03*
%TO.P,U1,23,GPIO2*%
%TO.N,Board_4-Net-(U1-GPIO2)*%
X141969000Y-36000000D03*
%TO.P,U1,24,GPIO3*%
%TO.N,Board_4-unconnected-(U1-GPIO3-Pad24)*%
X140969000Y-36000000D03*
%TO.P,U1,25,GND*%
%TO.N,Board_4-GND*%
X139969000Y-36000000D03*
D12*
%TO.P,U1,26,ANT*%
%TO.N,Board_4-unconnected-(U1-ANT-Pad26)*%
X137969000Y-39726200D03*
D13*
%TO.P,U1,27,EPAD*%
%TO.N,Board_4-unconnected-(U1-EPAD-Pad27)*%
X144607820Y-41250200D03*
%TD*%
D14*
%TO.P,J2,1,VBUS*%
%TO.N,Board_10-Net-(J2-VBUS)*%
X156912500Y-67190000D03*
D15*
%TO.P,J2,2,D-*%
%TO.N,Board_10-D-*%
X156662500Y-69700000D03*
%TO.P,J2,3,D+*%
%TO.N,Board_10-D+*%
X156662500Y-72300000D03*
D14*
%TO.P,J2,4,GND*%
%TO.N,Board_10-GND*%
X156912500Y-74810000D03*
%TD*%
%TO.P,J2,1,VBUS*%
%TO.N,Board_12-Net-(J2-VBUS)*%
X127112500Y-82190000D03*
D15*
%TO.P,J2,2,D-*%
%TO.N,Board_12-D-*%
X126862500Y-84700000D03*
%TO.P,J2,3,D+*%
%TO.N,Board_12-D+*%
X126862500Y-87300000D03*
D14*
%TO.P,J2,4,GND*%
%TO.N,Board_12-GND*%
X127112500Y-89810000D03*
%TD*%
D10*
%TO.P,U1,1,GND*%
%TO.N,Board_6-GND*%
X110169000Y-61000000D03*
%TO.P,U1,2,VDD3V3*%
%TO.N,Board_6-vcc33*%
X111169000Y-61000000D03*
%TO.P,U1,3,CHIP_EN*%
%TO.N,Board_6-unconnected-(U1-CHIP_EN-Pad3)*%
X112169000Y-61000000D03*
%TO.P,U1,4,GPIO10*%
%TO.N,Board_6-unconnected-(U1-GPIO10-Pad4)*%
X113169000Y-61000000D03*
%TO.P,U1,5,GPIO11*%
%TO.N,Board_6-unconnected-(U1-GPIO11-Pad5)*%
X114169000Y-61000000D03*
%TO.P,U1,6,GPIO12*%
%TO.N,Board_6-unconnected-(U1-GPIO12-Pad6)*%
X115169000Y-61000000D03*
%TO.P,U1,7,GPIO13*%
%TO.N,Board_6-unconnected-(U1-GPIO13-Pad7)*%
X116169000Y-61000000D03*
%TO.P,U1,8,GPIO14*%
%TO.N,Board_6-unconnected-(U1-GPIO14-Pad8)*%
X117169000Y-61000000D03*
%TO.P,U1,9,GPIO15*%
%TO.N,Board_6-unconnected-(U1-GPIO15-Pad9)*%
X118169000Y-61000000D03*
D11*
%TO.P,U1,10,GPIO16*%
%TO.N,Board_6-unconnected-(U1-GPIO16-Pad10)*%
X119169000Y-59000000D03*
%TO.P,U1,11,GPIO17*%
%TO.N,Board_6-unconnected-(U1-GPIO17-Pad11)*%
X119169000Y-58000000D03*
%TO.P,U1,12,USB_DP*%
%TO.N,Board_6-D+*%
X119169000Y-57000000D03*
%TO.P,U1,13,USB_DN*%
%TO.N,Board_6-D-*%
X119169000Y-56000000D03*
%TO.P,U1,14,GPIO20*%
%TO.N,Board_6-unconnected-(U1-GPIO20-Pad14)*%
X119169000Y-55000000D03*
%TO.P,U1,15,GPIO21*%
%TO.N,Board_6-unconnected-(U1-GPIO21-Pad15)*%
X119169000Y-54000000D03*
%TO.P,U1,16,GPIO22*%
%TO.N,Board_6-unconnected-(U1-GPIO22-Pad16)*%
X119169000Y-53000000D03*
D10*
%TO.P,U1,17,GPIO27*%
%TO.N,Board_6-unconnected-(U1-GPIO27-Pad17)*%
X118169000Y-51000000D03*
%TO.P,U1,18,GPIO28*%
%TO.N,Board_6-unconnected-(U1-GPIO28-Pad18)*%
X117169000Y-51000000D03*
%TO.P,U1,19,GPIO29*%
%TO.N,Board_6-unconnected-(U1-GPIO29-Pad19)*%
X116169000Y-51000000D03*
%TO.P,U1,20,GPIO30*%
%TO.N,Board_6-unconnected-(U1-GPIO30-Pad20)*%
X115169000Y-51000000D03*
%TO.P,U1,21,GPIO0*%
%TO.N,Board_6-unconnected-(U1-GPIO0-Pad21)*%
X114169000Y-51000000D03*
%TO.P,U1,22,GPIO1*%
%TO.N,Board_6-unconnected-(U1-GPIO1-Pad22)*%
X113169000Y-51000000D03*
%TO.P,U1,23,GPIO2*%
%TO.N,Board_6-Net-(U1-GPIO2)*%
X112169000Y-51000000D03*
%TO.P,U1,24,GPIO3*%
%TO.N,Board_6-unconnected-(U1-GPIO3-Pad24)*%
X111169000Y-51000000D03*
%TO.P,U1,25,GND*%
%TO.N,Board_6-GND*%
X110169000Y-51000000D03*
D12*
%TO.P,U1,26,ANT*%
%TO.N,Board_6-unconnected-(U1-ANT-Pad26)*%
X108169000Y-54726200D03*
D13*
%TO.P,U1,27,EPAD*%
%TO.N,Board_6-unconnected-(U1-EPAD-Pad27)*%
X114807820Y-56250200D03*
%TD*%
D14*
%TO.P,J2,1,VBUS*%
%TO.N,Board_6-Net-(J2-VBUS)*%
X127112500Y-52190000D03*
D15*
%TO.P,J2,2,D-*%
%TO.N,Board_6-D-*%
X126862500Y-54700000D03*
%TO.P,J2,3,D+*%
%TO.N,Board_6-D+*%
X126862500Y-57300000D03*
D14*
%TO.P,J2,4,GND*%
%TO.N,Board_6-GND*%
X127112500Y-59810000D03*
%TD*%
%TO.P,J2,1,VBUS*%
%TO.N,Board_9-Net-(J2-VBUS)*%
X127112500Y-67190000D03*
D15*
%TO.P,J2,2,D-*%
%TO.N,Board_9-D-*%
X126862500Y-69700000D03*
%TO.P,J2,3,D+*%
%TO.N,Board_9-D+*%
X126862500Y-72300000D03*
D14*
%TO.P,J2,4,GND*%
%TO.N,Board_9-GND*%
X127112500Y-74810000D03*
%TD*%
%TO.P,J2,1,VBUS*%
%TO.N,Board_5-Net-(J2-VBUS)*%
X186712500Y-37190000D03*
D15*
%TO.P,J2,2,D-*%
%TO.N,Board_5-D-*%
X186462500Y-39700000D03*
%TO.P,J2,3,D+*%
%TO.N,Board_5-D+*%
X186462500Y-42300000D03*
D14*
%TO.P,J2,4,GND*%
%TO.N,Board_5-GND*%
X186712500Y-44810000D03*
%TD*%
D10*
%TO.P,U1,1,GND*%
%TO.N,Board_10-GND*%
X139969000Y-76000000D03*
%TO.P,U1,2,VDD3V3*%
%TO.N,Board_10-vcc33*%
X140969000Y-76000000D03*
%TO.P,U1,3,CHIP_EN*%
%TO.N,Board_10-unconnected-(U1-CHIP_EN-Pad3)*%
X141969000Y-76000000D03*
%TO.P,U1,4,GPIO10*%
%TO.N,Board_10-unconnected-(U1-GPIO10-Pad4)*%
X142969000Y-76000000D03*
%TO.P,U1,5,GPIO11*%
%TO.N,Board_10-unconnected-(U1-GPIO11-Pad5)*%
X143969000Y-76000000D03*
%TO.P,U1,6,GPIO12*%
%TO.N,Board_10-unconnected-(U1-GPIO12-Pad6)*%
X144969000Y-76000000D03*
%TO.P,U1,7,GPIO13*%
%TO.N,Board_10-unconnected-(U1-GPIO13-Pad7)*%
X145969000Y-76000000D03*
%TO.P,U1,8,GPIO14*%
%TO.N,Board_10-unconnected-(U1-GPIO14-Pad8)*%
X146969000Y-76000000D03*
%TO.P,U1,9,GPIO15*%
%TO.N,Board_10-unconnected-(U1-GPIO15-Pad9)*%
X147969000Y-76000000D03*
D11*
%TO.P,U1,10,GPIO16*%
%TO.N,Board_10-unconnected-(U1-GPIO16-Pad10)*%
X148969000Y-74000000D03*
%TO.P,U1,11,GPIO17*%
%TO.N,Board_10-unconnected-(U1-GPIO17-Pad11)*%
X148969000Y-73000000D03*
%TO.P,U1,12,USB_DP*%
%TO.N,Board_10-D+*%
X148969000Y-72000000D03*
%TO.P,U1,13,USB_DN*%
%TO.N,Board_10-D-*%
X148969000Y-71000000D03*
%TO.P,U1,14,GPIO20*%
%TO.N,Board_10-unconnected-(U1-GPIO20-Pad14)*%
X148969000Y-70000000D03*
%TO.P,U1,15,GPIO21*%
%TO.N,Board_10-unconnected-(U1-GPIO21-Pad15)*%
X148969000Y-69000000D03*
%TO.P,U1,16,GPIO22*%
%TO.N,Board_10-unconnected-(U1-GPIO22-Pad16)*%
X148969000Y-68000000D03*
D10*
%TO.P,U1,17,GPIO27*%
%TO.N,Board_10-unconnected-(U1-GPIO27-Pad17)*%
X147969000Y-66000000D03*
%TO.P,U1,18,GPIO28*%
%TO.N,Board_10-unconnected-(U1-GPIO28-Pad18)*%
X146969000Y-66000000D03*
%TO.P,U1,19,GPIO29*%
%TO.N,Board_10-unconnected-(U1-GPIO29-Pad19)*%
X145969000Y-66000000D03*
%TO.P,U1,20,GPIO30*%
%TO.N,Board_10-unconnected-(U1-GPIO30-Pad20)*%
X144969000Y-66000000D03*
%TO.P,U1,21,GPIO0*%
%TO.N,Board_10-unconnected-(U1-GPIO0-Pad21)*%
X143969000Y-66000000D03*
%TO.P,U1,22,GPIO1*%
%TO.N,Board_10-unconnected-(U1-GPIO1-Pad22)*%
X142969000Y-66000000D03*
%TO.P,U1,23,GPIO2*%
%TO.N,Board_10-Net-(U1-GPIO2)*%
X141969000Y-66000000D03*
%TO.P,U1,24,GPIO3*%
%TO.N,Board_10-unconnected-(U1-GPIO3-Pad24)*%
X140969000Y-66000000D03*
%TO.P,U1,25,GND*%
%TO.N,Board_10-GND*%
X139969000Y-66000000D03*
D12*
%TO.P,U1,26,ANT*%
%TO.N,Board_10-unconnected-(U1-ANT-Pad26)*%
X137969000Y-69726200D03*
D13*
%TO.P,U1,27,EPAD*%
%TO.N,Board_10-unconnected-(U1-EPAD-Pad27)*%
X144607820Y-71250200D03*
%TD*%
D10*
%TO.P,U1,1,GND*%
%TO.N,Board_12-GND*%
X110169000Y-91000000D03*
%TO.P,U1,2,VDD3V3*%
%TO.N,Board_12-vcc33*%
X111169000Y-91000000D03*
%TO.P,U1,3,CHIP_EN*%
%TO.N,Board_12-unconnected-(U1-CHIP_EN-Pad3)*%
X112169000Y-91000000D03*
%TO.P,U1,4,GPIO10*%
%TO.N,Board_12-unconnected-(U1-GPIO10-Pad4)*%
X113169000Y-91000000D03*
%TO.P,U1,5,GPIO11*%
%TO.N,Board_12-unconnected-(U1-GPIO11-Pad5)*%
X114169000Y-91000000D03*
%TO.P,U1,6,GPIO12*%
%TO.N,Board_12-unconnected-(U1-GPIO12-Pad6)*%
X115169000Y-91000000D03*
%TO.P,U1,7,GPIO13*%
%TO.N,Board_12-unconnected-(U1-GPIO13-Pad7)*%
X116169000Y-91000000D03*
%TO.P,U1,8,GPIO14*%
%TO.N,Board_12-unconnected-(U1-GPIO14-Pad8)*%
X117169000Y-91000000D03*
%TO.P,U1,9,GPIO15*%
%TO.N,Board_12-unconnected-(U1-GPIO15-Pad9)*%
X118169000Y-91000000D03*
D11*
%TO.P,U1,10,GPIO16*%
%TO.N,Board_12-unconnected-(U1-GPIO16-Pad10)*%
X119169000Y-89000000D03*
%TO.P,U1,11,GPIO17*%
%TO.N,Board_12-unconnected-(U1-GPIO17-Pad11)*%
X119169000Y-88000000D03*
%TO.P,U1,12,USB_DP*%
%TO.N,Board_12-D+*%
X119169000Y-87000000D03*
%TO.P,U1,13,USB_DN*%
%TO.N,Board_12-D-*%
X119169000Y-86000000D03*
%TO.P,U1,14,GPIO20*%
%TO.N,Board_12-unconnected-(U1-GPIO20-Pad14)*%
X119169000Y-85000000D03*
%TO.P,U1,15,GPIO21*%
%TO.N,Board_12-unconnected-(U1-GPIO21-Pad15)*%
X119169000Y-84000000D03*
%TO.P,U1,16,GPIO22*%
%TO.N,Board_12-unconnected-(U1-GPIO22-Pad16)*%
X119169000Y-83000000D03*
D10*
%TO.P,U1,17,GPIO27*%
%TO.N,Board_12-unconnected-(U1-GPIO27-Pad17)*%
X118169000Y-81000000D03*
%TO.P,U1,18,GPIO28*%
%TO.N,Board_12-unconnected-(U1-GPIO28-Pad18)*%
X117169000Y-81000000D03*
%TO.P,U1,19,GPIO29*%
%TO.N,Board_12-unconnected-(U1-GPIO29-Pad19)*%
X116169000Y-81000000D03*
%TO.P,U1,20,GPIO30*%
%TO.N,Board_12-unconnected-(U1-GPIO30-Pad20)*%
X115169000Y-81000000D03*
%TO.P,U1,21,GPIO0*%
%TO.N,Board_12-unconnected-(U1-GPIO0-Pad21)*%
X114169000Y-81000000D03*
%TO.P,U1,22,GPIO1*%
%TO.N,Board_12-unconnected-(U1-GPIO1-Pad22)*%
X113169000Y-81000000D03*
%TO.P,U1,23,GPIO2*%
%TO.N,Board_12-Net-(U1-GPIO2)*%
X112169000Y-81000000D03*
%TO.P,U1,24,GPIO3*%
%TO.N,Board_12-unconnected-(U1-GPIO3-Pad24)*%
X111169000Y-81000000D03*
%TO.P,U1,25,GND*%
%TO.N,Board_12-GND*%
X110169000Y-81000000D03*
D12*
%TO.P,U1,26,ANT*%
%TO.N,Board_12-unconnected-(U1-ANT-Pad26)*%
X108169000Y-84726200D03*
D13*
%TO.P,U1,27,EPAD*%
%TO.N,Board_12-unconnected-(U1-EPAD-Pad27)*%
X114807820Y-86250200D03*
%TD*%
D10*
%TO.P,U1,1,GND*%
%TO.N,Board_8-GND*%
X169769000Y-61000000D03*
%TO.P,U1,2,VDD3V3*%
%TO.N,Board_8-vcc33*%
X170769000Y-61000000D03*
%TO.P,U1,3,CHIP_EN*%
%TO.N,Board_8-unconnected-(U1-CHIP_EN-Pad3)*%
X171769000Y-61000000D03*
%TO.P,U1,4,GPIO10*%
%TO.N,Board_8-unconnected-(U1-GPIO10-Pad4)*%
X172769000Y-61000000D03*
%TO.P,U1,5,GPIO11*%
%TO.N,Board_8-unconnected-(U1-GPIO11-Pad5)*%
X173769000Y-61000000D03*
%TO.P,U1,6,GPIO12*%
%TO.N,Board_8-unconnected-(U1-GPIO12-Pad6)*%
X174769000Y-61000000D03*
%TO.P,U1,7,GPIO13*%
%TO.N,Board_8-unconnected-(U1-GPIO13-Pad7)*%
X175769000Y-61000000D03*
%TO.P,U1,8,GPIO14*%
%TO.N,Board_8-unconnected-(U1-GPIO14-Pad8)*%
X176769000Y-61000000D03*
%TO.P,U1,9,GPIO15*%
%TO.N,Board_8-unconnected-(U1-GPIO15-Pad9)*%
X177769000Y-61000000D03*
D11*
%TO.P,U1,10,GPIO16*%
%TO.N,Board_8-unconnected-(U1-GPIO16-Pad10)*%
X178769000Y-59000000D03*
%TO.P,U1,11,GPIO17*%
%TO.N,Board_8-unconnected-(U1-GPIO17-Pad11)*%
X178769000Y-58000000D03*
%TO.P,U1,12,USB_DP*%
%TO.N,Board_8-D+*%
X178769000Y-57000000D03*
%TO.P,U1,13,USB_DN*%
%TO.N,Board_8-D-*%
X178769000Y-56000000D03*
%TO.P,U1,14,GPIO20*%
%TO.N,Board_8-unconnected-(U1-GPIO20-Pad14)*%
X178769000Y-55000000D03*
%TO.P,U1,15,GPIO21*%
%TO.N,Board_8-unconnected-(U1-GPIO21-Pad15)*%
X178769000Y-54000000D03*
%TO.P,U1,16,GPIO22*%
%TO.N,Board_8-unconnected-(U1-GPIO22-Pad16)*%
X178769000Y-53000000D03*
D10*
%TO.P,U1,17,GPIO27*%
%TO.N,Board_8-unconnected-(U1-GPIO27-Pad17)*%
X177769000Y-51000000D03*
%TO.P,U1,18,GPIO28*%
%TO.N,Board_8-unconnected-(U1-GPIO28-Pad18)*%
X176769000Y-51000000D03*
%TO.P,U1,19,GPIO29*%
%TO.N,Board_8-unconnected-(U1-GPIO29-Pad19)*%
X175769000Y-51000000D03*
%TO.P,U1,20,GPIO30*%
%TO.N,Board_8-unconnected-(U1-GPIO30-Pad20)*%
X174769000Y-51000000D03*
%TO.P,U1,21,GPIO0*%
%TO.N,Board_8-unconnected-(U1-GPIO0-Pad21)*%
X173769000Y-51000000D03*
%TO.P,U1,22,GPIO1*%
%TO.N,Board_8-unconnected-(U1-GPIO1-Pad22)*%
X172769000Y-51000000D03*
%TO.P,U1,23,GPIO2*%
%TO.N,Board_8-Net-(U1-GPIO2)*%
X171769000Y-51000000D03*
%TO.P,U1,24,GPIO3*%
%TO.N,Board_8-unconnected-(U1-GPIO3-Pad24)*%
X170769000Y-51000000D03*
%TO.P,U1,25,GND*%
%TO.N,Board_8-GND*%
X169769000Y-51000000D03*
D12*
%TO.P,U1,26,ANT*%
%TO.N,Board_8-unconnected-(U1-ANT-Pad26)*%
X167769000Y-54726200D03*
D13*
%TO.P,U1,27,EPAD*%
%TO.N,Board_8-unconnected-(U1-EPAD-Pad27)*%
X174407820Y-56250200D03*
%TD*%
D10*
%TO.P,U1,1,GND*%
%TO.N,Board_2-GND*%
X169769000Y-31000000D03*
%TO.P,U1,2,VDD3V3*%
%TO.N,Board_2-vcc33*%
X170769000Y-31000000D03*
%TO.P,U1,3,CHIP_EN*%
%TO.N,Board_2-unconnected-(U1-CHIP_EN-Pad3)*%
X171769000Y-31000000D03*
%TO.P,U1,4,GPIO10*%
%TO.N,Board_2-unconnected-(U1-GPIO10-Pad4)*%
X172769000Y-31000000D03*
%TO.P,U1,5,GPIO11*%
%TO.N,Board_2-unconnected-(U1-GPIO11-Pad5)*%
X173769000Y-31000000D03*
%TO.P,U1,6,GPIO12*%
%TO.N,Board_2-unconnected-(U1-GPIO12-Pad6)*%
X174769000Y-31000000D03*
%TO.P,U1,7,GPIO13*%
%TO.N,Board_2-unconnected-(U1-GPIO13-Pad7)*%
X175769000Y-31000000D03*
%TO.P,U1,8,GPIO14*%
%TO.N,Board_2-unconnected-(U1-GPIO14-Pad8)*%
X176769000Y-31000000D03*
%TO.P,U1,9,GPIO15*%
%TO.N,Board_2-unconnected-(U1-GPIO15-Pad9)*%
X177769000Y-31000000D03*
D11*
%TO.P,U1,10,GPIO16*%
%TO.N,Board_2-unconnected-(U1-GPIO16-Pad10)*%
X178769000Y-29000000D03*
%TO.P,U1,11,GPIO17*%
%TO.N,Board_2-unconnected-(U1-GPIO17-Pad11)*%
X178769000Y-28000000D03*
%TO.P,U1,12,USB_DP*%
%TO.N,Board_2-D+*%
X178769000Y-27000000D03*
%TO.P,U1,13,USB_DN*%
%TO.N,Board_2-D-*%
X178769000Y-26000000D03*
%TO.P,U1,14,GPIO20*%
%TO.N,Board_2-unconnected-(U1-GPIO20-Pad14)*%
X178769000Y-25000000D03*
%TO.P,U1,15,GPIO21*%
%TO.N,Board_2-unconnected-(U1-GPIO21-Pad15)*%
X178769000Y-24000000D03*
%TO.P,U1,16,GPIO22*%
%TO.N,Board_2-unconnected-(U1-GPIO22-Pad16)*%
X178769000Y-23000000D03*
D10*
%TO.P,U1,17,GPIO27*%
%TO.N,Board_2-unconnected-(U1-GPIO27-Pad17)*%
X177769000Y-21000000D03*
%TO.P,U1,18,GPIO28*%
%TO.N,Board_2-unconnected-(U1-GPIO28-Pad18)*%
X176769000Y-21000000D03*
%TO.P,U1,19,GPIO29*%
%TO.N,Board_2-unconnected-(U1-GPIO29-Pad19)*%
X175769000Y-21000000D03*
%TO.P,U1,20,GPIO30*%
%TO.N,Board_2-unconnected-(U1-GPIO30-Pad20)*%
X174769000Y-21000000D03*
%TO.P,U1,21,GPIO0*%
%TO.N,Board_2-unconnected-(U1-GPIO0-Pad21)*%
X173769000Y-21000000D03*
%TO.P,U1,22,GPIO1*%
%TO.N,Board_2-unconnected-(U1-GPIO1-Pad22)*%
X172769000Y-21000000D03*
%TO.P,U1,23,GPIO2*%
%TO.N,Board_2-Net-(U1-GPIO2)*%
X171769000Y-21000000D03*
%TO.P,U1,24,GPIO3*%
%TO.N,Board_2-unconnected-(U1-GPIO3-Pad24)*%
X170769000Y-21000000D03*
%TO.P,U1,25,GND*%
%TO.N,Board_2-GND*%
X169769000Y-21000000D03*
D12*
%TO.P,U1,26,ANT*%
%TO.N,Board_2-unconnected-(U1-ANT-Pad26)*%
X167769000Y-24726200D03*
D13*
%TO.P,U1,27,EPAD*%
%TO.N,Board_2-unconnected-(U1-EPAD-Pad27)*%
X174407820Y-26250200D03*
%TD*%
D10*
%TO.P,U1,1,GND*%
%TO.N,Board_5-GND*%
X169769000Y-46000000D03*
%TO.P,U1,2,VDD3V3*%
%TO.N,Board_5-vcc33*%
X170769000Y-46000000D03*
%TO.P,U1,3,CHIP_EN*%
%TO.N,Board_5-unconnected-(U1-CHIP_EN-Pad3)*%
X171769000Y-46000000D03*
%TO.P,U1,4,GPIO10*%
%TO.N,Board_5-unconnected-(U1-GPIO10-Pad4)*%
X172769000Y-46000000D03*
%TO.P,U1,5,GPIO11*%
%TO.N,Board_5-unconnected-(U1-GPIO11-Pad5)*%
X173769000Y-46000000D03*
%TO.P,U1,6,GPIO12*%
%TO.N,Board_5-unconnected-(U1-GPIO12-Pad6)*%
X174769000Y-46000000D03*
%TO.P,U1,7,GPIO13*%
%TO.N,Board_5-unconnected-(U1-GPIO13-Pad7)*%
X175769000Y-46000000D03*
%TO.P,U1,8,GPIO14*%
%TO.N,Board_5-unconnected-(U1-GPIO14-Pad8)*%
X176769000Y-46000000D03*
%TO.P,U1,9,GPIO15*%
%TO.N,Board_5-unconnected-(U1-GPIO15-Pad9)*%
X177769000Y-46000000D03*
D11*
%TO.P,U1,10,GPIO16*%
%TO.N,Board_5-unconnected-(U1-GPIO16-Pad10)*%
X178769000Y-44000000D03*
%TO.P,U1,11,GPIO17*%
%TO.N,Board_5-unconnected-(U1-GPIO17-Pad11)*%
X178769000Y-43000000D03*
%TO.P,U1,12,USB_DP*%
%TO.N,Board_5-D+*%
X178769000Y-42000000D03*
%TO.P,U1,13,USB_DN*%
%TO.N,Board_5-D-*%
X178769000Y-41000000D03*
%TO.P,U1,14,GPIO20*%
%TO.N,Board_5-unconnected-(U1-GPIO20-Pad14)*%
X178769000Y-40000000D03*
%TO.P,U1,15,GPIO21*%
%TO.N,Board_5-unconnected-(U1-GPIO21-Pad15)*%
X178769000Y-39000000D03*
%TO.P,U1,16,GPIO22*%
%TO.N,Board_5-unconnected-(U1-GPIO22-Pad16)*%
X178769000Y-38000000D03*
D10*
%TO.P,U1,17,GPIO27*%
%TO.N,Board_5-unconnected-(U1-GPIO27-Pad17)*%
X177769000Y-36000000D03*
%TO.P,U1,18,GPIO28*%
%TO.N,Board_5-unconnected-(U1-GPIO28-Pad18)*%
X176769000Y-36000000D03*
%TO.P,U1,19,GPIO29*%
%TO.N,Board_5-unconnected-(U1-GPIO29-Pad19)*%
X175769000Y-36000000D03*
%TO.P,U1,20,GPIO30*%
%TO.N,Board_5-unconnected-(U1-GPIO30-Pad20)*%
X174769000Y-36000000D03*
%TO.P,U1,21,GPIO0*%
%TO.N,Board_5-unconnected-(U1-GPIO0-Pad21)*%
X173769000Y-36000000D03*
%TO.P,U1,22,GPIO1*%
%TO.N,Board_5-unconnected-(U1-GPIO1-Pad22)*%
X172769000Y-36000000D03*
%TO.P,U1,23,GPIO2*%
%TO.N,Board_5-Net-(U1-GPIO2)*%
X171769000Y-36000000D03*
%TO.P,U1,24,GPIO3*%
%TO.N,Board_5-unconnected-(U1-GPIO3-Pad24)*%
X170769000Y-36000000D03*
%TO.P,U1,25,GND*%
%TO.N,Board_5-GND*%
X169769000Y-36000000D03*
D12*
%TO.P,U1,26,ANT*%
%TO.N,Board_5-unconnected-(U1-ANT-Pad26)*%
X167769000Y-39726200D03*
D13*
%TO.P,U1,27,EPAD*%
%TO.N,Board_5-unconnected-(U1-EPAD-Pad27)*%
X174407820Y-41250200D03*
%TD*%
D10*
%TO.P,U1,1,GND*%
%TO.N,Board_3-GND*%
X110169000Y-46000000D03*
%TO.P,U1,2,VDD3V3*%
%TO.N,Board_3-vcc33*%
X111169000Y-46000000D03*
%TO.P,U1,3,CHIP_EN*%
%TO.N,Board_3-unconnected-(U1-CHIP_EN-Pad3)*%
X112169000Y-46000000D03*
%TO.P,U1,4,GPIO10*%
%TO.N,Board_3-unconnected-(U1-GPIO10-Pad4)*%
X113169000Y-46000000D03*
%TO.P,U1,5,GPIO11*%
%TO.N,Board_3-unconnected-(U1-GPIO11-Pad5)*%
X114169000Y-46000000D03*
%TO.P,U1,6,GPIO12*%
%TO.N,Board_3-unconnected-(U1-GPIO12-Pad6)*%
X115169000Y-46000000D03*
%TO.P,U1,7,GPIO13*%
%TO.N,Board_3-unconnected-(U1-GPIO13-Pad7)*%
X116169000Y-46000000D03*
%TO.P,U1,8,GPIO14*%
%TO.N,Board_3-unconnected-(U1-GPIO14-Pad8)*%
X117169000Y-46000000D03*
%TO.P,U1,9,GPIO15*%
%TO.N,Board_3-unconnected-(U1-GPIO15-Pad9)*%
X118169000Y-46000000D03*
D11*
%TO.P,U1,10,GPIO16*%
%TO.N,Board_3-unconnected-(U1-GPIO16-Pad10)*%
X119169000Y-44000000D03*
%TO.P,U1,11,GPIO17*%
%TO.N,Board_3-unconnected-(U1-GPIO17-Pad11)*%
X119169000Y-43000000D03*
%TO.P,U1,12,USB_DP*%
%TO.N,Board_3-D+*%
X119169000Y-42000000D03*
%TO.P,U1,13,USB_DN*%
%TO.N,Board_3-D-*%
X119169000Y-41000000D03*
%TO.P,U1,14,GPIO20*%
%TO.N,Board_3-unconnected-(U1-GPIO20-Pad14)*%
X119169000Y-40000000D03*
%TO.P,U1,15,GPIO21*%
%TO.N,Board_3-unconnected-(U1-GPIO21-Pad15)*%
X119169000Y-39000000D03*
%TO.P,U1,16,GPIO22*%
%TO.N,Board_3-unconnected-(U1-GPIO22-Pad16)*%
X119169000Y-38000000D03*
D10*
%TO.P,U1,17,GPIO27*%
%TO.N,Board_3-unconnected-(U1-GPIO27-Pad17)*%
X118169000Y-36000000D03*
%TO.P,U1,18,GPIO28*%
%TO.N,Board_3-unconnected-(U1-GPIO28-Pad18)*%
X117169000Y-36000000D03*
%TO.P,U1,19,GPIO29*%
%TO.N,Board_3-unconnected-(U1-GPIO29-Pad19)*%
X116169000Y-36000000D03*
%TO.P,U1,20,GPIO30*%
%TO.N,Board_3-unconnected-(U1-GPIO30-Pad20)*%
X115169000Y-36000000D03*
%TO.P,U1,21,GPIO0*%
%TO.N,Board_3-unconnected-(U1-GPIO0-Pad21)*%
X114169000Y-36000000D03*
%TO.P,U1,22,GPIO1*%
%TO.N,Board_3-unconnected-(U1-GPIO1-Pad22)*%
X113169000Y-36000000D03*
%TO.P,U1,23,GPIO2*%
%TO.N,Board_3-Net-(U1-GPIO2)*%
X112169000Y-36000000D03*
%TO.P,U1,24,GPIO3*%
%TO.N,Board_3-unconnected-(U1-GPIO3-Pad24)*%
X111169000Y-36000000D03*
%TO.P,U1,25,GND*%
%TO.N,Board_3-GND*%
X110169000Y-36000000D03*
D12*
%TO.P,U1,26,ANT*%
%TO.N,Board_3-unconnected-(U1-ANT-Pad26)*%
X108169000Y-39726200D03*
D13*
%TO.P,U1,27,EPAD*%
%TO.N,Board_3-unconnected-(U1-EPAD-Pad27)*%
X114807820Y-41250200D03*
%TD*%
D14*
%TO.P,J2,1,VBUS*%
%TO.N,Board_0-Net-(J2-VBUS)*%
X127112500Y-22190000D03*
D15*
%TO.P,J2,2,D-*%
%TO.N,Board_0-D-*%
X126862500Y-24700000D03*
%TO.P,J2,3,D+*%
%TO.N,Board_0-D+*%
X126862500Y-27300000D03*
D14*
%TO.P,J2,4,GND*%
%TO.N,Board_0-GND*%
X127112500Y-29810000D03*
%TD*%
%TO.P,J2,1,VBUS*%
%TO.N,Board_14-Net-(J2-VBUS)*%
X186712500Y-82190000D03*
D15*
%TO.P,J2,2,D-*%
%TO.N,Board_14-D-*%
X186462500Y-84700000D03*
%TO.P,J2,3,D+*%
%TO.N,Board_14-D+*%
X186462500Y-87300000D03*
D14*
%TO.P,J2,4,GND*%
%TO.N,Board_14-GND*%
X186712500Y-89810000D03*
%TD*%
D16*
%TO.N,Board_0-GND*%
X121874300Y-30557500D03*
%TO.N,Board_0-Net-(J2-VBUS)*%
X112416700Y-26256200D03*
X110027500Y-26448700D03*
%TO.N,Board_0-Net-(U1-GPIO2)*%
X117758900Y-27417300D03*
X107959300Y-26917700D03*
%TO.N,Board_0-vcc33*%
X116577900Y-27396000D03*
X109597800Y-28235900D03*
%TO.N,Board_1-GND*%
X151674300Y-30557500D03*
%TO.N,Board_1-Net-(J2-VBUS)*%
X139827500Y-26448700D03*
X142216700Y-26256200D03*
%TO.N,Board_1-Net-(U1-GPIO2)*%
X147558900Y-27417300D03*
X137759300Y-26917700D03*
%TO.N,Board_1-vcc33*%
X146377900Y-27396000D03*
X139397800Y-28235900D03*
%TO.N,Board_2-GND*%
X181474300Y-30557500D03*
%TO.N,Board_2-Net-(J2-VBUS)*%
X172016700Y-26256200D03*
X169627500Y-26448700D03*
%TO.N,Board_2-Net-(U1-GPIO2)*%
X167559300Y-26917700D03*
X177358900Y-27417300D03*
%TO.N,Board_2-vcc33*%
X169197800Y-28235900D03*
X176177900Y-27396000D03*
%TO.N,Board_3-GND*%
X121874300Y-45557500D03*
%TO.N,Board_3-Net-(J2-VBUS)*%
X112416700Y-41256200D03*
X110027500Y-41448700D03*
%TO.N,Board_3-Net-(U1-GPIO2)*%
X117758900Y-42417300D03*
X107959300Y-41917700D03*
%TO.N,Board_3-vcc33*%
X109597800Y-43235900D03*
X116577900Y-42396000D03*
%TO.N,Board_4-GND*%
X151674300Y-45557500D03*
%TO.N,Board_4-Net-(J2-VBUS)*%
X139827500Y-41448700D03*
X142216700Y-41256200D03*
%TO.N,Board_4-Net-(U1-GPIO2)*%
X137759300Y-41917700D03*
X147558900Y-42417300D03*
%TO.N,Board_4-vcc33*%
X139397800Y-43235900D03*
X146377900Y-42396000D03*
%TO.N,Board_5-GND*%
X181474300Y-45557500D03*
%TO.N,Board_5-Net-(J2-VBUS)*%
X169627500Y-41448700D03*
X172016700Y-41256200D03*
%TO.N,Board_5-Net-(U1-GPIO2)*%
X177358900Y-42417300D03*
X167559300Y-41917700D03*
%TO.N,Board_5-vcc33*%
X169197800Y-43235900D03*
X176177900Y-42396000D03*
%TO.N,Board_6-GND*%
X121874300Y-60557500D03*
%TO.N,Board_6-Net-(J2-VBUS)*%
X110027500Y-56448700D03*
X112416700Y-56256200D03*
%TO.N,Board_6-Net-(U1-GPIO2)*%
X107959300Y-56917700D03*
X117758900Y-57417300D03*
%TO.N,Board_6-vcc33*%
X109597800Y-58235900D03*
X116577900Y-57396000D03*
%TO.N,Board_7-GND*%
X151674300Y-60557500D03*
%TO.N,Board_7-Net-(J2-VBUS)*%
X139827500Y-56448700D03*
X142216700Y-56256200D03*
%TO.N,Board_7-Net-(U1-GPIO2)*%
X147558900Y-57417300D03*
X137759300Y-56917700D03*
%TO.N,Board_7-vcc33*%
X146377900Y-57396000D03*
X139397800Y-58235900D03*
%TO.N,Board_8-GND*%
X181474300Y-60557500D03*
%TO.N,Board_8-Net-(J2-VBUS)*%
X172016700Y-56256200D03*
X169627500Y-56448700D03*
%TO.N,Board_8-Net-(U1-GPIO2)*%
X167559300Y-56917700D03*
X177358900Y-57417300D03*
%TO.N,Board_8-vcc33*%
X176177900Y-57396000D03*
X169197800Y-58235900D03*
%TO.N,Board_9-GND*%
X121874300Y-75557500D03*
%TO.N,Board_9-Net-(J2-VBUS)*%
X110027500Y-71448700D03*
X112416700Y-71256200D03*
%TO.N,Board_9-Net-(U1-GPIO2)*%
X107959300Y-71917700D03*
X117758900Y-72417300D03*
%TO.N,Board_9-vcc33*%
X116577900Y-72396000D03*
X109597800Y-73235900D03*
%TO.N,Board_10-GND*%
X151674300Y-75557500D03*
%TO.N,Board_10-Net-(J2-VBUS)*%
X139827500Y-71448700D03*
X142216700Y-71256200D03*
%TO.N,Board_10-Net-(U1-GPIO2)*%
X137759300Y-71917700D03*
X147558900Y-72417300D03*
%TO.N,Board_10-vcc33*%
X139397800Y-73235900D03*
X146377900Y-72396000D03*
%TO.N,Board_11-GND*%
X181474300Y-75557500D03*
%TO.N,Board_11-Net-(J2-VBUS)*%
X172016700Y-71256200D03*
X169627500Y-71448700D03*
%TO.N,Board_11-Net-(U1-GPIO2)*%
X167559300Y-71917700D03*
X177358900Y-72417300D03*
%TO.N,Board_11-vcc33*%
X169197800Y-73235900D03*
X176177900Y-72396000D03*
%TO.N,Board_12-GND*%
X121874300Y-90557500D03*
%TO.N,Board_12-Net-(J2-VBUS)*%
X112416700Y-86256200D03*
X110027500Y-86448700D03*
%TO.N,Board_12-Net-(U1-GPIO2)*%
X107959300Y-86917700D03*
X117758900Y-87417300D03*
%TO.N,Board_12-vcc33*%
X109597800Y-88235900D03*
X116577900Y-87396000D03*
%TO.N,Board_13-GND*%
X151674300Y-90557500D03*
%TO.N,Board_13-Net-(J2-VBUS)*%
X142216700Y-86256200D03*
X139827500Y-86448700D03*
%TO.N,Board_13-Net-(U1-GPIO2)*%
X137759300Y-86917700D03*
X147558900Y-87417300D03*
%TO.N,Board_13-vcc33*%
X146377900Y-87396000D03*
X139397800Y-88235900D03*
%TO.N,Board_14-GND*%
X181474300Y-90557500D03*
%TO.N,Board_14-Net-(J2-VBUS)*%
X172016700Y-86256200D03*
X169627500Y-86448700D03*
%TO.N,Board_14-Net-(U1-GPIO2)*%
X177358900Y-87417300D03*
X167559300Y-86917700D03*
%TO.N,Board_14-vcc33*%
X176177900Y-87396000D03*
X169197800Y-88235900D03*
%TD*%
D17*
%TO.N,Board_0-D+*%
X119169000Y-27000000D02*
X122487400Y-27000000D01*
X122487400Y-27000000D02*
X122787400Y-27300000D01*
X126862500Y-27300000D02*
X122787400Y-27300000D01*
%TO.N,Board_0-D-*%
X121487400Y-26000000D02*
X122787400Y-24700000D01*
X119169000Y-26000000D02*
X121487400Y-26000000D01*
X126862500Y-24700000D02*
X122787400Y-24700000D01*
%TO.N,Board_0-GND*%
X107056200Y-24112800D02*
X107056200Y-27887200D01*
X127112500Y-29810000D02*
X122787400Y-29810000D01*
X122039900Y-30557500D02*
X122787400Y-29810000D01*
X110169000Y-21000000D02*
X107056200Y-24112800D01*
X107056200Y-27887200D02*
X110169000Y-31000000D01*
X121874300Y-30557500D02*
X122039900Y-30557500D01*
%TO.N,Board_0-Net-(J2-VBUS)*%
X112416700Y-25336600D02*
X112416700Y-26256200D01*
X127112500Y-22190000D02*
X115563300Y-22190000D01*
X115563300Y-22190000D02*
X112416700Y-25336600D01*
X112416700Y-26256200D02*
X110220000Y-26256200D01*
X110220000Y-26256200D02*
X110027500Y-26448700D01*
%TO.N,Board_0-Net-(U1-GPIO2)*%
X113141800Y-25248100D02*
X113620200Y-24769700D01*
X113620200Y-24769700D02*
X116026400Y-24769700D01*
X109302400Y-26148400D02*
X109302400Y-26749000D01*
X117758900Y-26502200D02*
X117758900Y-27417300D01*
X112169000Y-23281800D02*
X109302400Y-26148400D01*
X109302400Y-26749000D02*
X109727200Y-27173800D01*
X107959300Y-26917700D02*
X109133700Y-26917700D01*
X113141800Y-26556500D02*
X113141800Y-25248100D01*
X109727200Y-27173800D02*
X112524500Y-27173800D01*
X109133700Y-26917700D02*
X109302400Y-26749000D01*
X112524500Y-27173800D02*
X113141800Y-26556500D01*
X116026400Y-24769700D02*
X117758900Y-26502200D01*
X112169000Y-21000000D02*
X112169000Y-23281800D01*
%TO.N,Board_0-vcc33*%
X111169000Y-28249400D02*
X115724500Y-28249400D01*
X111169000Y-31000000D02*
X111169000Y-28249400D01*
X111169000Y-28249400D02*
X109611300Y-28249400D01*
X115724500Y-28249400D02*
X116577900Y-27396000D01*
X109611300Y-28249400D02*
X109597800Y-28235900D01*
%TO.N,Board_1-D+*%
X148969000Y-27000000D02*
X152287400Y-27000000D01*
X152287400Y-27000000D02*
X152587400Y-27300000D01*
X156662500Y-27300000D02*
X152587400Y-27300000D01*
%TO.N,Board_1-D-*%
X156662500Y-24700000D02*
X152587400Y-24700000D01*
X151287400Y-26000000D02*
X152587400Y-24700000D01*
X148969000Y-26000000D02*
X151287400Y-26000000D01*
%TO.N,Board_1-GND*%
X156912500Y-29810000D02*
X152587400Y-29810000D01*
X136856200Y-24112800D02*
X136856200Y-27887200D01*
X139969000Y-21000000D02*
X136856200Y-24112800D01*
X136856200Y-27887200D02*
X139969000Y-31000000D01*
X151674300Y-30557500D02*
X151839900Y-30557500D01*
X151839900Y-30557500D02*
X152587400Y-29810000D01*
%TO.N,Board_1-Net-(J2-VBUS)*%
X142216700Y-25336600D02*
X142216700Y-26256200D01*
X140020000Y-26256200D02*
X139827500Y-26448700D01*
X145363300Y-22190000D02*
X142216700Y-25336600D01*
X156912500Y-22190000D02*
X145363300Y-22190000D01*
X142216700Y-26256200D02*
X140020000Y-26256200D01*
%TO.N,Board_1-Net-(U1-GPIO2)*%
X142941800Y-26556500D02*
X142941800Y-25248100D01*
X139527200Y-27173800D02*
X142324500Y-27173800D01*
X138933700Y-26917700D02*
X139102400Y-26749000D01*
X145826400Y-24769700D02*
X147558900Y-26502200D01*
X139102400Y-26749000D02*
X139527200Y-27173800D01*
X142941800Y-25248100D02*
X143420200Y-24769700D01*
X147558900Y-26502200D02*
X147558900Y-27417300D01*
X137759300Y-26917700D02*
X138933700Y-26917700D01*
X142324500Y-27173800D02*
X142941800Y-26556500D01*
X141969000Y-23281800D02*
X139102400Y-26148400D01*
X143420200Y-24769700D02*
X145826400Y-24769700D01*
X139102400Y-26148400D02*
X139102400Y-26749000D01*
X141969000Y-21000000D02*
X141969000Y-23281800D01*
%TO.N,Board_1-vcc33*%
X145524500Y-28249400D02*
X146377900Y-27396000D01*
X140969000Y-28249400D02*
X145524500Y-28249400D01*
X140969000Y-31000000D02*
X140969000Y-28249400D01*
X139411300Y-28249400D02*
X139397800Y-28235900D01*
X140969000Y-28249400D02*
X139411300Y-28249400D01*
%TO.N,Board_2-D+*%
X186462500Y-27300000D02*
X182387400Y-27300000D01*
X182087400Y-27000000D02*
X182387400Y-27300000D01*
X178769000Y-27000000D02*
X182087400Y-27000000D01*
%TO.N,Board_2-D-*%
X186462500Y-24700000D02*
X182387400Y-24700000D01*
X178769000Y-26000000D02*
X181087400Y-26000000D01*
X181087400Y-26000000D02*
X182387400Y-24700000D01*
%TO.N,Board_2-GND*%
X166656200Y-24112800D02*
X166656200Y-27887200D01*
X169769000Y-21000000D02*
X166656200Y-24112800D01*
X181639900Y-30557500D02*
X182387400Y-29810000D01*
X166656200Y-27887200D02*
X169769000Y-31000000D01*
X181474300Y-30557500D02*
X181639900Y-30557500D01*
X186712500Y-29810000D02*
X182387400Y-29810000D01*
%TO.N,Board_2-Net-(J2-VBUS)*%
X172016700Y-26256200D02*
X169820000Y-26256200D01*
X172016700Y-25336600D02*
X172016700Y-26256200D01*
X169820000Y-26256200D02*
X169627500Y-26448700D01*
X175163300Y-22190000D02*
X172016700Y-25336600D01*
X186712500Y-22190000D02*
X175163300Y-22190000D01*
%TO.N,Board_2-Net-(U1-GPIO2)*%
X173220200Y-24769700D02*
X175626400Y-24769700D01*
X171769000Y-21000000D02*
X171769000Y-23281800D01*
X169327200Y-27173800D02*
X172124500Y-27173800D01*
X167559300Y-26917700D02*
X168733700Y-26917700D01*
X172741800Y-25248100D02*
X173220200Y-24769700D01*
X168902400Y-26148400D02*
X168902400Y-26749000D01*
X168902400Y-26749000D02*
X169327200Y-27173800D01*
X175626400Y-24769700D02*
X177358900Y-26502200D01*
X172124500Y-27173800D02*
X172741800Y-26556500D01*
X172741800Y-26556500D02*
X172741800Y-25248100D01*
X177358900Y-26502200D02*
X177358900Y-27417300D01*
X171769000Y-23281800D02*
X168902400Y-26148400D01*
X168733700Y-26917700D02*
X168902400Y-26749000D01*
%TO.N,Board_2-vcc33*%
X169211300Y-28249400D02*
X169197800Y-28235900D01*
X170769000Y-28249400D02*
X169211300Y-28249400D01*
X170769000Y-31000000D02*
X170769000Y-28249400D01*
X175324500Y-28249400D02*
X176177900Y-27396000D01*
X170769000Y-28249400D02*
X175324500Y-28249400D01*
%TO.N,Board_3-D+*%
X119169000Y-42000000D02*
X122487400Y-42000000D01*
X126862500Y-42300000D02*
X122787400Y-42300000D01*
X122487400Y-42000000D02*
X122787400Y-42300000D01*
%TO.N,Board_3-D-*%
X119169000Y-41000000D02*
X121487400Y-41000000D01*
X121487400Y-41000000D02*
X122787400Y-39700000D01*
X126862500Y-39700000D02*
X122787400Y-39700000D01*
%TO.N,Board_3-GND*%
X127112500Y-44810000D02*
X122787400Y-44810000D01*
X122039900Y-45557500D02*
X122787400Y-44810000D01*
X121874300Y-45557500D02*
X122039900Y-45557500D01*
X107056200Y-39112800D02*
X107056200Y-42887200D01*
X107056200Y-42887200D02*
X110169000Y-46000000D01*
X110169000Y-36000000D02*
X107056200Y-39112800D01*
%TO.N,Board_3-Net-(J2-VBUS)*%
X110220000Y-41256200D02*
X110027500Y-41448700D01*
X127112500Y-37190000D02*
X115563300Y-37190000D01*
X112416700Y-41256200D02*
X110220000Y-41256200D01*
X112416700Y-40336600D02*
X112416700Y-41256200D01*
X115563300Y-37190000D02*
X112416700Y-40336600D01*
%TO.N,Board_3-Net-(U1-GPIO2)*%
X112169000Y-38281800D02*
X109302400Y-41148400D01*
X117758900Y-41502200D02*
X117758900Y-42417300D01*
X109133700Y-41917700D02*
X109302400Y-41749000D01*
X109302400Y-41749000D02*
X109727200Y-42173800D01*
X112169000Y-36000000D02*
X112169000Y-38281800D01*
X109302400Y-41148400D02*
X109302400Y-41749000D01*
X107959300Y-41917700D02*
X109133700Y-41917700D01*
X113141800Y-40248100D02*
X113620200Y-39769700D01*
X116026400Y-39769700D02*
X117758900Y-41502200D01*
X113620200Y-39769700D02*
X116026400Y-39769700D01*
X113141800Y-41556500D02*
X113141800Y-40248100D01*
X112524500Y-42173800D02*
X113141800Y-41556500D01*
X109727200Y-42173800D02*
X112524500Y-42173800D01*
%TO.N,Board_3-vcc33*%
X111169000Y-43249400D02*
X115724500Y-43249400D01*
X111169000Y-46000000D02*
X111169000Y-43249400D01*
X109611300Y-43249400D02*
X109597800Y-43235900D01*
X111169000Y-43249400D02*
X109611300Y-43249400D01*
X115724500Y-43249400D02*
X116577900Y-42396000D01*
%TO.N,Board_4-D+*%
X148969000Y-42000000D02*
X152287400Y-42000000D01*
X156662500Y-42300000D02*
X152587400Y-42300000D01*
X152287400Y-42000000D02*
X152587400Y-42300000D01*
%TO.N,Board_4-D-*%
X156662500Y-39700000D02*
X152587400Y-39700000D01*
X151287400Y-41000000D02*
X152587400Y-39700000D01*
X148969000Y-41000000D02*
X151287400Y-41000000D01*
%TO.N,Board_4-GND*%
X151674300Y-45557500D02*
X151839900Y-45557500D01*
X139969000Y-36000000D02*
X136856200Y-39112800D01*
X136856200Y-39112800D02*
X136856200Y-42887200D01*
X151839900Y-45557500D02*
X152587400Y-44810000D01*
X156912500Y-44810000D02*
X152587400Y-44810000D01*
X136856200Y-42887200D02*
X139969000Y-46000000D01*
%TO.N,Board_4-Net-(J2-VBUS)*%
X145363300Y-37190000D02*
X142216700Y-40336600D01*
X142216700Y-41256200D02*
X140020000Y-41256200D01*
X156912500Y-37190000D02*
X145363300Y-37190000D01*
X140020000Y-41256200D02*
X139827500Y-41448700D01*
X142216700Y-40336600D02*
X142216700Y-41256200D01*
%TO.N,Board_4-Net-(U1-GPIO2)*%
X142324500Y-42173800D02*
X142941800Y-41556500D01*
X141969000Y-36000000D02*
X141969000Y-38281800D01*
X138933700Y-41917700D02*
X139102400Y-41749000D01*
X145826400Y-39769700D02*
X147558900Y-41502200D01*
X141969000Y-38281800D02*
X139102400Y-41148400D01*
X142941800Y-41556500D02*
X142941800Y-40248100D01*
X139527200Y-42173800D02*
X142324500Y-42173800D01*
X137759300Y-41917700D02*
X138933700Y-41917700D01*
X147558900Y-41502200D02*
X147558900Y-42417300D01*
X139102400Y-41749000D02*
X139527200Y-42173800D01*
X139102400Y-41148400D02*
X139102400Y-41749000D01*
X142941800Y-40248100D02*
X143420200Y-39769700D01*
X143420200Y-39769700D02*
X145826400Y-39769700D01*
%TO.N,Board_4-vcc33*%
X140969000Y-46000000D02*
X140969000Y-43249400D01*
X145524500Y-43249400D02*
X146377900Y-42396000D01*
X140969000Y-43249400D02*
X139411300Y-43249400D01*
X140969000Y-43249400D02*
X145524500Y-43249400D01*
X139411300Y-43249400D02*
X139397800Y-43235900D01*
%TO.N,Board_5-D+*%
X186462500Y-42300000D02*
X182387400Y-42300000D01*
X178769000Y-42000000D02*
X182087400Y-42000000D01*
X182087400Y-42000000D02*
X182387400Y-42300000D01*
%TO.N,Board_5-D-*%
X181087400Y-41000000D02*
X182387400Y-39700000D01*
X178769000Y-41000000D02*
X181087400Y-41000000D01*
X186462500Y-39700000D02*
X182387400Y-39700000D01*
%TO.N,Board_5-GND*%
X181474300Y-45557500D02*
X181639900Y-45557500D01*
X181639900Y-45557500D02*
X182387400Y-44810000D01*
X166656200Y-42887200D02*
X169769000Y-46000000D01*
X169769000Y-36000000D02*
X166656200Y-39112800D01*
X186712500Y-44810000D02*
X182387400Y-44810000D01*
X166656200Y-39112800D02*
X166656200Y-42887200D01*
%TO.N,Board_5-Net-(J2-VBUS)*%
X186712500Y-37190000D02*
X175163300Y-37190000D01*
X169820000Y-41256200D02*
X169627500Y-41448700D01*
X172016700Y-40336600D02*
X172016700Y-41256200D01*
X172016700Y-41256200D02*
X169820000Y-41256200D01*
X175163300Y-37190000D02*
X172016700Y-40336600D01*
%TO.N,Board_5-Net-(U1-GPIO2)*%
X168902400Y-41749000D02*
X169327200Y-42173800D01*
X172741800Y-40248100D02*
X173220200Y-39769700D01*
X177358900Y-41502200D02*
X177358900Y-42417300D01*
X171769000Y-36000000D02*
X171769000Y-38281800D01*
X172741800Y-41556500D02*
X172741800Y-40248100D01*
X173220200Y-39769700D02*
X175626400Y-39769700D01*
X167559300Y-41917700D02*
X168733700Y-41917700D01*
X168902400Y-41148400D02*
X168902400Y-41749000D01*
X172124500Y-42173800D02*
X172741800Y-41556500D01*
X171769000Y-38281800D02*
X168902400Y-41148400D01*
X168733700Y-41917700D02*
X168902400Y-41749000D01*
X169327200Y-42173800D02*
X172124500Y-42173800D01*
X175626400Y-39769700D02*
X177358900Y-41502200D01*
%TO.N,Board_5-vcc33*%
X170769000Y-46000000D02*
X170769000Y-43249400D01*
X170769000Y-43249400D02*
X175324500Y-43249400D01*
X175324500Y-43249400D02*
X176177900Y-42396000D01*
X169211300Y-43249400D02*
X169197800Y-43235900D01*
X170769000Y-43249400D02*
X169211300Y-43249400D01*
%TO.N,Board_6-D+*%
X119169000Y-57000000D02*
X122487400Y-57000000D01*
X126862500Y-57300000D02*
X122787400Y-57300000D01*
X122487400Y-57000000D02*
X122787400Y-57300000D01*
%TO.N,Board_6-D-*%
X121487400Y-56000000D02*
X122787400Y-54700000D01*
X126862500Y-54700000D02*
X122787400Y-54700000D01*
X119169000Y-56000000D02*
X121487400Y-56000000D01*
%TO.N,Board_6-GND*%
X122039900Y-60557500D02*
X122787400Y-59810000D01*
X110169000Y-51000000D02*
X107056200Y-54112800D01*
X107056200Y-57887200D02*
X110169000Y-61000000D01*
X127112500Y-59810000D02*
X122787400Y-59810000D01*
X121874300Y-60557500D02*
X122039900Y-60557500D01*
X107056200Y-54112800D02*
X107056200Y-57887200D01*
%TO.N,Board_6-Net-(J2-VBUS)*%
X127112500Y-52190000D02*
X115563300Y-52190000D01*
X110220000Y-56256200D02*
X110027500Y-56448700D01*
X115563300Y-52190000D02*
X112416700Y-55336600D01*
X112416700Y-55336600D02*
X112416700Y-56256200D01*
X112416700Y-56256200D02*
X110220000Y-56256200D01*
%TO.N,Board_6-Net-(U1-GPIO2)*%
X109302400Y-56148400D02*
X109302400Y-56749000D01*
X112524500Y-57173800D02*
X113141800Y-56556500D01*
X109727200Y-57173800D02*
X112524500Y-57173800D01*
X116026400Y-54769700D02*
X117758900Y-56502200D01*
X109133700Y-56917700D02*
X109302400Y-56749000D01*
X112169000Y-51000000D02*
X112169000Y-53281800D01*
X113141800Y-56556500D02*
X113141800Y-55248100D01*
X113141800Y-55248100D02*
X113620200Y-54769700D01*
X109302400Y-56749000D02*
X109727200Y-57173800D01*
X107959300Y-56917700D02*
X109133700Y-56917700D01*
X112169000Y-53281800D02*
X109302400Y-56148400D01*
X117758900Y-56502200D02*
X117758900Y-57417300D01*
X113620200Y-54769700D02*
X116026400Y-54769700D01*
%TO.N,Board_6-vcc33*%
X109611300Y-58249400D02*
X109597800Y-58235900D01*
X115724500Y-58249400D02*
X116577900Y-57396000D01*
X111169000Y-61000000D02*
X111169000Y-58249400D01*
X111169000Y-58249400D02*
X109611300Y-58249400D01*
X111169000Y-58249400D02*
X115724500Y-58249400D01*
%TO.N,Board_7-D+*%
X148969000Y-57000000D02*
X152287400Y-57000000D01*
X152287400Y-57000000D02*
X152587400Y-57300000D01*
X156662500Y-57300000D02*
X152587400Y-57300000D01*
%TO.N,Board_7-D-*%
X151287400Y-56000000D02*
X152587400Y-54700000D01*
X156662500Y-54700000D02*
X152587400Y-54700000D01*
X148969000Y-56000000D02*
X151287400Y-56000000D01*
%TO.N,Board_7-GND*%
X151674300Y-60557500D02*
X151839900Y-60557500D01*
X151839900Y-60557500D02*
X152587400Y-59810000D01*
X136856200Y-57887200D02*
X139969000Y-61000000D01*
X156912500Y-59810000D02*
X152587400Y-59810000D01*
X136856200Y-54112800D02*
X136856200Y-57887200D01*
X139969000Y-51000000D02*
X136856200Y-54112800D01*
%TO.N,Board_7-Net-(J2-VBUS)*%
X142216700Y-56256200D02*
X140020000Y-56256200D01*
X140020000Y-56256200D02*
X139827500Y-56448700D01*
X142216700Y-55336600D02*
X142216700Y-56256200D01*
X145363300Y-52190000D02*
X142216700Y-55336600D01*
X156912500Y-52190000D02*
X145363300Y-52190000D01*
%TO.N,Board_7-Net-(U1-GPIO2)*%
X138933700Y-56917700D02*
X139102400Y-56749000D01*
X145826400Y-54769700D02*
X147558900Y-56502200D01*
X139102400Y-56148400D02*
X139102400Y-56749000D01*
X141969000Y-53281800D02*
X139102400Y-56148400D01*
X142941800Y-56556500D02*
X142941800Y-55248100D01*
X137759300Y-56917700D02*
X138933700Y-56917700D01*
X139102400Y-56749000D02*
X139527200Y-57173800D01*
X139527200Y-57173800D02*
X142324500Y-57173800D01*
X147558900Y-56502200D02*
X147558900Y-57417300D01*
X141969000Y-51000000D02*
X141969000Y-53281800D01*
X142324500Y-57173800D02*
X142941800Y-56556500D01*
X142941800Y-55248100D02*
X143420200Y-54769700D01*
X143420200Y-54769700D02*
X145826400Y-54769700D01*
%TO.N,Board_7-vcc33*%
X140969000Y-58249400D02*
X139411300Y-58249400D01*
X139411300Y-58249400D02*
X139397800Y-58235900D01*
X140969000Y-61000000D02*
X140969000Y-58249400D01*
X140969000Y-58249400D02*
X145524500Y-58249400D01*
X145524500Y-58249400D02*
X146377900Y-57396000D01*
%TO.N,Board_8-D+*%
X182087400Y-57000000D02*
X182387400Y-57300000D01*
X186462500Y-57300000D02*
X182387400Y-57300000D01*
X178769000Y-57000000D02*
X182087400Y-57000000D01*
%TO.N,Board_8-D-*%
X181087400Y-56000000D02*
X182387400Y-54700000D01*
X178769000Y-56000000D02*
X181087400Y-56000000D01*
X186462500Y-54700000D02*
X182387400Y-54700000D01*
%TO.N,Board_8-GND*%
X181639900Y-60557500D02*
X182387400Y-59810000D01*
X181474300Y-60557500D02*
X181639900Y-60557500D01*
X169769000Y-51000000D02*
X166656200Y-54112800D01*
X186712500Y-59810000D02*
X182387400Y-59810000D01*
X166656200Y-54112800D02*
X166656200Y-57887200D01*
X166656200Y-57887200D02*
X169769000Y-61000000D01*
%TO.N,Board_8-Net-(J2-VBUS)*%
X169820000Y-56256200D02*
X169627500Y-56448700D01*
X172016700Y-56256200D02*
X169820000Y-56256200D01*
X175163300Y-52190000D02*
X172016700Y-55336600D01*
X172016700Y-55336600D02*
X172016700Y-56256200D01*
X186712500Y-52190000D02*
X175163300Y-52190000D01*
%TO.N,Board_8-Net-(U1-GPIO2)*%
X172124500Y-57173800D02*
X172741800Y-56556500D01*
X168733700Y-56917700D02*
X168902400Y-56749000D01*
X167559300Y-56917700D02*
X168733700Y-56917700D01*
X172741800Y-56556500D02*
X172741800Y-55248100D01*
X168902400Y-56148400D02*
X168902400Y-56749000D01*
X172741800Y-55248100D02*
X173220200Y-54769700D01*
X173220200Y-54769700D02*
X175626400Y-54769700D01*
X171769000Y-53281800D02*
X168902400Y-56148400D01*
X168902400Y-56749000D02*
X169327200Y-57173800D01*
X171769000Y-51000000D02*
X171769000Y-53281800D01*
X175626400Y-54769700D02*
X177358900Y-56502200D01*
X177358900Y-56502200D02*
X177358900Y-57417300D01*
X169327200Y-57173800D02*
X172124500Y-57173800D01*
%TO.N,Board_8-vcc33*%
X170769000Y-58249400D02*
X175324500Y-58249400D01*
X175324500Y-58249400D02*
X176177900Y-57396000D01*
X170769000Y-58249400D02*
X169211300Y-58249400D01*
X169211300Y-58249400D02*
X169197800Y-58235900D01*
X170769000Y-61000000D02*
X170769000Y-58249400D01*
%TO.N,Board_9-D+*%
X119169000Y-72000000D02*
X122487400Y-72000000D01*
X126862500Y-72300000D02*
X122787400Y-72300000D01*
X122487400Y-72000000D02*
X122787400Y-72300000D01*
%TO.N,Board_9-D-*%
X119169000Y-71000000D02*
X121487400Y-71000000D01*
X126862500Y-69700000D02*
X122787400Y-69700000D01*
X121487400Y-71000000D02*
X122787400Y-69700000D01*
%TO.N,Board_9-GND*%
X110169000Y-66000000D02*
X107056200Y-69112800D01*
X122039900Y-75557500D02*
X122787400Y-74810000D01*
X107056200Y-72887200D02*
X110169000Y-76000000D01*
X121874300Y-75557500D02*
X122039900Y-75557500D01*
X107056200Y-69112800D02*
X107056200Y-72887200D01*
X127112500Y-74810000D02*
X122787400Y-74810000D01*
%TO.N,Board_9-Net-(J2-VBUS)*%
X112416700Y-71256200D02*
X110220000Y-71256200D01*
X127112500Y-67190000D02*
X115563300Y-67190000D01*
X115563300Y-67190000D02*
X112416700Y-70336600D01*
X110220000Y-71256200D02*
X110027500Y-71448700D01*
X112416700Y-70336600D02*
X112416700Y-71256200D01*
%TO.N,Board_9-Net-(U1-GPIO2)*%
X112169000Y-68281800D02*
X109302400Y-71148400D01*
X109727200Y-72173800D02*
X112524500Y-72173800D01*
X107959300Y-71917700D02*
X109133700Y-71917700D01*
X109133700Y-71917700D02*
X109302400Y-71749000D01*
X112524500Y-72173800D02*
X113141800Y-71556500D01*
X109302400Y-71148400D02*
X109302400Y-71749000D01*
X109302400Y-71749000D02*
X109727200Y-72173800D01*
X113141800Y-70248100D02*
X113620200Y-69769700D01*
X113141800Y-71556500D02*
X113141800Y-70248100D01*
X116026400Y-69769700D02*
X117758900Y-71502200D01*
X113620200Y-69769700D02*
X116026400Y-69769700D01*
X117758900Y-71502200D02*
X117758900Y-72417300D01*
X112169000Y-66000000D02*
X112169000Y-68281800D01*
%TO.N,Board_9-vcc33*%
X111169000Y-76000000D02*
X111169000Y-73249400D01*
X115724500Y-73249400D02*
X116577900Y-72396000D01*
X111169000Y-73249400D02*
X109611300Y-73249400D01*
X111169000Y-73249400D02*
X115724500Y-73249400D01*
X109611300Y-73249400D02*
X109597800Y-73235900D01*
%TO.N,Board_10-D+*%
X156662500Y-72300000D02*
X152587400Y-72300000D01*
X148969000Y-72000000D02*
X152287400Y-72000000D01*
X152287400Y-72000000D02*
X152587400Y-72300000D01*
%TO.N,Board_10-D-*%
X156662500Y-69700000D02*
X152587400Y-69700000D01*
X148969000Y-71000000D02*
X151287400Y-71000000D01*
X151287400Y-71000000D02*
X152587400Y-69700000D01*
%TO.N,Board_10-GND*%
X156912500Y-74810000D02*
X152587400Y-74810000D01*
X151839900Y-75557500D02*
X152587400Y-74810000D01*
X151674300Y-75557500D02*
X151839900Y-75557500D01*
X139969000Y-66000000D02*
X136856200Y-69112800D01*
X136856200Y-72887200D02*
X139969000Y-76000000D01*
X136856200Y-69112800D02*
X136856200Y-72887200D01*
%TO.N,Board_10-Net-(J2-VBUS)*%
X145363300Y-67190000D02*
X142216700Y-70336600D01*
X156912500Y-67190000D02*
X145363300Y-67190000D01*
X140020000Y-71256200D02*
X139827500Y-71448700D01*
X142216700Y-70336600D02*
X142216700Y-71256200D01*
X142216700Y-71256200D02*
X140020000Y-71256200D01*
%TO.N,Board_10-Net-(U1-GPIO2)*%
X139527200Y-72173800D02*
X142324500Y-72173800D01*
X142941800Y-70248100D02*
X143420200Y-69769700D01*
X147558900Y-71502200D02*
X147558900Y-72417300D01*
X139102400Y-71148400D02*
X139102400Y-71749000D01*
X138933700Y-71917700D02*
X139102400Y-71749000D01*
X145826400Y-69769700D02*
X147558900Y-71502200D01*
X142324500Y-72173800D02*
X142941800Y-71556500D01*
X142941800Y-71556500D02*
X142941800Y-70248100D01*
X141969000Y-68281800D02*
X139102400Y-71148400D01*
X137759300Y-71917700D02*
X138933700Y-71917700D01*
X141969000Y-66000000D02*
X141969000Y-68281800D01*
X139102400Y-71749000D02*
X139527200Y-72173800D01*
X143420200Y-69769700D02*
X145826400Y-69769700D01*
%TO.N,Board_10-vcc33*%
X139411300Y-73249400D02*
X139397800Y-73235900D01*
X140969000Y-76000000D02*
X140969000Y-73249400D01*
X140969000Y-73249400D02*
X139411300Y-73249400D01*
X140969000Y-73249400D02*
X145524500Y-73249400D01*
X145524500Y-73249400D02*
X146377900Y-72396000D01*
%TO.N,Board_11-D+*%
X182087400Y-72000000D02*
X182387400Y-72300000D01*
X178769000Y-72000000D02*
X182087400Y-72000000D01*
X186462500Y-72300000D02*
X182387400Y-72300000D01*
%TO.N,Board_11-D-*%
X178769000Y-71000000D02*
X181087400Y-71000000D01*
X181087400Y-71000000D02*
X182387400Y-69700000D01*
X186462500Y-69700000D02*
X182387400Y-69700000D01*
%TO.N,Board_11-GND*%
X181639900Y-75557500D02*
X182387400Y-74810000D01*
X186712500Y-74810000D02*
X182387400Y-74810000D01*
X166656200Y-72887200D02*
X169769000Y-76000000D01*
X166656200Y-69112800D02*
X166656200Y-72887200D01*
X169769000Y-66000000D02*
X166656200Y-69112800D01*
X181474300Y-75557500D02*
X181639900Y-75557500D01*
%TO.N,Board_11-Net-(J2-VBUS)*%
X186712500Y-67190000D02*
X175163300Y-67190000D01*
X175163300Y-67190000D02*
X172016700Y-70336600D01*
X172016700Y-71256200D02*
X169820000Y-71256200D01*
X169820000Y-71256200D02*
X169627500Y-71448700D01*
X172016700Y-70336600D02*
X172016700Y-71256200D01*
%TO.N,Board_11-Net-(U1-GPIO2)*%
X172124500Y-72173800D02*
X172741800Y-71556500D01*
X167559300Y-71917700D02*
X168733700Y-71917700D01*
X168902400Y-71148400D02*
X168902400Y-71749000D01*
X171769000Y-68281800D02*
X168902400Y-71148400D01*
X172741800Y-70248100D02*
X173220200Y-69769700D01*
X175626400Y-69769700D02*
X177358900Y-71502200D01*
X172741800Y-71556500D02*
X172741800Y-70248100D01*
X168733700Y-71917700D02*
X168902400Y-71749000D01*
X169327200Y-72173800D02*
X172124500Y-72173800D01*
X177358900Y-71502200D02*
X177358900Y-72417300D01*
X173220200Y-69769700D02*
X175626400Y-69769700D01*
X168902400Y-71749000D02*
X169327200Y-72173800D01*
X171769000Y-66000000D02*
X171769000Y-68281800D01*
%TO.N,Board_11-vcc33*%
X175324500Y-73249400D02*
X176177900Y-72396000D01*
X170769000Y-73249400D02*
X169211300Y-73249400D01*
X169211300Y-73249400D02*
X169197800Y-73235900D01*
X170769000Y-73249400D02*
X175324500Y-73249400D01*
X170769000Y-76000000D02*
X170769000Y-73249400D01*
%TO.N,Board_12-D+*%
X126862500Y-87300000D02*
X122787400Y-87300000D01*
X122487400Y-87000000D02*
X122787400Y-87300000D01*
X119169000Y-87000000D02*
X122487400Y-87000000D01*
%TO.N,Board_12-D-*%
X119169000Y-86000000D02*
X121487400Y-86000000D01*
X121487400Y-86000000D02*
X122787400Y-84700000D01*
X126862500Y-84700000D02*
X122787400Y-84700000D01*
%TO.N,Board_12-GND*%
X127112500Y-89810000D02*
X122787400Y-89810000D01*
X107056200Y-87887200D02*
X110169000Y-91000000D01*
X107056200Y-84112800D02*
X107056200Y-87887200D01*
X121874300Y-90557500D02*
X122039900Y-90557500D01*
X122039900Y-90557500D02*
X122787400Y-89810000D01*
X110169000Y-81000000D02*
X107056200Y-84112800D01*
%TO.N,Board_12-Net-(J2-VBUS)*%
X115563300Y-82190000D02*
X112416700Y-85336600D01*
X112416700Y-86256200D02*
X110220000Y-86256200D01*
X110220000Y-86256200D02*
X110027500Y-86448700D01*
X127112500Y-82190000D02*
X115563300Y-82190000D01*
X112416700Y-85336600D02*
X112416700Y-86256200D01*
%TO.N,Board_12-Net-(U1-GPIO2)*%
X117758900Y-86502200D02*
X117758900Y-87417300D01*
X113141800Y-86556500D02*
X113141800Y-85248100D01*
X112169000Y-81000000D02*
X112169000Y-83281800D01*
X109302400Y-86148400D02*
X109302400Y-86749000D01*
X109727200Y-87173800D02*
X112524500Y-87173800D01*
X107959300Y-86917700D02*
X109133700Y-86917700D01*
X113141800Y-85248100D02*
X113620200Y-84769700D01*
X113620200Y-84769700D02*
X116026400Y-84769700D01*
X109302400Y-86749000D02*
X109727200Y-87173800D01*
X112524500Y-87173800D02*
X113141800Y-86556500D01*
X116026400Y-84769700D02*
X117758900Y-86502200D01*
X112169000Y-83281800D02*
X109302400Y-86148400D01*
X109133700Y-86917700D02*
X109302400Y-86749000D01*
%TO.N,Board_12-vcc33*%
X115724500Y-88249400D02*
X116577900Y-87396000D01*
X111169000Y-88249400D02*
X109611300Y-88249400D01*
X109611300Y-88249400D02*
X109597800Y-88235900D01*
X111169000Y-88249400D02*
X115724500Y-88249400D01*
X111169000Y-91000000D02*
X111169000Y-88249400D01*
%TO.N,Board_13-D+*%
X156662500Y-87300000D02*
X152587400Y-87300000D01*
X148969000Y-87000000D02*
X152287400Y-87000000D01*
X152287400Y-87000000D02*
X152587400Y-87300000D01*
%TO.N,Board_13-D-*%
X156662500Y-84700000D02*
X152587400Y-84700000D01*
X151287400Y-86000000D02*
X152587400Y-84700000D01*
X148969000Y-86000000D02*
X151287400Y-86000000D01*
%TO.N,Board_13-GND*%
X156912500Y-89810000D02*
X152587400Y-89810000D01*
X151839900Y-90557500D02*
X152587400Y-89810000D01*
X151674300Y-90557500D02*
X151839900Y-90557500D01*
X139969000Y-81000000D02*
X136856200Y-84112800D01*
X136856200Y-87887200D02*
X139969000Y-91000000D01*
X136856200Y-84112800D02*
X136856200Y-87887200D01*
%TO.N,Board_13-Net-(J2-VBUS)*%
X142216700Y-85336600D02*
X142216700Y-86256200D01*
X145363300Y-82190000D02*
X142216700Y-85336600D01*
X142216700Y-86256200D02*
X140020000Y-86256200D01*
X140020000Y-86256200D02*
X139827500Y-86448700D01*
X156912500Y-82190000D02*
X145363300Y-82190000D01*
%TO.N,Board_13-Net-(U1-GPIO2)*%
X147558900Y-86502200D02*
X147558900Y-87417300D01*
X137759300Y-86917700D02*
X138933700Y-86917700D01*
X143420200Y-84769700D02*
X145826400Y-84769700D01*
X141969000Y-83281800D02*
X139102400Y-86148400D01*
X139102400Y-86148400D02*
X139102400Y-86749000D01*
X141969000Y-81000000D02*
X141969000Y-83281800D01*
X142941800Y-85248100D02*
X143420200Y-84769700D01*
X139102400Y-86749000D02*
X139527200Y-87173800D01*
X142324500Y-87173800D02*
X142941800Y-86556500D01*
X138933700Y-86917700D02*
X139102400Y-86749000D01*
X145826400Y-84769700D02*
X147558900Y-86502200D01*
X139527200Y-87173800D02*
X142324500Y-87173800D01*
X142941800Y-86556500D02*
X142941800Y-85248100D01*
%TO.N,Board_13-vcc33*%
X145524500Y-88249400D02*
X146377900Y-87396000D01*
X139411300Y-88249400D02*
X139397800Y-88235900D01*
X140969000Y-88249400D02*
X145524500Y-88249400D01*
X140969000Y-88249400D02*
X139411300Y-88249400D01*
X140969000Y-91000000D02*
X140969000Y-88249400D01*
%TO.N,Board_14-D+*%
X178769000Y-87000000D02*
X182087400Y-87000000D01*
X182087400Y-87000000D02*
X182387400Y-87300000D01*
X186462500Y-87300000D02*
X182387400Y-87300000D01*
%TO.N,Board_14-D-*%
X181087400Y-86000000D02*
X182387400Y-84700000D01*
X186462500Y-84700000D02*
X182387400Y-84700000D01*
X178769000Y-86000000D02*
X181087400Y-86000000D01*
%TO.N,Board_14-GND*%
X186712500Y-89810000D02*
X182387400Y-89810000D01*
X181639900Y-90557500D02*
X182387400Y-89810000D01*
X166656200Y-87887200D02*
X169769000Y-91000000D01*
X181474300Y-90557500D02*
X181639900Y-90557500D01*
X169769000Y-81000000D02*
X166656200Y-84112800D01*
X166656200Y-84112800D02*
X166656200Y-87887200D01*
%TO.N,Board_14-Net-(J2-VBUS)*%
X172016700Y-86256200D02*
X169820000Y-86256200D01*
X175163300Y-82190000D02*
X172016700Y-85336600D01*
X169820000Y-86256200D02*
X169627500Y-86448700D01*
X172016700Y-85336600D02*
X172016700Y-86256200D01*
X186712500Y-82190000D02*
X175163300Y-82190000D01*
%TO.N,Board_14-Net-(U1-GPIO2)*%
X172741800Y-86556500D02*
X172741800Y-85248100D01*
X167559300Y-86917700D02*
X168733700Y-86917700D01*
X173220200Y-84769700D02*
X175626400Y-84769700D01*
X171769000Y-83281800D02*
X168902400Y-86148400D01*
X169327200Y-87173800D02*
X172124500Y-87173800D01*
X175626400Y-84769700D02*
X177358900Y-86502200D01*
X177358900Y-86502200D02*
X177358900Y-87417300D01*
X168902400Y-86148400D02*
X168902400Y-86749000D01*
X168733700Y-86917700D02*
X168902400Y-86749000D01*
X171769000Y-81000000D02*
X171769000Y-83281800D01*
X172741800Y-85248100D02*
X173220200Y-84769700D01*
X172124500Y-87173800D02*
X172741800Y-86556500D01*
X168902400Y-86749000D02*
X169327200Y-87173800D01*
%TO.N,Board_14-vcc33*%
X170769000Y-88249400D02*
X169211300Y-88249400D01*
X175324500Y-88249400D02*
X176177900Y-87396000D01*
X170769000Y-91000000D02*
X170769000Y-88249400D01*
X170769000Y-88249400D02*
X175324500Y-88249400D01*
X169211300Y-88249400D02*
X169197800Y-88235900D01*
%TD*%
M02*
