G04 EAGLE Gerber RS-274X export*
G75*
%MOMM*%
%FSLAX34Y34*%
%LPD*%
%INBottom Copper*%
%IPPOS*%
%AMOC8*
5,1,8,0,0,1.08239X$1,22.5*%
G01*
%ADD10C,1.524000*%


D10*
X241300Y195580D02*
X241300Y210820D01*
X266700Y210820D02*
X266700Y195580D01*
X292100Y195580D02*
X292100Y210820D01*
X215900Y83820D02*
X215900Y68580D01*
X215900Y144780D02*
X215900Y160020D01*
X114300Y83820D02*
X114300Y68580D01*
X88900Y68580D02*
X88900Y83820D01*
X88900Y144780D02*
X88900Y160020D01*
X114300Y160020D02*
X114300Y144780D01*
X88900Y195580D02*
X88900Y210820D01*
X114300Y210820D02*
X114300Y195580D01*
X139700Y195580D02*
X139700Y210820D01*
X165100Y210820D02*
X165100Y195580D01*
M02*
