G04 EAGLE Gerber RS-274X export*
G75*
%MOMM*%
%FSLAX34Y34*%
%LPD*%
%INSilkscreen Top*%
%IPPOS*%
%AMOC8*
5,1,8,0,0,1.08239X$1,22.5*%
G01*
%ADD10C,0.152400*%
%ADD11C,0.101600*%
%ADD12C,0.127000*%
%ADD13C,0.254000*%


D10*
X268220Y100080D02*
X260100Y100080D01*
X260100Y105660D01*
X260100Y122940D02*
X260100Y128520D01*
X268220Y128520D01*
D11*
X247142Y97056D02*
X235458Y97056D01*
X247142Y95758D02*
X247142Y98354D01*
X235458Y98354D02*
X235458Y95758D01*
X247142Y105518D02*
X247142Y108114D01*
X247142Y105518D02*
X247140Y105419D01*
X247134Y105319D01*
X247125Y105220D01*
X247112Y105122D01*
X247095Y105024D01*
X247074Y104926D01*
X247049Y104830D01*
X247021Y104735D01*
X246989Y104641D01*
X246954Y104548D01*
X246915Y104456D01*
X246872Y104366D01*
X246827Y104278D01*
X246777Y104191D01*
X246725Y104107D01*
X246669Y104024D01*
X246611Y103944D01*
X246549Y103866D01*
X246484Y103791D01*
X246416Y103718D01*
X246346Y103648D01*
X246273Y103580D01*
X246198Y103515D01*
X246120Y103453D01*
X246040Y103395D01*
X245957Y103339D01*
X245873Y103287D01*
X245786Y103237D01*
X245698Y103192D01*
X245608Y103149D01*
X245516Y103110D01*
X245423Y103075D01*
X245329Y103043D01*
X245234Y103015D01*
X245138Y102990D01*
X245040Y102969D01*
X244942Y102952D01*
X244844Y102939D01*
X244745Y102930D01*
X244645Y102924D01*
X244546Y102922D01*
X244546Y102921D02*
X238054Y102921D01*
X237955Y102923D01*
X237855Y102929D01*
X237756Y102938D01*
X237658Y102951D01*
X237560Y102969D01*
X237462Y102989D01*
X237366Y103014D01*
X237270Y103042D01*
X237176Y103074D01*
X237083Y103109D01*
X236992Y103148D01*
X236902Y103191D01*
X236813Y103236D01*
X236727Y103286D01*
X236642Y103338D01*
X236560Y103394D01*
X236480Y103453D01*
X236402Y103514D01*
X236326Y103579D01*
X236253Y103647D01*
X236183Y103717D01*
X236115Y103790D01*
X236050Y103866D01*
X235989Y103944D01*
X235930Y104024D01*
X235874Y104106D01*
X235822Y104191D01*
X235773Y104277D01*
X235727Y104366D01*
X235684Y104456D01*
X235645Y104547D01*
X235610Y104640D01*
X235578Y104734D01*
X235550Y104830D01*
X235525Y104926D01*
X235505Y105024D01*
X235487Y105122D01*
X235474Y105220D01*
X235465Y105319D01*
X235459Y105418D01*
X235457Y105518D01*
X235458Y105518D02*
X235458Y108114D01*
X238054Y112480D02*
X235458Y115725D01*
X247142Y115725D01*
X247142Y112480D02*
X247142Y118971D01*
D10*
X247650Y215900D02*
X234950Y215900D01*
X247650Y215900D02*
X254000Y209550D01*
X254000Y196850D02*
X247650Y190500D01*
X254000Y209550D02*
X260350Y215900D01*
X273050Y215900D01*
X279400Y209550D01*
X279400Y196850D02*
X273050Y190500D01*
X260350Y190500D01*
X254000Y196850D01*
X228600Y196850D02*
X228600Y209550D01*
X234950Y215900D01*
X228600Y196850D02*
X234950Y190500D01*
X247650Y190500D01*
X279400Y209550D02*
X285750Y215900D01*
X298450Y215900D01*
X304800Y209550D01*
X304800Y196850D02*
X298450Y190500D01*
X285750Y190500D01*
X279400Y196850D01*
X304800Y196850D02*
X304800Y209550D01*
D12*
X219710Y208915D02*
X216535Y206375D01*
X219710Y208915D02*
X219710Y197485D01*
X216535Y197485D02*
X222885Y197485D01*
X230505Y220345D02*
X230505Y231775D01*
X229235Y220345D02*
X231775Y220345D01*
X231775Y231775D02*
X229235Y231775D01*
X236855Y231775D02*
X236855Y220345D01*
X243205Y220345D02*
X236855Y231775D01*
X243205Y231775D02*
X243205Y220345D01*
X251169Y220345D02*
X253709Y220345D01*
X251169Y220345D02*
X251069Y220347D01*
X250970Y220353D01*
X250870Y220363D01*
X250772Y220376D01*
X250673Y220394D01*
X250576Y220415D01*
X250480Y220440D01*
X250384Y220469D01*
X250290Y220502D01*
X250197Y220538D01*
X250106Y220578D01*
X250016Y220622D01*
X249928Y220669D01*
X249842Y220719D01*
X249758Y220773D01*
X249676Y220830D01*
X249597Y220890D01*
X249519Y220954D01*
X249445Y221020D01*
X249373Y221089D01*
X249304Y221161D01*
X249238Y221235D01*
X249174Y221313D01*
X249114Y221392D01*
X249057Y221474D01*
X249003Y221558D01*
X248953Y221644D01*
X248906Y221732D01*
X248862Y221822D01*
X248822Y221913D01*
X248786Y222006D01*
X248753Y222100D01*
X248724Y222196D01*
X248699Y222292D01*
X248678Y222389D01*
X248660Y222488D01*
X248647Y222586D01*
X248637Y222686D01*
X248631Y222785D01*
X248629Y222885D01*
X248629Y229235D01*
X248631Y229335D01*
X248637Y229434D01*
X248647Y229534D01*
X248660Y229632D01*
X248678Y229731D01*
X248699Y229828D01*
X248724Y229924D01*
X248753Y230020D01*
X248786Y230114D01*
X248822Y230207D01*
X248862Y230298D01*
X248906Y230388D01*
X248953Y230476D01*
X249003Y230562D01*
X249057Y230646D01*
X249114Y230728D01*
X249174Y230807D01*
X249238Y230885D01*
X249304Y230959D01*
X249373Y231031D01*
X249445Y231100D01*
X249519Y231166D01*
X249597Y231230D01*
X249676Y231290D01*
X249758Y231347D01*
X249842Y231401D01*
X249928Y231451D01*
X250016Y231498D01*
X250106Y231542D01*
X250197Y231582D01*
X250290Y231618D01*
X250384Y231651D01*
X250480Y231680D01*
X250576Y231705D01*
X250673Y231726D01*
X250772Y231744D01*
X250870Y231757D01*
X250970Y231767D01*
X251069Y231773D01*
X251169Y231775D01*
X253709Y231775D01*
X258191Y228600D02*
X258191Y223520D01*
X258191Y228600D02*
X258193Y228711D01*
X258199Y228821D01*
X258208Y228932D01*
X258222Y229042D01*
X258239Y229151D01*
X258260Y229260D01*
X258285Y229368D01*
X258314Y229475D01*
X258346Y229581D01*
X258382Y229686D01*
X258422Y229789D01*
X258465Y229891D01*
X258512Y229992D01*
X258563Y230091D01*
X258616Y230188D01*
X258673Y230282D01*
X258734Y230375D01*
X258797Y230466D01*
X258864Y230555D01*
X258934Y230641D01*
X259007Y230724D01*
X259082Y230806D01*
X259160Y230884D01*
X259242Y230959D01*
X259325Y231032D01*
X259411Y231102D01*
X259500Y231169D01*
X259591Y231232D01*
X259684Y231293D01*
X259779Y231350D01*
X259875Y231403D01*
X259974Y231454D01*
X260075Y231501D01*
X260177Y231544D01*
X260280Y231584D01*
X260385Y231620D01*
X260491Y231652D01*
X260598Y231681D01*
X260706Y231706D01*
X260815Y231727D01*
X260924Y231744D01*
X261034Y231758D01*
X261145Y231767D01*
X261255Y231773D01*
X261366Y231775D01*
X261477Y231773D01*
X261587Y231767D01*
X261698Y231758D01*
X261808Y231744D01*
X261917Y231727D01*
X262026Y231706D01*
X262134Y231681D01*
X262241Y231652D01*
X262347Y231620D01*
X262452Y231584D01*
X262555Y231544D01*
X262657Y231501D01*
X262758Y231454D01*
X262857Y231403D01*
X262954Y231350D01*
X263048Y231293D01*
X263141Y231232D01*
X263232Y231169D01*
X263321Y231102D01*
X263407Y231032D01*
X263490Y230959D01*
X263572Y230884D01*
X263650Y230806D01*
X263725Y230724D01*
X263798Y230641D01*
X263868Y230555D01*
X263935Y230466D01*
X263998Y230375D01*
X264059Y230282D01*
X264116Y230188D01*
X264169Y230091D01*
X264220Y229992D01*
X264267Y229891D01*
X264310Y229789D01*
X264350Y229686D01*
X264386Y229581D01*
X264418Y229475D01*
X264447Y229368D01*
X264472Y229260D01*
X264493Y229151D01*
X264510Y229042D01*
X264524Y228932D01*
X264533Y228821D01*
X264539Y228711D01*
X264541Y228600D01*
X264541Y223520D01*
X264539Y223409D01*
X264533Y223299D01*
X264524Y223188D01*
X264510Y223078D01*
X264493Y222969D01*
X264472Y222860D01*
X264447Y222752D01*
X264418Y222645D01*
X264386Y222539D01*
X264350Y222434D01*
X264310Y222331D01*
X264267Y222229D01*
X264220Y222128D01*
X264169Y222029D01*
X264116Y221932D01*
X264059Y221838D01*
X263998Y221745D01*
X263935Y221654D01*
X263868Y221565D01*
X263798Y221479D01*
X263725Y221396D01*
X263650Y221314D01*
X263572Y221236D01*
X263490Y221161D01*
X263407Y221088D01*
X263321Y221018D01*
X263232Y220951D01*
X263141Y220888D01*
X263048Y220827D01*
X262953Y220770D01*
X262857Y220717D01*
X262758Y220666D01*
X262657Y220619D01*
X262555Y220576D01*
X262452Y220536D01*
X262347Y220500D01*
X262241Y220468D01*
X262134Y220439D01*
X262026Y220414D01*
X261917Y220393D01*
X261808Y220376D01*
X261698Y220362D01*
X261587Y220353D01*
X261477Y220347D01*
X261366Y220345D01*
X261255Y220347D01*
X261145Y220353D01*
X261034Y220362D01*
X260924Y220376D01*
X260815Y220393D01*
X260706Y220414D01*
X260598Y220439D01*
X260491Y220468D01*
X260385Y220500D01*
X260280Y220536D01*
X260177Y220576D01*
X260075Y220619D01*
X259974Y220666D01*
X259875Y220717D01*
X259779Y220770D01*
X259684Y220827D01*
X259591Y220888D01*
X259500Y220951D01*
X259411Y221018D01*
X259325Y221088D01*
X259242Y221161D01*
X259160Y221236D01*
X259082Y221314D01*
X259007Y221396D01*
X258934Y221479D01*
X258864Y221565D01*
X258797Y221654D01*
X258734Y221745D01*
X258673Y221838D01*
X258616Y221933D01*
X258563Y222029D01*
X258512Y222128D01*
X258465Y222229D01*
X258422Y222331D01*
X258382Y222434D01*
X258346Y222539D01*
X258314Y222645D01*
X258285Y222752D01*
X258260Y222860D01*
X258239Y222969D01*
X258222Y223078D01*
X258208Y223188D01*
X258199Y223299D01*
X258193Y223409D01*
X258191Y223520D01*
X270129Y220345D02*
X270129Y231775D01*
X273939Y225425D01*
X277749Y231775D01*
X277749Y220345D01*
X284226Y220345D02*
X284226Y231775D01*
X282956Y220345D02*
X285496Y220345D01*
X285496Y231775D02*
X282956Y231775D01*
X290576Y231775D02*
X290576Y220345D01*
X296926Y220345D02*
X290576Y231775D01*
X296926Y231775D02*
X296926Y220345D01*
X307213Y226695D02*
X309118Y226695D01*
X309118Y220345D01*
X305308Y220345D01*
X305208Y220347D01*
X305109Y220353D01*
X305009Y220363D01*
X304911Y220376D01*
X304812Y220394D01*
X304715Y220415D01*
X304619Y220440D01*
X304523Y220469D01*
X304429Y220502D01*
X304336Y220538D01*
X304245Y220578D01*
X304155Y220622D01*
X304067Y220669D01*
X303981Y220719D01*
X303897Y220773D01*
X303815Y220830D01*
X303736Y220890D01*
X303658Y220954D01*
X303584Y221020D01*
X303512Y221089D01*
X303443Y221161D01*
X303377Y221235D01*
X303313Y221313D01*
X303253Y221392D01*
X303196Y221474D01*
X303142Y221558D01*
X303092Y221644D01*
X303045Y221732D01*
X303001Y221822D01*
X302961Y221913D01*
X302925Y222006D01*
X302892Y222100D01*
X302863Y222196D01*
X302838Y222292D01*
X302817Y222389D01*
X302799Y222488D01*
X302786Y222586D01*
X302776Y222686D01*
X302770Y222785D01*
X302768Y222885D01*
X302768Y229235D01*
X302770Y229335D01*
X302776Y229434D01*
X302786Y229534D01*
X302799Y229632D01*
X302817Y229731D01*
X302838Y229828D01*
X302863Y229924D01*
X302892Y230020D01*
X302925Y230114D01*
X302961Y230207D01*
X303001Y230298D01*
X303045Y230388D01*
X303092Y230476D01*
X303142Y230562D01*
X303196Y230646D01*
X303253Y230728D01*
X303313Y230807D01*
X303377Y230885D01*
X303443Y230959D01*
X303512Y231031D01*
X303584Y231100D01*
X303658Y231166D01*
X303736Y231230D01*
X303815Y231290D01*
X303897Y231347D01*
X303981Y231401D01*
X304067Y231451D01*
X304155Y231498D01*
X304245Y231542D01*
X304336Y231582D01*
X304429Y231618D01*
X304523Y231651D01*
X304619Y231680D01*
X304715Y231705D01*
X304812Y231726D01*
X304911Y231744D01*
X305009Y231757D01*
X305109Y231767D01*
X305208Y231773D01*
X305308Y231775D01*
X309118Y231775D01*
D10*
X82550Y168910D02*
X73660Y168910D01*
X95250Y168910D02*
X107950Y168910D01*
X120650Y168910D02*
X231140Y168910D01*
X231140Y59690D01*
X120650Y59690D01*
X107950Y59690D02*
X95250Y59690D01*
X82550Y59690D02*
X73660Y59690D01*
X73660Y168910D01*
X215900Y114300D02*
X215900Y91440D01*
X99060Y114300D02*
X86360Y105410D01*
X88900Y106680D02*
X88900Y93980D01*
X88900Y123190D02*
X88900Y134620D01*
X128270Y106680D02*
X128270Y86360D01*
X165100Y86360D02*
X165100Y106680D01*
X153670Y106680D01*
X147320Y152400D02*
X128270Y152400D01*
X147320Y152400D02*
X147320Y106680D01*
X128270Y106680D01*
X147320Y86360D02*
X147320Y76200D01*
X147320Y86360D02*
X165100Y86360D01*
X147320Y76200D02*
X128270Y76200D01*
X128270Y86360D02*
X140970Y86360D01*
X147320Y86360D01*
X140970Y86360D02*
X153670Y106680D01*
X147320Y106680D01*
X99060Y114300D02*
X215900Y114300D01*
X215900Y137160D01*
D13*
X213360Y114300D02*
X213362Y114400D01*
X213368Y114501D01*
X213378Y114600D01*
X213392Y114700D01*
X213409Y114799D01*
X213431Y114897D01*
X213457Y114994D01*
X213486Y115090D01*
X213519Y115184D01*
X213556Y115278D01*
X213596Y115370D01*
X213640Y115460D01*
X213688Y115548D01*
X213739Y115635D01*
X213793Y115719D01*
X213851Y115801D01*
X213912Y115881D01*
X213976Y115958D01*
X214043Y116033D01*
X214113Y116105D01*
X214186Y116174D01*
X214261Y116240D01*
X214339Y116304D01*
X214419Y116364D01*
X214502Y116421D01*
X214587Y116474D01*
X214674Y116524D01*
X214763Y116571D01*
X214853Y116614D01*
X214945Y116654D01*
X215039Y116690D01*
X215134Y116722D01*
X215230Y116750D01*
X215328Y116775D01*
X215426Y116795D01*
X215525Y116812D01*
X215625Y116825D01*
X215724Y116834D01*
X215825Y116839D01*
X215925Y116840D01*
X216025Y116837D01*
X216126Y116830D01*
X216225Y116819D01*
X216325Y116804D01*
X216423Y116786D01*
X216521Y116763D01*
X216618Y116736D01*
X216713Y116706D01*
X216808Y116672D01*
X216901Y116634D01*
X216992Y116593D01*
X217082Y116548D01*
X217170Y116500D01*
X217256Y116448D01*
X217340Y116393D01*
X217421Y116334D01*
X217500Y116272D01*
X217577Y116208D01*
X217651Y116140D01*
X217722Y116069D01*
X217791Y115996D01*
X217856Y115920D01*
X217919Y115841D01*
X217978Y115760D01*
X218034Y115677D01*
X218087Y115592D01*
X218136Y115504D01*
X218182Y115415D01*
X218224Y115324D01*
X218263Y115231D01*
X218298Y115137D01*
X218329Y115042D01*
X218357Y114945D01*
X218380Y114848D01*
X218400Y114749D01*
X218416Y114650D01*
X218428Y114551D01*
X218436Y114450D01*
X218440Y114350D01*
X218440Y114250D01*
X218436Y114150D01*
X218428Y114049D01*
X218416Y113950D01*
X218400Y113851D01*
X218380Y113752D01*
X218357Y113655D01*
X218329Y113558D01*
X218298Y113463D01*
X218263Y113369D01*
X218224Y113276D01*
X218182Y113185D01*
X218136Y113096D01*
X218087Y113008D01*
X218034Y112923D01*
X217978Y112840D01*
X217919Y112759D01*
X217856Y112680D01*
X217791Y112604D01*
X217722Y112531D01*
X217651Y112460D01*
X217577Y112392D01*
X217500Y112328D01*
X217421Y112266D01*
X217340Y112207D01*
X217256Y112152D01*
X217170Y112100D01*
X217082Y112052D01*
X216992Y112007D01*
X216901Y111966D01*
X216808Y111928D01*
X216713Y111894D01*
X216618Y111864D01*
X216521Y111837D01*
X216423Y111814D01*
X216325Y111796D01*
X216225Y111781D01*
X216126Y111770D01*
X216025Y111763D01*
X215925Y111760D01*
X215825Y111761D01*
X215724Y111766D01*
X215625Y111775D01*
X215525Y111788D01*
X215426Y111805D01*
X215328Y111825D01*
X215230Y111850D01*
X215134Y111878D01*
X215039Y111910D01*
X214945Y111946D01*
X214853Y111986D01*
X214763Y112029D01*
X214674Y112076D01*
X214587Y112126D01*
X214502Y112179D01*
X214419Y112236D01*
X214339Y112296D01*
X214261Y112360D01*
X214186Y112426D01*
X214113Y112495D01*
X214043Y112567D01*
X213976Y112642D01*
X213912Y112719D01*
X213851Y112799D01*
X213793Y112881D01*
X213739Y112965D01*
X213688Y113052D01*
X213640Y113140D01*
X213596Y113230D01*
X213556Y113322D01*
X213519Y113416D01*
X213486Y113510D01*
X213457Y113606D01*
X213431Y113703D01*
X213409Y113801D01*
X213392Y113900D01*
X213378Y114000D01*
X213368Y114099D01*
X213362Y114200D01*
X213360Y114300D01*
D12*
X235585Y60325D02*
X247015Y60325D01*
X242570Y60325D02*
X235585Y66675D01*
X240030Y62865D02*
X247015Y66675D01*
X238125Y71184D02*
X235585Y74359D01*
X247015Y74359D01*
X247015Y71184D02*
X247015Y77534D01*
D10*
X95250Y215900D02*
X82550Y215900D01*
X95250Y215900D02*
X101600Y209550D01*
X101600Y196850D02*
X95250Y190500D01*
X101600Y209550D02*
X107950Y215900D01*
X120650Y215900D01*
X127000Y209550D01*
X127000Y196850D02*
X120650Y190500D01*
X107950Y190500D01*
X101600Y196850D01*
X76200Y196850D02*
X76200Y209550D01*
X82550Y215900D01*
X76200Y196850D02*
X82550Y190500D01*
X95250Y190500D01*
X127000Y209550D02*
X133350Y215900D01*
X146050Y215900D01*
X152400Y209550D01*
X152400Y196850D02*
X146050Y190500D01*
X133350Y190500D01*
X127000Y196850D01*
X158750Y215900D02*
X171450Y215900D01*
X177800Y209550D01*
X177800Y196850D01*
X171450Y190500D01*
X152400Y209550D02*
X158750Y215900D01*
X152400Y196850D02*
X158750Y190500D01*
X171450Y190500D01*
D12*
X68580Y208915D02*
X65405Y206375D01*
X68580Y208915D02*
X68580Y197485D01*
X65405Y197485D02*
X71755Y197485D01*
X180975Y200025D02*
X183515Y208915D01*
X180975Y200025D02*
X187325Y200025D01*
X185420Y202565D02*
X185420Y197485D01*
X76835Y223520D02*
X76835Y228600D01*
X76837Y228711D01*
X76843Y228821D01*
X76852Y228932D01*
X76866Y229042D01*
X76883Y229151D01*
X76904Y229260D01*
X76929Y229368D01*
X76958Y229475D01*
X76990Y229581D01*
X77026Y229686D01*
X77066Y229789D01*
X77109Y229891D01*
X77156Y229992D01*
X77207Y230091D01*
X77260Y230188D01*
X77317Y230282D01*
X77378Y230375D01*
X77441Y230466D01*
X77508Y230555D01*
X77578Y230641D01*
X77651Y230724D01*
X77726Y230806D01*
X77804Y230884D01*
X77886Y230959D01*
X77969Y231032D01*
X78055Y231102D01*
X78144Y231169D01*
X78235Y231232D01*
X78328Y231293D01*
X78423Y231350D01*
X78519Y231403D01*
X78618Y231454D01*
X78719Y231501D01*
X78821Y231544D01*
X78924Y231584D01*
X79029Y231620D01*
X79135Y231652D01*
X79242Y231681D01*
X79350Y231706D01*
X79459Y231727D01*
X79568Y231744D01*
X79678Y231758D01*
X79789Y231767D01*
X79899Y231773D01*
X80010Y231775D01*
X80121Y231773D01*
X80231Y231767D01*
X80342Y231758D01*
X80452Y231744D01*
X80561Y231727D01*
X80670Y231706D01*
X80778Y231681D01*
X80885Y231652D01*
X80991Y231620D01*
X81096Y231584D01*
X81199Y231544D01*
X81301Y231501D01*
X81402Y231454D01*
X81501Y231403D01*
X81598Y231350D01*
X81692Y231293D01*
X81785Y231232D01*
X81876Y231169D01*
X81965Y231102D01*
X82051Y231032D01*
X82134Y230959D01*
X82216Y230884D01*
X82294Y230806D01*
X82369Y230724D01*
X82442Y230641D01*
X82512Y230555D01*
X82579Y230466D01*
X82642Y230375D01*
X82703Y230282D01*
X82760Y230188D01*
X82813Y230091D01*
X82864Y229992D01*
X82911Y229891D01*
X82954Y229789D01*
X82994Y229686D01*
X83030Y229581D01*
X83062Y229475D01*
X83091Y229368D01*
X83116Y229260D01*
X83137Y229151D01*
X83154Y229042D01*
X83168Y228932D01*
X83177Y228821D01*
X83183Y228711D01*
X83185Y228600D01*
X83185Y223520D01*
X83183Y223409D01*
X83177Y223299D01*
X83168Y223188D01*
X83154Y223078D01*
X83137Y222969D01*
X83116Y222860D01*
X83091Y222752D01*
X83062Y222645D01*
X83030Y222539D01*
X82994Y222434D01*
X82954Y222331D01*
X82911Y222229D01*
X82864Y222128D01*
X82813Y222029D01*
X82760Y221932D01*
X82703Y221838D01*
X82642Y221745D01*
X82579Y221654D01*
X82512Y221565D01*
X82442Y221479D01*
X82369Y221396D01*
X82294Y221314D01*
X82216Y221236D01*
X82134Y221161D01*
X82051Y221088D01*
X81965Y221018D01*
X81876Y220951D01*
X81785Y220888D01*
X81692Y220827D01*
X81597Y220770D01*
X81501Y220717D01*
X81402Y220666D01*
X81301Y220619D01*
X81199Y220576D01*
X81096Y220536D01*
X80991Y220500D01*
X80885Y220468D01*
X80778Y220439D01*
X80670Y220414D01*
X80561Y220393D01*
X80452Y220376D01*
X80342Y220362D01*
X80231Y220353D01*
X80121Y220347D01*
X80010Y220345D01*
X79899Y220347D01*
X79789Y220353D01*
X79678Y220362D01*
X79568Y220376D01*
X79459Y220393D01*
X79350Y220414D01*
X79242Y220439D01*
X79135Y220468D01*
X79029Y220500D01*
X78924Y220536D01*
X78821Y220576D01*
X78719Y220619D01*
X78618Y220666D01*
X78519Y220717D01*
X78423Y220770D01*
X78328Y220827D01*
X78235Y220888D01*
X78144Y220951D01*
X78055Y221018D01*
X77969Y221088D01*
X77886Y221161D01*
X77804Y221236D01*
X77726Y221314D01*
X77651Y221396D01*
X77578Y221479D01*
X77508Y221565D01*
X77441Y221654D01*
X77378Y221745D01*
X77317Y221838D01*
X77260Y221933D01*
X77207Y222029D01*
X77156Y222128D01*
X77109Y222229D01*
X77066Y222331D01*
X77026Y222434D01*
X76990Y222539D01*
X76958Y222645D01*
X76929Y222752D01*
X76904Y222860D01*
X76883Y222969D01*
X76866Y223078D01*
X76852Y223188D01*
X76843Y223299D01*
X76837Y223409D01*
X76835Y223520D01*
X88646Y223520D02*
X88646Y231775D01*
X88646Y223520D02*
X88648Y223409D01*
X88654Y223299D01*
X88663Y223188D01*
X88677Y223078D01*
X88694Y222969D01*
X88715Y222860D01*
X88740Y222752D01*
X88769Y222645D01*
X88801Y222539D01*
X88837Y222434D01*
X88877Y222331D01*
X88920Y222229D01*
X88967Y222128D01*
X89018Y222029D01*
X89071Y221933D01*
X89128Y221838D01*
X89189Y221745D01*
X89252Y221654D01*
X89319Y221565D01*
X89389Y221479D01*
X89462Y221396D01*
X89537Y221314D01*
X89615Y221236D01*
X89697Y221161D01*
X89780Y221088D01*
X89866Y221018D01*
X89955Y220951D01*
X90046Y220888D01*
X90139Y220827D01*
X90234Y220770D01*
X90330Y220717D01*
X90429Y220666D01*
X90530Y220619D01*
X90632Y220576D01*
X90735Y220536D01*
X90840Y220500D01*
X90946Y220468D01*
X91053Y220439D01*
X91161Y220414D01*
X91270Y220393D01*
X91379Y220376D01*
X91489Y220362D01*
X91600Y220353D01*
X91710Y220347D01*
X91821Y220345D01*
X91932Y220347D01*
X92042Y220353D01*
X92153Y220362D01*
X92263Y220376D01*
X92372Y220393D01*
X92481Y220414D01*
X92589Y220439D01*
X92696Y220468D01*
X92802Y220500D01*
X92907Y220536D01*
X93010Y220576D01*
X93112Y220619D01*
X93213Y220666D01*
X93312Y220717D01*
X93408Y220770D01*
X93503Y220827D01*
X93596Y220888D01*
X93687Y220951D01*
X93776Y221018D01*
X93862Y221088D01*
X93945Y221161D01*
X94027Y221236D01*
X94105Y221314D01*
X94180Y221396D01*
X94253Y221479D01*
X94323Y221565D01*
X94390Y221654D01*
X94453Y221745D01*
X94514Y221838D01*
X94571Y221932D01*
X94624Y222029D01*
X94675Y222128D01*
X94722Y222229D01*
X94765Y222331D01*
X94805Y222434D01*
X94841Y222539D01*
X94873Y222645D01*
X94902Y222752D01*
X94927Y222860D01*
X94948Y222969D01*
X94965Y223078D01*
X94979Y223188D01*
X94988Y223299D01*
X94994Y223409D01*
X94996Y223520D01*
X94996Y231775D01*
X102870Y231775D02*
X102870Y220345D01*
X99695Y231775D02*
X106045Y231775D01*
X115189Y226695D02*
X117094Y226695D01*
X117094Y220345D01*
X113284Y220345D01*
X113184Y220347D01*
X113085Y220353D01*
X112985Y220363D01*
X112887Y220376D01*
X112788Y220394D01*
X112691Y220415D01*
X112595Y220440D01*
X112499Y220469D01*
X112405Y220502D01*
X112312Y220538D01*
X112221Y220578D01*
X112131Y220622D01*
X112043Y220669D01*
X111957Y220719D01*
X111873Y220773D01*
X111791Y220830D01*
X111712Y220890D01*
X111634Y220954D01*
X111560Y221020D01*
X111488Y221089D01*
X111419Y221161D01*
X111353Y221235D01*
X111289Y221313D01*
X111229Y221392D01*
X111172Y221474D01*
X111118Y221558D01*
X111068Y221644D01*
X111021Y221732D01*
X110977Y221822D01*
X110937Y221913D01*
X110901Y222006D01*
X110868Y222100D01*
X110839Y222196D01*
X110814Y222292D01*
X110793Y222389D01*
X110775Y222488D01*
X110762Y222586D01*
X110752Y222686D01*
X110746Y222785D01*
X110744Y222885D01*
X110744Y229235D01*
X110746Y229335D01*
X110752Y229434D01*
X110762Y229534D01*
X110775Y229632D01*
X110793Y229731D01*
X110814Y229828D01*
X110839Y229924D01*
X110868Y230020D01*
X110901Y230114D01*
X110937Y230207D01*
X110977Y230298D01*
X111021Y230388D01*
X111068Y230476D01*
X111118Y230562D01*
X111172Y230646D01*
X111229Y230728D01*
X111289Y230807D01*
X111353Y230885D01*
X111419Y230959D01*
X111488Y231031D01*
X111560Y231100D01*
X111634Y231166D01*
X111712Y231230D01*
X111791Y231290D01*
X111873Y231347D01*
X111957Y231401D01*
X112043Y231451D01*
X112131Y231498D01*
X112221Y231542D01*
X112312Y231582D01*
X112405Y231618D01*
X112499Y231651D01*
X112595Y231680D01*
X112691Y231705D01*
X112788Y231726D01*
X112887Y231744D01*
X112985Y231757D01*
X113085Y231767D01*
X113184Y231773D01*
X113284Y231775D01*
X117094Y231775D01*
X122555Y228600D02*
X122555Y223520D01*
X122555Y228600D02*
X122557Y228711D01*
X122563Y228821D01*
X122572Y228932D01*
X122586Y229042D01*
X122603Y229151D01*
X122624Y229260D01*
X122649Y229368D01*
X122678Y229475D01*
X122710Y229581D01*
X122746Y229686D01*
X122786Y229789D01*
X122829Y229891D01*
X122876Y229992D01*
X122927Y230091D01*
X122980Y230188D01*
X123037Y230282D01*
X123098Y230375D01*
X123161Y230466D01*
X123228Y230555D01*
X123298Y230641D01*
X123371Y230724D01*
X123446Y230806D01*
X123524Y230884D01*
X123606Y230959D01*
X123689Y231032D01*
X123775Y231102D01*
X123864Y231169D01*
X123955Y231232D01*
X124048Y231293D01*
X124143Y231350D01*
X124239Y231403D01*
X124338Y231454D01*
X124439Y231501D01*
X124541Y231544D01*
X124644Y231584D01*
X124749Y231620D01*
X124855Y231652D01*
X124962Y231681D01*
X125070Y231706D01*
X125179Y231727D01*
X125288Y231744D01*
X125398Y231758D01*
X125509Y231767D01*
X125619Y231773D01*
X125730Y231775D01*
X125841Y231773D01*
X125951Y231767D01*
X126062Y231758D01*
X126172Y231744D01*
X126281Y231727D01*
X126390Y231706D01*
X126498Y231681D01*
X126605Y231652D01*
X126711Y231620D01*
X126816Y231584D01*
X126919Y231544D01*
X127021Y231501D01*
X127122Y231454D01*
X127221Y231403D01*
X127318Y231350D01*
X127412Y231293D01*
X127505Y231232D01*
X127596Y231169D01*
X127685Y231102D01*
X127771Y231032D01*
X127854Y230959D01*
X127936Y230884D01*
X128014Y230806D01*
X128089Y230724D01*
X128162Y230641D01*
X128232Y230555D01*
X128299Y230466D01*
X128362Y230375D01*
X128423Y230282D01*
X128480Y230188D01*
X128533Y230091D01*
X128584Y229992D01*
X128631Y229891D01*
X128674Y229789D01*
X128714Y229686D01*
X128750Y229581D01*
X128782Y229475D01*
X128811Y229368D01*
X128836Y229260D01*
X128857Y229151D01*
X128874Y229042D01*
X128888Y228932D01*
X128897Y228821D01*
X128903Y228711D01*
X128905Y228600D01*
X128905Y223520D01*
X128903Y223409D01*
X128897Y223299D01*
X128888Y223188D01*
X128874Y223078D01*
X128857Y222969D01*
X128836Y222860D01*
X128811Y222752D01*
X128782Y222645D01*
X128750Y222539D01*
X128714Y222434D01*
X128674Y222331D01*
X128631Y222229D01*
X128584Y222128D01*
X128533Y222029D01*
X128480Y221932D01*
X128423Y221838D01*
X128362Y221745D01*
X128299Y221654D01*
X128232Y221565D01*
X128162Y221479D01*
X128089Y221396D01*
X128014Y221314D01*
X127936Y221236D01*
X127854Y221161D01*
X127771Y221088D01*
X127685Y221018D01*
X127596Y220951D01*
X127505Y220888D01*
X127412Y220827D01*
X127317Y220770D01*
X127221Y220717D01*
X127122Y220666D01*
X127021Y220619D01*
X126919Y220576D01*
X126816Y220536D01*
X126711Y220500D01*
X126605Y220468D01*
X126498Y220439D01*
X126390Y220414D01*
X126281Y220393D01*
X126172Y220376D01*
X126062Y220362D01*
X125951Y220353D01*
X125841Y220347D01*
X125730Y220345D01*
X125619Y220347D01*
X125509Y220353D01*
X125398Y220362D01*
X125288Y220376D01*
X125179Y220393D01*
X125070Y220414D01*
X124962Y220439D01*
X124855Y220468D01*
X124749Y220500D01*
X124644Y220536D01*
X124541Y220576D01*
X124439Y220619D01*
X124338Y220666D01*
X124239Y220717D01*
X124143Y220770D01*
X124048Y220827D01*
X123955Y220888D01*
X123864Y220951D01*
X123775Y221018D01*
X123689Y221088D01*
X123606Y221161D01*
X123524Y221236D01*
X123446Y221314D01*
X123371Y221396D01*
X123298Y221479D01*
X123228Y221565D01*
X123161Y221654D01*
X123098Y221745D01*
X123037Y221838D01*
X122980Y221933D01*
X122927Y222029D01*
X122876Y222128D01*
X122829Y222229D01*
X122786Y222331D01*
X122746Y222434D01*
X122710Y222539D01*
X122678Y222645D01*
X122649Y222752D01*
X122624Y222860D01*
X122603Y222969D01*
X122586Y223078D01*
X122572Y223188D01*
X122563Y223299D01*
X122557Y223409D01*
X122555Y223520D01*
X134874Y220345D02*
X134874Y231775D01*
X133604Y220345D02*
X136144Y220345D01*
X136144Y231775D02*
X133604Y231775D01*
X141224Y231775D02*
X141224Y220345D01*
X147574Y220345D02*
X141224Y231775D01*
X147574Y231775D02*
X147574Y220345D01*
X157861Y226695D02*
X159766Y226695D01*
X159766Y220345D01*
X155956Y220345D01*
X155856Y220347D01*
X155757Y220353D01*
X155657Y220363D01*
X155559Y220376D01*
X155460Y220394D01*
X155363Y220415D01*
X155267Y220440D01*
X155171Y220469D01*
X155077Y220502D01*
X154984Y220538D01*
X154893Y220578D01*
X154803Y220622D01*
X154715Y220669D01*
X154629Y220719D01*
X154545Y220773D01*
X154463Y220830D01*
X154384Y220890D01*
X154306Y220954D01*
X154232Y221020D01*
X154160Y221089D01*
X154091Y221161D01*
X154025Y221235D01*
X153961Y221313D01*
X153901Y221392D01*
X153844Y221474D01*
X153790Y221558D01*
X153740Y221644D01*
X153693Y221732D01*
X153649Y221822D01*
X153609Y221913D01*
X153573Y222006D01*
X153540Y222100D01*
X153511Y222196D01*
X153486Y222292D01*
X153465Y222389D01*
X153447Y222488D01*
X153434Y222586D01*
X153424Y222686D01*
X153418Y222785D01*
X153416Y222885D01*
X153416Y229235D01*
X153418Y229335D01*
X153424Y229434D01*
X153434Y229534D01*
X153447Y229632D01*
X153465Y229731D01*
X153486Y229828D01*
X153511Y229924D01*
X153540Y230020D01*
X153573Y230114D01*
X153609Y230207D01*
X153649Y230298D01*
X153693Y230388D01*
X153740Y230476D01*
X153790Y230562D01*
X153844Y230646D01*
X153901Y230728D01*
X153961Y230807D01*
X154025Y230885D01*
X154091Y230959D01*
X154160Y231031D01*
X154232Y231100D01*
X154306Y231166D01*
X154384Y231230D01*
X154463Y231290D01*
X154545Y231347D01*
X154629Y231401D01*
X154715Y231451D01*
X154803Y231498D01*
X154893Y231542D01*
X154984Y231582D01*
X155077Y231618D01*
X155171Y231651D01*
X155267Y231680D01*
X155363Y231705D01*
X155460Y231726D01*
X155559Y231744D01*
X155657Y231757D01*
X155757Y231767D01*
X155856Y231773D01*
X155956Y231775D01*
X159766Y231775D01*
X165261Y226060D02*
X165264Y226322D01*
X165274Y226583D01*
X165289Y226844D01*
X165311Y227105D01*
X165340Y227365D01*
X165374Y227624D01*
X165415Y227882D01*
X165462Y228140D01*
X165515Y228396D01*
X165574Y228650D01*
X165639Y228904D01*
X165711Y229155D01*
X165788Y229405D01*
X165872Y229653D01*
X165961Y229899D01*
X166056Y230142D01*
X166157Y230384D01*
X166264Y230622D01*
X166377Y230858D01*
X166495Y231092D01*
X166619Y231322D01*
X166748Y231549D01*
X166883Y231774D01*
X167023Y231994D01*
X167168Y232212D01*
X167319Y232426D01*
X167475Y232636D01*
X167635Y232842D01*
X167801Y233045D01*
X165261Y226060D02*
X165264Y225798D01*
X165274Y225537D01*
X165289Y225276D01*
X165311Y225015D01*
X165340Y224755D01*
X165374Y224496D01*
X165415Y224238D01*
X165462Y223980D01*
X165515Y223724D01*
X165574Y223470D01*
X165639Y223216D01*
X165711Y222965D01*
X165788Y222715D01*
X165872Y222467D01*
X165961Y222221D01*
X166056Y221978D01*
X166157Y221736D01*
X166264Y221498D01*
X166377Y221262D01*
X166495Y221028D01*
X166619Y220798D01*
X166748Y220571D01*
X166883Y220346D01*
X167023Y220126D01*
X167168Y219908D01*
X167319Y219694D01*
X167475Y219484D01*
X167635Y219278D01*
X167801Y219075D01*
X176022Y224790D02*
X176022Y228600D01*
X176022Y224790D02*
X178244Y221933D01*
X176022Y224790D02*
X173799Y221933D01*
X176022Y224790D02*
X179514Y226060D01*
X176022Y224790D02*
X172529Y226060D01*
X184038Y220345D02*
X184673Y220345D01*
X184038Y220345D02*
X184038Y220980D01*
X184673Y220980D01*
X184673Y220345D01*
X183720Y217805D01*
X192786Y224790D02*
X192786Y228600D01*
X192786Y224790D02*
X195008Y221933D01*
X192786Y224790D02*
X190563Y221933D01*
X192786Y224790D02*
X196278Y226060D01*
X192786Y224790D02*
X189293Y226060D01*
X200802Y220345D02*
X201437Y220345D01*
X200802Y220345D02*
X200802Y220980D01*
X201437Y220980D01*
X201437Y220345D01*
X200484Y217805D01*
X206121Y224790D02*
X213741Y224790D01*
X218328Y220345D02*
X218963Y220345D01*
X218328Y220345D02*
X218328Y220980D01*
X218963Y220980D01*
X218963Y220345D01*
X218010Y217805D01*
X223647Y224790D02*
X231267Y224790D01*
X227457Y220980D02*
X227457Y228600D01*
X238599Y226060D02*
X238596Y225798D01*
X238586Y225537D01*
X238571Y225276D01*
X238549Y225015D01*
X238520Y224755D01*
X238486Y224496D01*
X238445Y224238D01*
X238398Y223980D01*
X238345Y223724D01*
X238286Y223470D01*
X238221Y223216D01*
X238149Y222965D01*
X238072Y222715D01*
X237988Y222467D01*
X237899Y222221D01*
X237804Y221978D01*
X237703Y221736D01*
X237596Y221498D01*
X237483Y221262D01*
X237365Y221028D01*
X237241Y220798D01*
X237112Y220571D01*
X236977Y220346D01*
X236837Y220126D01*
X236692Y219908D01*
X236541Y219694D01*
X236385Y219484D01*
X236225Y219278D01*
X236059Y219075D01*
X238599Y226060D02*
X238596Y226322D01*
X238586Y226583D01*
X238571Y226844D01*
X238549Y227105D01*
X238520Y227365D01*
X238486Y227624D01*
X238445Y227882D01*
X238398Y228140D01*
X238345Y228396D01*
X238286Y228650D01*
X238221Y228904D01*
X238149Y229155D01*
X238072Y229405D01*
X237988Y229653D01*
X237899Y229899D01*
X237804Y230142D01*
X237703Y230384D01*
X237596Y230622D01*
X237483Y230858D01*
X237365Y231092D01*
X237241Y231322D01*
X237112Y231549D01*
X236977Y231774D01*
X236837Y231994D01*
X236692Y232212D01*
X236541Y232426D01*
X236385Y232636D01*
X236225Y232842D01*
X236059Y233045D01*
M02*
