%TF.GenerationSoftware,KiCad,Pcbnew,7.0.2-0*%
%TF.CreationDate,2023-06-25T19:14:38-06:00*%
%TF.ProjectId,bl616_cr2_panel,626c3631-365f-4637-9232-5f70616e656c,rev?*%
%TF.SameCoordinates,Original*%
%TF.FileFunction,Soldermask,Bot*%
%TF.FilePolarity,Negative*%
%FSLAX46Y46*%
G04 Gerber Fmt 4.6, Leading zero omitted, Abs format (unit mm)*
G04 Created by KiCad (PCBNEW 7.0.2-0) date 2023-06-25 19:14:38*
%MOMM*%
%LPD*%
G01*
G04 APERTURE LIST*
%ADD10R,1.700000X1.700000*%
%ADD11C,0.500000*%
%ADD12O,1.700000X1.700000*%
G04 APERTURE END LIST*
D10*
%TO.C,J3*%
X186200000Y-47000000D03*
%TD*%
D11*
%TO.C,REF\u002A\u002A*%
X128500000Y-73800000D03*
%TD*%
D10*
%TO.C,J4*%
X116320000Y-34600000D03*
D12*
X118860000Y-34600000D03*
X121400000Y-34600000D03*
X123940000Y-34600000D03*
X126480000Y-34600000D03*
%TD*%
D11*
%TO.C,REF\u002A\u002A*%
X168500000Y-54800000D03*
%TD*%
%TO.C,REF\u002A\u002A*%
X126500000Y-39200000D03*
%TD*%
%TO.C,REF\u002A\u002A*%
X129500000Y-39200000D03*
%TD*%
%TO.C,REF\u002A\u002A*%
X169500000Y-35800000D03*
%TD*%
D10*
%TO.C,J4*%
X157320000Y-53600000D03*
D12*
X159860000Y-53600000D03*
X162400000Y-53600000D03*
X164940000Y-53600000D03*
X167480000Y-53600000D03*
%TD*%
D10*
%TO.C,J3*%
X145200000Y-66000000D03*
%TD*%
D11*
%TO.C,REF\u002A\u002A*%
X150200000Y-65500000D03*
%TD*%
D10*
%TO.C,J3*%
X145200000Y-47000000D03*
%TD*%
D11*
%TO.C,REF\u002A\u002A*%
X127500000Y-58200000D03*
%TD*%
D10*
%TO.C,J2*%
X111000000Y-65600000D03*
%TD*%
D11*
%TO.C,REF\u002A\u002A*%
X146800000Y-48500000D03*
%TD*%
%TO.C,REF\u002A\u002A*%
X129500000Y-96200000D03*
%TD*%
%TO.C,REF\u002A\u002A*%
X146800000Y-105500000D03*
%TD*%
%TO.C,REF\u002A\u002A*%
X126500000Y-96200000D03*
%TD*%
%TO.C,REF\u002A\u002A*%
X146800000Y-102500000D03*
%TD*%
%TO.C,REF\u002A\u002A*%
X129500000Y-92800000D03*
%TD*%
%TO.C,REF\u002A\u002A*%
X168500000Y-96200000D03*
%TD*%
%TO.C,REF\u002A\u002A*%
X126500000Y-77200000D03*
%TD*%
%TO.C,REF\u002A\u002A*%
X150200000Y-28500000D03*
%TD*%
D10*
%TO.C,J4*%
X116320000Y-110600000D03*
D12*
X118860000Y-110600000D03*
X121400000Y-110600000D03*
X123940000Y-110600000D03*
X126480000Y-110600000D03*
%TD*%
D11*
%TO.C,REF\u002A\u002A*%
X150200000Y-86500000D03*
%TD*%
%TO.C,REF\u002A\u002A*%
X146800000Y-104500000D03*
%TD*%
D10*
%TO.C,J1*%
X175120000Y-91600000D03*
D12*
X177660000Y-91600000D03*
X180200000Y-91600000D03*
X182740000Y-91600000D03*
%TD*%
D11*
%TO.C,REF\u002A\u002A*%
X168500000Y-77200000D03*
%TD*%
%TO.C,REF\u002A\u002A*%
X150200000Y-85500000D03*
%TD*%
D10*
%TO.C,J2*%
X111000000Y-84600000D03*
%TD*%
%TO.C,J4*%
X116320000Y-53600000D03*
D12*
X118860000Y-53600000D03*
X121400000Y-53600000D03*
X123940000Y-53600000D03*
X126480000Y-53600000D03*
%TD*%
D11*
%TO.C,REF\u002A\u002A*%
X146800000Y-27500000D03*
%TD*%
%TO.C,REF\u002A\u002A*%
X128500000Y-39200000D03*
%TD*%
D10*
%TO.C,J3*%
X186200000Y-28000000D03*
%TD*%
D11*
%TO.C,REF\u002A\u002A*%
X146800000Y-64500000D03*
%TD*%
%TO.C,REF\u002A\u002A*%
X169500000Y-96200000D03*
%TD*%
D10*
%TO.C,J2*%
X111000000Y-27600000D03*
%TD*%
D11*
%TO.C,REF\u002A\u002A*%
X150200000Y-104500000D03*
%TD*%
%TO.C,REF\u002A\u002A*%
X146800000Y-28500000D03*
%TD*%
%TO.C,REF\u002A\u002A*%
X169500000Y-54800000D03*
%TD*%
%TO.C,REF\u002A\u002A*%
X167500000Y-92800000D03*
%TD*%
D10*
%TO.C,J4*%
X157320000Y-34600000D03*
D12*
X159860000Y-34600000D03*
X162400000Y-34600000D03*
X164940000Y-34600000D03*
X167480000Y-34600000D03*
%TD*%
D11*
%TO.C,REF\u002A\u002A*%
X167500000Y-39200000D03*
%TD*%
D10*
%TO.C,J3*%
X186200000Y-66000000D03*
%TD*%
D11*
%TO.C,REF\u002A\u002A*%
X150200000Y-27500000D03*
%TD*%
%TO.C,REF\u002A\u002A*%
X129500000Y-54800000D03*
%TD*%
%TO.C,REF\u002A\u002A*%
X170500000Y-96200000D03*
%TD*%
D10*
%TO.C,J2*%
X152000000Y-84600000D03*
%TD*%
%TO.C,J4*%
X157320000Y-110600000D03*
D12*
X159860000Y-110600000D03*
X162400000Y-110600000D03*
X164940000Y-110600000D03*
X167480000Y-110600000D03*
%TD*%
D10*
%TO.C,J2*%
X111000000Y-103600000D03*
%TD*%
D11*
%TO.C,REF\u002A\u002A*%
X126500000Y-35800000D03*
%TD*%
%TO.C,REF\u002A\u002A*%
X170500000Y-77200000D03*
%TD*%
%TO.C,REF\u002A\u002A*%
X150200000Y-103500000D03*
%TD*%
D10*
%TO.C,J2*%
X111000000Y-46600000D03*
%TD*%
%TO.C,J4*%
X116320000Y-72600000D03*
D12*
X118860000Y-72600000D03*
X121400000Y-72600000D03*
X123940000Y-72600000D03*
X126480000Y-72600000D03*
%TD*%
D11*
%TO.C,REF\u002A\u002A*%
X146800000Y-86500000D03*
%TD*%
D10*
%TO.C,J4*%
X157320000Y-91600000D03*
D12*
X159860000Y-91600000D03*
X162400000Y-91600000D03*
X164940000Y-91600000D03*
X167480000Y-91600000D03*
%TD*%
D11*
%TO.C,REF\u002A\u002A*%
X150200000Y-45500000D03*
%TD*%
D10*
%TO.C,J3*%
X145200000Y-85000000D03*
%TD*%
D11*
%TO.C,REF\u002A\u002A*%
X150200000Y-46500000D03*
%TD*%
%TO.C,REF\u002A\u002A*%
X150200000Y-64500000D03*
%TD*%
D10*
%TO.C,J2*%
X152000000Y-103600000D03*
%TD*%
D11*
%TO.C,REF\u002A\u002A*%
X170500000Y-58200000D03*
%TD*%
%TO.C,REF\u002A\u002A*%
X129500000Y-35800000D03*
%TD*%
%TO.C,REF\u002A\u002A*%
X150200000Y-83500000D03*
%TD*%
%TO.C,REF\u002A\u002A*%
X170500000Y-35800000D03*
%TD*%
%TO.C,REF\u002A\u002A*%
X127500000Y-73800000D03*
%TD*%
D10*
%TO.C,J1*%
X134120000Y-110600000D03*
D12*
X136660000Y-110600000D03*
X139200000Y-110600000D03*
X141740000Y-110600000D03*
%TD*%
D10*
%TO.C,J1*%
X134120000Y-72600000D03*
D12*
X136660000Y-72600000D03*
X139200000Y-72600000D03*
X141740000Y-72600000D03*
%TD*%
D10*
%TO.C,J3*%
X145200000Y-104000000D03*
%TD*%
D11*
%TO.C,REF\u002A\u002A*%
X169500000Y-92800000D03*
%TD*%
%TO.C,REF\u002A\u002A*%
X150200000Y-66500000D03*
%TD*%
%TO.C,REF\u002A\u002A*%
X150200000Y-47500000D03*
%TD*%
%TO.C,REF\u002A\u002A*%
X129500000Y-73800000D03*
%TD*%
%TO.C,REF\u002A\u002A*%
X129500000Y-58200000D03*
%TD*%
%TO.C,REF\u002A\u002A*%
X170500000Y-54800000D03*
%TD*%
%TO.C,REF\u002A\u002A*%
X169500000Y-39200000D03*
%TD*%
%TO.C,REF\u002A\u002A*%
X127500000Y-54800000D03*
%TD*%
%TO.C,REF\u002A\u002A*%
X150200000Y-102500000D03*
%TD*%
%TO.C,REF\u002A\u002A*%
X146800000Y-67500000D03*
%TD*%
%TO.C,REF\u002A\u002A*%
X128500000Y-92800000D03*
%TD*%
%TO.C,REF\u002A\u002A*%
X128500000Y-77200000D03*
%TD*%
%TO.C,REF\u002A\u002A*%
X167500000Y-58200000D03*
%TD*%
%TO.C,REF\u002A\u002A*%
X127500000Y-77200000D03*
%TD*%
%TO.C,REF\u002A\u002A*%
X167500000Y-73800000D03*
%TD*%
%TO.C,REF\u002A\u002A*%
X146800000Y-29500000D03*
%TD*%
%TO.C,REF\u002A\u002A*%
X146800000Y-66500000D03*
%TD*%
%TO.C,REF\u002A\u002A*%
X146800000Y-65500000D03*
%TD*%
%TO.C,REF\u002A\u002A*%
X168500000Y-73800000D03*
%TD*%
%TO.C,REF\u002A\u002A*%
X167500000Y-77200000D03*
%TD*%
D10*
%TO.C,J1*%
X175120000Y-53600000D03*
D12*
X177660000Y-53600000D03*
X180200000Y-53600000D03*
X182740000Y-53600000D03*
%TD*%
D11*
%TO.C,REF\u002A\u002A*%
X168500000Y-92800000D03*
%TD*%
%TO.C,REF\u002A\u002A*%
X150200000Y-67500000D03*
%TD*%
D10*
%TO.C,J1*%
X175120000Y-34600000D03*
D12*
X177660000Y-34600000D03*
X180200000Y-34600000D03*
X182740000Y-34600000D03*
%TD*%
D11*
%TO.C,REF\u002A\u002A*%
X167500000Y-54800000D03*
%TD*%
%TO.C,REF\u002A\u002A*%
X127500000Y-92800000D03*
%TD*%
%TO.C,REF\u002A\u002A*%
X169500000Y-58200000D03*
%TD*%
%TO.C,REF\u002A\u002A*%
X167500000Y-96200000D03*
%TD*%
D10*
%TO.C,J4*%
X116320000Y-91600000D03*
D12*
X118860000Y-91600000D03*
X121400000Y-91600000D03*
X123940000Y-91600000D03*
X126480000Y-91600000D03*
%TD*%
D10*
%TO.C,J1*%
X175120000Y-72600000D03*
D12*
X177660000Y-72600000D03*
X180200000Y-72600000D03*
X182740000Y-72600000D03*
%TD*%
D11*
%TO.C,REF\u002A\u002A*%
X169500000Y-77200000D03*
%TD*%
%TO.C,REF\u002A\u002A*%
X150200000Y-26500000D03*
%TD*%
D10*
%TO.C,J1*%
X175120000Y-110600000D03*
D12*
X177660000Y-110600000D03*
X180200000Y-110600000D03*
X182740000Y-110600000D03*
%TD*%
D10*
%TO.C,J1*%
X134120000Y-91600000D03*
D12*
X136660000Y-91600000D03*
X139200000Y-91600000D03*
X141740000Y-91600000D03*
%TD*%
D11*
%TO.C,REF\u002A\u002A*%
X150200000Y-84500000D03*
%TD*%
%TO.C,REF\u002A\u002A*%
X126500000Y-73800000D03*
%TD*%
D10*
%TO.C,J3*%
X186200000Y-85000000D03*
%TD*%
D11*
%TO.C,REF\u002A\u002A*%
X126500000Y-54800000D03*
%TD*%
%TO.C,REF\u002A\u002A*%
X128500000Y-54800000D03*
%TD*%
%TO.C,REF\u002A\u002A*%
X146800000Y-46500000D03*
%TD*%
%TO.C,REF\u002A\u002A*%
X150200000Y-48500000D03*
%TD*%
%TO.C,REF\u002A\u002A*%
X126500000Y-58200000D03*
%TD*%
%TO.C,REF\u002A\u002A*%
X129500000Y-77200000D03*
%TD*%
%TO.C,REF\u002A\u002A*%
X128500000Y-35800000D03*
%TD*%
%TO.C,REF\u002A\u002A*%
X146800000Y-83500000D03*
%TD*%
%TO.C,REF\u002A\u002A*%
X170500000Y-73800000D03*
%TD*%
%TO.C,REF\u002A\u002A*%
X168500000Y-39200000D03*
%TD*%
%TO.C,REF\u002A\u002A*%
X126500000Y-92800000D03*
%TD*%
%TO.C,REF\u002A\u002A*%
X168500000Y-35800000D03*
%TD*%
D10*
%TO.C,J1*%
X134120000Y-34600000D03*
D12*
X136660000Y-34600000D03*
X139200000Y-34600000D03*
X141740000Y-34600000D03*
%TD*%
D11*
%TO.C,REF\u002A\u002A*%
X127500000Y-39200000D03*
%TD*%
%TO.C,REF\u002A\u002A*%
X127500000Y-35800000D03*
%TD*%
D10*
%TO.C,J3*%
X186200000Y-104000000D03*
%TD*%
D11*
%TO.C,REF\u002A\u002A*%
X169500000Y-73800000D03*
%TD*%
D10*
%TO.C,J2*%
X152000000Y-65600000D03*
%TD*%
D11*
%TO.C,REF\u002A\u002A*%
X168500000Y-58200000D03*
%TD*%
%TO.C,REF\u002A\u002A*%
X170500000Y-39200000D03*
%TD*%
%TO.C,REF\u002A\u002A*%
X128500000Y-58200000D03*
%TD*%
%TO.C,REF\u002A\u002A*%
X150200000Y-105500000D03*
%TD*%
%TO.C,REF\u002A\u002A*%
X146800000Y-103500000D03*
%TD*%
%TO.C,REF\u002A\u002A*%
X127500000Y-96200000D03*
%TD*%
%TO.C,REF\u002A\u002A*%
X146800000Y-85500000D03*
%TD*%
%TO.C,REF\u002A\u002A*%
X128500000Y-96200000D03*
%TD*%
%TO.C,REF\u002A\u002A*%
X146800000Y-45500000D03*
%TD*%
D10*
%TO.C,J1*%
X134120000Y-53600000D03*
D12*
X136660000Y-53600000D03*
X139200000Y-53600000D03*
X141740000Y-53600000D03*
%TD*%
D11*
%TO.C,REF\u002A\u002A*%
X150200000Y-29500000D03*
%TD*%
%TO.C,REF\u002A\u002A*%
X146800000Y-47500000D03*
%TD*%
%TO.C,REF\u002A\u002A*%
X167500000Y-35800000D03*
%TD*%
D10*
%TO.C,J3*%
X145200000Y-28000000D03*
%TD*%
%TO.C,J4*%
X157320000Y-72600000D03*
D12*
X159860000Y-72600000D03*
X162400000Y-72600000D03*
X164940000Y-72600000D03*
X167480000Y-72600000D03*
%TD*%
D11*
%TO.C,REF\u002A\u002A*%
X146800000Y-84500000D03*
%TD*%
D10*
%TO.C,J2*%
X152000000Y-46600000D03*
%TD*%
%TO.C,J2*%
X152000000Y-27600000D03*
%TD*%
D11*
%TO.C,REF\u002A\u002A*%
X170500000Y-92800000D03*
%TD*%
%TO.C,REF\u002A\u002A*%
X146800000Y-26500000D03*
%TD*%
M02*
