M48
; DRILL file {KiCad 7.0.2-0} date 2023 June 25, Sunday 19:14:34
; FORMAT={-:-/ absolute / inch / decimal}
; #@! TF.CreationDate,2023-06-25T19:14:34-06:00
; #@! TF.GenerationSoftware,Kicad,Pcbnew,7.0.2-0
; #@! TF.FileFunction,NonPlated,1,2,NPTH
FMAT,2
INCH
; #@! TA.AperFunction,NonPlated,NPTH,ComponentDrill
T1C0.0197
%
G90
G05
T1
X4.9803Y-1.4094
X4.9803Y-1.5433
X4.9803Y-2.1575
X4.9803Y-2.2913
X4.9803Y-2.9055
X4.9803Y-3.0394
X4.9803Y-3.6535
X4.9803Y-3.7874
X5.0197Y-1.4094
X5.0197Y-1.5433
X5.0197Y-2.1575
X5.0197Y-2.2913
X5.0197Y-2.9055
X5.0197Y-3.0394
X5.0197Y-3.6535
X5.0197Y-3.7874
X5.0591Y-1.4094
X5.0591Y-1.5433
X5.0591Y-2.1575
X5.0591Y-2.2913
X5.0591Y-2.9055
X5.0591Y-3.0394
X5.0591Y-3.6535
X5.0591Y-3.7874
X5.0984Y-1.4094
X5.0984Y-1.5433
X5.0984Y-2.1575
X5.0984Y-2.2913
X5.0984Y-2.9055
X5.0984Y-3.0394
X5.0984Y-3.6535
X5.0984Y-3.7874
X5.7795Y-1.0433
X5.7795Y-1.0827
X5.7795Y-1.122
X5.7795Y-1.1614
X5.7795Y-1.7913
X5.7795Y-1.8307
X5.7795Y-1.8701
X5.7795Y-1.9094
X5.7795Y-2.5394
X5.7795Y-2.5787
X5.7795Y-2.6181
X5.7795Y-2.6575
X5.7795Y-3.2874
X5.7795Y-3.3268
X5.7795Y-3.3661
X5.7795Y-3.4055
X5.7795Y-4.0354
X5.7795Y-4.0748
X5.7795Y-4.1142
X5.7795Y-4.1535
X5.9134Y-1.0433
X5.9134Y-1.0827
X5.9134Y-1.122
X5.9134Y-1.1614
X5.9134Y-1.7913
X5.9134Y-1.8307
X5.9134Y-1.8701
X5.9134Y-1.9094
X5.9134Y-2.5394
X5.9134Y-2.5787
X5.9134Y-2.6181
X5.9134Y-2.6575
X5.9134Y-3.2874
X5.9134Y-3.3268
X5.9134Y-3.3661
X5.9134Y-3.4055
X5.9134Y-4.0354
X5.9134Y-4.0748
X5.9134Y-4.1142
X5.9134Y-4.1535
X6.5945Y-1.4094
X6.5945Y-1.5433
X6.5945Y-2.1575
X6.5945Y-2.2913
X6.5945Y-2.9055
X6.5945Y-3.0394
X6.5945Y-3.6535
X6.5945Y-3.7874
X6.6339Y-1.4094
X6.6339Y-1.5433
X6.6339Y-2.1575
X6.6339Y-2.2913
X6.6339Y-2.9055
X6.6339Y-3.0394
X6.6339Y-3.6535
X6.6339Y-3.7874
X6.6732Y-1.4094
X6.6732Y-1.5433
X6.6732Y-2.1575
X6.6732Y-2.2913
X6.6732Y-2.9055
X6.6732Y-3.0394
X6.6732Y-3.6535
X6.6732Y-3.7874
X6.7126Y-1.4094
X6.7126Y-1.5433
X6.7126Y-2.1575
X6.7126Y-2.2913
X6.7126Y-2.9055
X6.7126Y-3.0394
X6.7126Y-3.6535
X6.7126Y-3.7874
T0
M30
