%TF.GenerationSoftware,KiCad,Pcbnew,7.0.2-0*%
%TF.CreationDate,2023-06-25T19:14:38-06:00*%
%TF.ProjectId,bl616_cr2_panel,626c3631-365f-4637-9232-5f70616e656c,rev?*%
%TF.SameCoordinates,Original*%
%TF.FileFunction,Paste,Top*%
%TF.FilePolarity,Positive*%
%FSLAX46Y46*%
G04 Gerber Fmt 4.6, Leading zero omitted, Abs format (unit mm)*
G04 Created by KiCad (PCBNEW 7.0.2-0) date 2023-06-25 19:14:38*
%MOMM*%
%LPD*%
G01*
G04 APERTURE LIST*
G04 Aperture macros list*
%AMRoundRect*
0 Rectangle with rounded corners*
0 $1 Rounding radius*
0 $2 $3 $4 $5 $6 $7 $8 $9 X,Y pos of 4 corners*
0 Add a 4 corners polygon primitive as box body*
4,1,4,$2,$3,$4,$5,$6,$7,$8,$9,$2,$3,0*
0 Add four circle primitives for the rounded corners*
1,1,$1+$1,$2,$3*
1,1,$1+$1,$4,$5*
1,1,$1+$1,$6,$7*
1,1,$1+$1,$8,$9*
0 Add four rect primitives between the rounded corners*
20,1,$1+$1,$2,$3,$4,$5,0*
20,1,$1+$1,$4,$5,$6,$7,0*
20,1,$1+$1,$6,$7,$8,$9,0*
20,1,$1+$1,$8,$9,$2,$3,0*%
%AMFreePoly0*
4,1,9,3.862500,-0.866500,0.737500,-0.866500,0.737500,-0.450000,-0.737500,-0.450000,-0.737500,0.450000,0.737500,0.450000,0.737500,0.866500,3.862500,0.866500,3.862500,-0.866500,3.862500,-0.866500,$1*%
G04 Aperture macros list end*
%ADD10RoundRect,0.190500X-0.190500X0.571500X-0.190500X-0.571500X0.190500X-0.571500X0.190500X0.571500X0*%
%ADD11RoundRect,0.190500X-0.571500X-0.190500X0.571500X-0.190500X0.571500X0.190500X-0.571500X0.190500X0*%
%ADD12RoundRect,0.228600X-0.914400X-0.914400X0.914400X-0.914400X0.914400X0.914400X-0.914400X0.914400X0*%
%ADD13RoundRect,0.250000X-0.337500X-0.475000X0.337500X-0.475000X0.337500X0.475000X-0.337500X0.475000X0*%
%ADD14R,1.300000X0.900000*%
%ADD15FreePoly0,0.000000*%
G04 APERTURE END LIST*
D10*
%TO.C,U3*%
X174200000Y-97600000D03*
X173200000Y-97600000D03*
X172200000Y-97600000D03*
X171200000Y-97600000D03*
X170200000Y-97600000D03*
X169200000Y-97600000D03*
X168200000Y-97600000D03*
X167200000Y-97600000D03*
X166200000Y-97600000D03*
D11*
X165200000Y-99600000D03*
X165200000Y-100600000D03*
X165200000Y-101600000D03*
X165200000Y-102600000D03*
X165200000Y-103600000D03*
X165200000Y-104600000D03*
X165200000Y-105600000D03*
D10*
X166200000Y-107600000D03*
X167200000Y-107600000D03*
X168200000Y-107600000D03*
X169200000Y-107600000D03*
X170200000Y-107600000D03*
X171200000Y-107600000D03*
X172200000Y-107600000D03*
X173200000Y-107600000D03*
X174200000Y-107600000D03*
D11*
X176200000Y-103873800D03*
D12*
X169561180Y-102349800D03*
%TD*%
D13*
%TO.C,C1*%
X159525000Y-85800000D03*
X161600000Y-85800000D03*
%TD*%
%TO.C,C1*%
X118525000Y-66800000D03*
X120600000Y-66800000D03*
%TD*%
D10*
%TO.C,U3*%
X133200000Y-97600000D03*
X132200000Y-97600000D03*
X131200000Y-97600000D03*
X130200000Y-97600000D03*
X129200000Y-97600000D03*
X128200000Y-97600000D03*
X127200000Y-97600000D03*
X126200000Y-97600000D03*
X125200000Y-97600000D03*
D11*
X124200000Y-99600000D03*
X124200000Y-100600000D03*
X124200000Y-101600000D03*
X124200000Y-102600000D03*
X124200000Y-103600000D03*
X124200000Y-104600000D03*
X124200000Y-105600000D03*
D10*
X125200000Y-107600000D03*
X126200000Y-107600000D03*
X127200000Y-107600000D03*
X128200000Y-107600000D03*
X129200000Y-107600000D03*
X130200000Y-107600000D03*
X131200000Y-107600000D03*
X132200000Y-107600000D03*
X133200000Y-107600000D03*
D11*
X135200000Y-103873800D03*
D12*
X128561180Y-102349800D03*
%TD*%
D14*
%TO.C,U2*%
X159450000Y-22500000D03*
D15*
X159537500Y-24000000D03*
D14*
X159450000Y-25500000D03*
%TD*%
%TO.C,U2*%
X118450000Y-79500000D03*
D15*
X118537500Y-81000000D03*
D14*
X118450000Y-82500000D03*
%TD*%
%TO.C,U2*%
X118450000Y-60500000D03*
D15*
X118537500Y-62000000D03*
D14*
X118450000Y-63500000D03*
%TD*%
D13*
%TO.C,C1*%
X159525000Y-66800000D03*
X161600000Y-66800000D03*
%TD*%
D10*
%TO.C,U3*%
X133200000Y-21600000D03*
X132200000Y-21600000D03*
X131200000Y-21600000D03*
X130200000Y-21600000D03*
X129200000Y-21600000D03*
X128200000Y-21600000D03*
X127200000Y-21600000D03*
X126200000Y-21600000D03*
X125200000Y-21600000D03*
D11*
X124200000Y-23600000D03*
X124200000Y-24600000D03*
X124200000Y-25600000D03*
X124200000Y-26600000D03*
X124200000Y-27600000D03*
X124200000Y-28600000D03*
X124200000Y-29600000D03*
D10*
X125200000Y-31600000D03*
X126200000Y-31600000D03*
X127200000Y-31600000D03*
X128200000Y-31600000D03*
X129200000Y-31600000D03*
X130200000Y-31600000D03*
X131200000Y-31600000D03*
X132200000Y-31600000D03*
X133200000Y-31600000D03*
D11*
X135200000Y-27873800D03*
D12*
X128561180Y-26349800D03*
%TD*%
D10*
%TO.C,U3*%
X133200000Y-59600000D03*
X132200000Y-59600000D03*
X131200000Y-59600000D03*
X130200000Y-59600000D03*
X129200000Y-59600000D03*
X128200000Y-59600000D03*
X127200000Y-59600000D03*
X126200000Y-59600000D03*
X125200000Y-59600000D03*
D11*
X124200000Y-61600000D03*
X124200000Y-62600000D03*
X124200000Y-63600000D03*
X124200000Y-64600000D03*
X124200000Y-65600000D03*
X124200000Y-66600000D03*
X124200000Y-67600000D03*
D10*
X125200000Y-69600000D03*
X126200000Y-69600000D03*
X127200000Y-69600000D03*
X128200000Y-69600000D03*
X129200000Y-69600000D03*
X130200000Y-69600000D03*
X131200000Y-69600000D03*
X132200000Y-69600000D03*
X133200000Y-69600000D03*
D11*
X135200000Y-65873800D03*
D12*
X128561180Y-64349800D03*
%TD*%
D14*
%TO.C,U2*%
X118450000Y-41500000D03*
D15*
X118537500Y-43000000D03*
D14*
X118450000Y-44500000D03*
%TD*%
D10*
%TO.C,U3*%
X133200000Y-78600000D03*
X132200000Y-78600000D03*
X131200000Y-78600000D03*
X130200000Y-78600000D03*
X129200000Y-78600000D03*
X128200000Y-78600000D03*
X127200000Y-78600000D03*
X126200000Y-78600000D03*
X125200000Y-78600000D03*
D11*
X124200000Y-80600000D03*
X124200000Y-81600000D03*
X124200000Y-82600000D03*
X124200000Y-83600000D03*
X124200000Y-84600000D03*
X124200000Y-85600000D03*
X124200000Y-86600000D03*
D10*
X125200000Y-88600000D03*
X126200000Y-88600000D03*
X127200000Y-88600000D03*
X128200000Y-88600000D03*
X129200000Y-88600000D03*
X130200000Y-88600000D03*
X131200000Y-88600000D03*
X132200000Y-88600000D03*
X133200000Y-88600000D03*
D11*
X135200000Y-84873800D03*
D12*
X128561180Y-83349800D03*
%TD*%
D10*
%TO.C,U3*%
X174200000Y-78600000D03*
X173200000Y-78600000D03*
X172200000Y-78600000D03*
X171200000Y-78600000D03*
X170200000Y-78600000D03*
X169200000Y-78600000D03*
X168200000Y-78600000D03*
X167200000Y-78600000D03*
X166200000Y-78600000D03*
D11*
X165200000Y-80600000D03*
X165200000Y-81600000D03*
X165200000Y-82600000D03*
X165200000Y-83600000D03*
X165200000Y-84600000D03*
X165200000Y-85600000D03*
X165200000Y-86600000D03*
D10*
X166200000Y-88600000D03*
X167200000Y-88600000D03*
X168200000Y-88600000D03*
X169200000Y-88600000D03*
X170200000Y-88600000D03*
X171200000Y-88600000D03*
X172200000Y-88600000D03*
X173200000Y-88600000D03*
X174200000Y-88600000D03*
D11*
X176200000Y-84873800D03*
D12*
X169561180Y-83349800D03*
%TD*%
D14*
%TO.C,U2*%
X118450000Y-98500000D03*
D15*
X118537500Y-100000000D03*
D14*
X118450000Y-101500000D03*
%TD*%
%TO.C,U2*%
X118450000Y-22500000D03*
D15*
X118537500Y-24000000D03*
D14*
X118450000Y-25500000D03*
%TD*%
D13*
%TO.C,C1*%
X118525000Y-47800000D03*
X120600000Y-47800000D03*
%TD*%
%TO.C,C1*%
X159525000Y-28800000D03*
X161600000Y-28800000D03*
%TD*%
%TO.C,C1*%
X118525000Y-28800000D03*
X120600000Y-28800000D03*
%TD*%
D10*
%TO.C,U3*%
X133200000Y-40600000D03*
X132200000Y-40600000D03*
X131200000Y-40600000D03*
X130200000Y-40600000D03*
X129200000Y-40600000D03*
X128200000Y-40600000D03*
X127200000Y-40600000D03*
X126200000Y-40600000D03*
X125200000Y-40600000D03*
D11*
X124200000Y-42600000D03*
X124200000Y-43600000D03*
X124200000Y-44600000D03*
X124200000Y-45600000D03*
X124200000Y-46600000D03*
X124200000Y-47600000D03*
X124200000Y-48600000D03*
D10*
X125200000Y-50600000D03*
X126200000Y-50600000D03*
X127200000Y-50600000D03*
X128200000Y-50600000D03*
X129200000Y-50600000D03*
X130200000Y-50600000D03*
X131200000Y-50600000D03*
X132200000Y-50600000D03*
X133200000Y-50600000D03*
D11*
X135200000Y-46873800D03*
D12*
X128561180Y-45349800D03*
%TD*%
D14*
%TO.C,U2*%
X159450000Y-60500000D03*
D15*
X159537500Y-62000000D03*
D14*
X159450000Y-63500000D03*
%TD*%
%TO.C,U2*%
X159450000Y-79500000D03*
D15*
X159537500Y-81000000D03*
D14*
X159450000Y-82500000D03*
%TD*%
%TO.C,U2*%
X159450000Y-98500000D03*
D15*
X159537500Y-100000000D03*
D14*
X159450000Y-101500000D03*
%TD*%
D10*
%TO.C,U3*%
X174200000Y-40600000D03*
X173200000Y-40600000D03*
X172200000Y-40600000D03*
X171200000Y-40600000D03*
X170200000Y-40600000D03*
X169200000Y-40600000D03*
X168200000Y-40600000D03*
X167200000Y-40600000D03*
X166200000Y-40600000D03*
D11*
X165200000Y-42600000D03*
X165200000Y-43600000D03*
X165200000Y-44600000D03*
X165200000Y-45600000D03*
X165200000Y-46600000D03*
X165200000Y-47600000D03*
X165200000Y-48600000D03*
D10*
X166200000Y-50600000D03*
X167200000Y-50600000D03*
X168200000Y-50600000D03*
X169200000Y-50600000D03*
X170200000Y-50600000D03*
X171200000Y-50600000D03*
X172200000Y-50600000D03*
X173200000Y-50600000D03*
X174200000Y-50600000D03*
D11*
X176200000Y-46873800D03*
D12*
X169561180Y-45349800D03*
%TD*%
D13*
%TO.C,C1*%
X118525000Y-85800000D03*
X120600000Y-85800000D03*
%TD*%
D14*
%TO.C,U2*%
X159450000Y-41500000D03*
D15*
X159537500Y-43000000D03*
D14*
X159450000Y-44500000D03*
%TD*%
D10*
%TO.C,U3*%
X174200000Y-21600000D03*
X173200000Y-21600000D03*
X172200000Y-21600000D03*
X171200000Y-21600000D03*
X170200000Y-21600000D03*
X169200000Y-21600000D03*
X168200000Y-21600000D03*
X167200000Y-21600000D03*
X166200000Y-21600000D03*
D11*
X165200000Y-23600000D03*
X165200000Y-24600000D03*
X165200000Y-25600000D03*
X165200000Y-26600000D03*
X165200000Y-27600000D03*
X165200000Y-28600000D03*
X165200000Y-29600000D03*
D10*
X166200000Y-31600000D03*
X167200000Y-31600000D03*
X168200000Y-31600000D03*
X169200000Y-31600000D03*
X170200000Y-31600000D03*
X171200000Y-31600000D03*
X172200000Y-31600000D03*
X173200000Y-31600000D03*
X174200000Y-31600000D03*
D11*
X176200000Y-27873800D03*
D12*
X169561180Y-26349800D03*
%TD*%
D13*
%TO.C,C1*%
X159525000Y-47800000D03*
X161600000Y-47800000D03*
%TD*%
%TO.C,C1*%
X159525000Y-104800000D03*
X161600000Y-104800000D03*
%TD*%
D10*
%TO.C,U3*%
X174200000Y-59600000D03*
X173200000Y-59600000D03*
X172200000Y-59600000D03*
X171200000Y-59600000D03*
X170200000Y-59600000D03*
X169200000Y-59600000D03*
X168200000Y-59600000D03*
X167200000Y-59600000D03*
X166200000Y-59600000D03*
D11*
X165200000Y-61600000D03*
X165200000Y-62600000D03*
X165200000Y-63600000D03*
X165200000Y-64600000D03*
X165200000Y-65600000D03*
X165200000Y-66600000D03*
X165200000Y-67600000D03*
D10*
X166200000Y-69600000D03*
X167200000Y-69600000D03*
X168200000Y-69600000D03*
X169200000Y-69600000D03*
X170200000Y-69600000D03*
X171200000Y-69600000D03*
X172200000Y-69600000D03*
X173200000Y-69600000D03*
X174200000Y-69600000D03*
D11*
X176200000Y-65873800D03*
D12*
X169561180Y-64349800D03*
%TD*%
D13*
%TO.C,C1*%
X118525000Y-104800000D03*
X120600000Y-104800000D03*
%TD*%
M02*
