M48
; DRILL file {KiCad 7.0.2-0} date 2023 June 25, Sunday 12:41:22
; FORMAT={-:-/ absolute / inch / decimal}
; #@! TF.CreationDate,2023-06-25T12:41:22-06:00
; #@! TF.GenerationSoftware,Kicad,Pcbnew,7.0.2-0
; #@! TF.FileFunction,Plated,1,2,PTH
FMAT,2
INCH
; #@! TA.AperFunction,Plated,PTH,ComponentDrill
T1C0.0394
%
G90
G05
T1
X4.3701Y-1.0866
X4.3701Y-1.8346
X4.3701Y-2.5827
X4.3701Y-3.3307
X4.3701Y-4.0787
X4.5795Y-1.3622
X4.5795Y-2.1102
X4.5795Y-2.8583
X4.5795Y-3.6063
X4.5795Y-4.3543
X4.6795Y-1.3622
X4.6795Y-2.1102
X4.6795Y-2.8583
X4.6795Y-3.6063
X4.6795Y-4.3543
X4.7795Y-1.3622
X4.7795Y-2.1102
X4.7795Y-2.8583
X4.7795Y-3.6063
X4.7795Y-4.3543
X4.8795Y-1.3622
X4.8795Y-2.1102
X4.8795Y-2.8583
X4.8795Y-3.6063
X4.8795Y-4.3543
X4.9795Y-1.3622
X4.9795Y-2.1102
X4.9795Y-2.8583
X4.9795Y-3.6063
X4.9795Y-4.3543
X5.2803Y-1.3622
X5.2803Y-2.1102
X5.2803Y-2.8583
X5.2803Y-3.6063
X5.2803Y-4.3543
X5.3803Y-1.3622
X5.3803Y-2.1102
X5.3803Y-2.8583
X5.3803Y-3.6063
X5.3803Y-4.3543
X5.4803Y-1.3622
X5.4803Y-2.1102
X5.4803Y-2.8583
X5.4803Y-3.6063
X5.4803Y-4.3543
X5.5803Y-1.3622
X5.5803Y-2.1102
X5.5803Y-2.8583
X5.5803Y-3.6063
X5.5803Y-4.3543
X5.7165Y-1.1024
X5.7165Y-1.8504
X5.7165Y-2.5984
X5.7165Y-3.3465
X5.7165Y-4.0945
X5.9843Y-1.0866
X5.9843Y-1.8346
X5.9843Y-2.5827
X5.9843Y-3.3307
X5.9843Y-4.0787
X6.1937Y-1.3622
X6.1937Y-2.1102
X6.1937Y-2.8583
X6.1937Y-3.6063
X6.1937Y-4.3543
X6.2937Y-1.3622
X6.2937Y-2.1102
X6.2937Y-2.8583
X6.2937Y-3.6063
X6.2937Y-4.3543
X6.3937Y-1.3622
X6.3937Y-2.1102
X6.3937Y-2.8583
X6.3937Y-3.6063
X6.3937Y-4.3543
X6.4937Y-1.3622
X6.4937Y-2.1102
X6.4937Y-2.8583
X6.4937Y-3.6063
X6.4937Y-4.3543
X6.5937Y-1.3622
X6.5937Y-2.1102
X6.5937Y-2.8583
X6.5937Y-3.6063
X6.5937Y-4.3543
X6.8945Y-1.3622
X6.8945Y-2.1102
X6.8945Y-2.8583
X6.8945Y-3.6063
X6.8945Y-4.3543
X6.9945Y-1.3622
X6.9945Y-2.1102
X6.9945Y-2.8583
X6.9945Y-3.6063
X6.9945Y-4.3543
X7.0945Y-1.3622
X7.0945Y-2.1102
X7.0945Y-2.8583
X7.0945Y-3.6063
X7.0945Y-4.3543
X7.1945Y-1.3622
X7.1945Y-2.1102
X7.1945Y-2.8583
X7.1945Y-3.6063
X7.1945Y-4.3543
X7.3307Y-1.1024
X7.3307Y-1.8504
X7.3307Y-2.5984
X7.3307Y-3.3465
X7.3307Y-4.0945
T0
M30
