<?xml version="1.0" encoding="utf-8"?>
<!DOCTYPE eagle SYSTEM "eagle.dtd">
<eagle version="9.6.2">
<drawing>
<settings>
<setting alwaysvectorfont="no"/>
<setting verticaltext="up"/>
</settings>
<grid distance="0.1" unitdist="inch" unit="inch" style="lines" multiple="1" display="no" altdistance="0.01" altunitdist="inch" altunit="inch"/>
<layers>
<layer number="1" name="Top" color="4" fill="1" visible="no" active="no"/>
<layer number="2" name="Route2" color="1" fill="3" visible="no" active="no"/>
<layer number="3" name="Route3" color="4" fill="3" visible="no" active="no"/>
<layer number="4" name="Route4" color="1" fill="4" visible="no" active="no"/>
<layer number="5" name="Route5" color="4" fill="4" visible="no" active="no"/>
<layer number="6" name="Route6" color="1" fill="8" visible="no" active="no"/>
<layer number="7" name="Route7" color="4" fill="8" visible="no" active="no"/>
<layer number="8" name="Route8" color="1" fill="2" visible="no" active="no"/>
<layer number="9" name="Route9" color="4" fill="2" visible="no" active="no"/>
<layer number="10" name="Route10" color="1" fill="7" visible="no" active="no"/>
<layer number="11" name="Route11" color="4" fill="7" visible="no" active="no"/>
<layer number="12" name="Route12" color="1" fill="5" visible="no" active="no"/>
<layer number="13" name="Route13" color="4" fill="5" visible="no" active="no"/>
<layer number="14" name="Route14" color="1" fill="6" visible="no" active="no"/>
<layer number="15" name="Route15" color="4" fill="6" visible="no" active="no"/>
<layer number="16" name="Bottom" color="1" fill="1" visible="no" active="no"/>
<layer number="17" name="Pads" color="2" fill="1" visible="no" active="no"/>
<layer number="18" name="Vias" color="2" fill="1" visible="no" active="no"/>
<layer number="19" name="Unrouted" color="6" fill="1" visible="no" active="no"/>
<layer number="20" name="Dimension" color="24" fill="1" visible="no" active="no"/>
<layer number="21" name="tPlace" color="7" fill="1" visible="no" active="no"/>
<layer number="22" name="bPlace" color="7" fill="1" visible="no" active="no"/>
<layer number="23" name="tOrigins" color="15" fill="1" visible="no" active="no"/>
<layer number="24" name="bOrigins" color="15" fill="1" visible="no" active="no"/>
<layer number="25" name="tNames" color="7" fill="1" visible="no" active="no"/>
<layer number="26" name="bNames" color="7" fill="1" visible="no" active="no"/>
<layer number="27" name="tValues" color="7" fill="1" visible="no" active="no"/>
<layer number="28" name="bValues" color="7" fill="1" visible="no" active="no"/>
<layer number="29" name="tStop" color="7" fill="3" visible="no" active="no"/>
<layer number="30" name="bStop" color="7" fill="6" visible="no" active="no"/>
<layer number="31" name="tCream" color="7" fill="4" visible="no" active="no"/>
<layer number="32" name="bCream" color="7" fill="5" visible="no" active="no"/>
<layer number="33" name="tFinish" color="6" fill="3" visible="no" active="no"/>
<layer number="34" name="bFinish" color="6" fill="6" visible="no" active="no"/>
<layer number="35" name="tGlue" color="7" fill="4" visible="no" active="no"/>
<layer number="36" name="bGlue" color="7" fill="5" visible="no" active="no"/>
<layer number="37" name="tTest" color="7" fill="1" visible="no" active="no"/>
<layer number="38" name="bTest" color="7" fill="1" visible="no" active="no"/>
<layer number="39" name="tKeepout" color="4" fill="11" visible="no" active="no"/>
<layer number="40" name="bKeepout" color="1" fill="11" visible="no" active="no"/>
<layer number="41" name="tRestrict" color="4" fill="10" visible="no" active="no"/>
<layer number="42" name="bRestrict" color="1" fill="10" visible="no" active="no"/>
<layer number="43" name="vRestrict" color="2" fill="10" visible="no" active="no"/>
<layer number="44" name="Drills" color="7" fill="1" visible="no" active="no"/>
<layer number="45" name="Holes" color="7" fill="1" visible="no" active="no"/>
<layer number="46" name="Milling" color="3" fill="1" visible="no" active="no"/>
<layer number="47" name="Measures" color="7" fill="1" visible="no" active="no"/>
<layer number="48" name="Document" color="7" fill="1" visible="no" active="no"/>
<layer number="49" name="Reference" color="7" fill="1" visible="no" active="no"/>
<layer number="51" name="tDocu" color="7" fill="1" visible="no" active="no"/>
<layer number="52" name="bDocu" color="7" fill="1" visible="no" active="no"/>
<layer number="88" name="SimResults" color="9" fill="1" visible="yes" active="yes"/>
<layer number="89" name="SimProbes" color="9" fill="1" visible="yes" active="yes"/>
<layer number="90" name="Modules" color="5" fill="1" visible="yes" active="yes"/>
<layer number="91" name="Nets" color="2" fill="1" visible="yes" active="yes"/>
<layer number="92" name="Busses" color="1" fill="1" visible="yes" active="yes"/>
<layer number="93" name="Pins" color="2" fill="1" visible="no" active="yes"/>
<layer number="94" name="Symbols" color="4" fill="1" visible="yes" active="yes"/>
<layer number="95" name="Names" color="7" fill="1" visible="yes" active="yes"/>
<layer number="96" name="Values" color="7" fill="1" visible="yes" active="yes"/>
<layer number="97" name="Info" color="7" fill="1" visible="yes" active="yes"/>
<layer number="98" name="Guide" color="6" fill="1" visible="yes" active="yes"/>
</layers>
<schematic xreflabel="%F%N/%S.%C%R" xrefpart="/%S.%C%R">
<libraries>
<library name="alpine_rotary_lib">
<packages>
<package name="ALPINE_ROTARY">
<circle x="0" y="0" radius="8.06225625" width="0.127" layer="21"/>
<circle x="0" y="0" radius="5" width="0.127" layer="21"/>
<wire x1="-6" y1="-5" x2="-6" y2="-10" width="0.127" layer="21"/>
<wire x1="-6" y1="-10" x2="6" y2="-10" width="0.127" layer="21"/>
<wire x1="6" y1="-10" x2="6" y2="-5" width="0.127" layer="21"/>
<text x="-3.81" y="2.54" size="1.27" layer="21">SRGP400</text>
<smd name="1" x="-8.5" y="2" dx="2.54" dy="1.27" layer="1"/>
<smd name="2" x="-8.5" y="0" dx="2.54" dy="1.27" layer="1"/>
<smd name="C1" x="-8.5" y="-3" dx="2.54" dy="1.27" layer="1"/>
<smd name="4" x="8.5" y="2" dx="2.54" dy="1.27" layer="1"/>
<smd name="3" x="8.5" y="0" dx="2.54" dy="1.27" layer="1"/>
<smd name="C2" x="8.5" y="-3" dx="2.54" dy="1.27" layer="1"/>
<smd name="VSS" x="-2.5" y="2.5" dx="3.81" dy="1.9304" layer="1" rot="R90"/>
<smd name="VDD" x="2" y="2.5" dx="3.81" dy="1.9304" layer="1" rot="R90"/>
<smd name="SCK" x="-2.5" y="-2" dx="3.81" dy="1.9304" layer="1" rot="R90"/>
<smd name="SDA" x="2" y="-2" dx="3.81" dy="1.9304" layer="1" rot="R90"/>
<hole x="-5.08" y="-1.27" drill="2.5"/>
<hole x="5.08" y="-1.27" drill="2.5"/>
<pad name="5" x="-3.5" y="5" drill="0.9" shape="square"/>
<pad name="6" x="3" y="5" drill="0.9" shape="square"/>
<pad name="7" x="3" y="-4.5" drill="0.9" shape="square"/>
<pad name="8" x="-3.5" y="-4.5" drill="0.9" shape="square"/>
</package>
<package name="EC25">
<circle x="0" y="0" radius="12" width="0.127" layer="21"/>
<pad name="S0" x="-13.5" y="3.5" drill="1" shape="square"/>
<pad name="S1" x="-13.5" y="0.46" drill="1" shape="square"/>
<pad name="S2" x="-13.5" y="-2.58" drill="1" shape="square"/>
<pad name="S3" x="7" y="10" drill="1" shape="square"/>
<pad name="S4" x="7" y="-10" drill="1" shape="square"/>
<hole x="0" y="-11" drill="1.5"/>
<hole x="0" y="11" drill="1.5"/>
<hole x="5" y="-7.5" drill="2.5"/>
<hole x="5" y="8" drill="2.5"/>
<hole x="-6.5" y="0.5" drill="2.5"/>
</package>
</packages>
<symbols>
<symbol name="ALPINE_ROTARY">
<pin name="1" x="-27.94" y="12.7" length="middle"/>
<pin name="2" x="-27.94" y="5.08" length="middle"/>
<pin name="3" x="-27.94" y="-2.54" length="middle"/>
<pin name="VSS" x="-10.16" y="5.08" length="middle" rot="R270"/>
<pin name="VDD" x="0" y="5.08" length="middle" rot="R270"/>
<pin name="SCK" x="10.16" y="5.08" length="middle" rot="R270"/>
<pin name="SDA" x="20.32" y="5.08" length="middle" rot="R270"/>
<pin name="6" x="30.48" y="12.7" length="middle" rot="R180"/>
<pin name="5" x="30.48" y="5.08" length="middle" rot="R180"/>
<pin name="4" x="30.48" y="-2.54" length="middle" rot="R180"/>
<circle x="2.54" y="7.62" radius="27.4743" width="0.254" layer="94"/>
<text x="0" y="15.24" size="1.27" layer="94">SRGP400</text>
</symbol>
<symbol name="EC25">
<circle x="0" y="0" radius="13.678315625" width="0.254" layer="94"/>
<pin name="1" x="-15.24" y="7.62" length="middle"/>
<pin name="C" x="-17.78" y="0" length="middle"/>
<pin name="2" x="-15.24" y="-7.62" length="middle"/>
<pin name="G2" x="0" y="-17.78" length="middle" rot="R90"/>
<pin name="G1" x="0" y="17.78" length="middle" rot="R270"/>
</symbol>
</symbols>
<devicesets>
<deviceset name="ALPINE_ROTARY">
<gates>
<gate name="G$1" symbol="ALPINE_ROTARY" x="0" y="-5.08"/>
</gates>
<devices>
<device name="" package="ALPINE_ROTARY">
<connects>
<connect gate="G$1" pin="1" pad="1"/>
<connect gate="G$1" pin="2" pad="2"/>
<connect gate="G$1" pin="3" pad="C1"/>
<connect gate="G$1" pin="4" pad="C2"/>
<connect gate="G$1" pin="5" pad="3"/>
<connect gate="G$1" pin="6" pad="4"/>
<connect gate="G$1" pin="SCK" pad="SCK"/>
<connect gate="G$1" pin="SDA" pad="SDA"/>
<connect gate="G$1" pin="VDD" pad="VDD"/>
<connect gate="G$1" pin="VSS" pad="VSS"/>
</connects>
<technologies>
<technology name=""/>
</technologies>
</device>
</devices>
</deviceset>
<deviceset name="EC25">
<gates>
<gate name="G$1" symbol="EC25" x="0" y="0"/>
</gates>
<devices>
<device name="" package="EC25">
<connects>
<connect gate="G$1" pin="1" pad="S0"/>
<connect gate="G$1" pin="2" pad="S2"/>
<connect gate="G$1" pin="C" pad="S1"/>
<connect gate="G$1" pin="G1" pad="S3"/>
<connect gate="G$1" pin="G2" pad="S4"/>
</connects>
<technologies>
<technology name=""/>
</technologies>
</device>
</devices>
</deviceset>
</devicesets>
</library>
<library name="con-lstb" urn="urn:adsk.eagle:library:162">
<description>&lt;b&gt;Pin Headers&lt;/b&gt;&lt;p&gt;
Naming:&lt;p&gt;
MA = male&lt;p&gt;
# contacts - # rows&lt;p&gt;
W = angled&lt;p&gt;
&lt;author&gt;Created by librarian@cadsoft.de&lt;/author&gt;</description>
<packages>
<package name="MA03-1" urn="urn:adsk.eagle:footprint:8281/1" library_version="2">
<description>&lt;b&gt;PIN HEADER&lt;/b&gt;</description>
<wire x1="-3.175" y1="1.27" x2="-1.905" y2="1.27" width="0.1524" layer="21"/>
<wire x1="-1.905" y1="1.27" x2="-1.27" y2="0.635" width="0.1524" layer="21"/>
<wire x1="-1.27" y1="-0.635" x2="-1.905" y2="-1.27" width="0.1524" layer="21"/>
<wire x1="-1.27" y1="0.635" x2="-0.635" y2="1.27" width="0.1524" layer="21"/>
<wire x1="-0.635" y1="1.27" x2="0.635" y2="1.27" width="0.1524" layer="21"/>
<wire x1="0.635" y1="1.27" x2="1.27" y2="0.635" width="0.1524" layer="21"/>
<wire x1="1.27" y1="-0.635" x2="0.635" y2="-1.27" width="0.1524" layer="21"/>
<wire x1="0.635" y1="-1.27" x2="-0.635" y2="-1.27" width="0.1524" layer="21"/>
<wire x1="-0.635" y1="-1.27" x2="-1.27" y2="-0.635" width="0.1524" layer="21"/>
<wire x1="-3.81" y1="0.635" x2="-3.81" y2="-0.635" width="0.1524" layer="21"/>
<wire x1="-3.175" y1="1.27" x2="-3.81" y2="0.635" width="0.1524" layer="21"/>
<wire x1="-3.81" y1="-0.635" x2="-3.175" y2="-1.27" width="0.1524" layer="21"/>
<wire x1="-1.905" y1="-1.27" x2="-3.175" y2="-1.27" width="0.1524" layer="21"/>
<wire x1="1.27" y1="0.635" x2="1.905" y2="1.27" width="0.1524" layer="21"/>
<wire x1="1.905" y1="1.27" x2="3.175" y2="1.27" width="0.1524" layer="21"/>
<wire x1="3.175" y1="1.27" x2="3.81" y2="0.635" width="0.1524" layer="21"/>
<wire x1="3.81" y1="-0.635" x2="3.175" y2="-1.27" width="0.1524" layer="21"/>
<wire x1="3.175" y1="-1.27" x2="1.905" y2="-1.27" width="0.1524" layer="21"/>
<wire x1="1.905" y1="-1.27" x2="1.27" y2="-0.635" width="0.1524" layer="21"/>
<wire x1="3.81" y1="0.635" x2="3.81" y2="-0.635" width="0.1524" layer="21"/>
<pad name="1" x="-2.54" y="0" drill="1.016" shape="long" rot="R90"/>
<pad name="2" x="0" y="0" drill="1.016" shape="long" rot="R90"/>
<pad name="3" x="2.54" y="0" drill="1.016" shape="long" rot="R90"/>
<text x="-3.81" y="1.651" size="1.27" layer="25" ratio="10">&gt;NAME</text>
<text x="-5.08" y="-0.635" size="1.27" layer="21" ratio="10">1</text>
<text x="-3.81" y="-2.921" size="1.27" layer="27" ratio="10">&gt;VALUE</text>
<rectangle x1="-0.254" y1="-0.254" x2="0.254" y2="0.254" layer="51"/>
<rectangle x1="-2.794" y1="-0.254" x2="-2.286" y2="0.254" layer="51"/>
<rectangle x1="2.286" y1="-0.254" x2="2.794" y2="0.254" layer="51"/>
</package>
</packages>
<packages3d>
<package3d name="MA03-1" urn="urn:adsk.eagle:package:8339/1" type="box" library_version="2">
<description>PIN HEADER</description>
<packageinstances>
<packageinstance name="MA03-1"/>
</packageinstances>
</package3d>
</packages3d>
<symbols>
<symbol name="MA03-1" urn="urn:adsk.eagle:symbol:8280/1" library_version="2">
<wire x1="3.81" y1="-5.08" x2="-1.27" y2="-5.08" width="0.4064" layer="94"/>
<wire x1="1.27" y1="2.54" x2="2.54" y2="2.54" width="0.6096" layer="94"/>
<wire x1="1.27" y1="0" x2="2.54" y2="0" width="0.6096" layer="94"/>
<wire x1="1.27" y1="-2.54" x2="2.54" y2="-2.54" width="0.6096" layer="94"/>
<wire x1="-1.27" y1="5.08" x2="-1.27" y2="-5.08" width="0.4064" layer="94"/>
<wire x1="3.81" y1="-5.08" x2="3.81" y2="5.08" width="0.4064" layer="94"/>
<wire x1="-1.27" y1="5.08" x2="3.81" y2="5.08" width="0.4064" layer="94"/>
<text x="-1.27" y="-7.62" size="1.778" layer="96">&gt;VALUE</text>
<text x="-1.27" y="5.842" size="1.778" layer="95">&gt;NAME</text>
<pin name="1" x="7.62" y="-2.54" visible="pad" length="middle" direction="pas" swaplevel="1" rot="R180"/>
<pin name="2" x="7.62" y="0" visible="pad" length="middle" direction="pas" swaplevel="1" rot="R180"/>
<pin name="3" x="7.62" y="2.54" visible="pad" length="middle" direction="pas" swaplevel="1" rot="R180"/>
</symbol>
</symbols>
<devicesets>
<deviceset name="MA03-1" urn="urn:adsk.eagle:component:8376/2" prefix="SV" uservalue="yes" library_version="2">
<description>&lt;b&gt;PIN HEADER&lt;/b&gt;</description>
<gates>
<gate name="G$1" symbol="MA03-1" x="0" y="0"/>
</gates>
<devices>
<device name="" package="MA03-1">
<connects>
<connect gate="G$1" pin="1" pad="1"/>
<connect gate="G$1" pin="2" pad="2"/>
<connect gate="G$1" pin="3" pad="3"/>
</connects>
<package3dinstances>
<package3dinstance package3d_urn="urn:adsk.eagle:package:8339/1"/>
</package3dinstances>
<technologies>
<technology name="">
<attribute name="MF" value="" constant="no"/>
<attribute name="MPN" value="" constant="no"/>
<attribute name="OC_FARNELL" value="unknown" constant="no"/>
<attribute name="OC_NEWARK" value="unknown" constant="no"/>
<attribute name="POPULARITY" value="48" constant="no"/>
</technology>
</technologies>
</device>
</devices>
</deviceset>
</devicesets>
</library>
</libraries>
<attributes>
</attributes>
<variantdefs>
</variantdefs>
<classes>
<class number="0" name="default" width="0" drill="0">
</class>
</classes>
<parts>
<part name="U$1" library="alpine_rotary_lib" deviceset="ALPINE_ROTARY" device=""/>
<part name="U$2" library="alpine_rotary_lib" deviceset="EC25" device=""/>
<part name="ROT,SCK,VCC" library="con-lstb" library_urn="urn:adsk.eagle:library:162" deviceset="MA03-1" device="" package3d_urn="urn:adsk.eagle:package:8339/1"/>
<part name="ROT,SDA,GND" library="con-lstb" library_urn="urn:adsk.eagle:library:162" deviceset="MA03-1" device="" package3d_urn="urn:adsk.eagle:package:8339/1"/>
</parts>
<sheets>
<sheet>
<plain>
</plain>
<instances>
<instance part="U$1" gate="G$1" x="53.34" y="50.8" smashed="yes"/>
<instance part="U$2" gate="G$1" x="193.04" y="66.04" smashed="yes"/>
<instance part="ROT,SCK,VCC" gate="G$1" x="25.4" y="-17.78" smashed="yes">
<attribute name="VALUE" x="24.13" y="-25.4" size="1.778" layer="96"/>
<attribute name="NAME" x="24.13" y="-11.938" size="1.778" layer="95"/>
</instance>
<instance part="ROT,SDA,GND" gate="G$1" x="68.58" y="-17.78" smashed="yes">
<attribute name="VALUE" x="67.31" y="-25.4" size="1.778" layer="96"/>
<attribute name="NAME" x="67.31" y="-11.938" size="1.778" layer="95"/>
</instance>
</instances>
<busses>
</busses>
<nets>
<net name="SCK" class="0">
<segment>
<pinref part="U$1" gate="G$1" pin="SCK"/>
<wire x1="63.5" y1="55.88" x2="66.04" y2="55.88" width="0.1524" layer="91"/>
<wire x1="63.5" y1="55.88" x2="63.5" y2="27.94" width="0.1524" layer="91"/>
<junction x="63.5" y="55.88"/>
<wire x1="63.5" y1="27.94" x2="58.42" y2="27.94" width="0.1524" layer="91"/>
<wire x1="58.42" y1="27.94" x2="58.42" y2="5.08" width="0.1524" layer="91"/>
</segment>
<segment>
<pinref part="ROT,SCK,VCC" gate="G$1" pin="2"/>
<wire x1="33.02" y1="-17.78" x2="35.56" y2="-17.78" width="0.1524" layer="91"/>
<label x="35.56" y="-17.78" size="1.778" layer="95"/>
</segment>
</net>
<net name="GND" class="0">
<segment>
<pinref part="U$1" gate="G$1" pin="VSS"/>
<wire x1="43.18" y1="55.88" x2="43.18" y2="17.78" width="0.1524" layer="91"/>
<wire x1="43.18" y1="17.78" x2="53.34" y2="17.78" width="0.1524" layer="91"/>
<wire x1="53.34" y1="17.78" x2="53.34" y2="5.08" width="0.1524" layer="91"/>
</segment>
<segment>
<pinref part="U$1" gate="G$1" pin="6"/>
<wire x1="83.82" y1="63.5" x2="88.9" y2="63.5" width="0.1524" layer="91"/>
<label x="88.9" y="63.5" size="1.778" layer="95"/>
</segment>
<segment>
<pinref part="ROT,SDA,GND" gate="G$1" pin="3"/>
<wire x1="76.2" y1="-15.24" x2="78.74" y2="-15.24" width="0.1524" layer="91"/>
<label x="78.74" y="-15.24" size="1.778" layer="95"/>
</segment>
</net>
<net name="VCC" class="0">
<segment>
<pinref part="U$1" gate="G$1" pin="VDD"/>
<wire x1="53.34" y1="55.88" x2="53.34" y2="22.86" width="0.1524" layer="91"/>
<wire x1="53.34" y1="22.86" x2="55.88" y2="22.86" width="0.1524" layer="91"/>
<wire x1="55.88" y1="22.86" x2="55.88" y2="5.08" width="0.1524" layer="91"/>
</segment>
<segment>
<pinref part="U$1" gate="G$1" pin="2"/>
<wire x1="20.32" y1="55.88" x2="25.4" y2="55.88" width="0.1524" layer="91"/>
<label x="17.78" y="55.88" size="1.778" layer="95"/>
</segment>
<segment>
<pinref part="U$2" gate="G$1" pin="C"/>
<wire x1="175.26" y1="66.04" x2="167.64" y2="66.04" width="0.1524" layer="91"/>
<label x="165.1" y="66.04" size="1.778" layer="95"/>
</segment>
<segment>
<pinref part="ROT,SCK,VCC" gate="G$1" pin="3"/>
<wire x1="33.02" y1="-15.24" x2="35.56" y2="-15.24" width="0.1524" layer="91"/>
<label x="35.56" y="-15.24" size="1.778" layer="95"/>
</segment>
</net>
<net name="SDA" class="0">
<segment>
<wire x1="60.96" y1="22.86" x2="73.66" y2="22.86" width="0.1524" layer="91"/>
<pinref part="U$1" gate="G$1" pin="SDA"/>
<wire x1="73.66" y1="22.86" x2="73.66" y2="55.88" width="0.1524" layer="91"/>
<wire x1="60.96" y1="22.86" x2="60.96" y2="5.08" width="0.1524" layer="91"/>
</segment>
<segment>
<pinref part="ROT,SDA,GND" gate="G$1" pin="2"/>
<wire x1="76.2" y1="-17.78" x2="78.74" y2="-17.78" width="0.1524" layer="91"/>
<label x="78.74" y="-17.78" size="1.778" layer="95"/>
</segment>
</net>
<net name="ROTARY_B" class="0">
<segment>
<pinref part="U$1" gate="G$1" pin="1"/>
<wire x1="25.4" y1="63.5" x2="20.32" y2="63.5" width="0.1524" layer="91"/>
<wire x1="20.32" y1="63.5" x2="20.32" y2="86.36" width="0.1524" layer="91"/>
<wire x1="20.32" y1="86.36" x2="93.98" y2="86.36" width="0.1524" layer="91"/>
<pinref part="U$1" gate="G$1" pin="5"/>
<wire x1="93.98" y1="86.36" x2="93.98" y2="55.88" width="0.1524" layer="91"/>
<wire x1="93.98" y1="55.88" x2="83.82" y2="55.88" width="0.1524" layer="91"/>
<wire x1="20.32" y1="86.36" x2="20.32" y2="91.44" width="0.1524" layer="91"/>
<junction x="20.32" y="86.36"/>
<label x="20.32" y="91.44" size="1.778" layer="95"/>
</segment>
<segment>
<wire x1="48.26" y1="5.08" x2="48.26" y2="7.62" width="0.1524" layer="91"/>
<label x="48.26" y="10.16" size="1.778" layer="95"/>
</segment>
<segment>
<pinref part="U$2" gate="G$1" pin="2"/>
<wire x1="177.8" y1="58.42" x2="162.56" y2="58.42" width="0.1524" layer="91"/>
<label x="157.48" y="58.42" size="1.778" layer="95"/>
</segment>
<segment>
<pinref part="ROT,SDA,GND" gate="G$1" pin="1"/>
<wire x1="76.2" y1="-20.32" x2="78.74" y2="-20.32" width="0.1524" layer="91"/>
<label x="78.74" y="-20.32" size="1.778" layer="95"/>
</segment>
</net>
<net name="ROTARY_A" class="0">
<segment>
<pinref part="U$1" gate="G$1" pin="3"/>
<pinref part="U$1" gate="G$1" pin="4"/>
<wire x1="25.4" y1="48.26" x2="83.82" y2="48.26" width="0.1524" layer="91"/>
<wire x1="25.4" y1="48.26" x2="25.4" y2="40.64" width="0.1524" layer="91"/>
<junction x="25.4" y="48.26"/>
<label x="15.24" y="40.64" size="1.778" layer="95"/>
</segment>
<segment>
<wire x1="50.8" y1="5.08" x2="50.8" y2="7.62" width="0.1524" layer="91"/>
<label x="50.8" y="7.62" size="1.778" layer="95"/>
</segment>
<segment>
<pinref part="U$2" gate="G$1" pin="1"/>
<wire x1="177.8" y1="73.66" x2="162.56" y2="73.66" width="0.1524" layer="91"/>
<label x="157.48" y="73.66" size="1.778" layer="95"/>
</segment>
<segment>
<pinref part="ROT,SCK,VCC" gate="G$1" pin="1"/>
<wire x1="33.02" y1="-20.32" x2="35.56" y2="-20.32" width="0.1524" layer="91"/>
<label x="35.56" y="-20.32" size="1.778" layer="95"/>
</segment>
</net>
</nets>
</sheet>
</sheets>
</schematic>
</drawing>
<compatibility>
<note version="8.2" severity="warning">
Since Version 8.2, EAGLE supports online libraries. The ids
of those online libraries will not be understood (or retained)
with this version.
</note>
<note version="8.3" severity="warning">
Since Version 8.3, EAGLE supports URNs for individual library
assets (packages, symbols, and devices). The URNs of those assets
will not be understood (or retained) with this version.
</note>
<note version="8.3" severity="warning">
Since Version 8.3, EAGLE supports the association of 3D packages
with devices in libraries, schematics, and board files. Those 3D
packages will not be understood (or retained) with this version.
</note>
</compatibility>
</eagle>
