Designator,Mid X,Mid Y,Layer,Rotation
C1,31.81,20.31,Top,90.0
C2,18.35,15.31,Top,90.0
COIN,21.80, 9.60,Top,90.0
J2,24.20,21.90,Top,180.0
LED1,17.40,21.50,Top,90.0
R1,22.40,14.60,Top,180.0
R2,15.40,18.80,Top,0.0
S1,14.74, 8.16,Top,117.0
U$1,15.01,15.08,Top,90.0
U$2,18.12, 2.47,Top,349.0
U2,24.23,17.81,Top,0.0
