%TF.GenerationSoftware,KiCad,Pcbnew,7.0.2-0*%
%TF.CreationDate,2023-11-25T19:51:36-06:00*%
%TF.ProjectId,panel_soil,70616e65-6c5f-4736-9f69-6c2e6b696361,rev?*%
%TF.SameCoordinates,Original*%
%TF.FileFunction,Copper,L2,Bot*%
%TF.FilePolarity,Positive*%
%FSLAX46Y46*%
G04 Gerber Fmt 4.6, Leading zero omitted, Abs format (unit mm)*
G04 Created by KiCad (PCBNEW 7.0.2-0) date 2023-11-25 19:51:36*
%MOMM*%
%LPD*%
G01*
G04 APERTURE LIST*
%TA.AperFunction,ComponentPad*%
%ADD10R,1.700000X1.700000*%
%TD*%
%TA.AperFunction,ComponentPad*%
%ADD11O,1.700000X1.700000*%
%TD*%
%TA.AperFunction,ComponentPad*%
%ADD12C,1.600000*%
%TD*%
%TA.AperFunction,ComponentPad*%
%ADD13O,1.600000X1.600000*%
%TD*%
%TA.AperFunction,ViaPad*%
%ADD14C,0.800000*%
%TD*%
%TA.AperFunction,Conductor*%
%ADD15C,0.250000*%
%TD*%
G04 APERTURE END LIST*
D10*
%TO.P,J4,1,Pin_1*%
%TO.N,Board_2-VCC33*%
X176420000Y-34200000D03*
D11*
%TO.P,J4,2,Pin_2*%
%TO.N,Board_2-GND*%
X178960000Y-34200000D03*
%TO.P,J4,3,Pin_3*%
%TO.N,Board_2-Net-(J4-Pin_3)*%
X181500000Y-34200000D03*
%TO.P,J4,4,Pin_4*%
%TO.N,Board_2-Net-(J4-Pin_4)*%
X184040000Y-34200000D03*
%TO.P,J4,5,Pin_5*%
%TO.N,Board_2-Net-(J4-Pin_5)*%
X186580000Y-34200000D03*
%TD*%
D10*
%TO.P,J4,1,Pin_1*%
%TO.N,Board_6-VCC33*%
X96420000Y-70200000D03*
D11*
%TO.P,J4,2,Pin_2*%
%TO.N,Board_6-GND*%
X98960000Y-70200000D03*
%TO.P,J4,3,Pin_3*%
%TO.N,Board_6-Net-(J4-Pin_3)*%
X101500000Y-70200000D03*
%TO.P,J4,4,Pin_4*%
%TO.N,Board_6-Net-(J4-Pin_4)*%
X104040000Y-70200000D03*
%TO.P,J4,5,Pin_5*%
%TO.N,Board_6-Net-(J4-Pin_5)*%
X106580000Y-70200000D03*
%TD*%
D10*
%TO.P,J3,1,Pin_1*%
%TO.N,Board_2-GND*%
X205700000Y-28000000D03*
%TD*%
%TO.P,J4,1,Pin_1*%
%TO.N,Board_9-VCC33*%
X96420000Y-88200000D03*
D11*
%TO.P,J4,2,Pin_2*%
%TO.N,Board_9-GND*%
X98960000Y-88200000D03*
%TO.P,J4,3,Pin_3*%
%TO.N,Board_9-Net-(J4-Pin_3)*%
X101500000Y-88200000D03*
%TO.P,J4,4,Pin_4*%
%TO.N,Board_9-Net-(J4-Pin_4)*%
X104040000Y-88200000D03*
%TO.P,J4,5,Pin_5*%
%TO.N,Board_9-Net-(J4-Pin_5)*%
X106580000Y-88200000D03*
%TD*%
D10*
%TO.P,J5,1,Pin_1*%
%TO.N,Board_10-GND*%
X135000000Y-83925000D03*
D11*
%TO.P,J5,2,Pin_2*%
%TO.N,Board_10-Net-(J5-Pin_2)*%
X135000000Y-81385000D03*
%TO.P,J5,3,Pin_3*%
%TO.N,Board_10-Net-(J5-Pin_3)*%
X135000000Y-78845000D03*
%TD*%
D10*
%TO.P,J3,1,Pin_1*%
%TO.N,Board_11-GND*%
X205700000Y-82000000D03*
%TD*%
%TO.P,J4,1,Pin_1*%
%TO.N,Board_1-VCC33*%
X136420000Y-34200000D03*
D11*
%TO.P,J4,2,Pin_2*%
%TO.N,Board_1-GND*%
X138960000Y-34200000D03*
%TO.P,J4,3,Pin_3*%
%TO.N,Board_1-Net-(J4-Pin_3)*%
X141500000Y-34200000D03*
%TO.P,J4,4,Pin_4*%
%TO.N,Board_1-Net-(J4-Pin_4)*%
X144040000Y-34200000D03*
%TO.P,J4,5,Pin_5*%
%TO.N,Board_1-Net-(J4-Pin_5)*%
X146580000Y-34200000D03*
%TD*%
D10*
%TO.P,J1,1,Pin_1*%
%TO.N,Board_5-Net-(J1-Pin_1)*%
X194900000Y-52200000D03*
D11*
%TO.P,J1,2,Pin_2*%
%TO.N,Board_5-DIO*%
X197440000Y-52200000D03*
%TO.P,J1,3,Pin_3*%
%TO.N,Board_5-VCC33*%
X199980000Y-52200000D03*
%TO.P,J1,4,Pin_4*%
%TO.N,Board_5-GND*%
X202520000Y-52200000D03*
%TD*%
D12*
%TO.P,TH2,1*%
%TO.N,Board_8-Net-(J5-Pin_3)*%
X178457500Y-63130000D03*
D13*
%TO.P,TH2,2*%
%TO.N,Board_8-Net-(J5-Pin_2)*%
X180997500Y-63130000D03*
%TD*%
D10*
%TO.P,J2,1,Pin_1*%
%TO.N,Board_10-Net-(J2-Pin_1)*%
X131300000Y-81600000D03*
%TD*%
%TO.P,J1,1,Pin_1*%
%TO.N,Board_7-Net-(J1-Pin_1)*%
X154900000Y-70200000D03*
D11*
%TO.P,J1,2,Pin_2*%
%TO.N,Board_7-DIO*%
X157440000Y-70200000D03*
%TO.P,J1,3,Pin_3*%
%TO.N,Board_7-VCC33*%
X159980000Y-70200000D03*
%TO.P,J1,4,Pin_4*%
%TO.N,Board_7-GND*%
X162520000Y-70200000D03*
%TD*%
D12*
%TO.P,TH2,1*%
%TO.N,Board_4-Net-(J5-Pin_3)*%
X138457500Y-45130000D03*
D13*
%TO.P,TH2,2*%
%TO.N,Board_4-Net-(J5-Pin_2)*%
X140997500Y-45130000D03*
%TD*%
D10*
%TO.P,J1,1,Pin_1*%
%TO.N,Board_3-Net-(J1-Pin_1)*%
X114900000Y-52200000D03*
D11*
%TO.P,J1,2,Pin_2*%
%TO.N,Board_3-DIO*%
X117440000Y-52200000D03*
%TO.P,J1,3,Pin_3*%
%TO.N,Board_3-VCC33*%
X119980000Y-52200000D03*
%TO.P,J1,4,Pin_4*%
%TO.N,Board_3-GND*%
X122520000Y-52200000D03*
%TD*%
D12*
%TO.P,TH2,1*%
%TO.N,Board_10-Net-(J5-Pin_3)*%
X138457500Y-81130000D03*
D13*
%TO.P,TH2,2*%
%TO.N,Board_10-Net-(J5-Pin_2)*%
X140997500Y-81130000D03*
%TD*%
D10*
%TO.P,J2,1,Pin_1*%
%TO.N,Board_0-Net-(J2-Pin_1)*%
X91300000Y-27600000D03*
%TD*%
D12*
%TO.P,TH2,1*%
%TO.N,Board_5-Net-(J5-Pin_3)*%
X178457500Y-45130000D03*
D13*
%TO.P,TH2,2*%
%TO.N,Board_5-Net-(J5-Pin_2)*%
X180997500Y-45130000D03*
%TD*%
D10*
%TO.P,J1,1,Pin_1*%
%TO.N,Board_9-Net-(J1-Pin_1)*%
X114900000Y-88200000D03*
D11*
%TO.P,J1,2,Pin_2*%
%TO.N,Board_9-DIO*%
X117440000Y-88200000D03*
%TO.P,J1,3,Pin_3*%
%TO.N,Board_9-VCC33*%
X119980000Y-88200000D03*
%TO.P,J1,4,Pin_4*%
%TO.N,Board_9-GND*%
X122520000Y-88200000D03*
%TD*%
D10*
%TO.P,J3,1,Pin_1*%
%TO.N,Board_3-GND*%
X125700000Y-46000000D03*
%TD*%
%TO.P,J1,1,Pin_1*%
%TO.N,Board_8-Net-(J1-Pin_1)*%
X194900000Y-70200000D03*
D11*
%TO.P,J1,2,Pin_2*%
%TO.N,Board_8-DIO*%
X197440000Y-70200000D03*
%TO.P,J1,3,Pin_3*%
%TO.N,Board_8-VCC33*%
X199980000Y-70200000D03*
%TO.P,J1,4,Pin_4*%
%TO.N,Board_8-GND*%
X202520000Y-70200000D03*
%TD*%
D12*
%TO.P,TH2,1*%
%TO.N,Board_6-Net-(J5-Pin_3)*%
X98457500Y-63130000D03*
D13*
%TO.P,TH2,2*%
%TO.N,Board_6-Net-(J5-Pin_2)*%
X100997500Y-63130000D03*
%TD*%
D10*
%TO.P,J2,1,Pin_1*%
%TO.N,Board_9-Net-(J2-Pin_1)*%
X91300000Y-81600000D03*
%TD*%
%TO.P,J4,1,Pin_1*%
%TO.N,Board_8-VCC33*%
X176420000Y-70200000D03*
D11*
%TO.P,J4,2,Pin_2*%
%TO.N,Board_8-GND*%
X178960000Y-70200000D03*
%TO.P,J4,3,Pin_3*%
%TO.N,Board_8-Net-(J4-Pin_3)*%
X181500000Y-70200000D03*
%TO.P,J4,4,Pin_4*%
%TO.N,Board_8-Net-(J4-Pin_4)*%
X184040000Y-70200000D03*
%TO.P,J4,5,Pin_5*%
%TO.N,Board_8-Net-(J4-Pin_5)*%
X186580000Y-70200000D03*
%TD*%
D10*
%TO.P,J5,1,Pin_1*%
%TO.N,Board_8-GND*%
X175000000Y-65925000D03*
D11*
%TO.P,J5,2,Pin_2*%
%TO.N,Board_8-Net-(J5-Pin_2)*%
X175000000Y-63385000D03*
%TO.P,J5,3,Pin_3*%
%TO.N,Board_8-Net-(J5-Pin_3)*%
X175000000Y-60845000D03*
%TD*%
D10*
%TO.P,J1,1,Pin_1*%
%TO.N,Board_11-Net-(J1-Pin_1)*%
X194900000Y-88200000D03*
D11*
%TO.P,J1,2,Pin_2*%
%TO.N,Board_11-DIO*%
X197440000Y-88200000D03*
%TO.P,J1,3,Pin_3*%
%TO.N,Board_11-VCC33*%
X199980000Y-88200000D03*
%TO.P,J1,4,Pin_4*%
%TO.N,Board_11-GND*%
X202520000Y-88200000D03*
%TD*%
D10*
%TO.P,J2,1,Pin_1*%
%TO.N,Board_2-Net-(J2-Pin_1)*%
X171300000Y-27600000D03*
%TD*%
%TO.P,J5,1,Pin_1*%
%TO.N,Board_9-GND*%
X95000000Y-83925000D03*
D11*
%TO.P,J5,2,Pin_2*%
%TO.N,Board_9-Net-(J5-Pin_2)*%
X95000000Y-81385000D03*
%TO.P,J5,3,Pin_3*%
%TO.N,Board_9-Net-(J5-Pin_3)*%
X95000000Y-78845000D03*
%TD*%
D10*
%TO.P,J5,1,Pin_1*%
%TO.N,Board_7-GND*%
X135000000Y-65925000D03*
D11*
%TO.P,J5,2,Pin_2*%
%TO.N,Board_7-Net-(J5-Pin_2)*%
X135000000Y-63385000D03*
%TO.P,J5,3,Pin_3*%
%TO.N,Board_7-Net-(J5-Pin_3)*%
X135000000Y-60845000D03*
%TD*%
D12*
%TO.P,TH2,1*%
%TO.N,Board_11-Net-(J5-Pin_3)*%
X178457500Y-81130000D03*
D13*
%TO.P,TH2,2*%
%TO.N,Board_11-Net-(J5-Pin_2)*%
X180997500Y-81130000D03*
%TD*%
D10*
%TO.P,J2,1,Pin_1*%
%TO.N,Board_8-Net-(J2-Pin_1)*%
X171300000Y-63600000D03*
%TD*%
D12*
%TO.P,TH2,1*%
%TO.N,Board_7-Net-(J5-Pin_3)*%
X138457500Y-63130000D03*
D13*
%TO.P,TH2,2*%
%TO.N,Board_7-Net-(J5-Pin_2)*%
X140997500Y-63130000D03*
%TD*%
D10*
%TO.P,J3,1,Pin_1*%
%TO.N,Board_6-GND*%
X125700000Y-64000000D03*
%TD*%
%TO.P,J5,1,Pin_1*%
%TO.N,Board_4-GND*%
X135000000Y-47925000D03*
D11*
%TO.P,J5,2,Pin_2*%
%TO.N,Board_4-Net-(J5-Pin_2)*%
X135000000Y-45385000D03*
%TO.P,J5,3,Pin_3*%
%TO.N,Board_4-Net-(J5-Pin_3)*%
X135000000Y-42845000D03*
%TD*%
D10*
%TO.P,J5,1,Pin_1*%
%TO.N,Board_1-GND*%
X135000000Y-29925000D03*
D11*
%TO.P,J5,2,Pin_2*%
%TO.N,Board_1-Net-(J5-Pin_2)*%
X135000000Y-27385000D03*
%TO.P,J5,3,Pin_3*%
%TO.N,Board_1-Net-(J5-Pin_3)*%
X135000000Y-24845000D03*
%TD*%
D10*
%TO.P,J2,1,Pin_1*%
%TO.N,Board_6-Net-(J2-Pin_1)*%
X91300000Y-63600000D03*
%TD*%
%TO.P,J4,1,Pin_1*%
%TO.N,Board_7-VCC33*%
X136420000Y-70200000D03*
D11*
%TO.P,J4,2,Pin_2*%
%TO.N,Board_7-GND*%
X138960000Y-70200000D03*
%TO.P,J4,3,Pin_3*%
%TO.N,Board_7-Net-(J4-Pin_3)*%
X141500000Y-70200000D03*
%TO.P,J4,4,Pin_4*%
%TO.N,Board_7-Net-(J4-Pin_4)*%
X144040000Y-70200000D03*
%TO.P,J4,5,Pin_5*%
%TO.N,Board_7-Net-(J4-Pin_5)*%
X146580000Y-70200000D03*
%TD*%
D12*
%TO.P,TH2,1*%
%TO.N,Board_0-Net-(J5-Pin_3)*%
X98457500Y-27130000D03*
D13*
%TO.P,TH2,2*%
%TO.N,Board_0-Net-(J5-Pin_2)*%
X100997500Y-27130000D03*
%TD*%
D10*
%TO.P,J4,1,Pin_1*%
%TO.N,Board_10-VCC33*%
X136420000Y-88200000D03*
D11*
%TO.P,J4,2,Pin_2*%
%TO.N,Board_10-GND*%
X138960000Y-88200000D03*
%TO.P,J4,3,Pin_3*%
%TO.N,Board_10-Net-(J4-Pin_3)*%
X141500000Y-88200000D03*
%TO.P,J4,4,Pin_4*%
%TO.N,Board_10-Net-(J4-Pin_4)*%
X144040000Y-88200000D03*
%TO.P,J4,5,Pin_5*%
%TO.N,Board_10-Net-(J4-Pin_5)*%
X146580000Y-88200000D03*
%TD*%
D10*
%TO.P,J3,1,Pin_1*%
%TO.N,Board_0-GND*%
X125700000Y-28000000D03*
%TD*%
%TO.P,J5,1,Pin_1*%
%TO.N,Board_2-GND*%
X175000000Y-29925000D03*
D11*
%TO.P,J5,2,Pin_2*%
%TO.N,Board_2-Net-(J5-Pin_2)*%
X175000000Y-27385000D03*
%TO.P,J5,3,Pin_3*%
%TO.N,Board_2-Net-(J5-Pin_3)*%
X175000000Y-24845000D03*
%TD*%
D10*
%TO.P,J3,1,Pin_1*%
%TO.N,Board_7-GND*%
X165700000Y-64000000D03*
%TD*%
%TO.P,J3,1,Pin_1*%
%TO.N,Board_1-GND*%
X165700000Y-28000000D03*
%TD*%
%TO.P,J3,1,Pin_1*%
%TO.N,Board_8-GND*%
X205700000Y-64000000D03*
%TD*%
D12*
%TO.P,TH2,1*%
%TO.N,Board_9-Net-(J5-Pin_3)*%
X98457500Y-81130000D03*
D13*
%TO.P,TH2,2*%
%TO.N,Board_9-Net-(J5-Pin_2)*%
X100997500Y-81130000D03*
%TD*%
D10*
%TO.P,J4,1,Pin_1*%
%TO.N,Board_0-VCC33*%
X96420000Y-34200000D03*
D11*
%TO.P,J4,2,Pin_2*%
%TO.N,Board_0-GND*%
X98960000Y-34200000D03*
%TO.P,J4,3,Pin_3*%
%TO.N,Board_0-Net-(J4-Pin_3)*%
X101500000Y-34200000D03*
%TO.P,J4,4,Pin_4*%
%TO.N,Board_0-Net-(J4-Pin_4)*%
X104040000Y-34200000D03*
%TO.P,J4,5,Pin_5*%
%TO.N,Board_0-Net-(J4-Pin_5)*%
X106580000Y-34200000D03*
%TD*%
D10*
%TO.P,J5,1,Pin_1*%
%TO.N,Board_0-GND*%
X95000000Y-29925000D03*
D11*
%TO.P,J5,2,Pin_2*%
%TO.N,Board_0-Net-(J5-Pin_2)*%
X95000000Y-27385000D03*
%TO.P,J5,3,Pin_3*%
%TO.N,Board_0-Net-(J5-Pin_3)*%
X95000000Y-24845000D03*
%TD*%
D10*
%TO.P,J1,1,Pin_1*%
%TO.N,Board_0-Net-(J1-Pin_1)*%
X114900000Y-34200000D03*
D11*
%TO.P,J1,2,Pin_2*%
%TO.N,Board_0-DIO*%
X117440000Y-34200000D03*
%TO.P,J1,3,Pin_3*%
%TO.N,Board_0-VCC33*%
X119980000Y-34200000D03*
%TO.P,J1,4,Pin_4*%
%TO.N,Board_0-GND*%
X122520000Y-34200000D03*
%TD*%
D10*
%TO.P,J2,1,Pin_1*%
%TO.N,Board_4-Net-(J2-Pin_1)*%
X131300000Y-45600000D03*
%TD*%
%TO.P,J3,1,Pin_1*%
%TO.N,Board_5-GND*%
X205700000Y-46000000D03*
%TD*%
%TO.P,J5,1,Pin_1*%
%TO.N,Board_3-GND*%
X95000000Y-47925000D03*
D11*
%TO.P,J5,2,Pin_2*%
%TO.N,Board_3-Net-(J5-Pin_2)*%
X95000000Y-45385000D03*
%TO.P,J5,3,Pin_3*%
%TO.N,Board_3-Net-(J5-Pin_3)*%
X95000000Y-42845000D03*
%TD*%
D10*
%TO.P,J2,1,Pin_1*%
%TO.N,Board_5-Net-(J2-Pin_1)*%
X171300000Y-45600000D03*
%TD*%
%TO.P,J4,1,Pin_1*%
%TO.N,Board_3-VCC33*%
X96420000Y-52200000D03*
D11*
%TO.P,J4,2,Pin_2*%
%TO.N,Board_3-GND*%
X98960000Y-52200000D03*
%TO.P,J4,3,Pin_3*%
%TO.N,Board_3-Net-(J4-Pin_3)*%
X101500000Y-52200000D03*
%TO.P,J4,4,Pin_4*%
%TO.N,Board_3-Net-(J4-Pin_4)*%
X104040000Y-52200000D03*
%TO.P,J4,5,Pin_5*%
%TO.N,Board_3-Net-(J4-Pin_5)*%
X106580000Y-52200000D03*
%TD*%
D10*
%TO.P,J1,1,Pin_1*%
%TO.N,Board_10-Net-(J1-Pin_1)*%
X154900000Y-88200000D03*
D11*
%TO.P,J1,2,Pin_2*%
%TO.N,Board_10-DIO*%
X157440000Y-88200000D03*
%TO.P,J1,3,Pin_3*%
%TO.N,Board_10-VCC33*%
X159980000Y-88200000D03*
%TO.P,J1,4,Pin_4*%
%TO.N,Board_10-GND*%
X162520000Y-88200000D03*
%TD*%
D12*
%TO.P,TH2,1*%
%TO.N,Board_3-Net-(J5-Pin_3)*%
X98457500Y-45130000D03*
D13*
%TO.P,TH2,2*%
%TO.N,Board_3-Net-(J5-Pin_2)*%
X100997500Y-45130000D03*
%TD*%
D10*
%TO.P,J4,1,Pin_1*%
%TO.N,Board_4-VCC33*%
X136420000Y-52200000D03*
D11*
%TO.P,J4,2,Pin_2*%
%TO.N,Board_4-GND*%
X138960000Y-52200000D03*
%TO.P,J4,3,Pin_3*%
%TO.N,Board_4-Net-(J4-Pin_3)*%
X141500000Y-52200000D03*
%TO.P,J4,4,Pin_4*%
%TO.N,Board_4-Net-(J4-Pin_4)*%
X144040000Y-52200000D03*
%TO.P,J4,5,Pin_5*%
%TO.N,Board_4-Net-(J4-Pin_5)*%
X146580000Y-52200000D03*
%TD*%
D10*
%TO.P,J3,1,Pin_1*%
%TO.N,Board_10-GND*%
X165700000Y-82000000D03*
%TD*%
D12*
%TO.P,TH2,1*%
%TO.N,Board_1-Net-(J5-Pin_3)*%
X138457500Y-27130000D03*
D13*
%TO.P,TH2,2*%
%TO.N,Board_1-Net-(J5-Pin_2)*%
X140997500Y-27130000D03*
%TD*%
D10*
%TO.P,J1,1,Pin_1*%
%TO.N,Board_1-Net-(J1-Pin_1)*%
X154900000Y-34200000D03*
D11*
%TO.P,J1,2,Pin_2*%
%TO.N,Board_1-DIO*%
X157440000Y-34200000D03*
%TO.P,J1,3,Pin_3*%
%TO.N,Board_1-VCC33*%
X159980000Y-34200000D03*
%TO.P,J1,4,Pin_4*%
%TO.N,Board_1-GND*%
X162520000Y-34200000D03*
%TD*%
D10*
%TO.P,J2,1,Pin_1*%
%TO.N,Board_3-Net-(J2-Pin_1)*%
X91300000Y-45600000D03*
%TD*%
%TO.P,J4,1,Pin_1*%
%TO.N,Board_5-VCC33*%
X176420000Y-52200000D03*
D11*
%TO.P,J4,2,Pin_2*%
%TO.N,Board_5-GND*%
X178960000Y-52200000D03*
%TO.P,J4,3,Pin_3*%
%TO.N,Board_5-Net-(J4-Pin_3)*%
X181500000Y-52200000D03*
%TO.P,J4,4,Pin_4*%
%TO.N,Board_5-Net-(J4-Pin_4)*%
X184040000Y-52200000D03*
%TO.P,J4,5,Pin_5*%
%TO.N,Board_5-Net-(J4-Pin_5)*%
X186580000Y-52200000D03*
%TD*%
D10*
%TO.P,J1,1,Pin_1*%
%TO.N,Board_4-Net-(J1-Pin_1)*%
X154900000Y-52200000D03*
D11*
%TO.P,J1,2,Pin_2*%
%TO.N,Board_4-DIO*%
X157440000Y-52200000D03*
%TO.P,J1,3,Pin_3*%
%TO.N,Board_4-VCC33*%
X159980000Y-52200000D03*
%TO.P,J1,4,Pin_4*%
%TO.N,Board_4-GND*%
X162520000Y-52200000D03*
%TD*%
D10*
%TO.P,J2,1,Pin_1*%
%TO.N,Board_7-Net-(J2-Pin_1)*%
X131300000Y-63600000D03*
%TD*%
D12*
%TO.P,TH2,1*%
%TO.N,Board_2-Net-(J5-Pin_3)*%
X178457500Y-27130000D03*
D13*
%TO.P,TH2,2*%
%TO.N,Board_2-Net-(J5-Pin_2)*%
X180997500Y-27130000D03*
%TD*%
D10*
%TO.P,J5,1,Pin_1*%
%TO.N,Board_11-GND*%
X175000000Y-83925000D03*
D11*
%TO.P,J5,2,Pin_2*%
%TO.N,Board_11-Net-(J5-Pin_2)*%
X175000000Y-81385000D03*
%TO.P,J5,3,Pin_3*%
%TO.N,Board_11-Net-(J5-Pin_3)*%
X175000000Y-78845000D03*
%TD*%
D10*
%TO.P,J5,1,Pin_1*%
%TO.N,Board_6-GND*%
X95000000Y-65925000D03*
D11*
%TO.P,J5,2,Pin_2*%
%TO.N,Board_6-Net-(J5-Pin_2)*%
X95000000Y-63385000D03*
%TO.P,J5,3,Pin_3*%
%TO.N,Board_6-Net-(J5-Pin_3)*%
X95000000Y-60845000D03*
%TD*%
D10*
%TO.P,J5,1,Pin_1*%
%TO.N,Board_5-GND*%
X175000000Y-47925000D03*
D11*
%TO.P,J5,2,Pin_2*%
%TO.N,Board_5-Net-(J5-Pin_2)*%
X175000000Y-45385000D03*
%TO.P,J5,3,Pin_3*%
%TO.N,Board_5-Net-(J5-Pin_3)*%
X175000000Y-42845000D03*
%TD*%
D10*
%TO.P,J2,1,Pin_1*%
%TO.N,Board_11-Net-(J2-Pin_1)*%
X171300000Y-81600000D03*
%TD*%
%TO.P,J1,1,Pin_1*%
%TO.N,Board_2-Net-(J1-Pin_1)*%
X194900000Y-34200000D03*
D11*
%TO.P,J1,2,Pin_2*%
%TO.N,Board_2-DIO*%
X197440000Y-34200000D03*
%TO.P,J1,3,Pin_3*%
%TO.N,Board_2-VCC33*%
X199980000Y-34200000D03*
%TO.P,J1,4,Pin_4*%
%TO.N,Board_2-GND*%
X202520000Y-34200000D03*
%TD*%
D10*
%TO.P,J3,1,Pin_1*%
%TO.N,Board_4-GND*%
X165700000Y-46000000D03*
%TD*%
%TO.P,J2,1,Pin_1*%
%TO.N,Board_1-Net-(J2-Pin_1)*%
X131300000Y-27600000D03*
%TD*%
%TO.P,J3,1,Pin_1*%
%TO.N,Board_9-GND*%
X125700000Y-82000000D03*
%TD*%
%TO.P,J4,1,Pin_1*%
%TO.N,Board_11-VCC33*%
X176420000Y-88200000D03*
D11*
%TO.P,J4,2,Pin_2*%
%TO.N,Board_11-GND*%
X178960000Y-88200000D03*
%TO.P,J4,3,Pin_3*%
%TO.N,Board_11-Net-(J4-Pin_3)*%
X181500000Y-88200000D03*
%TO.P,J4,4,Pin_4*%
%TO.N,Board_11-Net-(J4-Pin_4)*%
X184040000Y-88200000D03*
%TO.P,J4,5,Pin_5*%
%TO.N,Board_11-Net-(J4-Pin_5)*%
X186580000Y-88200000D03*
%TD*%
D10*
%TO.P,J1,1,Pin_1*%
%TO.N,Board_6-Net-(J1-Pin_1)*%
X114900000Y-70200000D03*
D11*
%TO.P,J1,2,Pin_2*%
%TO.N,Board_6-DIO*%
X117440000Y-70200000D03*
%TO.P,J1,3,Pin_3*%
%TO.N,Board_6-VCC33*%
X119980000Y-70200000D03*
%TO.P,J1,4,Pin_4*%
%TO.N,Board_6-GND*%
X122520000Y-70200000D03*
%TD*%
D14*
%TO.N,Board_0-DIO*%
X109674200Y-28647500D03*
%TO.N,Board_0-Net-(J1-Pin_1)*%
X111038300Y-31475100D03*
%TO.N,Board_0-Net-(J4-Pin_4)*%
X106413400Y-27960300D03*
%TO.N,Board_0-Net-(J4-Pin_5)*%
X105680200Y-27235100D03*
%TO.N,Board_0-VCC33*%
X104958800Y-22441800D03*
%TO.N,Board_1-DIO*%
X149674200Y-28647500D03*
%TO.N,Board_1-Net-(J1-Pin_1)*%
X151038300Y-31475100D03*
%TO.N,Board_1-Net-(J4-Pin_4)*%
X146413400Y-27960300D03*
%TO.N,Board_1-Net-(J4-Pin_5)*%
X145680200Y-27235100D03*
%TO.N,Board_1-VCC33*%
X144958800Y-22441800D03*
%TO.N,Board_2-DIO*%
X189674200Y-28647500D03*
%TO.N,Board_2-Net-(J1-Pin_1)*%
X191038300Y-31475100D03*
%TO.N,Board_2-Net-(J4-Pin_4)*%
X186413400Y-27960300D03*
%TO.N,Board_2-Net-(J4-Pin_5)*%
X185680200Y-27235100D03*
%TO.N,Board_2-VCC33*%
X184958800Y-22441800D03*
%TO.N,Board_3-DIO*%
X109674200Y-46647500D03*
%TO.N,Board_3-Net-(J1-Pin_1)*%
X111038300Y-49475100D03*
%TO.N,Board_3-Net-(J4-Pin_4)*%
X106413400Y-45960300D03*
%TO.N,Board_3-Net-(J4-Pin_5)*%
X105680200Y-45235100D03*
%TO.N,Board_3-VCC33*%
X104958800Y-40441800D03*
%TO.N,Board_4-DIO*%
X149674200Y-46647500D03*
%TO.N,Board_4-Net-(J1-Pin_1)*%
X151038300Y-49475100D03*
%TO.N,Board_4-Net-(J4-Pin_4)*%
X146413400Y-45960300D03*
%TO.N,Board_4-Net-(J4-Pin_5)*%
X145680200Y-45235100D03*
%TO.N,Board_4-VCC33*%
X144958800Y-40441800D03*
%TO.N,Board_5-DIO*%
X189674200Y-46647500D03*
%TO.N,Board_5-Net-(J1-Pin_1)*%
X191038300Y-49475100D03*
%TO.N,Board_5-Net-(J4-Pin_4)*%
X186413400Y-45960300D03*
%TO.N,Board_5-Net-(J4-Pin_5)*%
X185680200Y-45235100D03*
%TO.N,Board_5-VCC33*%
X184958800Y-40441800D03*
%TO.N,Board_6-DIO*%
X109674200Y-64647500D03*
%TO.N,Board_6-Net-(J1-Pin_1)*%
X111038300Y-67475100D03*
%TO.N,Board_6-Net-(J4-Pin_4)*%
X106413400Y-63960300D03*
%TO.N,Board_6-Net-(J4-Pin_5)*%
X105680200Y-63235100D03*
%TO.N,Board_6-VCC33*%
X104958800Y-58441800D03*
%TO.N,Board_7-DIO*%
X149674200Y-64647500D03*
%TO.N,Board_7-Net-(J1-Pin_1)*%
X151038300Y-67475100D03*
%TO.N,Board_7-Net-(J4-Pin_4)*%
X146413400Y-63960300D03*
%TO.N,Board_7-Net-(J4-Pin_5)*%
X145680200Y-63235100D03*
%TO.N,Board_7-VCC33*%
X144958800Y-58441800D03*
%TO.N,Board_8-DIO*%
X189674200Y-64647500D03*
%TO.N,Board_8-Net-(J1-Pin_1)*%
X191038300Y-67475100D03*
%TO.N,Board_8-Net-(J4-Pin_4)*%
X186413400Y-63960300D03*
%TO.N,Board_8-Net-(J4-Pin_5)*%
X185680200Y-63235100D03*
%TO.N,Board_8-VCC33*%
X184958800Y-58441800D03*
%TO.N,Board_9-DIO*%
X109674200Y-82647500D03*
%TO.N,Board_9-Net-(J1-Pin_1)*%
X111038300Y-85475100D03*
%TO.N,Board_9-Net-(J4-Pin_4)*%
X106413400Y-81960300D03*
%TO.N,Board_9-Net-(J4-Pin_5)*%
X105680200Y-81235100D03*
%TO.N,Board_9-VCC33*%
X104958800Y-76441800D03*
%TO.N,Board_10-DIO*%
X149674200Y-82647500D03*
%TO.N,Board_10-Net-(J1-Pin_1)*%
X151038300Y-85475100D03*
%TO.N,Board_10-Net-(J4-Pin_4)*%
X146413400Y-81960300D03*
%TO.N,Board_10-Net-(J4-Pin_5)*%
X145680200Y-81235100D03*
%TO.N,Board_10-VCC33*%
X144958800Y-76441800D03*
%TO.N,Board_11-DIO*%
X189674200Y-82647500D03*
%TO.N,Board_11-Net-(J1-Pin_1)*%
X191038300Y-85475100D03*
%TO.N,Board_11-Net-(J4-Pin_4)*%
X186413400Y-81960300D03*
%TO.N,Board_11-Net-(J4-Pin_5)*%
X185680200Y-81235100D03*
%TO.N,Board_11-VCC33*%
X184958800Y-76441800D03*
%TD*%
D15*
%TO.N,Board_0-DIO*%
X117440000Y-34200000D02*
X116264900Y-34200000D01*
X111520300Y-28647500D02*
X109674200Y-28647500D01*
X116264900Y-34200000D02*
X116264900Y-33392100D01*
X116264900Y-33392100D02*
X111520300Y-28647500D01*
%TO.N,Board_0-GND*%
X96175100Y-30240000D02*
X96175100Y-29925000D01*
X125700000Y-29844900D02*
X125700000Y-28000000D01*
X122520000Y-34200000D02*
X122520000Y-33024900D01*
X95000000Y-29925000D02*
X96175100Y-29925000D01*
X98960000Y-34200000D02*
X98960000Y-33024900D01*
X98960000Y-33024900D02*
X96175100Y-30240000D01*
X122520000Y-33024900D02*
X125700000Y-29844900D01*
%TO.N,Board_0-Net-(J1-Pin_1)*%
X113724900Y-34200000D02*
X113724900Y-34161700D01*
X113724900Y-34161700D02*
X111038300Y-31475100D01*
X114900000Y-34200000D02*
X113724900Y-34200000D01*
%TO.N,Board_0-Net-(J4-Pin_4)*%
X104040000Y-30333700D02*
X106413400Y-27960300D01*
X104040000Y-34200000D02*
X104040000Y-30333700D01*
%TO.N,Board_0-Net-(J4-Pin_5)*%
X106755800Y-27235100D02*
X105680200Y-27235100D01*
X107138600Y-32466300D02*
X107138600Y-27617900D01*
X107138600Y-27617900D02*
X106755800Y-27235100D01*
X106580000Y-33024900D02*
X107138600Y-32466300D01*
X106580000Y-34200000D02*
X106580000Y-33024900D01*
%TO.N,Board_0-Net-(J5-Pin_2)*%
X99872400Y-27310300D02*
X98884800Y-28297900D01*
X97088000Y-28297900D02*
X96175100Y-27385000D01*
X99872400Y-27130000D02*
X99872400Y-27310300D01*
X98884800Y-28297900D02*
X97088000Y-28297900D01*
X100997500Y-27130000D02*
X99872400Y-27130000D01*
X95000000Y-27385000D02*
X96175100Y-27385000D01*
%TO.N,Board_0-Net-(J5-Pin_3)*%
X95000000Y-24845000D02*
X96175100Y-24845000D01*
X96175100Y-24847600D02*
X98457500Y-27130000D01*
X96175100Y-24845000D02*
X96175100Y-24847600D01*
%TO.N,Board_0-VCC33*%
X100162400Y-34661700D02*
X100162400Y-31254300D01*
X119980000Y-34200000D02*
X118804900Y-34200000D01*
X96420000Y-34200000D02*
X97595100Y-34200000D01*
X97595100Y-34567300D02*
X98402900Y-35375100D01*
X104958800Y-26457900D02*
X111428000Y-26457900D01*
X118804900Y-33834800D02*
X118804900Y-34200000D01*
X97595100Y-34200000D02*
X97595100Y-34567300D01*
X98402900Y-35375100D02*
X99449000Y-35375100D01*
X99449000Y-35375100D02*
X100162400Y-34661700D01*
X100162400Y-31254300D02*
X104958800Y-26457900D01*
X111428000Y-26457900D02*
X118804900Y-33834800D01*
X104958800Y-26457900D02*
X104958800Y-22441800D01*
%TO.N,Board_1-DIO*%
X156264900Y-34200000D02*
X156264900Y-33392100D01*
X156264900Y-33392100D02*
X151520300Y-28647500D01*
X151520300Y-28647500D02*
X149674200Y-28647500D01*
X157440000Y-34200000D02*
X156264900Y-34200000D01*
%TO.N,Board_1-GND*%
X165700000Y-29844900D02*
X165700000Y-28000000D01*
X136175100Y-30240000D02*
X136175100Y-29925000D01*
X162520000Y-33024900D02*
X165700000Y-29844900D01*
X138960000Y-33024900D02*
X136175100Y-30240000D01*
X162520000Y-34200000D02*
X162520000Y-33024900D01*
X135000000Y-29925000D02*
X136175100Y-29925000D01*
X138960000Y-34200000D02*
X138960000Y-33024900D01*
%TO.N,Board_1-Net-(J1-Pin_1)*%
X153724900Y-34200000D02*
X153724900Y-34161700D01*
X153724900Y-34161700D02*
X151038300Y-31475100D01*
X154900000Y-34200000D02*
X153724900Y-34200000D01*
%TO.N,Board_1-Net-(J4-Pin_4)*%
X144040000Y-34200000D02*
X144040000Y-30333700D01*
X144040000Y-30333700D02*
X146413400Y-27960300D01*
%TO.N,Board_1-Net-(J4-Pin_5)*%
X146580000Y-34200000D02*
X146580000Y-33024900D01*
X146580000Y-33024900D02*
X147138600Y-32466300D01*
X147138600Y-32466300D02*
X147138600Y-27617900D01*
X146755800Y-27235100D02*
X145680200Y-27235100D01*
X147138600Y-27617900D02*
X146755800Y-27235100D01*
%TO.N,Board_1-Net-(J5-Pin_2)*%
X139872400Y-27310300D02*
X138884800Y-28297900D01*
X138884800Y-28297900D02*
X137088000Y-28297900D01*
X135000000Y-27385000D02*
X136175100Y-27385000D01*
X139872400Y-27130000D02*
X139872400Y-27310300D01*
X137088000Y-28297900D02*
X136175100Y-27385000D01*
X140997500Y-27130000D02*
X139872400Y-27130000D01*
%TO.N,Board_1-Net-(J5-Pin_3)*%
X135000000Y-24845000D02*
X136175100Y-24845000D01*
X136175100Y-24847600D02*
X138457500Y-27130000D01*
X136175100Y-24845000D02*
X136175100Y-24847600D01*
%TO.N,Board_1-VCC33*%
X140162400Y-31254300D02*
X144958800Y-26457900D01*
X158804900Y-33834800D02*
X158804900Y-34200000D01*
X137595100Y-34200000D02*
X137595100Y-34567300D01*
X159980000Y-34200000D02*
X158804900Y-34200000D01*
X136420000Y-34200000D02*
X137595100Y-34200000D01*
X140162400Y-34661700D02*
X140162400Y-31254300D01*
X137595100Y-34567300D02*
X138402900Y-35375100D01*
X151428000Y-26457900D02*
X158804900Y-33834800D01*
X139449000Y-35375100D02*
X140162400Y-34661700D01*
X144958800Y-26457900D02*
X144958800Y-22441800D01*
X144958800Y-26457900D02*
X151428000Y-26457900D01*
X138402900Y-35375100D02*
X139449000Y-35375100D01*
%TO.N,Board_2-DIO*%
X191520300Y-28647500D02*
X189674200Y-28647500D01*
X196264900Y-34200000D02*
X196264900Y-33392100D01*
X197440000Y-34200000D02*
X196264900Y-34200000D01*
X196264900Y-33392100D02*
X191520300Y-28647500D01*
%TO.N,Board_2-GND*%
X202520000Y-34200000D02*
X202520000Y-33024900D01*
X178960000Y-33024900D02*
X176175100Y-30240000D01*
X178960000Y-34200000D02*
X178960000Y-33024900D01*
X175000000Y-29925000D02*
X176175100Y-29925000D01*
X202520000Y-33024900D02*
X205700000Y-29844900D01*
X205700000Y-29844900D02*
X205700000Y-28000000D01*
X176175100Y-30240000D02*
X176175100Y-29925000D01*
%TO.N,Board_2-Net-(J1-Pin_1)*%
X193724900Y-34200000D02*
X193724900Y-34161700D01*
X194900000Y-34200000D02*
X193724900Y-34200000D01*
X193724900Y-34161700D02*
X191038300Y-31475100D01*
%TO.N,Board_2-Net-(J4-Pin_4)*%
X184040000Y-30333700D02*
X186413400Y-27960300D01*
X184040000Y-34200000D02*
X184040000Y-30333700D01*
%TO.N,Board_2-Net-(J4-Pin_5)*%
X186580000Y-33024900D02*
X187138600Y-32466300D01*
X187138600Y-27617900D02*
X186755800Y-27235100D01*
X186580000Y-34200000D02*
X186580000Y-33024900D01*
X186755800Y-27235100D02*
X185680200Y-27235100D01*
X187138600Y-32466300D02*
X187138600Y-27617900D01*
%TO.N,Board_2-Net-(J5-Pin_2)*%
X179872400Y-27310300D02*
X178884800Y-28297900D01*
X178884800Y-28297900D02*
X177088000Y-28297900D01*
X179872400Y-27130000D02*
X179872400Y-27310300D01*
X177088000Y-28297900D02*
X176175100Y-27385000D01*
X180997500Y-27130000D02*
X179872400Y-27130000D01*
X175000000Y-27385000D02*
X176175100Y-27385000D01*
%TO.N,Board_2-Net-(J5-Pin_3)*%
X176175100Y-24845000D02*
X176175100Y-24847600D01*
X176175100Y-24847600D02*
X178457500Y-27130000D01*
X175000000Y-24845000D02*
X176175100Y-24845000D01*
%TO.N,Board_2-VCC33*%
X184958800Y-26457900D02*
X184958800Y-22441800D01*
X180162400Y-31254300D02*
X184958800Y-26457900D01*
X179449000Y-35375100D02*
X180162400Y-34661700D01*
X177595100Y-34200000D02*
X177595100Y-34567300D01*
X199980000Y-34200000D02*
X198804900Y-34200000D01*
X178402900Y-35375100D02*
X179449000Y-35375100D01*
X198804900Y-33834800D02*
X198804900Y-34200000D01*
X176420000Y-34200000D02*
X177595100Y-34200000D01*
X191428000Y-26457900D02*
X198804900Y-33834800D01*
X177595100Y-34567300D02*
X178402900Y-35375100D01*
X184958800Y-26457900D02*
X191428000Y-26457900D01*
X180162400Y-34661700D02*
X180162400Y-31254300D01*
%TO.N,Board_3-DIO*%
X116264900Y-52200000D02*
X116264900Y-51392100D01*
X111520300Y-46647500D02*
X109674200Y-46647500D01*
X117440000Y-52200000D02*
X116264900Y-52200000D01*
X116264900Y-51392100D02*
X111520300Y-46647500D01*
%TO.N,Board_3-GND*%
X95000000Y-47925000D02*
X96175100Y-47925000D01*
X98960000Y-51024900D02*
X96175100Y-48240000D01*
X125700000Y-47844900D02*
X125700000Y-46000000D01*
X122520000Y-52200000D02*
X122520000Y-51024900D01*
X98960000Y-52200000D02*
X98960000Y-51024900D01*
X96175100Y-48240000D02*
X96175100Y-47925000D01*
X122520000Y-51024900D02*
X125700000Y-47844900D01*
%TO.N,Board_3-Net-(J1-Pin_1)*%
X113724900Y-52200000D02*
X113724900Y-52161700D01*
X114900000Y-52200000D02*
X113724900Y-52200000D01*
X113724900Y-52161700D02*
X111038300Y-49475100D01*
%TO.N,Board_3-Net-(J4-Pin_4)*%
X104040000Y-52200000D02*
X104040000Y-48333700D01*
X104040000Y-48333700D02*
X106413400Y-45960300D01*
%TO.N,Board_3-Net-(J4-Pin_5)*%
X107138600Y-50466300D02*
X107138600Y-45617900D01*
X106580000Y-52200000D02*
X106580000Y-51024900D01*
X106580000Y-51024900D02*
X107138600Y-50466300D01*
X106755800Y-45235100D02*
X105680200Y-45235100D01*
X107138600Y-45617900D02*
X106755800Y-45235100D01*
%TO.N,Board_3-Net-(J5-Pin_2)*%
X95000000Y-45385000D02*
X96175100Y-45385000D01*
X98884800Y-46297900D02*
X97088000Y-46297900D01*
X97088000Y-46297900D02*
X96175100Y-45385000D01*
X100997500Y-45130000D02*
X99872400Y-45130000D01*
X99872400Y-45310300D02*
X98884800Y-46297900D01*
X99872400Y-45130000D02*
X99872400Y-45310300D01*
%TO.N,Board_3-Net-(J5-Pin_3)*%
X95000000Y-42845000D02*
X96175100Y-42845000D01*
X96175100Y-42845000D02*
X96175100Y-42847600D01*
X96175100Y-42847600D02*
X98457500Y-45130000D01*
%TO.N,Board_3-VCC33*%
X98402900Y-53375100D02*
X99449000Y-53375100D01*
X100162400Y-49254300D02*
X104958800Y-44457900D01*
X97595100Y-52567300D02*
X98402900Y-53375100D01*
X99449000Y-53375100D02*
X100162400Y-52661700D01*
X119980000Y-52200000D02*
X118804900Y-52200000D01*
X97595100Y-52200000D02*
X97595100Y-52567300D01*
X104958800Y-44457900D02*
X111428000Y-44457900D01*
X100162400Y-52661700D02*
X100162400Y-49254300D01*
X96420000Y-52200000D02*
X97595100Y-52200000D01*
X104958800Y-44457900D02*
X104958800Y-40441800D01*
X111428000Y-44457900D02*
X118804900Y-51834800D01*
X118804900Y-51834800D02*
X118804900Y-52200000D01*
%TO.N,Board_4-DIO*%
X156264900Y-52200000D02*
X156264900Y-51392100D01*
X151520300Y-46647500D02*
X149674200Y-46647500D01*
X156264900Y-51392100D02*
X151520300Y-46647500D01*
X157440000Y-52200000D02*
X156264900Y-52200000D01*
%TO.N,Board_4-GND*%
X162520000Y-51024900D02*
X165700000Y-47844900D01*
X135000000Y-47925000D02*
X136175100Y-47925000D01*
X136175100Y-48240000D02*
X136175100Y-47925000D01*
X162520000Y-52200000D02*
X162520000Y-51024900D01*
X138960000Y-52200000D02*
X138960000Y-51024900D01*
X165700000Y-47844900D02*
X165700000Y-46000000D01*
X138960000Y-51024900D02*
X136175100Y-48240000D01*
%TO.N,Board_4-Net-(J1-Pin_1)*%
X153724900Y-52200000D02*
X153724900Y-52161700D01*
X154900000Y-52200000D02*
X153724900Y-52200000D01*
X153724900Y-52161700D02*
X151038300Y-49475100D01*
%TO.N,Board_4-Net-(J4-Pin_4)*%
X144040000Y-48333700D02*
X146413400Y-45960300D01*
X144040000Y-52200000D02*
X144040000Y-48333700D01*
%TO.N,Board_4-Net-(J4-Pin_5)*%
X146755800Y-45235100D02*
X145680200Y-45235100D01*
X147138600Y-45617900D02*
X146755800Y-45235100D01*
X146580000Y-51024900D02*
X147138600Y-50466300D01*
X146580000Y-52200000D02*
X146580000Y-51024900D01*
X147138600Y-50466300D02*
X147138600Y-45617900D01*
%TO.N,Board_4-Net-(J5-Pin_2)*%
X139872400Y-45130000D02*
X139872400Y-45310300D01*
X138884800Y-46297900D02*
X137088000Y-46297900D01*
X135000000Y-45385000D02*
X136175100Y-45385000D01*
X140997500Y-45130000D02*
X139872400Y-45130000D01*
X139872400Y-45310300D02*
X138884800Y-46297900D01*
X137088000Y-46297900D02*
X136175100Y-45385000D01*
%TO.N,Board_4-Net-(J5-Pin_3)*%
X136175100Y-42845000D02*
X136175100Y-42847600D01*
X136175100Y-42847600D02*
X138457500Y-45130000D01*
X135000000Y-42845000D02*
X136175100Y-42845000D01*
%TO.N,Board_4-VCC33*%
X144958800Y-44457900D02*
X151428000Y-44457900D01*
X140162400Y-49254300D02*
X144958800Y-44457900D01*
X140162400Y-52661700D02*
X140162400Y-49254300D01*
X137595100Y-52567300D02*
X138402900Y-53375100D01*
X139449000Y-53375100D02*
X140162400Y-52661700D01*
X144958800Y-44457900D02*
X144958800Y-40441800D01*
X136420000Y-52200000D02*
X137595100Y-52200000D01*
X158804900Y-51834800D02*
X158804900Y-52200000D01*
X151428000Y-44457900D02*
X158804900Y-51834800D01*
X159980000Y-52200000D02*
X158804900Y-52200000D01*
X138402900Y-53375100D02*
X139449000Y-53375100D01*
X137595100Y-52200000D02*
X137595100Y-52567300D01*
%TO.N,Board_5-DIO*%
X197440000Y-52200000D02*
X196264900Y-52200000D01*
X191520300Y-46647500D02*
X189674200Y-46647500D01*
X196264900Y-52200000D02*
X196264900Y-51392100D01*
X196264900Y-51392100D02*
X191520300Y-46647500D01*
%TO.N,Board_5-GND*%
X202520000Y-52200000D02*
X202520000Y-51024900D01*
X176175100Y-48240000D02*
X176175100Y-47925000D01*
X175000000Y-47925000D02*
X176175100Y-47925000D01*
X205700000Y-47844900D02*
X205700000Y-46000000D01*
X202520000Y-51024900D02*
X205700000Y-47844900D01*
X178960000Y-51024900D02*
X176175100Y-48240000D01*
X178960000Y-52200000D02*
X178960000Y-51024900D01*
%TO.N,Board_5-Net-(J1-Pin_1)*%
X193724900Y-52161700D02*
X191038300Y-49475100D01*
X194900000Y-52200000D02*
X193724900Y-52200000D01*
X193724900Y-52200000D02*
X193724900Y-52161700D01*
%TO.N,Board_5-Net-(J4-Pin_4)*%
X184040000Y-48333700D02*
X186413400Y-45960300D01*
X184040000Y-52200000D02*
X184040000Y-48333700D01*
%TO.N,Board_5-Net-(J4-Pin_5)*%
X186580000Y-51024900D02*
X187138600Y-50466300D01*
X187138600Y-45617900D02*
X186755800Y-45235100D01*
X186580000Y-52200000D02*
X186580000Y-51024900D01*
X186755800Y-45235100D02*
X185680200Y-45235100D01*
X187138600Y-50466300D02*
X187138600Y-45617900D01*
%TO.N,Board_5-Net-(J5-Pin_2)*%
X175000000Y-45385000D02*
X176175100Y-45385000D01*
X180997500Y-45130000D02*
X179872400Y-45130000D01*
X179872400Y-45310300D02*
X178884800Y-46297900D01*
X179872400Y-45130000D02*
X179872400Y-45310300D01*
X177088000Y-46297900D02*
X176175100Y-45385000D01*
X178884800Y-46297900D02*
X177088000Y-46297900D01*
%TO.N,Board_5-Net-(J5-Pin_3)*%
X176175100Y-42847600D02*
X178457500Y-45130000D01*
X175000000Y-42845000D02*
X176175100Y-42845000D01*
X176175100Y-42845000D02*
X176175100Y-42847600D01*
%TO.N,Board_5-VCC33*%
X179449000Y-53375100D02*
X180162400Y-52661700D01*
X184958800Y-44457900D02*
X184958800Y-40441800D01*
X177595100Y-52567300D02*
X178402900Y-53375100D01*
X177595100Y-52200000D02*
X177595100Y-52567300D01*
X191428000Y-44457900D02*
X198804900Y-51834800D01*
X180162400Y-49254300D02*
X184958800Y-44457900D01*
X176420000Y-52200000D02*
X177595100Y-52200000D01*
X198804900Y-51834800D02*
X198804900Y-52200000D01*
X180162400Y-52661700D02*
X180162400Y-49254300D01*
X178402900Y-53375100D02*
X179449000Y-53375100D01*
X184958800Y-44457900D02*
X191428000Y-44457900D01*
X199980000Y-52200000D02*
X198804900Y-52200000D01*
%TO.N,Board_6-DIO*%
X116264900Y-70200000D02*
X116264900Y-69392100D01*
X116264900Y-69392100D02*
X111520300Y-64647500D01*
X111520300Y-64647500D02*
X109674200Y-64647500D01*
X117440000Y-70200000D02*
X116264900Y-70200000D01*
%TO.N,Board_6-GND*%
X96175100Y-66240000D02*
X96175100Y-65925000D01*
X98960000Y-69024900D02*
X96175100Y-66240000D01*
X122520000Y-69024900D02*
X125700000Y-65844900D01*
X122520000Y-70200000D02*
X122520000Y-69024900D01*
X95000000Y-65925000D02*
X96175100Y-65925000D01*
X98960000Y-70200000D02*
X98960000Y-69024900D01*
X125700000Y-65844900D02*
X125700000Y-64000000D01*
%TO.N,Board_6-Net-(J1-Pin_1)*%
X113724900Y-70161700D02*
X111038300Y-67475100D01*
X113724900Y-70200000D02*
X113724900Y-70161700D01*
X114900000Y-70200000D02*
X113724900Y-70200000D01*
%TO.N,Board_6-Net-(J4-Pin_4)*%
X104040000Y-70200000D02*
X104040000Y-66333700D01*
X104040000Y-66333700D02*
X106413400Y-63960300D01*
%TO.N,Board_6-Net-(J4-Pin_5)*%
X106580000Y-70200000D02*
X106580000Y-69024900D01*
X107138600Y-63617900D02*
X106755800Y-63235100D01*
X107138600Y-68466300D02*
X107138600Y-63617900D01*
X106580000Y-69024900D02*
X107138600Y-68466300D01*
X106755800Y-63235100D02*
X105680200Y-63235100D01*
%TO.N,Board_6-Net-(J5-Pin_2)*%
X99872400Y-63310300D02*
X98884800Y-64297900D01*
X98884800Y-64297900D02*
X97088000Y-64297900D01*
X99872400Y-63130000D02*
X99872400Y-63310300D01*
X100997500Y-63130000D02*
X99872400Y-63130000D01*
X97088000Y-64297900D02*
X96175100Y-63385000D01*
X95000000Y-63385000D02*
X96175100Y-63385000D01*
%TO.N,Board_6-Net-(J5-Pin_3)*%
X96175100Y-60845000D02*
X96175100Y-60847600D01*
X96175100Y-60847600D02*
X98457500Y-63130000D01*
X95000000Y-60845000D02*
X96175100Y-60845000D01*
%TO.N,Board_6-VCC33*%
X111428000Y-62457900D02*
X118804900Y-69834800D01*
X119980000Y-70200000D02*
X118804900Y-70200000D01*
X100162400Y-70661700D02*
X100162400Y-67254300D01*
X104958800Y-62457900D02*
X104958800Y-58441800D01*
X104958800Y-62457900D02*
X111428000Y-62457900D01*
X97595100Y-70567300D02*
X98402900Y-71375100D01*
X98402900Y-71375100D02*
X99449000Y-71375100D01*
X97595100Y-70200000D02*
X97595100Y-70567300D01*
X118804900Y-69834800D02*
X118804900Y-70200000D01*
X96420000Y-70200000D02*
X97595100Y-70200000D01*
X99449000Y-71375100D02*
X100162400Y-70661700D01*
X100162400Y-67254300D02*
X104958800Y-62457900D01*
%TO.N,Board_7-DIO*%
X156264900Y-70200000D02*
X156264900Y-69392100D01*
X157440000Y-70200000D02*
X156264900Y-70200000D01*
X151520300Y-64647500D02*
X149674200Y-64647500D01*
X156264900Y-69392100D02*
X151520300Y-64647500D01*
%TO.N,Board_7-GND*%
X138960000Y-69024900D02*
X136175100Y-66240000D01*
X136175100Y-66240000D02*
X136175100Y-65925000D01*
X135000000Y-65925000D02*
X136175100Y-65925000D01*
X165700000Y-65844900D02*
X165700000Y-64000000D01*
X162520000Y-70200000D02*
X162520000Y-69024900D01*
X162520000Y-69024900D02*
X165700000Y-65844900D01*
X138960000Y-70200000D02*
X138960000Y-69024900D01*
%TO.N,Board_7-Net-(J1-Pin_1)*%
X154900000Y-70200000D02*
X153724900Y-70200000D01*
X153724900Y-70200000D02*
X153724900Y-70161700D01*
X153724900Y-70161700D02*
X151038300Y-67475100D01*
%TO.N,Board_7-Net-(J4-Pin_4)*%
X144040000Y-66333700D02*
X146413400Y-63960300D01*
X144040000Y-70200000D02*
X144040000Y-66333700D01*
%TO.N,Board_7-Net-(J4-Pin_5)*%
X146580000Y-70200000D02*
X146580000Y-69024900D01*
X146755800Y-63235100D02*
X145680200Y-63235100D01*
X147138600Y-68466300D02*
X147138600Y-63617900D01*
X146580000Y-69024900D02*
X147138600Y-68466300D01*
X147138600Y-63617900D02*
X146755800Y-63235100D01*
%TO.N,Board_7-Net-(J5-Pin_2)*%
X135000000Y-63385000D02*
X136175100Y-63385000D01*
X139872400Y-63130000D02*
X139872400Y-63310300D01*
X138884800Y-64297900D02*
X137088000Y-64297900D01*
X140997500Y-63130000D02*
X139872400Y-63130000D01*
X137088000Y-64297900D02*
X136175100Y-63385000D01*
X139872400Y-63310300D02*
X138884800Y-64297900D01*
%TO.N,Board_7-Net-(J5-Pin_3)*%
X136175100Y-60845000D02*
X136175100Y-60847600D01*
X136175100Y-60847600D02*
X138457500Y-63130000D01*
X135000000Y-60845000D02*
X136175100Y-60845000D01*
%TO.N,Board_7-VCC33*%
X138402900Y-71375100D02*
X139449000Y-71375100D01*
X158804900Y-69834800D02*
X158804900Y-70200000D01*
X137595100Y-70200000D02*
X137595100Y-70567300D01*
X140162400Y-67254300D02*
X144958800Y-62457900D01*
X151428000Y-62457900D02*
X158804900Y-69834800D01*
X137595100Y-70567300D02*
X138402900Y-71375100D01*
X139449000Y-71375100D02*
X140162400Y-70661700D01*
X136420000Y-70200000D02*
X137595100Y-70200000D01*
X140162400Y-70661700D02*
X140162400Y-67254300D01*
X144958800Y-62457900D02*
X151428000Y-62457900D01*
X159980000Y-70200000D02*
X158804900Y-70200000D01*
X144958800Y-62457900D02*
X144958800Y-58441800D01*
%TO.N,Board_8-DIO*%
X196264900Y-70200000D02*
X196264900Y-69392100D01*
X191520300Y-64647500D02*
X189674200Y-64647500D01*
X197440000Y-70200000D02*
X196264900Y-70200000D01*
X196264900Y-69392100D02*
X191520300Y-64647500D01*
%TO.N,Board_8-GND*%
X178960000Y-69024900D02*
X176175100Y-66240000D01*
X202520000Y-69024900D02*
X205700000Y-65844900D01*
X175000000Y-65925000D02*
X176175100Y-65925000D01*
X202520000Y-70200000D02*
X202520000Y-69024900D01*
X176175100Y-66240000D02*
X176175100Y-65925000D01*
X205700000Y-65844900D02*
X205700000Y-64000000D01*
X178960000Y-70200000D02*
X178960000Y-69024900D01*
%TO.N,Board_8-Net-(J1-Pin_1)*%
X193724900Y-70161700D02*
X191038300Y-67475100D01*
X193724900Y-70200000D02*
X193724900Y-70161700D01*
X194900000Y-70200000D02*
X193724900Y-70200000D01*
%TO.N,Board_8-Net-(J4-Pin_4)*%
X184040000Y-66333700D02*
X186413400Y-63960300D01*
X184040000Y-70200000D02*
X184040000Y-66333700D01*
%TO.N,Board_8-Net-(J4-Pin_5)*%
X187138600Y-68466300D02*
X187138600Y-63617900D01*
X186755800Y-63235100D02*
X185680200Y-63235100D01*
X186580000Y-70200000D02*
X186580000Y-69024900D01*
X186580000Y-69024900D02*
X187138600Y-68466300D01*
X187138600Y-63617900D02*
X186755800Y-63235100D01*
%TO.N,Board_8-Net-(J5-Pin_2)*%
X175000000Y-63385000D02*
X176175100Y-63385000D01*
X178884800Y-64297900D02*
X177088000Y-64297900D01*
X180997500Y-63130000D02*
X179872400Y-63130000D01*
X177088000Y-64297900D02*
X176175100Y-63385000D01*
X179872400Y-63130000D02*
X179872400Y-63310300D01*
X179872400Y-63310300D02*
X178884800Y-64297900D01*
%TO.N,Board_8-Net-(J5-Pin_3)*%
X176175100Y-60847600D02*
X178457500Y-63130000D01*
X176175100Y-60845000D02*
X176175100Y-60847600D01*
X175000000Y-60845000D02*
X176175100Y-60845000D01*
%TO.N,Board_8-VCC33*%
X176420000Y-70200000D02*
X177595100Y-70200000D01*
X180162400Y-70661700D02*
X180162400Y-67254300D01*
X198804900Y-69834800D02*
X198804900Y-70200000D01*
X184958800Y-62457900D02*
X191428000Y-62457900D01*
X199980000Y-70200000D02*
X198804900Y-70200000D01*
X184958800Y-62457900D02*
X184958800Y-58441800D01*
X180162400Y-67254300D02*
X184958800Y-62457900D01*
X178402900Y-71375100D02*
X179449000Y-71375100D01*
X177595100Y-70200000D02*
X177595100Y-70567300D01*
X177595100Y-70567300D02*
X178402900Y-71375100D01*
X179449000Y-71375100D02*
X180162400Y-70661700D01*
X191428000Y-62457900D02*
X198804900Y-69834800D01*
%TO.N,Board_9-DIO*%
X111520300Y-82647500D02*
X109674200Y-82647500D01*
X117440000Y-88200000D02*
X116264900Y-88200000D01*
X116264900Y-87392100D02*
X111520300Y-82647500D01*
X116264900Y-88200000D02*
X116264900Y-87392100D01*
%TO.N,Board_9-GND*%
X125700000Y-83844900D02*
X125700000Y-82000000D01*
X122520000Y-88200000D02*
X122520000Y-87024900D01*
X95000000Y-83925000D02*
X96175100Y-83925000D01*
X122520000Y-87024900D02*
X125700000Y-83844900D01*
X98960000Y-87024900D02*
X96175100Y-84240000D01*
X98960000Y-88200000D02*
X98960000Y-87024900D01*
X96175100Y-84240000D02*
X96175100Y-83925000D01*
%TO.N,Board_9-Net-(J1-Pin_1)*%
X114900000Y-88200000D02*
X113724900Y-88200000D01*
X113724900Y-88161700D02*
X111038300Y-85475100D01*
X113724900Y-88200000D02*
X113724900Y-88161700D01*
%TO.N,Board_9-Net-(J4-Pin_4)*%
X104040000Y-88200000D02*
X104040000Y-84333700D01*
X104040000Y-84333700D02*
X106413400Y-81960300D01*
%TO.N,Board_9-Net-(J4-Pin_5)*%
X106755800Y-81235100D02*
X105680200Y-81235100D01*
X107138600Y-81617900D02*
X106755800Y-81235100D01*
X106580000Y-87024900D02*
X107138600Y-86466300D01*
X107138600Y-86466300D02*
X107138600Y-81617900D01*
X106580000Y-88200000D02*
X106580000Y-87024900D01*
%TO.N,Board_9-Net-(J5-Pin_2)*%
X99872400Y-81310300D02*
X98884800Y-82297900D01*
X99872400Y-81130000D02*
X99872400Y-81310300D01*
X98884800Y-82297900D02*
X97088000Y-82297900D01*
X95000000Y-81385000D02*
X96175100Y-81385000D01*
X100997500Y-81130000D02*
X99872400Y-81130000D01*
X97088000Y-82297900D02*
X96175100Y-81385000D01*
%TO.N,Board_9-Net-(J5-Pin_3)*%
X96175100Y-78845000D02*
X96175100Y-78847600D01*
X95000000Y-78845000D02*
X96175100Y-78845000D01*
X96175100Y-78847600D02*
X98457500Y-81130000D01*
%TO.N,Board_9-VCC33*%
X97595100Y-88567300D02*
X98402900Y-89375100D01*
X118804900Y-87834800D02*
X118804900Y-88200000D01*
X100162400Y-85254300D02*
X104958800Y-80457900D01*
X96420000Y-88200000D02*
X97595100Y-88200000D01*
X99449000Y-89375100D02*
X100162400Y-88661700D01*
X104958800Y-80457900D02*
X104958800Y-76441800D01*
X119980000Y-88200000D02*
X118804900Y-88200000D01*
X111428000Y-80457900D02*
X118804900Y-87834800D01*
X97595100Y-88200000D02*
X97595100Y-88567300D01*
X98402900Y-89375100D02*
X99449000Y-89375100D01*
X104958800Y-80457900D02*
X111428000Y-80457900D01*
X100162400Y-88661700D02*
X100162400Y-85254300D01*
%TO.N,Board_10-DIO*%
X156264900Y-88200000D02*
X156264900Y-87392100D01*
X156264900Y-87392100D02*
X151520300Y-82647500D01*
X157440000Y-88200000D02*
X156264900Y-88200000D01*
X151520300Y-82647500D02*
X149674200Y-82647500D01*
%TO.N,Board_10-GND*%
X162520000Y-87024900D02*
X165700000Y-83844900D01*
X136175100Y-84240000D02*
X136175100Y-83925000D01*
X138960000Y-88200000D02*
X138960000Y-87024900D01*
X135000000Y-83925000D02*
X136175100Y-83925000D01*
X165700000Y-83844900D02*
X165700000Y-82000000D01*
X162520000Y-88200000D02*
X162520000Y-87024900D01*
X138960000Y-87024900D02*
X136175100Y-84240000D01*
%TO.N,Board_10-Net-(J1-Pin_1)*%
X153724900Y-88200000D02*
X153724900Y-88161700D01*
X154900000Y-88200000D02*
X153724900Y-88200000D01*
X153724900Y-88161700D02*
X151038300Y-85475100D01*
%TO.N,Board_10-Net-(J4-Pin_4)*%
X144040000Y-84333700D02*
X146413400Y-81960300D01*
X144040000Y-88200000D02*
X144040000Y-84333700D01*
%TO.N,Board_10-Net-(J4-Pin_5)*%
X146755800Y-81235100D02*
X145680200Y-81235100D01*
X146580000Y-87024900D02*
X147138600Y-86466300D01*
X147138600Y-86466300D02*
X147138600Y-81617900D01*
X146580000Y-88200000D02*
X146580000Y-87024900D01*
X147138600Y-81617900D02*
X146755800Y-81235100D01*
%TO.N,Board_10-Net-(J5-Pin_2)*%
X139872400Y-81130000D02*
X139872400Y-81310300D01*
X135000000Y-81385000D02*
X136175100Y-81385000D01*
X137088000Y-82297900D02*
X136175100Y-81385000D01*
X138884800Y-82297900D02*
X137088000Y-82297900D01*
X140997500Y-81130000D02*
X139872400Y-81130000D01*
X139872400Y-81310300D02*
X138884800Y-82297900D01*
%TO.N,Board_10-Net-(J5-Pin_3)*%
X136175100Y-78847600D02*
X138457500Y-81130000D01*
X135000000Y-78845000D02*
X136175100Y-78845000D01*
X136175100Y-78845000D02*
X136175100Y-78847600D01*
%TO.N,Board_10-VCC33*%
X136420000Y-88200000D02*
X137595100Y-88200000D01*
X137595100Y-88200000D02*
X137595100Y-88567300D01*
X140162400Y-88661700D02*
X140162400Y-85254300D01*
X159980000Y-88200000D02*
X158804900Y-88200000D01*
X140162400Y-85254300D02*
X144958800Y-80457900D01*
X158804900Y-87834800D02*
X158804900Y-88200000D01*
X137595100Y-88567300D02*
X138402900Y-89375100D01*
X139449000Y-89375100D02*
X140162400Y-88661700D01*
X151428000Y-80457900D02*
X158804900Y-87834800D01*
X138402900Y-89375100D02*
X139449000Y-89375100D01*
X144958800Y-80457900D02*
X144958800Y-76441800D01*
X144958800Y-80457900D02*
X151428000Y-80457900D01*
%TO.N,Board_11-DIO*%
X196264900Y-87392100D02*
X191520300Y-82647500D01*
X197440000Y-88200000D02*
X196264900Y-88200000D01*
X196264900Y-88200000D02*
X196264900Y-87392100D01*
X191520300Y-82647500D02*
X189674200Y-82647500D01*
%TO.N,Board_11-GND*%
X202520000Y-88200000D02*
X202520000Y-87024900D01*
X205700000Y-83844900D02*
X205700000Y-82000000D01*
X176175100Y-84240000D02*
X176175100Y-83925000D01*
X175000000Y-83925000D02*
X176175100Y-83925000D01*
X178960000Y-88200000D02*
X178960000Y-87024900D01*
X202520000Y-87024900D02*
X205700000Y-83844900D01*
X178960000Y-87024900D02*
X176175100Y-84240000D01*
%TO.N,Board_11-Net-(J1-Pin_1)*%
X193724900Y-88161700D02*
X191038300Y-85475100D01*
X193724900Y-88200000D02*
X193724900Y-88161700D01*
X194900000Y-88200000D02*
X193724900Y-88200000D01*
%TO.N,Board_11-Net-(J4-Pin_4)*%
X184040000Y-88200000D02*
X184040000Y-84333700D01*
X184040000Y-84333700D02*
X186413400Y-81960300D01*
%TO.N,Board_11-Net-(J4-Pin_5)*%
X186580000Y-87024900D02*
X187138600Y-86466300D01*
X186755800Y-81235100D02*
X185680200Y-81235100D01*
X186580000Y-88200000D02*
X186580000Y-87024900D01*
X187138600Y-81617900D02*
X186755800Y-81235100D01*
X187138600Y-86466300D02*
X187138600Y-81617900D01*
%TO.N,Board_11-Net-(J5-Pin_2)*%
X175000000Y-81385000D02*
X176175100Y-81385000D01*
X180997500Y-81130000D02*
X179872400Y-81130000D01*
X179872400Y-81310300D02*
X178884800Y-82297900D01*
X179872400Y-81130000D02*
X179872400Y-81310300D01*
X177088000Y-82297900D02*
X176175100Y-81385000D01*
X178884800Y-82297900D02*
X177088000Y-82297900D01*
%TO.N,Board_11-Net-(J5-Pin_3)*%
X176175100Y-78845000D02*
X176175100Y-78847600D01*
X175000000Y-78845000D02*
X176175100Y-78845000D01*
X176175100Y-78847600D02*
X178457500Y-81130000D01*
%TO.N,Board_11-VCC33*%
X180162400Y-85254300D02*
X184958800Y-80457900D01*
X179449000Y-89375100D02*
X180162400Y-88661700D01*
X184958800Y-80457900D02*
X191428000Y-80457900D01*
X177595100Y-88567300D02*
X178402900Y-89375100D01*
X178402900Y-89375100D02*
X179449000Y-89375100D01*
X180162400Y-88661700D02*
X180162400Y-85254300D01*
X184958800Y-80457900D02*
X184958800Y-76441800D01*
X176420000Y-88200000D02*
X177595100Y-88200000D01*
X198804900Y-87834800D02*
X198804900Y-88200000D01*
X177595100Y-88200000D02*
X177595100Y-88567300D01*
X199980000Y-88200000D02*
X198804900Y-88200000D01*
X191428000Y-80457900D02*
X198804900Y-87834800D01*
%TD*%
M02*
