G04 EAGLE Gerber RS-274X export*
G75*
%MOMM*%
%FSLAX34Y34*%
%LPD*%
%INSilkscreen Top*%
%IPPOS*%
%AMOC8*
5,1,8,0,0,1.08239X$1,22.5*%
G01*
%ADD10C,0.152400*%
%ADD11C,0.127000*%
%ADD12R,1.270000X8.890000*%
%ADD13R,1.270000X7.620000*%
%ADD14C,0.050800*%
%ADD15C,0.076200*%
%ADD16C,0.101600*%


D10*
X171450Y279400D02*
X184150Y279400D01*
X190500Y273050D01*
X190500Y260350D02*
X184150Y254000D01*
X190500Y273050D02*
X196850Y279400D01*
X209550Y279400D01*
X215900Y273050D01*
X215900Y260350D02*
X209550Y254000D01*
X196850Y254000D01*
X190500Y260350D01*
X165100Y260350D02*
X165100Y273050D01*
X171450Y279400D01*
X165100Y260350D02*
X171450Y254000D01*
X184150Y254000D01*
X215900Y273050D02*
X222250Y279400D01*
X234950Y279400D01*
X241300Y273050D01*
X241300Y260350D02*
X234950Y254000D01*
X222250Y254000D01*
X215900Y260350D01*
X241300Y260350D02*
X241300Y273050D01*
D11*
X156210Y272415D02*
X153035Y269875D01*
X156210Y272415D02*
X156210Y260985D01*
X153035Y260985D02*
X159385Y260985D01*
X167005Y283845D02*
X167005Y295275D01*
X165735Y283845D02*
X168275Y283845D01*
X168275Y295275D02*
X165735Y295275D01*
X173355Y295275D02*
X173355Y283845D01*
X179705Y283845D02*
X173355Y295275D01*
X179705Y295275D02*
X179705Y283845D01*
X187669Y283845D02*
X190209Y283845D01*
X187669Y283845D02*
X187569Y283847D01*
X187470Y283853D01*
X187370Y283863D01*
X187272Y283876D01*
X187173Y283894D01*
X187076Y283915D01*
X186980Y283940D01*
X186884Y283969D01*
X186790Y284002D01*
X186697Y284038D01*
X186606Y284078D01*
X186516Y284122D01*
X186428Y284169D01*
X186342Y284219D01*
X186258Y284273D01*
X186176Y284330D01*
X186097Y284390D01*
X186019Y284454D01*
X185945Y284520D01*
X185873Y284589D01*
X185804Y284661D01*
X185738Y284735D01*
X185674Y284813D01*
X185614Y284892D01*
X185557Y284974D01*
X185503Y285058D01*
X185453Y285144D01*
X185406Y285232D01*
X185362Y285322D01*
X185322Y285413D01*
X185286Y285506D01*
X185253Y285600D01*
X185224Y285696D01*
X185199Y285792D01*
X185178Y285889D01*
X185160Y285988D01*
X185147Y286086D01*
X185137Y286186D01*
X185131Y286285D01*
X185129Y286385D01*
X185129Y292735D01*
X185131Y292835D01*
X185137Y292934D01*
X185147Y293034D01*
X185160Y293132D01*
X185178Y293231D01*
X185199Y293328D01*
X185224Y293424D01*
X185253Y293520D01*
X185286Y293614D01*
X185322Y293707D01*
X185362Y293798D01*
X185406Y293888D01*
X185453Y293976D01*
X185503Y294062D01*
X185557Y294146D01*
X185614Y294228D01*
X185674Y294307D01*
X185738Y294385D01*
X185804Y294459D01*
X185873Y294531D01*
X185945Y294600D01*
X186019Y294666D01*
X186097Y294730D01*
X186176Y294790D01*
X186258Y294847D01*
X186342Y294901D01*
X186428Y294951D01*
X186516Y294998D01*
X186606Y295042D01*
X186697Y295082D01*
X186790Y295118D01*
X186884Y295151D01*
X186980Y295180D01*
X187076Y295205D01*
X187173Y295226D01*
X187272Y295244D01*
X187370Y295257D01*
X187470Y295267D01*
X187569Y295273D01*
X187669Y295275D01*
X190209Y295275D01*
X194691Y292100D02*
X194691Y287020D01*
X194691Y292100D02*
X194693Y292211D01*
X194699Y292321D01*
X194708Y292432D01*
X194722Y292542D01*
X194739Y292651D01*
X194760Y292760D01*
X194785Y292868D01*
X194814Y292975D01*
X194846Y293081D01*
X194882Y293186D01*
X194922Y293289D01*
X194965Y293391D01*
X195012Y293492D01*
X195063Y293591D01*
X195116Y293688D01*
X195173Y293782D01*
X195234Y293875D01*
X195297Y293966D01*
X195364Y294055D01*
X195434Y294141D01*
X195507Y294224D01*
X195582Y294306D01*
X195660Y294384D01*
X195742Y294459D01*
X195825Y294532D01*
X195911Y294602D01*
X196000Y294669D01*
X196091Y294732D01*
X196184Y294793D01*
X196279Y294850D01*
X196375Y294903D01*
X196474Y294954D01*
X196575Y295001D01*
X196677Y295044D01*
X196780Y295084D01*
X196885Y295120D01*
X196991Y295152D01*
X197098Y295181D01*
X197206Y295206D01*
X197315Y295227D01*
X197424Y295244D01*
X197534Y295258D01*
X197645Y295267D01*
X197755Y295273D01*
X197866Y295275D01*
X197977Y295273D01*
X198087Y295267D01*
X198198Y295258D01*
X198308Y295244D01*
X198417Y295227D01*
X198526Y295206D01*
X198634Y295181D01*
X198741Y295152D01*
X198847Y295120D01*
X198952Y295084D01*
X199055Y295044D01*
X199157Y295001D01*
X199258Y294954D01*
X199357Y294903D01*
X199454Y294850D01*
X199548Y294793D01*
X199641Y294732D01*
X199732Y294669D01*
X199821Y294602D01*
X199907Y294532D01*
X199990Y294459D01*
X200072Y294384D01*
X200150Y294306D01*
X200225Y294224D01*
X200298Y294141D01*
X200368Y294055D01*
X200435Y293966D01*
X200498Y293875D01*
X200559Y293782D01*
X200616Y293688D01*
X200669Y293591D01*
X200720Y293492D01*
X200767Y293391D01*
X200810Y293289D01*
X200850Y293186D01*
X200886Y293081D01*
X200918Y292975D01*
X200947Y292868D01*
X200972Y292760D01*
X200993Y292651D01*
X201010Y292542D01*
X201024Y292432D01*
X201033Y292321D01*
X201039Y292211D01*
X201041Y292100D01*
X201041Y287020D01*
X201039Y286909D01*
X201033Y286799D01*
X201024Y286688D01*
X201010Y286578D01*
X200993Y286469D01*
X200972Y286360D01*
X200947Y286252D01*
X200918Y286145D01*
X200886Y286039D01*
X200850Y285934D01*
X200810Y285831D01*
X200767Y285729D01*
X200720Y285628D01*
X200669Y285529D01*
X200616Y285432D01*
X200559Y285338D01*
X200498Y285245D01*
X200435Y285154D01*
X200368Y285065D01*
X200298Y284979D01*
X200225Y284896D01*
X200150Y284814D01*
X200072Y284736D01*
X199990Y284661D01*
X199907Y284588D01*
X199821Y284518D01*
X199732Y284451D01*
X199641Y284388D01*
X199548Y284327D01*
X199453Y284270D01*
X199357Y284217D01*
X199258Y284166D01*
X199157Y284119D01*
X199055Y284076D01*
X198952Y284036D01*
X198847Y284000D01*
X198741Y283968D01*
X198634Y283939D01*
X198526Y283914D01*
X198417Y283893D01*
X198308Y283876D01*
X198198Y283862D01*
X198087Y283853D01*
X197977Y283847D01*
X197866Y283845D01*
X197755Y283847D01*
X197645Y283853D01*
X197534Y283862D01*
X197424Y283876D01*
X197315Y283893D01*
X197206Y283914D01*
X197098Y283939D01*
X196991Y283968D01*
X196885Y284000D01*
X196780Y284036D01*
X196677Y284076D01*
X196575Y284119D01*
X196474Y284166D01*
X196375Y284217D01*
X196279Y284270D01*
X196184Y284327D01*
X196091Y284388D01*
X196000Y284451D01*
X195911Y284518D01*
X195825Y284588D01*
X195742Y284661D01*
X195660Y284736D01*
X195582Y284814D01*
X195507Y284896D01*
X195434Y284979D01*
X195364Y285065D01*
X195297Y285154D01*
X195234Y285245D01*
X195173Y285338D01*
X195116Y285433D01*
X195063Y285529D01*
X195012Y285628D01*
X194965Y285729D01*
X194922Y285831D01*
X194882Y285934D01*
X194846Y286039D01*
X194814Y286145D01*
X194785Y286252D01*
X194760Y286360D01*
X194739Y286469D01*
X194722Y286578D01*
X194708Y286688D01*
X194699Y286799D01*
X194693Y286909D01*
X194691Y287020D01*
X206629Y283845D02*
X206629Y295275D01*
X210439Y288925D01*
X214249Y295275D01*
X214249Y283845D01*
X220726Y283845D02*
X220726Y295275D01*
X219456Y283845D02*
X221996Y283845D01*
X221996Y295275D02*
X219456Y295275D01*
X227076Y295275D02*
X227076Y283845D01*
X233426Y283845D02*
X227076Y295275D01*
X233426Y295275D02*
X233426Y283845D01*
X243713Y290195D02*
X245618Y290195D01*
X245618Y283845D01*
X241808Y283845D01*
X241708Y283847D01*
X241609Y283853D01*
X241509Y283863D01*
X241411Y283876D01*
X241312Y283894D01*
X241215Y283915D01*
X241119Y283940D01*
X241023Y283969D01*
X240929Y284002D01*
X240836Y284038D01*
X240745Y284078D01*
X240655Y284122D01*
X240567Y284169D01*
X240481Y284219D01*
X240397Y284273D01*
X240315Y284330D01*
X240236Y284390D01*
X240158Y284454D01*
X240084Y284520D01*
X240012Y284589D01*
X239943Y284661D01*
X239877Y284735D01*
X239813Y284813D01*
X239753Y284892D01*
X239696Y284974D01*
X239642Y285058D01*
X239592Y285144D01*
X239545Y285232D01*
X239501Y285322D01*
X239461Y285413D01*
X239425Y285506D01*
X239392Y285600D01*
X239363Y285696D01*
X239338Y285792D01*
X239317Y285889D01*
X239299Y285988D01*
X239286Y286086D01*
X239276Y286186D01*
X239270Y286285D01*
X239268Y286385D01*
X239268Y292735D01*
X239270Y292835D01*
X239276Y292934D01*
X239286Y293034D01*
X239299Y293132D01*
X239317Y293231D01*
X239338Y293328D01*
X239363Y293424D01*
X239392Y293520D01*
X239425Y293614D01*
X239461Y293707D01*
X239501Y293798D01*
X239545Y293888D01*
X239592Y293976D01*
X239642Y294062D01*
X239696Y294146D01*
X239753Y294228D01*
X239813Y294307D01*
X239877Y294385D01*
X239943Y294459D01*
X240012Y294531D01*
X240084Y294600D01*
X240158Y294666D01*
X240236Y294730D01*
X240315Y294790D01*
X240397Y294847D01*
X240481Y294901D01*
X240567Y294951D01*
X240655Y294998D01*
X240745Y295042D01*
X240836Y295082D01*
X240929Y295118D01*
X241023Y295151D01*
X241119Y295180D01*
X241215Y295205D01*
X241312Y295226D01*
X241411Y295244D01*
X241509Y295257D01*
X241609Y295267D01*
X241708Y295273D01*
X241808Y295275D01*
X245618Y295275D01*
D10*
X82550Y279400D02*
X69850Y279400D01*
X82550Y279400D02*
X88900Y273050D01*
X88900Y260350D02*
X82550Y254000D01*
X88900Y273050D02*
X95250Y279400D01*
X107950Y279400D01*
X114300Y273050D01*
X114300Y260350D02*
X107950Y254000D01*
X95250Y254000D01*
X88900Y260350D01*
X63500Y260350D02*
X63500Y273050D01*
X69850Y279400D01*
X63500Y260350D02*
X69850Y254000D01*
X82550Y254000D01*
X114300Y273050D02*
X120650Y279400D01*
X133350Y279400D01*
X139700Y273050D01*
X139700Y260350D02*
X133350Y254000D01*
X120650Y254000D01*
X114300Y260350D01*
X139700Y260350D02*
X139700Y273050D01*
D11*
X54610Y272415D02*
X51435Y269875D01*
X54610Y272415D02*
X54610Y260985D01*
X51435Y260985D02*
X57785Y260985D01*
X67945Y283845D02*
X68045Y283847D01*
X68144Y283853D01*
X68244Y283863D01*
X68342Y283876D01*
X68441Y283894D01*
X68538Y283915D01*
X68634Y283940D01*
X68730Y283969D01*
X68824Y284002D01*
X68917Y284038D01*
X69008Y284078D01*
X69098Y284122D01*
X69186Y284169D01*
X69272Y284219D01*
X69356Y284273D01*
X69438Y284330D01*
X69517Y284390D01*
X69595Y284454D01*
X69669Y284520D01*
X69741Y284589D01*
X69810Y284661D01*
X69876Y284735D01*
X69940Y284813D01*
X70000Y284892D01*
X70057Y284974D01*
X70111Y285058D01*
X70161Y285144D01*
X70208Y285232D01*
X70252Y285322D01*
X70292Y285413D01*
X70328Y285506D01*
X70361Y285600D01*
X70390Y285696D01*
X70415Y285792D01*
X70436Y285889D01*
X70454Y285988D01*
X70467Y286086D01*
X70477Y286186D01*
X70483Y286285D01*
X70485Y286385D01*
X67945Y283845D02*
X67804Y283847D01*
X67663Y283852D01*
X67522Y283862D01*
X67381Y283875D01*
X67241Y283891D01*
X67101Y283912D01*
X66962Y283936D01*
X66823Y283964D01*
X66686Y283995D01*
X66549Y284030D01*
X66413Y284068D01*
X66278Y284110D01*
X66145Y284156D01*
X66012Y284205D01*
X65881Y284258D01*
X65752Y284314D01*
X65623Y284373D01*
X65497Y284436D01*
X65372Y284502D01*
X65249Y284571D01*
X65128Y284644D01*
X65009Y284720D01*
X64891Y284799D01*
X64776Y284880D01*
X64664Y284965D01*
X64553Y285053D01*
X64445Y285144D01*
X64339Y285237D01*
X64236Y285334D01*
X64135Y285433D01*
X64453Y292735D02*
X64455Y292835D01*
X64461Y292934D01*
X64471Y293034D01*
X64484Y293132D01*
X64502Y293231D01*
X64523Y293328D01*
X64548Y293424D01*
X64577Y293520D01*
X64610Y293614D01*
X64646Y293707D01*
X64686Y293798D01*
X64730Y293888D01*
X64777Y293976D01*
X64827Y294062D01*
X64881Y294146D01*
X64938Y294228D01*
X64998Y294307D01*
X65062Y294385D01*
X65128Y294459D01*
X65197Y294531D01*
X65269Y294600D01*
X65343Y294666D01*
X65421Y294730D01*
X65500Y294790D01*
X65582Y294847D01*
X65666Y294901D01*
X65752Y294951D01*
X65840Y294998D01*
X65930Y295042D01*
X66021Y295082D01*
X66114Y295118D01*
X66208Y295151D01*
X66304Y295180D01*
X66400Y295205D01*
X66497Y295226D01*
X66596Y295244D01*
X66694Y295257D01*
X66794Y295267D01*
X66893Y295273D01*
X66993Y295275D01*
X66993Y295276D02*
X67126Y295274D01*
X67259Y295269D01*
X67392Y295259D01*
X67525Y295246D01*
X67657Y295229D01*
X67789Y295209D01*
X67920Y295185D01*
X68050Y295157D01*
X68180Y295126D01*
X68308Y295091D01*
X68436Y295052D01*
X68562Y295010D01*
X68687Y294964D01*
X68811Y294915D01*
X68934Y294863D01*
X69055Y294807D01*
X69174Y294747D01*
X69292Y294685D01*
X69407Y294619D01*
X69521Y294550D01*
X69633Y294477D01*
X69743Y294402D01*
X69851Y294323D01*
X65722Y290512D02*
X65638Y290564D01*
X65555Y290619D01*
X65475Y290678D01*
X65397Y290739D01*
X65322Y290803D01*
X65249Y290871D01*
X65178Y290941D01*
X65111Y291013D01*
X65046Y291088D01*
X64984Y291166D01*
X64925Y291246D01*
X64869Y291328D01*
X64817Y291412D01*
X64768Y291498D01*
X64722Y291586D01*
X64679Y291676D01*
X64640Y291767D01*
X64605Y291860D01*
X64573Y291954D01*
X64545Y292049D01*
X64520Y292145D01*
X64500Y292242D01*
X64482Y292340D01*
X64469Y292438D01*
X64460Y292537D01*
X64454Y292636D01*
X64452Y292735D01*
X69215Y288608D02*
X69299Y288556D01*
X69382Y288501D01*
X69462Y288442D01*
X69540Y288381D01*
X69615Y288317D01*
X69688Y288249D01*
X69759Y288179D01*
X69826Y288107D01*
X69891Y288032D01*
X69953Y287954D01*
X70012Y287874D01*
X70068Y287792D01*
X70120Y287708D01*
X70169Y287622D01*
X70215Y287534D01*
X70258Y287444D01*
X70297Y287353D01*
X70332Y287260D01*
X70364Y287166D01*
X70392Y287071D01*
X70417Y286975D01*
X70437Y286878D01*
X70455Y286780D01*
X70468Y286682D01*
X70477Y286583D01*
X70483Y286484D01*
X70485Y286385D01*
X69215Y288608D02*
X65723Y290513D01*
X75590Y283845D02*
X80670Y283845D01*
X75590Y283845D02*
X75590Y295275D01*
X80670Y295275D01*
X79400Y290195D02*
X75590Y290195D01*
X85554Y295275D02*
X85554Y283845D01*
X85554Y295275D02*
X88729Y295275D01*
X88840Y295273D01*
X88950Y295267D01*
X89061Y295258D01*
X89171Y295244D01*
X89280Y295227D01*
X89389Y295206D01*
X89497Y295181D01*
X89604Y295152D01*
X89710Y295120D01*
X89815Y295084D01*
X89918Y295044D01*
X90020Y295001D01*
X90121Y294954D01*
X90220Y294903D01*
X90317Y294850D01*
X90411Y294793D01*
X90504Y294732D01*
X90595Y294669D01*
X90684Y294602D01*
X90770Y294532D01*
X90853Y294459D01*
X90935Y294384D01*
X91013Y294306D01*
X91088Y294224D01*
X91161Y294141D01*
X91231Y294055D01*
X91298Y293966D01*
X91361Y293875D01*
X91422Y293782D01*
X91479Y293687D01*
X91532Y293591D01*
X91583Y293492D01*
X91630Y293391D01*
X91673Y293289D01*
X91713Y293186D01*
X91749Y293081D01*
X91781Y292975D01*
X91810Y292868D01*
X91835Y292760D01*
X91856Y292651D01*
X91873Y292542D01*
X91887Y292432D01*
X91896Y292321D01*
X91902Y292211D01*
X91904Y292100D01*
X91902Y291989D01*
X91896Y291879D01*
X91887Y291768D01*
X91873Y291658D01*
X91856Y291549D01*
X91835Y291440D01*
X91810Y291332D01*
X91781Y291225D01*
X91749Y291119D01*
X91713Y291014D01*
X91673Y290911D01*
X91630Y290809D01*
X91583Y290708D01*
X91532Y290609D01*
X91479Y290512D01*
X91422Y290418D01*
X91361Y290325D01*
X91298Y290234D01*
X91231Y290145D01*
X91161Y290059D01*
X91088Y289976D01*
X91013Y289894D01*
X90935Y289816D01*
X90853Y289741D01*
X90770Y289668D01*
X90684Y289598D01*
X90595Y289531D01*
X90504Y289468D01*
X90411Y289407D01*
X90316Y289350D01*
X90220Y289297D01*
X90121Y289246D01*
X90020Y289199D01*
X89918Y289156D01*
X89815Y289116D01*
X89710Y289080D01*
X89604Y289048D01*
X89497Y289019D01*
X89389Y288994D01*
X89280Y288973D01*
X89171Y288956D01*
X89061Y288942D01*
X88950Y288933D01*
X88840Y288927D01*
X88729Y288925D01*
X85554Y288925D01*
X89364Y288925D02*
X91904Y283845D01*
X100076Y283845D02*
X96266Y295275D01*
X103886Y295275D02*
X100076Y283845D01*
X108331Y287020D02*
X108331Y292100D01*
X108333Y292211D01*
X108339Y292321D01*
X108348Y292432D01*
X108362Y292542D01*
X108379Y292651D01*
X108400Y292760D01*
X108425Y292868D01*
X108454Y292975D01*
X108486Y293081D01*
X108522Y293186D01*
X108562Y293289D01*
X108605Y293391D01*
X108652Y293492D01*
X108703Y293591D01*
X108756Y293688D01*
X108813Y293782D01*
X108874Y293875D01*
X108937Y293966D01*
X109004Y294055D01*
X109074Y294141D01*
X109147Y294224D01*
X109222Y294306D01*
X109300Y294384D01*
X109382Y294459D01*
X109465Y294532D01*
X109551Y294602D01*
X109640Y294669D01*
X109731Y294732D01*
X109824Y294793D01*
X109919Y294850D01*
X110015Y294903D01*
X110114Y294954D01*
X110215Y295001D01*
X110317Y295044D01*
X110420Y295084D01*
X110525Y295120D01*
X110631Y295152D01*
X110738Y295181D01*
X110846Y295206D01*
X110955Y295227D01*
X111064Y295244D01*
X111174Y295258D01*
X111285Y295267D01*
X111395Y295273D01*
X111506Y295275D01*
X111617Y295273D01*
X111727Y295267D01*
X111838Y295258D01*
X111948Y295244D01*
X112057Y295227D01*
X112166Y295206D01*
X112274Y295181D01*
X112381Y295152D01*
X112487Y295120D01*
X112592Y295084D01*
X112695Y295044D01*
X112797Y295001D01*
X112898Y294954D01*
X112997Y294903D01*
X113094Y294850D01*
X113188Y294793D01*
X113281Y294732D01*
X113372Y294669D01*
X113461Y294602D01*
X113547Y294532D01*
X113630Y294459D01*
X113712Y294384D01*
X113790Y294306D01*
X113865Y294224D01*
X113938Y294141D01*
X114008Y294055D01*
X114075Y293966D01*
X114138Y293875D01*
X114199Y293782D01*
X114256Y293688D01*
X114309Y293591D01*
X114360Y293492D01*
X114407Y293391D01*
X114450Y293289D01*
X114490Y293186D01*
X114526Y293081D01*
X114558Y292975D01*
X114587Y292868D01*
X114612Y292760D01*
X114633Y292651D01*
X114650Y292542D01*
X114664Y292432D01*
X114673Y292321D01*
X114679Y292211D01*
X114681Y292100D01*
X114681Y287020D01*
X114679Y286909D01*
X114673Y286799D01*
X114664Y286688D01*
X114650Y286578D01*
X114633Y286469D01*
X114612Y286360D01*
X114587Y286252D01*
X114558Y286145D01*
X114526Y286039D01*
X114490Y285934D01*
X114450Y285831D01*
X114407Y285729D01*
X114360Y285628D01*
X114309Y285529D01*
X114256Y285432D01*
X114199Y285338D01*
X114138Y285245D01*
X114075Y285154D01*
X114008Y285065D01*
X113938Y284979D01*
X113865Y284896D01*
X113790Y284814D01*
X113712Y284736D01*
X113630Y284661D01*
X113547Y284588D01*
X113461Y284518D01*
X113372Y284451D01*
X113281Y284388D01*
X113188Y284327D01*
X113093Y284270D01*
X112997Y284217D01*
X112898Y284166D01*
X112797Y284119D01*
X112695Y284076D01*
X112592Y284036D01*
X112487Y284000D01*
X112381Y283968D01*
X112274Y283939D01*
X112166Y283914D01*
X112057Y283893D01*
X111948Y283876D01*
X111838Y283862D01*
X111727Y283853D01*
X111617Y283847D01*
X111506Y283845D01*
X111395Y283847D01*
X111285Y283853D01*
X111174Y283862D01*
X111064Y283876D01*
X110955Y283893D01*
X110846Y283914D01*
X110738Y283939D01*
X110631Y283968D01*
X110525Y284000D01*
X110420Y284036D01*
X110317Y284076D01*
X110215Y284119D01*
X110114Y284166D01*
X110015Y284217D01*
X109919Y284270D01*
X109824Y284327D01*
X109731Y284388D01*
X109640Y284451D01*
X109551Y284518D01*
X109465Y284588D01*
X109382Y284661D01*
X109300Y284736D01*
X109222Y284814D01*
X109147Y284896D01*
X109074Y284979D01*
X109004Y285065D01*
X108937Y285154D01*
X108874Y285245D01*
X108813Y285338D01*
X108756Y285433D01*
X108703Y285529D01*
X108652Y285628D01*
X108605Y285729D01*
X108562Y285831D01*
X108522Y285934D01*
X108486Y286039D01*
X108454Y286145D01*
X108425Y286252D01*
X108400Y286360D01*
X108379Y286469D01*
X108362Y286578D01*
X108348Y286688D01*
X108339Y286799D01*
X108333Y286909D01*
X108331Y287020D01*
X50800Y228600D02*
X50800Y50800D01*
X50800Y228600D02*
X241300Y228600D01*
X241300Y50800D01*
X203200Y50800D01*
X203200Y-38100D01*
X88900Y-38100D01*
X88900Y50800D01*
X50800Y50800D01*
D12*
X107950Y6350D03*
D13*
X133350Y12700D03*
X158750Y12700D03*
D12*
X184150Y6350D03*
D14*
X197104Y196342D02*
X197104Y201930D01*
X198656Y201930D01*
X198733Y201928D01*
X198811Y201922D01*
X198887Y201913D01*
X198964Y201899D01*
X199039Y201882D01*
X199113Y201861D01*
X199187Y201836D01*
X199259Y201808D01*
X199329Y201776D01*
X199398Y201741D01*
X199465Y201702D01*
X199530Y201660D01*
X199593Y201615D01*
X199654Y201567D01*
X199712Y201516D01*
X199767Y201462D01*
X199820Y201405D01*
X199869Y201346D01*
X199916Y201284D01*
X199960Y201220D01*
X200000Y201154D01*
X200037Y201086D01*
X200071Y201016D01*
X200101Y200945D01*
X200127Y200872D01*
X200150Y200798D01*
X200169Y200723D01*
X200184Y200648D01*
X200196Y200571D01*
X200204Y200494D01*
X200208Y200417D01*
X200208Y200339D01*
X200204Y200262D01*
X200196Y200185D01*
X200184Y200108D01*
X200169Y200033D01*
X200150Y199958D01*
X200127Y199884D01*
X200101Y199811D01*
X200071Y199740D01*
X200037Y199670D01*
X200000Y199602D01*
X199960Y199536D01*
X199916Y199472D01*
X199869Y199410D01*
X199820Y199351D01*
X199767Y199294D01*
X199712Y199240D01*
X199654Y199189D01*
X199593Y199141D01*
X199530Y199096D01*
X199465Y199054D01*
X199398Y199015D01*
X199329Y198980D01*
X199259Y198948D01*
X199187Y198920D01*
X199113Y198895D01*
X199039Y198874D01*
X198964Y198857D01*
X198887Y198843D01*
X198811Y198834D01*
X198733Y198828D01*
X198656Y198826D01*
X197104Y198826D01*
X202324Y199136D02*
X202326Y199267D01*
X202331Y199397D01*
X202341Y199527D01*
X202354Y199657D01*
X202370Y199787D01*
X202390Y199916D01*
X202414Y200044D01*
X202442Y200171D01*
X202473Y200298D01*
X202508Y200424D01*
X202546Y200549D01*
X202588Y200673D01*
X202633Y200795D01*
X202682Y200916D01*
X202734Y201036D01*
X202790Y201154D01*
X202813Y201214D01*
X202839Y201274D01*
X202868Y201331D01*
X202901Y201387D01*
X202937Y201441D01*
X202975Y201493D01*
X203017Y201543D01*
X203061Y201590D01*
X203108Y201635D01*
X203158Y201677D01*
X203209Y201716D01*
X203263Y201752D01*
X203319Y201785D01*
X203376Y201815D01*
X203435Y201842D01*
X203496Y201865D01*
X203557Y201885D01*
X203620Y201901D01*
X203684Y201914D01*
X203748Y201923D01*
X203812Y201928D01*
X203877Y201930D01*
X203942Y201928D01*
X204006Y201923D01*
X204070Y201914D01*
X204134Y201901D01*
X204197Y201885D01*
X204258Y201865D01*
X204319Y201842D01*
X204378Y201815D01*
X204435Y201785D01*
X204491Y201752D01*
X204545Y201716D01*
X204596Y201677D01*
X204646Y201635D01*
X204693Y201590D01*
X204737Y201543D01*
X204779Y201493D01*
X204817Y201441D01*
X204853Y201387D01*
X204886Y201331D01*
X204915Y201274D01*
X204941Y201214D01*
X204964Y201154D01*
X204963Y201154D02*
X205019Y201036D01*
X205071Y200916D01*
X205120Y200795D01*
X205165Y200673D01*
X205207Y200549D01*
X205245Y200424D01*
X205280Y200298D01*
X205311Y200172D01*
X205339Y200044D01*
X205363Y199916D01*
X205383Y199787D01*
X205399Y199657D01*
X205412Y199527D01*
X205422Y199397D01*
X205427Y199267D01*
X205429Y199136D01*
X202325Y199136D02*
X202327Y199005D01*
X202332Y198875D01*
X202342Y198745D01*
X202355Y198615D01*
X202371Y198485D01*
X202391Y198356D01*
X202415Y198228D01*
X202443Y198101D01*
X202474Y197974D01*
X202509Y197848D01*
X202547Y197723D01*
X202589Y197599D01*
X202634Y197477D01*
X202683Y197356D01*
X202735Y197236D01*
X202791Y197118D01*
X202790Y197118D02*
X202813Y197058D01*
X202839Y196998D01*
X202868Y196941D01*
X202901Y196885D01*
X202937Y196831D01*
X202975Y196779D01*
X203017Y196729D01*
X203061Y196682D01*
X203108Y196637D01*
X203158Y196595D01*
X203209Y196556D01*
X203263Y196520D01*
X203319Y196487D01*
X203376Y196457D01*
X203435Y196430D01*
X203496Y196407D01*
X203557Y196387D01*
X203620Y196371D01*
X203684Y196358D01*
X203748Y196349D01*
X203812Y196344D01*
X203877Y196342D01*
X204963Y197118D02*
X205019Y197236D01*
X205071Y197356D01*
X205120Y197477D01*
X205165Y197599D01*
X205207Y197723D01*
X205245Y197848D01*
X205280Y197974D01*
X205311Y198100D01*
X205339Y198228D01*
X205363Y198356D01*
X205383Y198485D01*
X205399Y198615D01*
X205412Y198745D01*
X205422Y198875D01*
X205427Y199005D01*
X205429Y199136D01*
X204964Y197118D02*
X204941Y197058D01*
X204915Y196998D01*
X204886Y196941D01*
X204853Y196885D01*
X204817Y196831D01*
X204779Y196779D01*
X204737Y196729D01*
X204693Y196682D01*
X204646Y196637D01*
X204596Y196595D01*
X204545Y196556D01*
X204491Y196520D01*
X204435Y196487D01*
X204378Y196457D01*
X204319Y196430D01*
X204258Y196407D01*
X204197Y196387D01*
X204134Y196371D01*
X204070Y196358D01*
X204006Y196349D01*
X203942Y196344D01*
X203877Y196342D01*
X202635Y197584D02*
X205119Y200688D01*
X200209Y188440D02*
X200207Y188370D01*
X200201Y188301D01*
X200191Y188232D01*
X200178Y188164D01*
X200160Y188096D01*
X200139Y188030D01*
X200114Y187965D01*
X200086Y187901D01*
X200054Y187839D01*
X200019Y187779D01*
X199980Y187721D01*
X199938Y187666D01*
X199893Y187612D01*
X199845Y187562D01*
X199795Y187514D01*
X199741Y187469D01*
X199686Y187427D01*
X199628Y187388D01*
X199568Y187353D01*
X199506Y187321D01*
X199442Y187293D01*
X199377Y187268D01*
X199311Y187247D01*
X199243Y187229D01*
X199175Y187216D01*
X199106Y187206D01*
X199037Y187200D01*
X198967Y187198D01*
X198868Y187200D01*
X198770Y187205D01*
X198672Y187215D01*
X198574Y187228D01*
X198477Y187244D01*
X198380Y187264D01*
X198285Y187288D01*
X198190Y187316D01*
X198096Y187347D01*
X198004Y187381D01*
X197913Y187419D01*
X197823Y187460D01*
X197735Y187505D01*
X197649Y187553D01*
X197565Y187604D01*
X197483Y187658D01*
X197402Y187716D01*
X197324Y187776D01*
X197249Y187839D01*
X197175Y187905D01*
X197105Y187974D01*
X197259Y191544D02*
X197261Y191614D01*
X197267Y191683D01*
X197277Y191752D01*
X197290Y191820D01*
X197308Y191888D01*
X197329Y191954D01*
X197354Y192019D01*
X197382Y192083D01*
X197414Y192145D01*
X197449Y192205D01*
X197488Y192263D01*
X197530Y192318D01*
X197575Y192372D01*
X197623Y192422D01*
X197673Y192470D01*
X197727Y192515D01*
X197782Y192557D01*
X197840Y192596D01*
X197900Y192631D01*
X197962Y192663D01*
X198026Y192691D01*
X198091Y192716D01*
X198157Y192737D01*
X198225Y192755D01*
X198293Y192768D01*
X198362Y192778D01*
X198431Y192784D01*
X198501Y192786D01*
X198595Y192784D01*
X198688Y192778D01*
X198781Y192769D01*
X198874Y192756D01*
X198966Y192739D01*
X199057Y192719D01*
X199148Y192694D01*
X199237Y192667D01*
X199325Y192635D01*
X199412Y192600D01*
X199498Y192562D01*
X199581Y192520D01*
X199663Y192475D01*
X199744Y192427D01*
X199822Y192375D01*
X199898Y192320D01*
X197880Y190458D02*
X197821Y190494D01*
X197765Y190534D01*
X197711Y190577D01*
X197659Y190622D01*
X197610Y190671D01*
X197564Y190722D01*
X197521Y190775D01*
X197480Y190831D01*
X197443Y190889D01*
X197408Y190949D01*
X197378Y191010D01*
X197350Y191073D01*
X197326Y191138D01*
X197306Y191204D01*
X197289Y191271D01*
X197276Y191338D01*
X197267Y191406D01*
X197261Y191475D01*
X197259Y191544D01*
X199587Y189526D02*
X199646Y189490D01*
X199702Y189450D01*
X199756Y189407D01*
X199808Y189362D01*
X199857Y189313D01*
X199903Y189262D01*
X199946Y189209D01*
X199987Y189153D01*
X200024Y189095D01*
X200059Y189035D01*
X200089Y188974D01*
X200117Y188911D01*
X200141Y188846D01*
X200161Y188780D01*
X200178Y188713D01*
X200191Y188646D01*
X200200Y188578D01*
X200206Y188509D01*
X200208Y188440D01*
X199588Y189526D02*
X197880Y190458D01*
X202590Y192786D02*
X202590Y187198D01*
X202590Y192786D02*
X204143Y192786D01*
X204219Y192784D01*
X204295Y192779D01*
X204371Y192769D01*
X204446Y192756D01*
X204520Y192739D01*
X204594Y192719D01*
X204666Y192695D01*
X204737Y192668D01*
X204807Y192637D01*
X204875Y192603D01*
X204941Y192565D01*
X205005Y192524D01*
X205068Y192481D01*
X205128Y192434D01*
X205185Y192384D01*
X205240Y192331D01*
X205293Y192276D01*
X205343Y192219D01*
X205390Y192159D01*
X205433Y192096D01*
X205474Y192032D01*
X205512Y191966D01*
X205546Y191898D01*
X205577Y191828D01*
X205604Y191757D01*
X205628Y191684D01*
X205648Y191611D01*
X205665Y191537D01*
X205678Y191462D01*
X205688Y191386D01*
X205693Y191310D01*
X205695Y191234D01*
X205695Y188750D01*
X205693Y188671D01*
X205687Y188593D01*
X205677Y188515D01*
X205663Y188438D01*
X205645Y188361D01*
X205624Y188285D01*
X205598Y188211D01*
X205569Y188138D01*
X205536Y188067D01*
X205500Y187997D01*
X205460Y187929D01*
X205417Y187863D01*
X205370Y187800D01*
X205321Y187739D01*
X205268Y187681D01*
X205212Y187625D01*
X205154Y187572D01*
X205093Y187523D01*
X205030Y187476D01*
X204964Y187433D01*
X204896Y187393D01*
X204827Y187357D01*
X204755Y187324D01*
X204682Y187295D01*
X204608Y187269D01*
X204532Y187248D01*
X204455Y187230D01*
X204378Y187216D01*
X204300Y187206D01*
X204222Y187200D01*
X204143Y187198D01*
X202590Y187198D01*
X207949Y187198D02*
X209812Y192786D01*
X211675Y187198D01*
X211209Y188595D02*
X208415Y188595D01*
X197104Y183642D02*
X197104Y178054D01*
X197104Y183642D02*
X198656Y183642D01*
X198733Y183640D01*
X198811Y183634D01*
X198887Y183625D01*
X198964Y183611D01*
X199039Y183594D01*
X199113Y183573D01*
X199187Y183548D01*
X199259Y183520D01*
X199329Y183488D01*
X199398Y183453D01*
X199465Y183414D01*
X199530Y183372D01*
X199593Y183327D01*
X199654Y183279D01*
X199712Y183228D01*
X199767Y183174D01*
X199820Y183117D01*
X199869Y183058D01*
X199916Y182996D01*
X199960Y182932D01*
X200000Y182866D01*
X200037Y182798D01*
X200071Y182728D01*
X200101Y182657D01*
X200127Y182584D01*
X200150Y182510D01*
X200169Y182435D01*
X200184Y182360D01*
X200196Y182283D01*
X200204Y182206D01*
X200208Y182129D01*
X200208Y182051D01*
X200204Y181974D01*
X200196Y181897D01*
X200184Y181820D01*
X200169Y181745D01*
X200150Y181670D01*
X200127Y181596D01*
X200101Y181523D01*
X200071Y181452D01*
X200037Y181382D01*
X200000Y181314D01*
X199960Y181248D01*
X199916Y181184D01*
X199869Y181122D01*
X199820Y181063D01*
X199767Y181006D01*
X199712Y180952D01*
X199654Y180901D01*
X199593Y180853D01*
X199530Y180808D01*
X199465Y180766D01*
X199398Y180727D01*
X199329Y180692D01*
X199259Y180660D01*
X199187Y180632D01*
X199113Y180607D01*
X199039Y180586D01*
X198964Y180569D01*
X198887Y180555D01*
X198811Y180546D01*
X198733Y180540D01*
X198656Y180538D01*
X197104Y180538D01*
X202125Y183642D02*
X203366Y178054D01*
X204608Y181779D01*
X205850Y178054D01*
X207092Y183642D01*
X209512Y183642D02*
X209512Y178054D01*
X211375Y180538D02*
X209512Y183642D01*
X211375Y180538D02*
X213237Y183642D01*
X213237Y178054D01*
X171704Y196342D02*
X171704Y201930D01*
X173256Y201930D01*
X173333Y201928D01*
X173411Y201922D01*
X173487Y201913D01*
X173564Y201899D01*
X173639Y201882D01*
X173713Y201861D01*
X173787Y201836D01*
X173859Y201808D01*
X173929Y201776D01*
X173998Y201741D01*
X174065Y201702D01*
X174130Y201660D01*
X174193Y201615D01*
X174254Y201567D01*
X174312Y201516D01*
X174367Y201462D01*
X174420Y201405D01*
X174469Y201346D01*
X174516Y201284D01*
X174560Y201220D01*
X174600Y201154D01*
X174637Y201086D01*
X174671Y201016D01*
X174701Y200945D01*
X174727Y200872D01*
X174750Y200798D01*
X174769Y200723D01*
X174784Y200648D01*
X174796Y200571D01*
X174804Y200494D01*
X174808Y200417D01*
X174808Y200339D01*
X174804Y200262D01*
X174796Y200185D01*
X174784Y200108D01*
X174769Y200033D01*
X174750Y199958D01*
X174727Y199884D01*
X174701Y199811D01*
X174671Y199740D01*
X174637Y199670D01*
X174600Y199602D01*
X174560Y199536D01*
X174516Y199472D01*
X174469Y199410D01*
X174420Y199351D01*
X174367Y199294D01*
X174312Y199240D01*
X174254Y199189D01*
X174193Y199141D01*
X174130Y199096D01*
X174065Y199054D01*
X173998Y199015D01*
X173929Y198980D01*
X173859Y198948D01*
X173787Y198920D01*
X173713Y198895D01*
X173639Y198874D01*
X173564Y198857D01*
X173487Y198843D01*
X173411Y198834D01*
X173333Y198828D01*
X173256Y198826D01*
X171704Y198826D01*
X176925Y200688D02*
X178477Y201930D01*
X178477Y196342D01*
X176925Y196342D02*
X180029Y196342D01*
X171704Y192786D02*
X171704Y187198D01*
X174188Y187198D01*
X176459Y187198D02*
X178942Y187198D01*
X176459Y187198D02*
X176459Y192786D01*
X178942Y192786D01*
X178321Y190302D02*
X176459Y190302D01*
X181203Y192786D02*
X181203Y187198D01*
X181203Y192786D02*
X182755Y192786D01*
X182831Y192784D01*
X182907Y192779D01*
X182983Y192769D01*
X183058Y192756D01*
X183132Y192739D01*
X183206Y192719D01*
X183278Y192695D01*
X183349Y192668D01*
X183419Y192637D01*
X183487Y192603D01*
X183553Y192565D01*
X183617Y192524D01*
X183680Y192481D01*
X183740Y192434D01*
X183797Y192384D01*
X183852Y192331D01*
X183905Y192276D01*
X183955Y192219D01*
X184002Y192159D01*
X184045Y192096D01*
X184086Y192032D01*
X184124Y191966D01*
X184158Y191898D01*
X184189Y191828D01*
X184216Y191757D01*
X184240Y191684D01*
X184260Y191611D01*
X184277Y191537D01*
X184290Y191462D01*
X184300Y191386D01*
X184305Y191310D01*
X184307Y191234D01*
X184307Y188750D01*
X184305Y188671D01*
X184299Y188593D01*
X184289Y188515D01*
X184275Y188438D01*
X184257Y188361D01*
X184236Y188285D01*
X184210Y188211D01*
X184181Y188138D01*
X184148Y188067D01*
X184112Y187997D01*
X184072Y187929D01*
X184029Y187863D01*
X183982Y187800D01*
X183933Y187739D01*
X183880Y187681D01*
X183824Y187625D01*
X183766Y187572D01*
X183705Y187523D01*
X183642Y187476D01*
X183576Y187433D01*
X183508Y187393D01*
X183439Y187357D01*
X183367Y187324D01*
X183294Y187295D01*
X183220Y187269D01*
X183144Y187248D01*
X183067Y187230D01*
X182990Y187216D01*
X182912Y187206D01*
X182834Y187200D01*
X182755Y187198D01*
X181203Y187198D01*
X171704Y183642D02*
X171704Y178054D01*
X171704Y183642D02*
X173256Y183642D01*
X173333Y183640D01*
X173411Y183634D01*
X173487Y183625D01*
X173564Y183611D01*
X173639Y183594D01*
X173713Y183573D01*
X173787Y183548D01*
X173859Y183520D01*
X173929Y183488D01*
X173998Y183453D01*
X174065Y183414D01*
X174130Y183372D01*
X174193Y183327D01*
X174254Y183279D01*
X174312Y183228D01*
X174367Y183174D01*
X174420Y183117D01*
X174469Y183058D01*
X174516Y182996D01*
X174560Y182932D01*
X174600Y182866D01*
X174637Y182798D01*
X174671Y182728D01*
X174701Y182657D01*
X174727Y182584D01*
X174750Y182510D01*
X174769Y182435D01*
X174784Y182360D01*
X174796Y182283D01*
X174804Y182206D01*
X174808Y182129D01*
X174808Y182051D01*
X174804Y181974D01*
X174796Y181897D01*
X174784Y181820D01*
X174769Y181745D01*
X174750Y181670D01*
X174727Y181596D01*
X174701Y181523D01*
X174671Y181452D01*
X174637Y181382D01*
X174600Y181314D01*
X174560Y181248D01*
X174516Y181184D01*
X174469Y181122D01*
X174420Y181063D01*
X174367Y181006D01*
X174312Y180952D01*
X174254Y180901D01*
X174193Y180853D01*
X174130Y180808D01*
X174065Y180766D01*
X173998Y180727D01*
X173929Y180692D01*
X173859Y180660D01*
X173787Y180632D01*
X173713Y180607D01*
X173639Y180586D01*
X173564Y180569D01*
X173487Y180555D01*
X173411Y180546D01*
X173333Y180540D01*
X173256Y180538D01*
X171704Y180538D01*
X176725Y183642D02*
X177966Y178054D01*
X179208Y181779D01*
X180450Y178054D01*
X181692Y183642D01*
X184112Y183642D02*
X184112Y178054D01*
X185975Y180538D02*
X184112Y183642D01*
X185975Y180538D02*
X187837Y183642D01*
X187837Y178054D01*
X146304Y196342D02*
X146304Y201930D01*
X147856Y201930D01*
X147933Y201928D01*
X148011Y201922D01*
X148087Y201913D01*
X148164Y201899D01*
X148239Y201882D01*
X148313Y201861D01*
X148387Y201836D01*
X148459Y201808D01*
X148529Y201776D01*
X148598Y201741D01*
X148665Y201702D01*
X148730Y201660D01*
X148793Y201615D01*
X148854Y201567D01*
X148912Y201516D01*
X148967Y201462D01*
X149020Y201405D01*
X149069Y201346D01*
X149116Y201284D01*
X149160Y201220D01*
X149200Y201154D01*
X149237Y201086D01*
X149271Y201016D01*
X149301Y200945D01*
X149327Y200872D01*
X149350Y200798D01*
X149369Y200723D01*
X149384Y200648D01*
X149396Y200571D01*
X149404Y200494D01*
X149408Y200417D01*
X149408Y200339D01*
X149404Y200262D01*
X149396Y200185D01*
X149384Y200108D01*
X149369Y200033D01*
X149350Y199958D01*
X149327Y199884D01*
X149301Y199811D01*
X149271Y199740D01*
X149237Y199670D01*
X149200Y199602D01*
X149160Y199536D01*
X149116Y199472D01*
X149069Y199410D01*
X149020Y199351D01*
X148967Y199294D01*
X148912Y199240D01*
X148854Y199189D01*
X148793Y199141D01*
X148730Y199096D01*
X148665Y199054D01*
X148598Y199015D01*
X148529Y198980D01*
X148459Y198948D01*
X148387Y198920D01*
X148313Y198895D01*
X148239Y198874D01*
X148164Y198857D01*
X148087Y198843D01*
X148011Y198834D01*
X147933Y198828D01*
X147856Y198826D01*
X146304Y198826D01*
X153232Y201930D02*
X153305Y201928D01*
X153378Y201922D01*
X153451Y201913D01*
X153522Y201899D01*
X153594Y201882D01*
X153664Y201862D01*
X153733Y201837D01*
X153800Y201809D01*
X153866Y201778D01*
X153931Y201743D01*
X153993Y201705D01*
X154053Y201663D01*
X154111Y201619D01*
X154167Y201571D01*
X154220Y201521D01*
X154270Y201468D01*
X154318Y201412D01*
X154362Y201354D01*
X154404Y201294D01*
X154442Y201232D01*
X154477Y201167D01*
X154508Y201101D01*
X154536Y201034D01*
X154561Y200965D01*
X154581Y200895D01*
X154598Y200823D01*
X154612Y200752D01*
X154621Y200679D01*
X154627Y200606D01*
X154629Y200533D01*
X153232Y201930D02*
X153148Y201928D01*
X153065Y201922D01*
X152982Y201913D01*
X152900Y201899D01*
X152818Y201882D01*
X152737Y201860D01*
X152657Y201835D01*
X152579Y201807D01*
X152501Y201775D01*
X152426Y201739D01*
X152352Y201700D01*
X152280Y201657D01*
X152210Y201611D01*
X152143Y201562D01*
X152077Y201509D01*
X152015Y201454D01*
X151955Y201396D01*
X151897Y201335D01*
X151843Y201272D01*
X151791Y201206D01*
X151743Y201138D01*
X151698Y201067D01*
X151656Y200995D01*
X151618Y200920D01*
X151583Y200844D01*
X151552Y200767D01*
X151524Y200688D01*
X154163Y199447D02*
X154217Y199500D01*
X154268Y199557D01*
X154316Y199616D01*
X154361Y199677D01*
X154402Y199740D01*
X154441Y199806D01*
X154476Y199873D01*
X154508Y199942D01*
X154536Y200013D01*
X154560Y200084D01*
X154581Y200157D01*
X154598Y200231D01*
X154612Y200306D01*
X154621Y200381D01*
X154627Y200457D01*
X154629Y200533D01*
X154163Y199446D02*
X151525Y196342D01*
X154629Y196342D01*
X149409Y188440D02*
X149407Y188370D01*
X149401Y188301D01*
X149391Y188232D01*
X149378Y188164D01*
X149360Y188096D01*
X149339Y188030D01*
X149314Y187965D01*
X149286Y187901D01*
X149254Y187839D01*
X149219Y187779D01*
X149180Y187721D01*
X149138Y187666D01*
X149093Y187612D01*
X149045Y187562D01*
X148995Y187514D01*
X148941Y187469D01*
X148886Y187427D01*
X148828Y187388D01*
X148768Y187353D01*
X148706Y187321D01*
X148642Y187293D01*
X148577Y187268D01*
X148511Y187247D01*
X148443Y187229D01*
X148375Y187216D01*
X148306Y187206D01*
X148237Y187200D01*
X148167Y187198D01*
X148068Y187200D01*
X147970Y187205D01*
X147872Y187215D01*
X147774Y187228D01*
X147677Y187244D01*
X147580Y187264D01*
X147485Y187288D01*
X147390Y187316D01*
X147296Y187347D01*
X147204Y187381D01*
X147113Y187419D01*
X147023Y187460D01*
X146935Y187505D01*
X146849Y187553D01*
X146765Y187604D01*
X146683Y187658D01*
X146602Y187716D01*
X146524Y187776D01*
X146449Y187839D01*
X146375Y187905D01*
X146305Y187974D01*
X146459Y191544D02*
X146461Y191614D01*
X146467Y191683D01*
X146477Y191752D01*
X146490Y191820D01*
X146508Y191888D01*
X146529Y191954D01*
X146554Y192019D01*
X146582Y192083D01*
X146614Y192145D01*
X146649Y192205D01*
X146688Y192263D01*
X146730Y192318D01*
X146775Y192372D01*
X146823Y192422D01*
X146873Y192470D01*
X146927Y192515D01*
X146982Y192557D01*
X147040Y192596D01*
X147100Y192631D01*
X147162Y192663D01*
X147226Y192691D01*
X147291Y192716D01*
X147357Y192737D01*
X147425Y192755D01*
X147493Y192768D01*
X147562Y192778D01*
X147631Y192784D01*
X147701Y192786D01*
X147795Y192784D01*
X147888Y192778D01*
X147981Y192769D01*
X148074Y192756D01*
X148166Y192739D01*
X148257Y192719D01*
X148348Y192694D01*
X148437Y192667D01*
X148525Y192635D01*
X148612Y192600D01*
X148698Y192562D01*
X148781Y192520D01*
X148863Y192475D01*
X148944Y192427D01*
X149022Y192375D01*
X149098Y192320D01*
X147080Y190458D02*
X147021Y190494D01*
X146965Y190534D01*
X146911Y190577D01*
X146859Y190622D01*
X146810Y190671D01*
X146764Y190722D01*
X146721Y190775D01*
X146680Y190831D01*
X146643Y190889D01*
X146608Y190949D01*
X146578Y191010D01*
X146550Y191073D01*
X146526Y191138D01*
X146506Y191204D01*
X146489Y191271D01*
X146476Y191338D01*
X146467Y191406D01*
X146461Y191475D01*
X146459Y191544D01*
X148787Y189526D02*
X148846Y189490D01*
X148902Y189450D01*
X148956Y189407D01*
X149008Y189362D01*
X149057Y189313D01*
X149103Y189262D01*
X149146Y189209D01*
X149187Y189153D01*
X149224Y189095D01*
X149259Y189035D01*
X149289Y188974D01*
X149317Y188911D01*
X149341Y188846D01*
X149361Y188780D01*
X149378Y188713D01*
X149391Y188646D01*
X149400Y188578D01*
X149406Y188509D01*
X149408Y188440D01*
X148788Y189526D02*
X147080Y190458D01*
X152833Y187198D02*
X154075Y187198D01*
X152833Y187198D02*
X152763Y187200D01*
X152694Y187206D01*
X152625Y187216D01*
X152557Y187229D01*
X152489Y187247D01*
X152423Y187268D01*
X152358Y187293D01*
X152294Y187321D01*
X152232Y187353D01*
X152172Y187388D01*
X152114Y187427D01*
X152059Y187469D01*
X152005Y187514D01*
X151955Y187562D01*
X151907Y187612D01*
X151862Y187666D01*
X151820Y187721D01*
X151781Y187779D01*
X151746Y187839D01*
X151714Y187901D01*
X151686Y187965D01*
X151661Y188030D01*
X151640Y188096D01*
X151622Y188164D01*
X151609Y188232D01*
X151599Y188301D01*
X151593Y188370D01*
X151591Y188440D01*
X151591Y191544D01*
X151593Y191614D01*
X151599Y191683D01*
X151609Y191752D01*
X151622Y191820D01*
X151640Y191888D01*
X151661Y191954D01*
X151686Y192019D01*
X151714Y192083D01*
X151746Y192145D01*
X151781Y192205D01*
X151820Y192263D01*
X151862Y192318D01*
X151907Y192372D01*
X151955Y192422D01*
X152005Y192470D01*
X152059Y192515D01*
X152114Y192557D01*
X152172Y192596D01*
X152232Y192631D01*
X152294Y192663D01*
X152358Y192691D01*
X152423Y192716D01*
X152489Y192737D01*
X152557Y192755D01*
X152625Y192768D01*
X152694Y192778D01*
X152763Y192784D01*
X152833Y192786D01*
X154075Y192786D01*
X156373Y192786D02*
X156373Y187198D01*
X158857Y187198D01*
X148167Y183642D02*
X146304Y178054D01*
X150029Y178054D02*
X148167Y183642D01*
X149564Y179451D02*
X146770Y179451D01*
X152101Y182400D02*
X153653Y183642D01*
X153653Y178054D01*
X152101Y178054D02*
X155205Y178054D01*
X120904Y196342D02*
X120904Y201930D01*
X122456Y201930D01*
X122533Y201928D01*
X122611Y201922D01*
X122687Y201913D01*
X122764Y201899D01*
X122839Y201882D01*
X122913Y201861D01*
X122987Y201836D01*
X123059Y201808D01*
X123129Y201776D01*
X123198Y201741D01*
X123265Y201702D01*
X123330Y201660D01*
X123393Y201615D01*
X123454Y201567D01*
X123512Y201516D01*
X123567Y201462D01*
X123620Y201405D01*
X123669Y201346D01*
X123716Y201284D01*
X123760Y201220D01*
X123800Y201154D01*
X123837Y201086D01*
X123871Y201016D01*
X123901Y200945D01*
X123927Y200872D01*
X123950Y200798D01*
X123969Y200723D01*
X123984Y200648D01*
X123996Y200571D01*
X124004Y200494D01*
X124008Y200417D01*
X124008Y200339D01*
X124004Y200262D01*
X123996Y200185D01*
X123984Y200108D01*
X123969Y200033D01*
X123950Y199958D01*
X123927Y199884D01*
X123901Y199811D01*
X123871Y199740D01*
X123837Y199670D01*
X123800Y199602D01*
X123760Y199536D01*
X123716Y199472D01*
X123669Y199410D01*
X123620Y199351D01*
X123567Y199294D01*
X123512Y199240D01*
X123454Y199189D01*
X123393Y199141D01*
X123330Y199096D01*
X123265Y199054D01*
X123198Y199015D01*
X123129Y198980D01*
X123059Y198948D01*
X122987Y198920D01*
X122913Y198895D01*
X122839Y198874D01*
X122764Y198857D01*
X122687Y198843D01*
X122611Y198834D01*
X122533Y198828D01*
X122456Y198826D01*
X120904Y198826D01*
X126125Y196342D02*
X127677Y196342D01*
X127754Y196344D01*
X127832Y196350D01*
X127908Y196359D01*
X127985Y196373D01*
X128060Y196390D01*
X128134Y196411D01*
X128208Y196436D01*
X128280Y196464D01*
X128350Y196496D01*
X128419Y196531D01*
X128486Y196570D01*
X128551Y196612D01*
X128614Y196657D01*
X128675Y196705D01*
X128733Y196756D01*
X128788Y196810D01*
X128841Y196867D01*
X128890Y196926D01*
X128937Y196988D01*
X128981Y197052D01*
X129021Y197118D01*
X129058Y197186D01*
X129092Y197256D01*
X129122Y197327D01*
X129148Y197400D01*
X129171Y197474D01*
X129190Y197549D01*
X129205Y197624D01*
X129217Y197701D01*
X129225Y197778D01*
X129229Y197855D01*
X129229Y197933D01*
X129225Y198010D01*
X129217Y198087D01*
X129205Y198164D01*
X129190Y198239D01*
X129171Y198314D01*
X129148Y198388D01*
X129122Y198461D01*
X129092Y198532D01*
X129058Y198602D01*
X129021Y198670D01*
X128981Y198736D01*
X128937Y198800D01*
X128890Y198862D01*
X128841Y198921D01*
X128788Y198978D01*
X128733Y199032D01*
X128675Y199083D01*
X128614Y199131D01*
X128551Y199176D01*
X128486Y199218D01*
X128419Y199257D01*
X128350Y199292D01*
X128280Y199324D01*
X128208Y199352D01*
X128134Y199377D01*
X128060Y199398D01*
X127985Y199415D01*
X127908Y199429D01*
X127832Y199438D01*
X127754Y199444D01*
X127677Y199446D01*
X127987Y201930D02*
X126125Y201930D01*
X127987Y201930D02*
X128057Y201928D01*
X128126Y201922D01*
X128195Y201912D01*
X128263Y201899D01*
X128331Y201881D01*
X128397Y201860D01*
X128462Y201835D01*
X128526Y201807D01*
X128588Y201775D01*
X128648Y201740D01*
X128706Y201701D01*
X128761Y201659D01*
X128815Y201614D01*
X128865Y201566D01*
X128913Y201516D01*
X128958Y201462D01*
X129000Y201407D01*
X129039Y201349D01*
X129074Y201289D01*
X129106Y201227D01*
X129134Y201163D01*
X129159Y201098D01*
X129180Y201032D01*
X129198Y200964D01*
X129211Y200896D01*
X129221Y200827D01*
X129227Y200758D01*
X129229Y200688D01*
X129227Y200618D01*
X129221Y200549D01*
X129211Y200480D01*
X129198Y200412D01*
X129180Y200344D01*
X129159Y200278D01*
X129134Y200213D01*
X129106Y200149D01*
X129074Y200087D01*
X129039Y200027D01*
X129000Y199969D01*
X128958Y199914D01*
X128913Y199860D01*
X128865Y199810D01*
X128815Y199762D01*
X128761Y199717D01*
X128706Y199675D01*
X128648Y199636D01*
X128588Y199601D01*
X128526Y199569D01*
X128462Y199541D01*
X128397Y199516D01*
X128331Y199495D01*
X128263Y199477D01*
X128195Y199464D01*
X128126Y199454D01*
X128057Y199448D01*
X127987Y199446D01*
X126745Y199446D01*
X122767Y192786D02*
X120904Y187198D01*
X124629Y187198D02*
X122767Y192786D01*
X124164Y188595D02*
X121370Y188595D01*
X126701Y187198D02*
X128253Y187198D01*
X128330Y187200D01*
X128408Y187206D01*
X128484Y187215D01*
X128561Y187229D01*
X128636Y187246D01*
X128710Y187267D01*
X128784Y187292D01*
X128856Y187320D01*
X128926Y187352D01*
X128995Y187387D01*
X129062Y187426D01*
X129127Y187468D01*
X129190Y187513D01*
X129251Y187561D01*
X129309Y187612D01*
X129364Y187666D01*
X129417Y187723D01*
X129466Y187782D01*
X129513Y187844D01*
X129557Y187908D01*
X129597Y187974D01*
X129634Y188042D01*
X129668Y188112D01*
X129698Y188183D01*
X129724Y188256D01*
X129747Y188330D01*
X129766Y188405D01*
X129781Y188480D01*
X129793Y188557D01*
X129801Y188634D01*
X129805Y188711D01*
X129805Y188789D01*
X129801Y188866D01*
X129793Y188943D01*
X129781Y189020D01*
X129766Y189095D01*
X129747Y189170D01*
X129724Y189244D01*
X129698Y189317D01*
X129668Y189388D01*
X129634Y189458D01*
X129597Y189526D01*
X129557Y189592D01*
X129513Y189656D01*
X129466Y189718D01*
X129417Y189777D01*
X129364Y189834D01*
X129309Y189888D01*
X129251Y189939D01*
X129190Y189987D01*
X129127Y190032D01*
X129062Y190074D01*
X128995Y190113D01*
X128926Y190148D01*
X128856Y190180D01*
X128784Y190208D01*
X128710Y190233D01*
X128636Y190254D01*
X128561Y190271D01*
X128484Y190285D01*
X128408Y190294D01*
X128330Y190300D01*
X128253Y190302D01*
X128563Y192786D02*
X126701Y192786D01*
X128563Y192786D02*
X128633Y192784D01*
X128702Y192778D01*
X128771Y192768D01*
X128839Y192755D01*
X128907Y192737D01*
X128973Y192716D01*
X129038Y192691D01*
X129102Y192663D01*
X129164Y192631D01*
X129224Y192596D01*
X129282Y192557D01*
X129337Y192515D01*
X129391Y192470D01*
X129441Y192422D01*
X129489Y192372D01*
X129534Y192318D01*
X129576Y192263D01*
X129615Y192205D01*
X129650Y192145D01*
X129682Y192083D01*
X129710Y192019D01*
X129735Y191954D01*
X129756Y191888D01*
X129774Y191820D01*
X129787Y191752D01*
X129797Y191683D01*
X129803Y191614D01*
X129805Y191544D01*
X129803Y191474D01*
X129797Y191405D01*
X129787Y191336D01*
X129774Y191268D01*
X129756Y191200D01*
X129735Y191134D01*
X129710Y191069D01*
X129682Y191005D01*
X129650Y190943D01*
X129615Y190883D01*
X129576Y190825D01*
X129534Y190770D01*
X129489Y190716D01*
X129441Y190666D01*
X129391Y190618D01*
X129337Y190573D01*
X129282Y190531D01*
X129224Y190492D01*
X129164Y190457D01*
X129102Y190425D01*
X129038Y190397D01*
X128973Y190372D01*
X128907Y190351D01*
X128839Y190333D01*
X128771Y190320D01*
X128702Y190310D01*
X128633Y190304D01*
X128563Y190302D01*
X127322Y190302D01*
X120904Y183642D02*
X120904Y179606D01*
X120906Y179529D01*
X120912Y179451D01*
X120921Y179375D01*
X120935Y179298D01*
X120952Y179223D01*
X120973Y179149D01*
X120998Y179075D01*
X121026Y179003D01*
X121058Y178933D01*
X121093Y178864D01*
X121132Y178797D01*
X121174Y178732D01*
X121219Y178669D01*
X121267Y178608D01*
X121318Y178550D01*
X121372Y178495D01*
X121429Y178442D01*
X121488Y178393D01*
X121550Y178346D01*
X121614Y178302D01*
X121680Y178262D01*
X121748Y178225D01*
X121818Y178191D01*
X121889Y178161D01*
X121962Y178135D01*
X122036Y178112D01*
X122111Y178093D01*
X122186Y178078D01*
X122263Y178066D01*
X122340Y178058D01*
X122417Y178054D01*
X122495Y178054D01*
X122572Y178058D01*
X122649Y178066D01*
X122726Y178078D01*
X122801Y178093D01*
X122876Y178112D01*
X122950Y178135D01*
X123023Y178161D01*
X123094Y178191D01*
X123164Y178225D01*
X123232Y178262D01*
X123298Y178302D01*
X123362Y178346D01*
X123424Y178393D01*
X123483Y178442D01*
X123540Y178495D01*
X123594Y178550D01*
X123645Y178608D01*
X123693Y178669D01*
X123738Y178732D01*
X123780Y178797D01*
X123819Y178864D01*
X123854Y178933D01*
X123886Y179003D01*
X123914Y179075D01*
X123939Y179149D01*
X123960Y179223D01*
X123977Y179298D01*
X123991Y179375D01*
X124000Y179451D01*
X124006Y179529D01*
X124008Y179606D01*
X124008Y183642D01*
X129495Y179296D02*
X129493Y179226D01*
X129487Y179157D01*
X129477Y179088D01*
X129464Y179020D01*
X129446Y178952D01*
X129425Y178886D01*
X129400Y178821D01*
X129372Y178757D01*
X129340Y178695D01*
X129305Y178635D01*
X129266Y178577D01*
X129224Y178522D01*
X129179Y178468D01*
X129131Y178418D01*
X129081Y178370D01*
X129027Y178325D01*
X128972Y178283D01*
X128914Y178244D01*
X128854Y178209D01*
X128792Y178177D01*
X128728Y178149D01*
X128663Y178124D01*
X128597Y178103D01*
X128529Y178085D01*
X128461Y178072D01*
X128392Y178062D01*
X128323Y178056D01*
X128253Y178054D01*
X128154Y178056D01*
X128056Y178061D01*
X127958Y178071D01*
X127860Y178084D01*
X127763Y178100D01*
X127666Y178120D01*
X127571Y178144D01*
X127476Y178172D01*
X127382Y178203D01*
X127290Y178237D01*
X127199Y178275D01*
X127109Y178316D01*
X127021Y178361D01*
X126935Y178409D01*
X126851Y178460D01*
X126769Y178514D01*
X126688Y178572D01*
X126610Y178632D01*
X126535Y178695D01*
X126461Y178761D01*
X126391Y178830D01*
X126545Y182400D02*
X126547Y182470D01*
X126553Y182539D01*
X126563Y182608D01*
X126576Y182676D01*
X126594Y182744D01*
X126615Y182810D01*
X126640Y182875D01*
X126668Y182939D01*
X126700Y183001D01*
X126735Y183061D01*
X126774Y183119D01*
X126816Y183174D01*
X126861Y183228D01*
X126909Y183278D01*
X126959Y183326D01*
X127013Y183371D01*
X127068Y183413D01*
X127126Y183452D01*
X127186Y183487D01*
X127248Y183519D01*
X127312Y183547D01*
X127377Y183572D01*
X127443Y183593D01*
X127511Y183611D01*
X127579Y183624D01*
X127648Y183634D01*
X127717Y183640D01*
X127787Y183642D01*
X127881Y183640D01*
X127974Y183634D01*
X128067Y183625D01*
X128160Y183612D01*
X128252Y183595D01*
X128343Y183575D01*
X128434Y183550D01*
X128523Y183523D01*
X128611Y183491D01*
X128698Y183456D01*
X128784Y183418D01*
X128867Y183376D01*
X128949Y183331D01*
X129030Y183283D01*
X129108Y183231D01*
X129184Y183176D01*
X127167Y181314D02*
X127108Y181350D01*
X127052Y181390D01*
X126998Y181433D01*
X126946Y181478D01*
X126897Y181527D01*
X126851Y181578D01*
X126808Y181631D01*
X126767Y181687D01*
X126730Y181745D01*
X126695Y181805D01*
X126665Y181866D01*
X126637Y181929D01*
X126613Y181994D01*
X126593Y182060D01*
X126576Y182127D01*
X126563Y182194D01*
X126554Y182262D01*
X126548Y182331D01*
X126546Y182400D01*
X128874Y180382D02*
X128933Y180346D01*
X128989Y180306D01*
X129043Y180263D01*
X129095Y180218D01*
X129144Y180169D01*
X129190Y180118D01*
X129233Y180065D01*
X129274Y180009D01*
X129311Y179951D01*
X129346Y179891D01*
X129376Y179830D01*
X129404Y179767D01*
X129428Y179702D01*
X129448Y179636D01*
X129465Y179569D01*
X129478Y179502D01*
X129487Y179434D01*
X129493Y179365D01*
X129495Y179296D01*
X128874Y180382D02*
X127166Y181314D01*
X131960Y181158D02*
X133512Y181158D01*
X133589Y181156D01*
X133667Y181150D01*
X133743Y181141D01*
X133820Y181127D01*
X133895Y181110D01*
X133969Y181089D01*
X134043Y181064D01*
X134115Y181036D01*
X134185Y181004D01*
X134254Y180969D01*
X134321Y180930D01*
X134386Y180888D01*
X134449Y180843D01*
X134510Y180795D01*
X134568Y180744D01*
X134623Y180690D01*
X134676Y180633D01*
X134725Y180574D01*
X134772Y180512D01*
X134816Y180448D01*
X134856Y180382D01*
X134893Y180314D01*
X134927Y180244D01*
X134957Y180173D01*
X134983Y180100D01*
X135006Y180026D01*
X135025Y179951D01*
X135040Y179876D01*
X135052Y179799D01*
X135060Y179722D01*
X135064Y179645D01*
X135064Y179567D01*
X135060Y179490D01*
X135052Y179413D01*
X135040Y179336D01*
X135025Y179261D01*
X135006Y179186D01*
X134983Y179112D01*
X134957Y179039D01*
X134927Y178968D01*
X134893Y178898D01*
X134856Y178830D01*
X134816Y178764D01*
X134772Y178700D01*
X134725Y178638D01*
X134676Y178579D01*
X134623Y178522D01*
X134568Y178468D01*
X134510Y178417D01*
X134449Y178369D01*
X134386Y178324D01*
X134321Y178282D01*
X134254Y178243D01*
X134185Y178208D01*
X134115Y178176D01*
X134043Y178148D01*
X133969Y178123D01*
X133895Y178102D01*
X133820Y178085D01*
X133743Y178071D01*
X133667Y178062D01*
X133589Y178056D01*
X133512Y178054D01*
X131960Y178054D01*
X131960Y183642D01*
X133512Y183642D01*
X133582Y183640D01*
X133651Y183634D01*
X133720Y183624D01*
X133788Y183611D01*
X133856Y183593D01*
X133922Y183572D01*
X133987Y183547D01*
X134051Y183519D01*
X134113Y183487D01*
X134173Y183452D01*
X134231Y183413D01*
X134286Y183371D01*
X134340Y183326D01*
X134390Y183278D01*
X134438Y183228D01*
X134483Y183174D01*
X134525Y183119D01*
X134564Y183061D01*
X134599Y183001D01*
X134631Y182939D01*
X134659Y182875D01*
X134684Y182810D01*
X134705Y182744D01*
X134723Y182676D01*
X134736Y182608D01*
X134746Y182539D01*
X134752Y182470D01*
X134754Y182400D01*
X134752Y182330D01*
X134746Y182261D01*
X134736Y182192D01*
X134723Y182124D01*
X134705Y182056D01*
X134684Y181990D01*
X134659Y181925D01*
X134631Y181861D01*
X134599Y181799D01*
X134564Y181739D01*
X134525Y181681D01*
X134483Y181626D01*
X134438Y181572D01*
X134390Y181522D01*
X134340Y181474D01*
X134286Y181429D01*
X134231Y181387D01*
X134173Y181348D01*
X134113Y181313D01*
X134051Y181281D01*
X133987Y181253D01*
X133922Y181228D01*
X133856Y181207D01*
X133788Y181189D01*
X133720Y181176D01*
X133651Y181166D01*
X133582Y181160D01*
X133512Y181158D01*
X137236Y180227D02*
X140961Y180227D01*
X139098Y178364D02*
X139098Y182090D01*
X95504Y197866D02*
X95504Y203454D01*
X97056Y203454D01*
X97133Y203452D01*
X97211Y203446D01*
X97287Y203437D01*
X97364Y203423D01*
X97439Y203406D01*
X97513Y203385D01*
X97587Y203360D01*
X97659Y203332D01*
X97729Y203300D01*
X97798Y203265D01*
X97865Y203226D01*
X97930Y203184D01*
X97993Y203139D01*
X98054Y203091D01*
X98112Y203040D01*
X98167Y202986D01*
X98220Y202929D01*
X98269Y202870D01*
X98316Y202808D01*
X98360Y202744D01*
X98400Y202678D01*
X98437Y202610D01*
X98471Y202540D01*
X98501Y202469D01*
X98527Y202396D01*
X98550Y202322D01*
X98569Y202247D01*
X98584Y202172D01*
X98596Y202095D01*
X98604Y202018D01*
X98608Y201941D01*
X98608Y201863D01*
X98604Y201786D01*
X98596Y201709D01*
X98584Y201632D01*
X98569Y201557D01*
X98550Y201482D01*
X98527Y201408D01*
X98501Y201335D01*
X98471Y201264D01*
X98437Y201194D01*
X98400Y201126D01*
X98360Y201060D01*
X98316Y200996D01*
X98269Y200934D01*
X98220Y200875D01*
X98167Y200818D01*
X98112Y200764D01*
X98054Y200713D01*
X97993Y200665D01*
X97930Y200620D01*
X97865Y200578D01*
X97798Y200539D01*
X97729Y200504D01*
X97659Y200472D01*
X97587Y200444D01*
X97513Y200419D01*
X97439Y200398D01*
X97364Y200381D01*
X97287Y200367D01*
X97211Y200358D01*
X97133Y200352D01*
X97056Y200350D01*
X95504Y200350D01*
X100725Y199108D02*
X101966Y203454D01*
X100725Y199108D02*
X103829Y199108D01*
X102898Y200350D02*
X102898Y197866D01*
X97367Y194310D02*
X95504Y188722D01*
X99229Y188722D02*
X97367Y194310D01*
X98764Y190119D02*
X95970Y190119D01*
X101711Y190895D02*
X103263Y190274D01*
X101711Y190895D02*
X101660Y190917D01*
X101611Y190943D01*
X101563Y190972D01*
X101518Y191005D01*
X101475Y191041D01*
X101434Y191079D01*
X101397Y191121D01*
X101362Y191164D01*
X101330Y191210D01*
X101302Y191259D01*
X101277Y191309D01*
X101256Y191360D01*
X101238Y191413D01*
X101224Y191467D01*
X101214Y191522D01*
X101208Y191578D01*
X101205Y191633D01*
X101206Y191689D01*
X101212Y191745D01*
X101221Y191800D01*
X101233Y191854D01*
X101250Y191908D01*
X101270Y191960D01*
X101294Y192010D01*
X101321Y192059D01*
X101352Y192106D01*
X101386Y192150D01*
X101422Y192192D01*
X101462Y192232D01*
X101504Y192268D01*
X101549Y192302D01*
X101596Y192332D01*
X101644Y192359D01*
X101695Y192383D01*
X101747Y192403D01*
X101801Y192419D01*
X101855Y192432D01*
X101910Y192441D01*
X101966Y192446D01*
X102022Y192447D01*
X102021Y192448D02*
X102132Y192444D01*
X102243Y192438D01*
X102353Y192427D01*
X102463Y192413D01*
X102573Y192396D01*
X102682Y192376D01*
X102790Y192352D01*
X102897Y192324D01*
X103004Y192293D01*
X103109Y192259D01*
X103214Y192222D01*
X103317Y192181D01*
X103419Y192137D01*
X103263Y190274D02*
X103314Y190252D01*
X103363Y190226D01*
X103411Y190197D01*
X103456Y190164D01*
X103499Y190128D01*
X103540Y190090D01*
X103577Y190048D01*
X103612Y190005D01*
X103644Y189959D01*
X103672Y189910D01*
X103697Y189860D01*
X103718Y189809D01*
X103736Y189756D01*
X103750Y189702D01*
X103760Y189647D01*
X103766Y189591D01*
X103769Y189536D01*
X103768Y189480D01*
X103762Y189424D01*
X103753Y189369D01*
X103741Y189315D01*
X103724Y189261D01*
X103704Y189209D01*
X103680Y189159D01*
X103653Y189110D01*
X103622Y189063D01*
X103588Y189019D01*
X103552Y188977D01*
X103512Y188937D01*
X103470Y188901D01*
X103425Y188867D01*
X103378Y188837D01*
X103330Y188810D01*
X103279Y188786D01*
X103227Y188766D01*
X103173Y188750D01*
X103119Y188737D01*
X103064Y188728D01*
X103008Y188723D01*
X102952Y188722D01*
X102953Y188722D02*
X102819Y188725D01*
X102685Y188732D01*
X102551Y188743D01*
X102418Y188756D01*
X102285Y188774D01*
X102152Y188794D01*
X102020Y188818D01*
X101889Y188846D01*
X101758Y188876D01*
X101629Y188910D01*
X101500Y188948D01*
X101372Y188988D01*
X101245Y189032D01*
X95504Y185166D02*
X95504Y179578D01*
X95504Y185166D02*
X97056Y185166D01*
X97133Y185164D01*
X97211Y185158D01*
X97287Y185149D01*
X97364Y185135D01*
X97439Y185118D01*
X97513Y185097D01*
X97587Y185072D01*
X97659Y185044D01*
X97729Y185012D01*
X97798Y184977D01*
X97865Y184938D01*
X97930Y184896D01*
X97993Y184851D01*
X98054Y184803D01*
X98112Y184752D01*
X98167Y184698D01*
X98220Y184641D01*
X98269Y184582D01*
X98316Y184520D01*
X98360Y184456D01*
X98400Y184390D01*
X98437Y184322D01*
X98471Y184252D01*
X98501Y184181D01*
X98527Y184108D01*
X98550Y184034D01*
X98569Y183959D01*
X98584Y183884D01*
X98596Y183807D01*
X98604Y183730D01*
X98608Y183653D01*
X98608Y183575D01*
X98604Y183498D01*
X98596Y183421D01*
X98584Y183344D01*
X98569Y183269D01*
X98550Y183194D01*
X98527Y183120D01*
X98501Y183047D01*
X98471Y182976D01*
X98437Y182906D01*
X98400Y182838D01*
X98360Y182772D01*
X98316Y182708D01*
X98269Y182646D01*
X98220Y182587D01*
X98167Y182530D01*
X98112Y182476D01*
X98054Y182425D01*
X97993Y182377D01*
X97930Y182332D01*
X97865Y182290D01*
X97798Y182251D01*
X97729Y182216D01*
X97659Y182184D01*
X97587Y182156D01*
X97513Y182131D01*
X97439Y182110D01*
X97364Y182093D01*
X97287Y182079D01*
X97211Y182070D01*
X97133Y182064D01*
X97056Y182062D01*
X95504Y182062D01*
X100525Y185166D02*
X101766Y179578D01*
X103008Y183303D01*
X104250Y179578D01*
X105492Y185166D01*
X107912Y185166D02*
X107912Y179578D01*
X109775Y182062D02*
X107912Y185166D01*
X109775Y182062D02*
X111637Y185166D01*
X111637Y179578D01*
X95504Y176022D02*
X95504Y171986D01*
X95506Y171909D01*
X95512Y171831D01*
X95521Y171755D01*
X95535Y171678D01*
X95552Y171603D01*
X95573Y171529D01*
X95598Y171455D01*
X95626Y171383D01*
X95658Y171313D01*
X95693Y171244D01*
X95732Y171177D01*
X95774Y171112D01*
X95819Y171049D01*
X95867Y170988D01*
X95918Y170930D01*
X95972Y170875D01*
X96029Y170822D01*
X96088Y170773D01*
X96150Y170726D01*
X96214Y170682D01*
X96280Y170642D01*
X96348Y170605D01*
X96418Y170571D01*
X96489Y170541D01*
X96562Y170515D01*
X96636Y170492D01*
X96711Y170473D01*
X96786Y170458D01*
X96863Y170446D01*
X96940Y170438D01*
X97017Y170434D01*
X97095Y170434D01*
X97172Y170438D01*
X97249Y170446D01*
X97326Y170458D01*
X97401Y170473D01*
X97476Y170492D01*
X97550Y170515D01*
X97623Y170541D01*
X97694Y170571D01*
X97764Y170605D01*
X97832Y170642D01*
X97898Y170682D01*
X97962Y170726D01*
X98024Y170773D01*
X98083Y170822D01*
X98140Y170875D01*
X98194Y170930D01*
X98245Y170988D01*
X98293Y171049D01*
X98338Y171112D01*
X98380Y171177D01*
X98419Y171244D01*
X98454Y171313D01*
X98486Y171383D01*
X98514Y171455D01*
X98539Y171529D01*
X98560Y171603D01*
X98577Y171678D01*
X98591Y171755D01*
X98600Y171831D01*
X98606Y171909D01*
X98608Y171986D01*
X98608Y176022D01*
X104095Y171676D02*
X104093Y171606D01*
X104087Y171537D01*
X104077Y171468D01*
X104064Y171400D01*
X104046Y171332D01*
X104025Y171266D01*
X104000Y171201D01*
X103972Y171137D01*
X103940Y171075D01*
X103905Y171015D01*
X103866Y170957D01*
X103824Y170902D01*
X103779Y170848D01*
X103731Y170798D01*
X103681Y170750D01*
X103627Y170705D01*
X103572Y170663D01*
X103514Y170624D01*
X103454Y170589D01*
X103392Y170557D01*
X103328Y170529D01*
X103263Y170504D01*
X103197Y170483D01*
X103129Y170465D01*
X103061Y170452D01*
X102992Y170442D01*
X102923Y170436D01*
X102853Y170434D01*
X102754Y170436D01*
X102656Y170441D01*
X102558Y170451D01*
X102460Y170464D01*
X102363Y170480D01*
X102266Y170500D01*
X102171Y170524D01*
X102076Y170552D01*
X101982Y170583D01*
X101890Y170617D01*
X101799Y170655D01*
X101709Y170696D01*
X101621Y170741D01*
X101535Y170789D01*
X101451Y170840D01*
X101369Y170894D01*
X101288Y170952D01*
X101210Y171012D01*
X101135Y171075D01*
X101061Y171141D01*
X100991Y171210D01*
X101145Y174780D02*
X101147Y174850D01*
X101153Y174919D01*
X101163Y174988D01*
X101176Y175056D01*
X101194Y175124D01*
X101215Y175190D01*
X101240Y175255D01*
X101268Y175319D01*
X101300Y175381D01*
X101335Y175441D01*
X101374Y175499D01*
X101416Y175554D01*
X101461Y175608D01*
X101509Y175658D01*
X101559Y175706D01*
X101613Y175751D01*
X101668Y175793D01*
X101726Y175832D01*
X101786Y175867D01*
X101848Y175899D01*
X101912Y175927D01*
X101977Y175952D01*
X102043Y175973D01*
X102111Y175991D01*
X102179Y176004D01*
X102248Y176014D01*
X102317Y176020D01*
X102387Y176022D01*
X102481Y176020D01*
X102574Y176014D01*
X102667Y176005D01*
X102760Y175992D01*
X102852Y175975D01*
X102943Y175955D01*
X103034Y175930D01*
X103123Y175903D01*
X103211Y175871D01*
X103298Y175836D01*
X103384Y175798D01*
X103467Y175756D01*
X103549Y175711D01*
X103630Y175663D01*
X103708Y175611D01*
X103784Y175556D01*
X101767Y173694D02*
X101708Y173730D01*
X101652Y173770D01*
X101598Y173813D01*
X101546Y173858D01*
X101497Y173907D01*
X101451Y173958D01*
X101408Y174011D01*
X101367Y174067D01*
X101330Y174125D01*
X101295Y174185D01*
X101265Y174246D01*
X101237Y174309D01*
X101213Y174374D01*
X101193Y174440D01*
X101176Y174507D01*
X101163Y174574D01*
X101154Y174642D01*
X101148Y174711D01*
X101146Y174780D01*
X103474Y172762D02*
X103533Y172726D01*
X103589Y172686D01*
X103643Y172643D01*
X103695Y172598D01*
X103744Y172549D01*
X103790Y172498D01*
X103833Y172445D01*
X103874Y172389D01*
X103911Y172331D01*
X103946Y172271D01*
X103976Y172210D01*
X104004Y172147D01*
X104028Y172082D01*
X104048Y172016D01*
X104065Y171949D01*
X104078Y171882D01*
X104087Y171814D01*
X104093Y171745D01*
X104095Y171676D01*
X103474Y172762D02*
X101766Y173694D01*
X106560Y173538D02*
X108112Y173538D01*
X108189Y173536D01*
X108267Y173530D01*
X108343Y173521D01*
X108420Y173507D01*
X108495Y173490D01*
X108569Y173469D01*
X108643Y173444D01*
X108715Y173416D01*
X108785Y173384D01*
X108854Y173349D01*
X108921Y173310D01*
X108986Y173268D01*
X109049Y173223D01*
X109110Y173175D01*
X109168Y173124D01*
X109223Y173070D01*
X109276Y173013D01*
X109325Y172954D01*
X109372Y172892D01*
X109416Y172828D01*
X109456Y172762D01*
X109493Y172694D01*
X109527Y172624D01*
X109557Y172553D01*
X109583Y172480D01*
X109606Y172406D01*
X109625Y172331D01*
X109640Y172256D01*
X109652Y172179D01*
X109660Y172102D01*
X109664Y172025D01*
X109664Y171947D01*
X109660Y171870D01*
X109652Y171793D01*
X109640Y171716D01*
X109625Y171641D01*
X109606Y171566D01*
X109583Y171492D01*
X109557Y171419D01*
X109527Y171348D01*
X109493Y171278D01*
X109456Y171210D01*
X109416Y171144D01*
X109372Y171080D01*
X109325Y171018D01*
X109276Y170959D01*
X109223Y170902D01*
X109168Y170848D01*
X109110Y170797D01*
X109049Y170749D01*
X108986Y170704D01*
X108921Y170662D01*
X108854Y170623D01*
X108785Y170588D01*
X108715Y170556D01*
X108643Y170528D01*
X108569Y170503D01*
X108495Y170482D01*
X108420Y170465D01*
X108343Y170451D01*
X108267Y170442D01*
X108189Y170436D01*
X108112Y170434D01*
X106560Y170434D01*
X106560Y176022D01*
X108112Y176022D01*
X108182Y176020D01*
X108251Y176014D01*
X108320Y176004D01*
X108388Y175991D01*
X108456Y175973D01*
X108522Y175952D01*
X108587Y175927D01*
X108651Y175899D01*
X108713Y175867D01*
X108773Y175832D01*
X108831Y175793D01*
X108886Y175751D01*
X108940Y175706D01*
X108990Y175658D01*
X109038Y175608D01*
X109083Y175554D01*
X109125Y175499D01*
X109164Y175441D01*
X109199Y175381D01*
X109231Y175319D01*
X109259Y175255D01*
X109284Y175190D01*
X109305Y175124D01*
X109323Y175056D01*
X109336Y174988D01*
X109346Y174919D01*
X109352Y174850D01*
X109354Y174780D01*
X109352Y174710D01*
X109346Y174641D01*
X109336Y174572D01*
X109323Y174504D01*
X109305Y174436D01*
X109284Y174370D01*
X109259Y174305D01*
X109231Y174241D01*
X109199Y174179D01*
X109164Y174119D01*
X109125Y174061D01*
X109083Y174006D01*
X109038Y173952D01*
X108990Y173902D01*
X108940Y173854D01*
X108886Y173809D01*
X108831Y173767D01*
X108773Y173728D01*
X108713Y173693D01*
X108651Y173661D01*
X108587Y173633D01*
X108522Y173608D01*
X108456Y173587D01*
X108388Y173569D01*
X108320Y173556D01*
X108251Y173546D01*
X108182Y173540D01*
X108112Y173538D01*
X111836Y172607D02*
X115561Y172607D01*
X70104Y196342D02*
X70104Y201930D01*
X71656Y201930D01*
X71733Y201928D01*
X71811Y201922D01*
X71887Y201913D01*
X71964Y201899D01*
X72039Y201882D01*
X72113Y201861D01*
X72187Y201836D01*
X72259Y201808D01*
X72329Y201776D01*
X72398Y201741D01*
X72465Y201702D01*
X72530Y201660D01*
X72593Y201615D01*
X72654Y201567D01*
X72712Y201516D01*
X72767Y201462D01*
X72820Y201405D01*
X72869Y201346D01*
X72916Y201284D01*
X72960Y201220D01*
X73000Y201154D01*
X73037Y201086D01*
X73071Y201016D01*
X73101Y200945D01*
X73127Y200872D01*
X73150Y200798D01*
X73169Y200723D01*
X73184Y200648D01*
X73196Y200571D01*
X73204Y200494D01*
X73208Y200417D01*
X73208Y200339D01*
X73204Y200262D01*
X73196Y200185D01*
X73184Y200108D01*
X73169Y200033D01*
X73150Y199958D01*
X73127Y199884D01*
X73101Y199811D01*
X73071Y199740D01*
X73037Y199670D01*
X73000Y199602D01*
X72960Y199536D01*
X72916Y199472D01*
X72869Y199410D01*
X72820Y199351D01*
X72767Y199294D01*
X72712Y199240D01*
X72654Y199189D01*
X72593Y199141D01*
X72530Y199096D01*
X72465Y199054D01*
X72398Y199015D01*
X72329Y198980D01*
X72259Y198948D01*
X72187Y198920D01*
X72113Y198895D01*
X72039Y198874D01*
X71964Y198857D01*
X71887Y198843D01*
X71811Y198834D01*
X71733Y198828D01*
X71656Y198826D01*
X70104Y198826D01*
X75325Y196342D02*
X77187Y196342D01*
X77257Y196344D01*
X77326Y196350D01*
X77395Y196360D01*
X77463Y196373D01*
X77531Y196391D01*
X77597Y196412D01*
X77662Y196437D01*
X77726Y196465D01*
X77788Y196497D01*
X77848Y196532D01*
X77906Y196571D01*
X77961Y196613D01*
X78015Y196658D01*
X78065Y196706D01*
X78113Y196756D01*
X78158Y196810D01*
X78200Y196865D01*
X78239Y196923D01*
X78274Y196983D01*
X78306Y197045D01*
X78334Y197109D01*
X78359Y197174D01*
X78380Y197240D01*
X78398Y197308D01*
X78411Y197376D01*
X78421Y197445D01*
X78427Y197514D01*
X78429Y197584D01*
X78429Y198205D01*
X78427Y198275D01*
X78421Y198344D01*
X78411Y198413D01*
X78398Y198481D01*
X78380Y198549D01*
X78359Y198615D01*
X78334Y198680D01*
X78306Y198744D01*
X78274Y198806D01*
X78239Y198866D01*
X78200Y198924D01*
X78158Y198979D01*
X78113Y199033D01*
X78065Y199083D01*
X78015Y199131D01*
X77961Y199176D01*
X77906Y199218D01*
X77848Y199257D01*
X77788Y199292D01*
X77726Y199324D01*
X77662Y199352D01*
X77597Y199377D01*
X77531Y199398D01*
X77463Y199416D01*
X77395Y199429D01*
X77326Y199439D01*
X77257Y199445D01*
X77187Y199447D01*
X77187Y199446D02*
X75325Y199446D01*
X75325Y201930D01*
X78429Y201930D01*
X71967Y192786D02*
X70104Y187198D01*
X73829Y187198D02*
X71967Y192786D01*
X73364Y188595D02*
X70570Y188595D01*
X75901Y189992D02*
X75903Y190123D01*
X75908Y190253D01*
X75918Y190383D01*
X75931Y190513D01*
X75947Y190643D01*
X75967Y190772D01*
X75991Y190900D01*
X76019Y191027D01*
X76050Y191154D01*
X76085Y191280D01*
X76123Y191405D01*
X76165Y191529D01*
X76210Y191651D01*
X76259Y191772D01*
X76311Y191892D01*
X76367Y192010D01*
X76366Y192010D02*
X76389Y192070D01*
X76415Y192130D01*
X76444Y192187D01*
X76477Y192243D01*
X76513Y192297D01*
X76551Y192349D01*
X76593Y192399D01*
X76637Y192446D01*
X76684Y192491D01*
X76734Y192533D01*
X76785Y192572D01*
X76839Y192608D01*
X76895Y192641D01*
X76952Y192671D01*
X77011Y192698D01*
X77072Y192721D01*
X77133Y192741D01*
X77196Y192757D01*
X77260Y192770D01*
X77324Y192779D01*
X77388Y192784D01*
X77453Y192786D01*
X77518Y192784D01*
X77582Y192779D01*
X77646Y192770D01*
X77710Y192757D01*
X77773Y192741D01*
X77834Y192721D01*
X77895Y192698D01*
X77954Y192671D01*
X78011Y192641D01*
X78067Y192608D01*
X78121Y192572D01*
X78172Y192533D01*
X78222Y192491D01*
X78269Y192446D01*
X78313Y192399D01*
X78355Y192349D01*
X78393Y192297D01*
X78429Y192243D01*
X78462Y192187D01*
X78491Y192130D01*
X78517Y192070D01*
X78540Y192010D01*
X78596Y191892D01*
X78648Y191772D01*
X78697Y191651D01*
X78742Y191529D01*
X78784Y191405D01*
X78822Y191280D01*
X78857Y191154D01*
X78888Y191028D01*
X78916Y190900D01*
X78940Y190772D01*
X78960Y190643D01*
X78976Y190513D01*
X78989Y190383D01*
X78999Y190253D01*
X79004Y190123D01*
X79006Y189992D01*
X75901Y189992D02*
X75903Y189861D01*
X75908Y189731D01*
X75918Y189601D01*
X75931Y189471D01*
X75947Y189341D01*
X75967Y189212D01*
X75991Y189084D01*
X76019Y188957D01*
X76050Y188830D01*
X76085Y188704D01*
X76123Y188579D01*
X76165Y188455D01*
X76210Y188333D01*
X76259Y188212D01*
X76311Y188092D01*
X76367Y187974D01*
X76366Y187974D02*
X76389Y187914D01*
X76415Y187854D01*
X76444Y187797D01*
X76477Y187741D01*
X76513Y187687D01*
X76551Y187635D01*
X76593Y187585D01*
X76637Y187538D01*
X76684Y187493D01*
X76734Y187451D01*
X76785Y187412D01*
X76839Y187376D01*
X76895Y187343D01*
X76952Y187313D01*
X77011Y187286D01*
X77072Y187263D01*
X77133Y187243D01*
X77196Y187227D01*
X77260Y187214D01*
X77324Y187205D01*
X77388Y187200D01*
X77453Y187198D01*
X78539Y187974D02*
X78595Y188092D01*
X78647Y188212D01*
X78696Y188333D01*
X78741Y188455D01*
X78783Y188579D01*
X78821Y188704D01*
X78856Y188830D01*
X78887Y188956D01*
X78915Y189084D01*
X78939Y189212D01*
X78959Y189341D01*
X78975Y189471D01*
X78988Y189601D01*
X78998Y189731D01*
X79003Y189861D01*
X79005Y189992D01*
X78540Y187974D02*
X78517Y187914D01*
X78491Y187854D01*
X78462Y187797D01*
X78429Y187741D01*
X78393Y187687D01*
X78355Y187635D01*
X78313Y187585D01*
X78269Y187538D01*
X78222Y187493D01*
X78172Y187451D01*
X78121Y187412D01*
X78067Y187376D01*
X78011Y187343D01*
X77954Y187313D01*
X77895Y187286D01*
X77834Y187263D01*
X77773Y187243D01*
X77710Y187227D01*
X77646Y187214D01*
X77582Y187205D01*
X77518Y187200D01*
X77453Y187198D01*
X76211Y188440D02*
X78695Y191544D01*
X71656Y178054D02*
X70104Y178054D01*
X71656Y178054D02*
X71733Y178056D01*
X71811Y178062D01*
X71887Y178071D01*
X71964Y178085D01*
X72039Y178102D01*
X72113Y178123D01*
X72187Y178148D01*
X72259Y178176D01*
X72329Y178208D01*
X72398Y178243D01*
X72465Y178282D01*
X72530Y178324D01*
X72593Y178369D01*
X72654Y178417D01*
X72712Y178468D01*
X72767Y178522D01*
X72820Y178579D01*
X72869Y178638D01*
X72916Y178700D01*
X72960Y178764D01*
X73000Y178830D01*
X73037Y178898D01*
X73071Y178968D01*
X73101Y179039D01*
X73127Y179112D01*
X73150Y179186D01*
X73169Y179261D01*
X73184Y179336D01*
X73196Y179413D01*
X73204Y179490D01*
X73208Y179567D01*
X73208Y179645D01*
X73204Y179722D01*
X73196Y179799D01*
X73184Y179876D01*
X73169Y179951D01*
X73150Y180026D01*
X73127Y180100D01*
X73101Y180173D01*
X73071Y180244D01*
X73037Y180314D01*
X73000Y180382D01*
X72960Y180448D01*
X72916Y180512D01*
X72869Y180574D01*
X72820Y180633D01*
X72767Y180690D01*
X72712Y180744D01*
X72654Y180795D01*
X72593Y180843D01*
X72530Y180888D01*
X72465Y180930D01*
X72398Y180969D01*
X72329Y181004D01*
X72259Y181036D01*
X72187Y181064D01*
X72113Y181089D01*
X72039Y181110D01*
X71964Y181127D01*
X71887Y181141D01*
X71811Y181150D01*
X71733Y181156D01*
X71656Y181158D01*
X71967Y183642D02*
X70104Y183642D01*
X71967Y183642D02*
X72037Y183640D01*
X72106Y183634D01*
X72175Y183624D01*
X72243Y183611D01*
X72311Y183593D01*
X72377Y183572D01*
X72442Y183547D01*
X72506Y183519D01*
X72568Y183487D01*
X72628Y183452D01*
X72686Y183413D01*
X72741Y183371D01*
X72795Y183326D01*
X72845Y183278D01*
X72893Y183228D01*
X72938Y183174D01*
X72980Y183119D01*
X73019Y183061D01*
X73054Y183001D01*
X73086Y182939D01*
X73114Y182875D01*
X73139Y182810D01*
X73160Y182744D01*
X73178Y182676D01*
X73191Y182608D01*
X73201Y182539D01*
X73207Y182470D01*
X73209Y182400D01*
X73207Y182330D01*
X73201Y182261D01*
X73191Y182192D01*
X73178Y182124D01*
X73160Y182056D01*
X73139Y181990D01*
X73114Y181925D01*
X73086Y181861D01*
X73054Y181799D01*
X73019Y181739D01*
X72980Y181681D01*
X72938Y181626D01*
X72893Y181572D01*
X72845Y181522D01*
X72795Y181474D01*
X72741Y181429D01*
X72686Y181387D01*
X72628Y181348D01*
X72568Y181313D01*
X72506Y181281D01*
X72442Y181253D01*
X72377Y181228D01*
X72311Y181207D01*
X72243Y181189D01*
X72175Y181176D01*
X72106Y181166D01*
X72037Y181160D01*
X71967Y181158D01*
X70725Y181158D01*
X75352Y181779D02*
X76594Y178054D01*
X77836Y181779D01*
D15*
X190881Y141097D02*
X193336Y133731D01*
X195792Y141097D01*
X198457Y138642D02*
X198457Y133731D01*
X198252Y140688D02*
X198252Y141097D01*
X198662Y141097D01*
X198662Y140688D01*
X198252Y140688D01*
X201697Y138642D02*
X201697Y133731D01*
X201697Y138642D02*
X203743Y138642D01*
X203812Y138640D01*
X203880Y138634D01*
X203949Y138625D01*
X204016Y138611D01*
X204083Y138594D01*
X204149Y138573D01*
X204213Y138549D01*
X204276Y138520D01*
X204337Y138489D01*
X204396Y138454D01*
X204454Y138416D01*
X204509Y138374D01*
X204561Y138330D01*
X204611Y138282D01*
X204659Y138232D01*
X204703Y138180D01*
X204745Y138125D01*
X204783Y138067D01*
X204818Y138008D01*
X204849Y137947D01*
X204878Y137884D01*
X204902Y137820D01*
X204923Y137754D01*
X204940Y137687D01*
X204954Y137620D01*
X204963Y137551D01*
X204969Y137483D01*
X204971Y137414D01*
X204971Y133731D01*
X194973Y112423D02*
X193746Y112423D01*
X194973Y112423D02*
X194973Y108331D01*
X192518Y108331D01*
X192440Y108333D01*
X192362Y108338D01*
X192285Y108348D01*
X192208Y108361D01*
X192132Y108377D01*
X192057Y108397D01*
X191983Y108421D01*
X191910Y108448D01*
X191838Y108479D01*
X191768Y108513D01*
X191700Y108550D01*
X191633Y108591D01*
X191568Y108635D01*
X191506Y108681D01*
X191446Y108731D01*
X191388Y108783D01*
X191333Y108838D01*
X191281Y108896D01*
X191231Y108956D01*
X191185Y109018D01*
X191141Y109083D01*
X191100Y109150D01*
X191063Y109218D01*
X191029Y109288D01*
X190998Y109360D01*
X190971Y109433D01*
X190947Y109507D01*
X190927Y109582D01*
X190911Y109658D01*
X190898Y109735D01*
X190888Y109812D01*
X190883Y109890D01*
X190881Y109968D01*
X190881Y114060D01*
X190883Y114140D01*
X190889Y114220D01*
X190899Y114300D01*
X190912Y114379D01*
X190930Y114458D01*
X190951Y114535D01*
X190977Y114611D01*
X191006Y114686D01*
X191038Y114760D01*
X191074Y114832D01*
X191114Y114902D01*
X191157Y114969D01*
X191203Y115035D01*
X191253Y115098D01*
X191305Y115159D01*
X191360Y115218D01*
X191419Y115273D01*
X191479Y115325D01*
X191543Y115375D01*
X191609Y115421D01*
X191676Y115464D01*
X191746Y115504D01*
X191818Y115540D01*
X191892Y115572D01*
X191966Y115601D01*
X192043Y115627D01*
X192120Y115648D01*
X192199Y115666D01*
X192278Y115679D01*
X192358Y115689D01*
X192438Y115695D01*
X192518Y115697D01*
X194973Y115697D01*
X198684Y115697D02*
X198684Y108331D01*
X202776Y108331D02*
X198684Y115697D01*
X202776Y115697D02*
X202776Y108331D01*
X206487Y108331D02*
X206487Y115697D01*
X208533Y115697D01*
X208622Y115695D01*
X208711Y115689D01*
X208800Y115679D01*
X208888Y115666D01*
X208976Y115649D01*
X209063Y115627D01*
X209148Y115602D01*
X209233Y115574D01*
X209316Y115541D01*
X209398Y115505D01*
X209478Y115466D01*
X209556Y115423D01*
X209632Y115377D01*
X209707Y115327D01*
X209779Y115274D01*
X209848Y115218D01*
X209915Y115159D01*
X209980Y115098D01*
X210041Y115033D01*
X210100Y114966D01*
X210156Y114897D01*
X210209Y114825D01*
X210259Y114750D01*
X210305Y114674D01*
X210348Y114596D01*
X210387Y114516D01*
X210423Y114434D01*
X210456Y114351D01*
X210484Y114266D01*
X210509Y114181D01*
X210531Y114094D01*
X210548Y114006D01*
X210561Y113918D01*
X210571Y113829D01*
X210577Y113740D01*
X210579Y113651D01*
X210579Y110377D01*
X210577Y110288D01*
X210571Y110199D01*
X210561Y110110D01*
X210548Y110022D01*
X210531Y109934D01*
X210509Y109847D01*
X210484Y109762D01*
X210456Y109677D01*
X210423Y109594D01*
X210387Y109512D01*
X210348Y109432D01*
X210305Y109354D01*
X210259Y109278D01*
X210209Y109203D01*
X210156Y109131D01*
X210100Y109062D01*
X210041Y108995D01*
X209980Y108930D01*
X209915Y108869D01*
X209848Y108810D01*
X209779Y108754D01*
X209707Y108701D01*
X209632Y108651D01*
X209556Y108605D01*
X209478Y108562D01*
X209398Y108523D01*
X209316Y108487D01*
X209233Y108454D01*
X209148Y108426D01*
X209063Y108401D01*
X208976Y108379D01*
X208888Y108362D01*
X208800Y108349D01*
X208711Y108339D01*
X208622Y108333D01*
X208533Y108331D01*
X206487Y108331D01*
X195792Y85796D02*
X190881Y85796D01*
X193336Y88251D02*
X193336Y83340D01*
X199093Y82931D02*
X201548Y82931D01*
X201626Y82933D01*
X201704Y82938D01*
X201781Y82948D01*
X201858Y82961D01*
X201934Y82977D01*
X202009Y82997D01*
X202083Y83021D01*
X202156Y83048D01*
X202228Y83079D01*
X202298Y83113D01*
X202367Y83150D01*
X202433Y83191D01*
X202498Y83235D01*
X202560Y83281D01*
X202620Y83331D01*
X202678Y83383D01*
X202733Y83438D01*
X202785Y83496D01*
X202835Y83556D01*
X202881Y83618D01*
X202925Y83683D01*
X202966Y83750D01*
X203003Y83818D01*
X203037Y83888D01*
X203068Y83960D01*
X203095Y84033D01*
X203119Y84107D01*
X203139Y84182D01*
X203155Y84258D01*
X203168Y84335D01*
X203178Y84412D01*
X203183Y84490D01*
X203185Y84568D01*
X203185Y85386D01*
X203183Y85464D01*
X203178Y85542D01*
X203168Y85619D01*
X203155Y85696D01*
X203139Y85772D01*
X203119Y85847D01*
X203095Y85921D01*
X203068Y85994D01*
X203037Y86066D01*
X203003Y86136D01*
X202966Y86205D01*
X202925Y86271D01*
X202881Y86336D01*
X202835Y86398D01*
X202785Y86458D01*
X202733Y86516D01*
X202678Y86571D01*
X202620Y86623D01*
X202560Y86673D01*
X202498Y86719D01*
X202433Y86763D01*
X202367Y86804D01*
X202298Y86841D01*
X202228Y86875D01*
X202156Y86906D01*
X202083Y86933D01*
X202009Y86957D01*
X201934Y86977D01*
X201858Y86993D01*
X201781Y87006D01*
X201704Y87016D01*
X201626Y87021D01*
X201548Y87023D01*
X199093Y87023D01*
X199093Y90297D01*
X203185Y90297D01*
X206086Y87842D02*
X207723Y82931D01*
X209360Y87842D01*
D16*
X51308Y245054D02*
X51308Y253492D01*
X51308Y245054D02*
X51310Y244941D01*
X51316Y244828D01*
X51326Y244715D01*
X51340Y244602D01*
X51357Y244490D01*
X51379Y244379D01*
X51404Y244269D01*
X51434Y244159D01*
X51467Y244051D01*
X51504Y243944D01*
X51544Y243838D01*
X51589Y243734D01*
X51637Y243631D01*
X51688Y243530D01*
X51743Y243431D01*
X51801Y243334D01*
X51863Y243239D01*
X51928Y243146D01*
X51996Y243056D01*
X52067Y242968D01*
X52142Y242882D01*
X52219Y242799D01*
X52299Y242719D01*
X52382Y242642D01*
X52468Y242567D01*
X52556Y242496D01*
X52646Y242428D01*
X52739Y242363D01*
X52834Y242301D01*
X52931Y242243D01*
X53030Y242188D01*
X53131Y242137D01*
X53234Y242089D01*
X53338Y242044D01*
X53444Y242004D01*
X53551Y241967D01*
X53659Y241934D01*
X53769Y241904D01*
X53879Y241879D01*
X53990Y241857D01*
X54102Y241840D01*
X54215Y241826D01*
X54328Y241816D01*
X54441Y241810D01*
X54554Y241808D01*
X54667Y241810D01*
X54780Y241816D01*
X54893Y241826D01*
X55006Y241840D01*
X55118Y241857D01*
X55229Y241879D01*
X55339Y241904D01*
X55449Y241934D01*
X55557Y241967D01*
X55664Y242004D01*
X55770Y242044D01*
X55874Y242089D01*
X55977Y242137D01*
X56078Y242188D01*
X56177Y242243D01*
X56274Y242301D01*
X56369Y242363D01*
X56462Y242428D01*
X56552Y242496D01*
X56640Y242567D01*
X56726Y242642D01*
X56809Y242719D01*
X56889Y242799D01*
X56966Y242882D01*
X57041Y242968D01*
X57112Y243056D01*
X57180Y243146D01*
X57245Y243239D01*
X57307Y243334D01*
X57365Y243431D01*
X57420Y243530D01*
X57471Y243631D01*
X57519Y243734D01*
X57564Y243838D01*
X57604Y243944D01*
X57641Y244051D01*
X57674Y244159D01*
X57704Y244269D01*
X57729Y244379D01*
X57751Y244490D01*
X57768Y244602D01*
X57782Y244715D01*
X57792Y244828D01*
X57798Y244941D01*
X57800Y245054D01*
X57799Y245054D02*
X57799Y253492D01*
X65603Y253492D02*
X65603Y241808D01*
X65603Y247650D02*
X63980Y248624D01*
X63979Y248623D02*
X63906Y248670D01*
X63835Y248719D01*
X63765Y248772D01*
X63699Y248828D01*
X63635Y248887D01*
X63573Y248948D01*
X63515Y249012D01*
X63459Y249079D01*
X63407Y249148D01*
X63357Y249220D01*
X63311Y249294D01*
X63268Y249369D01*
X63229Y249447D01*
X63193Y249526D01*
X63161Y249607D01*
X63132Y249689D01*
X63107Y249772D01*
X63086Y249856D01*
X63069Y249941D01*
X63055Y250027D01*
X63046Y250113D01*
X63040Y250200D01*
X63038Y250287D01*
X63040Y250374D01*
X63046Y250461D01*
X63056Y250547D01*
X63069Y250633D01*
X63087Y250718D01*
X63108Y250802D01*
X63133Y250885D01*
X63162Y250968D01*
X63194Y251048D01*
X63230Y251127D01*
X63269Y251205D01*
X63312Y251280D01*
X63359Y251354D01*
X63408Y251425D01*
X63461Y251495D01*
X63516Y251561D01*
X63575Y251625D01*
X63636Y251687D01*
X63701Y251746D01*
X63767Y251801D01*
X63836Y251854D01*
X63908Y251904D01*
X63981Y251950D01*
X64057Y251993D01*
X64134Y252032D01*
X64213Y252068D01*
X64294Y252101D01*
X64376Y252129D01*
X64459Y252155D01*
X64543Y252176D01*
X64629Y252193D01*
X64629Y252194D02*
X64769Y252218D01*
X64911Y252238D01*
X65052Y252254D01*
X65194Y252265D01*
X65337Y252273D01*
X65479Y252277D01*
X65622Y252278D01*
X65765Y252274D01*
X65907Y252266D01*
X66049Y252254D01*
X66191Y252238D01*
X66332Y252219D01*
X66473Y252195D01*
X66613Y252168D01*
X66752Y252136D01*
X66890Y252101D01*
X67028Y252062D01*
X67164Y252019D01*
X67298Y251973D01*
X67432Y251922D01*
X67564Y251869D01*
X67694Y251811D01*
X67823Y251750D01*
X67950Y251685D01*
X68076Y251617D01*
X68199Y251545D01*
X65603Y247650D02*
X67225Y246676D01*
X67226Y246677D02*
X67299Y246630D01*
X67370Y246581D01*
X67440Y246528D01*
X67506Y246472D01*
X67570Y246413D01*
X67632Y246352D01*
X67690Y246288D01*
X67746Y246221D01*
X67798Y246152D01*
X67848Y246080D01*
X67894Y246006D01*
X67937Y245931D01*
X67976Y245853D01*
X68012Y245774D01*
X68044Y245693D01*
X68073Y245611D01*
X68098Y245528D01*
X68119Y245444D01*
X68136Y245359D01*
X68150Y245273D01*
X68159Y245187D01*
X68165Y245100D01*
X68167Y245013D01*
X68165Y244926D01*
X68159Y244839D01*
X68149Y244753D01*
X68136Y244667D01*
X68118Y244582D01*
X68097Y244498D01*
X68072Y244415D01*
X68043Y244332D01*
X68011Y244252D01*
X67975Y244173D01*
X67936Y244095D01*
X67893Y244020D01*
X67846Y243946D01*
X67797Y243875D01*
X67744Y243805D01*
X67689Y243739D01*
X67630Y243675D01*
X67569Y243613D01*
X67504Y243554D01*
X67438Y243499D01*
X67369Y243446D01*
X67297Y243396D01*
X67224Y243350D01*
X67148Y243307D01*
X67071Y243268D01*
X66992Y243232D01*
X66911Y243199D01*
X66829Y243171D01*
X66746Y243145D01*
X66662Y243124D01*
X66577Y243107D01*
X66576Y243106D02*
X66436Y243082D01*
X66294Y243062D01*
X66153Y243046D01*
X66011Y243035D01*
X65868Y243027D01*
X65726Y243023D01*
X65583Y243022D01*
X65440Y243026D01*
X65298Y243034D01*
X65156Y243046D01*
X65014Y243062D01*
X64873Y243081D01*
X64732Y243105D01*
X64592Y243132D01*
X64453Y243164D01*
X64315Y243199D01*
X64177Y243238D01*
X64041Y243281D01*
X63907Y243327D01*
X63773Y243378D01*
X63641Y243431D01*
X63511Y243489D01*
X63382Y243550D01*
X63255Y243615D01*
X63129Y243683D01*
X63006Y243755D01*
X73025Y250896D02*
X76271Y253492D01*
X76271Y241808D01*
X79516Y241808D02*
X73025Y241808D01*
M02*
