%TF.GenerationSoftware,KiCad,Pcbnew,7.0.2-0*%
%TF.CreationDate,2023-08-29T15:14:14-06:00*%
%TF.ProjectId,ble_keyboard_kicad,626c655f-6b65-4796-926f-6172645f6b69,rev?*%
%TF.SameCoordinates,Original*%
%TF.FileFunction,Legend,Top*%
%TF.FilePolarity,Positive*%
%FSLAX46Y46*%
G04 Gerber Fmt 4.6, Leading zero omitted, Abs format (unit mm)*
G04 Created by KiCad (PCBNEW 7.0.2-0) date 2023-08-29 15:14:14*
%MOMM*%
%LPD*%
G01*
G04 APERTURE LIST*
%ADD10C,0.150000*%
%ADD11C,0.120000*%
%ADD12C,0.000000*%
G04 APERTURE END LIST*
D10*
%TO.C,J2*%
X148652619Y-81533333D02*
X149366904Y-81533333D01*
X149366904Y-81533333D02*
X149509761Y-81580952D01*
X149509761Y-81580952D02*
X149605000Y-81676190D01*
X149605000Y-81676190D02*
X149652619Y-81819047D01*
X149652619Y-81819047D02*
X149652619Y-81914285D01*
X148747857Y-81104761D02*
X148700238Y-81057142D01*
X148700238Y-81057142D02*
X148652619Y-80961904D01*
X148652619Y-80961904D02*
X148652619Y-80723809D01*
X148652619Y-80723809D02*
X148700238Y-80628571D01*
X148700238Y-80628571D02*
X148747857Y-80580952D01*
X148747857Y-80580952D02*
X148843095Y-80533333D01*
X148843095Y-80533333D02*
X148938333Y-80533333D01*
X148938333Y-80533333D02*
X149081190Y-80580952D01*
X149081190Y-80580952D02*
X149652619Y-81152380D01*
X149652619Y-81152380D02*
X149652619Y-80533333D01*
%TO.C,U1*%
X140638095Y-57262619D02*
X140638095Y-58072142D01*
X140638095Y-58072142D02*
X140685714Y-58167380D01*
X140685714Y-58167380D02*
X140733333Y-58215000D01*
X140733333Y-58215000D02*
X140828571Y-58262619D01*
X140828571Y-58262619D02*
X141019047Y-58262619D01*
X141019047Y-58262619D02*
X141114285Y-58215000D01*
X141114285Y-58215000D02*
X141161904Y-58167380D01*
X141161904Y-58167380D02*
X141209523Y-58072142D01*
X141209523Y-58072142D02*
X141209523Y-57262619D01*
X142209523Y-58262619D02*
X141638095Y-58262619D01*
X141923809Y-58262619D02*
X141923809Y-57262619D01*
X141923809Y-57262619D02*
X141828571Y-57405476D01*
X141828571Y-57405476D02*
X141733333Y-57500714D01*
X141733333Y-57500714D02*
X141638095Y-57548333D01*
X136638094Y-60926904D02*
X137114284Y-60926904D01*
X136542856Y-61212619D02*
X136876189Y-60212619D01*
X136876189Y-60212619D02*
X137209522Y-61212619D01*
X137542856Y-60545952D02*
X137542856Y-61212619D01*
X137542856Y-60641190D02*
X137590475Y-60593571D01*
X137590475Y-60593571D02*
X137685713Y-60545952D01*
X137685713Y-60545952D02*
X137828570Y-60545952D01*
X137828570Y-60545952D02*
X137923808Y-60593571D01*
X137923808Y-60593571D02*
X137971427Y-60688809D01*
X137971427Y-60688809D02*
X137971427Y-61212619D01*
X138304761Y-60545952D02*
X138685713Y-60545952D01*
X138447618Y-60212619D02*
X138447618Y-61069761D01*
X138447618Y-61069761D02*
X138495237Y-61165000D01*
X138495237Y-61165000D02*
X138590475Y-61212619D01*
X138590475Y-61212619D02*
X138685713Y-61212619D01*
X139399999Y-61165000D02*
X139304761Y-61212619D01*
X139304761Y-61212619D02*
X139114285Y-61212619D01*
X139114285Y-61212619D02*
X139019047Y-61165000D01*
X139019047Y-61165000D02*
X138971428Y-61069761D01*
X138971428Y-61069761D02*
X138971428Y-60688809D01*
X138971428Y-60688809D02*
X139019047Y-60593571D01*
X139019047Y-60593571D02*
X139114285Y-60545952D01*
X139114285Y-60545952D02*
X139304761Y-60545952D01*
X139304761Y-60545952D02*
X139399999Y-60593571D01*
X139399999Y-60593571D02*
X139447618Y-60688809D01*
X139447618Y-60688809D02*
X139447618Y-60784047D01*
X139447618Y-60784047D02*
X138971428Y-60879285D01*
X139876190Y-60545952D02*
X139876190Y-61212619D01*
X139876190Y-60641190D02*
X139923809Y-60593571D01*
X139923809Y-60593571D02*
X140019047Y-60545952D01*
X140019047Y-60545952D02*
X140161904Y-60545952D01*
X140161904Y-60545952D02*
X140257142Y-60593571D01*
X140257142Y-60593571D02*
X140304761Y-60688809D01*
X140304761Y-60688809D02*
X140304761Y-61212619D01*
X140780952Y-60545952D02*
X140780952Y-61212619D01*
X140780952Y-60641190D02*
X140828571Y-60593571D01*
X140828571Y-60593571D02*
X140923809Y-60545952D01*
X140923809Y-60545952D02*
X141066666Y-60545952D01*
X141066666Y-60545952D02*
X141161904Y-60593571D01*
X141161904Y-60593571D02*
X141209523Y-60688809D01*
X141209523Y-60688809D02*
X141209523Y-61212619D01*
X142114285Y-61212619D02*
X142114285Y-60688809D01*
X142114285Y-60688809D02*
X142066666Y-60593571D01*
X142066666Y-60593571D02*
X141971428Y-60545952D01*
X141971428Y-60545952D02*
X141780952Y-60545952D01*
X141780952Y-60545952D02*
X141685714Y-60593571D01*
X142114285Y-61165000D02*
X142019047Y-61212619D01*
X142019047Y-61212619D02*
X141780952Y-61212619D01*
X141780952Y-61212619D02*
X141685714Y-61165000D01*
X141685714Y-61165000D02*
X141638095Y-61069761D01*
X141638095Y-61069761D02*
X141638095Y-60974523D01*
X141638095Y-60974523D02*
X141685714Y-60879285D01*
X141685714Y-60879285D02*
X141780952Y-60831666D01*
X141780952Y-60831666D02*
X142019047Y-60831666D01*
X142019047Y-60831666D02*
X142114285Y-60784047D01*
X143304762Y-60926904D02*
X143780952Y-60926904D01*
X143209524Y-61212619D02*
X143542857Y-60212619D01*
X143542857Y-60212619D02*
X143876190Y-61212619D01*
X144209524Y-61212619D02*
X144209524Y-60545952D01*
X144209524Y-60736428D02*
X144257143Y-60641190D01*
X144257143Y-60641190D02*
X144304762Y-60593571D01*
X144304762Y-60593571D02*
X144400000Y-60545952D01*
X144400000Y-60545952D02*
X144495238Y-60545952D01*
X145209524Y-61165000D02*
X145114286Y-61212619D01*
X145114286Y-61212619D02*
X144923810Y-61212619D01*
X144923810Y-61212619D02*
X144828572Y-61165000D01*
X144828572Y-61165000D02*
X144780953Y-61069761D01*
X144780953Y-61069761D02*
X144780953Y-60688809D01*
X144780953Y-60688809D02*
X144828572Y-60593571D01*
X144828572Y-60593571D02*
X144923810Y-60545952D01*
X144923810Y-60545952D02*
X145114286Y-60545952D01*
X145114286Y-60545952D02*
X145209524Y-60593571D01*
X145209524Y-60593571D02*
X145257143Y-60688809D01*
X145257143Y-60688809D02*
X145257143Y-60784047D01*
X145257143Y-60784047D02*
X144780953Y-60879285D01*
X146114286Y-61212619D02*
X146114286Y-60688809D01*
X146114286Y-60688809D02*
X146066667Y-60593571D01*
X146066667Y-60593571D02*
X145971429Y-60545952D01*
X145971429Y-60545952D02*
X145780953Y-60545952D01*
X145780953Y-60545952D02*
X145685715Y-60593571D01*
X146114286Y-61165000D02*
X146019048Y-61212619D01*
X146019048Y-61212619D02*
X145780953Y-61212619D01*
X145780953Y-61212619D02*
X145685715Y-61165000D01*
X145685715Y-61165000D02*
X145638096Y-61069761D01*
X145638096Y-61069761D02*
X145638096Y-60974523D01*
X145638096Y-60974523D02*
X145685715Y-60879285D01*
X145685715Y-60879285D02*
X145780953Y-60831666D01*
X145780953Y-60831666D02*
X146019048Y-60831666D01*
X146019048Y-60831666D02*
X146114286Y-60784047D01*
D11*
%TO.C,J2*%
X145150000Y-79870000D02*
X134930000Y-79870000D01*
X145150000Y-79870000D02*
X145150000Y-82530000D01*
X134930000Y-79870000D02*
X134930000Y-82530000D01*
X147750000Y-81200000D02*
X147750000Y-82530000D01*
X147750000Y-82530000D02*
X146420000Y-82530000D01*
X145150000Y-82530000D02*
X134930000Y-82530000D01*
%TO.C,U1*%
X133550000Y-79050000D02*
X133550000Y-78000000D01*
X133700000Y-58900000D02*
X133700000Y-63500000D01*
X133700000Y-58900000D02*
X149100000Y-58900000D01*
X133700000Y-78900000D02*
X133700000Y-63500000D01*
X134600000Y-58750000D02*
X133400000Y-58750000D01*
X134600000Y-79050000D02*
X133550000Y-79050000D01*
X148200000Y-58750000D02*
X149250000Y-58750000D01*
X148200000Y-79050000D02*
X149250000Y-79050000D01*
X149100000Y-58900000D02*
X149100000Y-63500000D01*
X149100000Y-63500000D02*
X149100000Y-78900000D01*
X149100000Y-78900000D02*
X133700000Y-78900000D01*
X149250000Y-58750000D02*
X149250000Y-59800000D01*
X149250000Y-79050000D02*
X149250000Y-78000000D01*
%TD*%
D10*
%TO.C,U2*%
X136961904Y-70662619D02*
X136961904Y-71472142D01*
X136961904Y-71472142D02*
X136914285Y-71567380D01*
X136914285Y-71567380D02*
X136866666Y-71615000D01*
X136866666Y-71615000D02*
X136771428Y-71662619D01*
X136771428Y-71662619D02*
X136580952Y-71662619D01*
X136580952Y-71662619D02*
X136485714Y-71615000D01*
X136485714Y-71615000D02*
X136438095Y-71567380D01*
X136438095Y-71567380D02*
X136390476Y-71472142D01*
X136390476Y-71472142D02*
X136390476Y-70662619D01*
X135961904Y-70757857D02*
X135914285Y-70710238D01*
X135914285Y-70710238D02*
X135819047Y-70662619D01*
X135819047Y-70662619D02*
X135580952Y-70662619D01*
X135580952Y-70662619D02*
X135485714Y-70710238D01*
X135485714Y-70710238D02*
X135438095Y-70757857D01*
X135438095Y-70757857D02*
X135390476Y-70853095D01*
X135390476Y-70853095D02*
X135390476Y-70948333D01*
X135390476Y-70948333D02*
X135438095Y-71091190D01*
X135438095Y-71091190D02*
X136009523Y-71662619D01*
X136009523Y-71662619D02*
X135390476Y-71662619D01*
%TO.C,C1*%
X135717380Y-68033333D02*
X135765000Y-67985714D01*
X135765000Y-67985714D02*
X135812619Y-67842857D01*
X135812619Y-67842857D02*
X135812619Y-67747619D01*
X135812619Y-67747619D02*
X135765000Y-67604762D01*
X135765000Y-67604762D02*
X135669761Y-67509524D01*
X135669761Y-67509524D02*
X135574523Y-67461905D01*
X135574523Y-67461905D02*
X135384047Y-67414286D01*
X135384047Y-67414286D02*
X135241190Y-67414286D01*
X135241190Y-67414286D02*
X135050714Y-67461905D01*
X135050714Y-67461905D02*
X134955476Y-67509524D01*
X134955476Y-67509524D02*
X134860238Y-67604762D01*
X134860238Y-67604762D02*
X134812619Y-67747619D01*
X134812619Y-67747619D02*
X134812619Y-67842857D01*
X134812619Y-67842857D02*
X134860238Y-67985714D01*
X134860238Y-67985714D02*
X134907857Y-68033333D01*
X135812619Y-68985714D02*
X135812619Y-68414286D01*
X135812619Y-68700000D02*
X134812619Y-68700000D01*
X134812619Y-68700000D02*
X134955476Y-68604762D01*
X134955476Y-68604762D02*
X135050714Y-68509524D01*
X135050714Y-68509524D02*
X135098333Y-68414286D01*
%TO.C,U3*%
X143261904Y-63462619D02*
X143261904Y-64272142D01*
X143261904Y-64272142D02*
X143214285Y-64367380D01*
X143214285Y-64367380D02*
X143166666Y-64415000D01*
X143166666Y-64415000D02*
X143071428Y-64462619D01*
X143071428Y-64462619D02*
X142880952Y-64462619D01*
X142880952Y-64462619D02*
X142785714Y-64415000D01*
X142785714Y-64415000D02*
X142738095Y-64367380D01*
X142738095Y-64367380D02*
X142690476Y-64272142D01*
X142690476Y-64272142D02*
X142690476Y-63462619D01*
X142309523Y-63462619D02*
X141690476Y-63462619D01*
X141690476Y-63462619D02*
X142023809Y-63843571D01*
X142023809Y-63843571D02*
X141880952Y-63843571D01*
X141880952Y-63843571D02*
X141785714Y-63891190D01*
X141785714Y-63891190D02*
X141738095Y-63938809D01*
X141738095Y-63938809D02*
X141690476Y-64034047D01*
X141690476Y-64034047D02*
X141690476Y-64272142D01*
X141690476Y-64272142D02*
X141738095Y-64367380D01*
X141738095Y-64367380D02*
X141785714Y-64415000D01*
X141785714Y-64415000D02*
X141880952Y-64462619D01*
X141880952Y-64462619D02*
X142166666Y-64462619D01*
X142166666Y-64462619D02*
X142261904Y-64415000D01*
X142261904Y-64415000D02*
X142309523Y-64367380D01*
%TO.C,SW1*%
X143515000Y-72166667D02*
X143562619Y-72309524D01*
X143562619Y-72309524D02*
X143562619Y-72547619D01*
X143562619Y-72547619D02*
X143515000Y-72642857D01*
X143515000Y-72642857D02*
X143467380Y-72690476D01*
X143467380Y-72690476D02*
X143372142Y-72738095D01*
X143372142Y-72738095D02*
X143276904Y-72738095D01*
X143276904Y-72738095D02*
X143181666Y-72690476D01*
X143181666Y-72690476D02*
X143134047Y-72642857D01*
X143134047Y-72642857D02*
X143086428Y-72547619D01*
X143086428Y-72547619D02*
X143038809Y-72357143D01*
X143038809Y-72357143D02*
X142991190Y-72261905D01*
X142991190Y-72261905D02*
X142943571Y-72214286D01*
X142943571Y-72214286D02*
X142848333Y-72166667D01*
X142848333Y-72166667D02*
X142753095Y-72166667D01*
X142753095Y-72166667D02*
X142657857Y-72214286D01*
X142657857Y-72214286D02*
X142610238Y-72261905D01*
X142610238Y-72261905D02*
X142562619Y-72357143D01*
X142562619Y-72357143D02*
X142562619Y-72595238D01*
X142562619Y-72595238D02*
X142610238Y-72738095D01*
X142562619Y-73071429D02*
X143562619Y-73309524D01*
X143562619Y-73309524D02*
X142848333Y-73500000D01*
X142848333Y-73500000D02*
X143562619Y-73690476D01*
X143562619Y-73690476D02*
X142562619Y-73928572D01*
X143562619Y-74833333D02*
X143562619Y-74261905D01*
X143562619Y-74547619D02*
X142562619Y-74547619D01*
X142562619Y-74547619D02*
X142705476Y-74452381D01*
X142705476Y-74452381D02*
X142800714Y-74357143D01*
X142800714Y-74357143D02*
X142848333Y-74261905D01*
D11*
%TO.C,U2*%
X138700000Y-72570000D02*
X137560000Y-72570000D01*
X137560000Y-77060000D02*
X137560000Y-76830000D01*
X137560000Y-72340000D02*
X137560000Y-72570000D01*
X137560000Y-72340000D02*
X134840000Y-72340000D01*
X134840000Y-77060000D02*
X137560000Y-77060000D01*
X134840000Y-75750000D02*
X134840000Y-77060000D01*
X134840000Y-72340000D02*
X134840000Y-73650000D01*
%TO.C,C1*%
X138110000Y-67488748D02*
X138110000Y-68911252D01*
X136290000Y-67488748D02*
X136290000Y-68911252D01*
%TO.C,U3*%
X141600000Y-65290000D02*
X144050000Y-65290000D01*
X143400000Y-68510000D02*
X141600000Y-68510000D01*
%TO.C,SW1*%
X146230000Y-70050000D02*
X147020000Y-70050000D01*
X148030000Y-70650000D02*
X148030000Y-76350000D01*
X145180000Y-71900000D02*
X145180000Y-73600000D01*
X149320000Y-72100000D02*
X149530000Y-72300000D01*
X148030000Y-72100000D02*
X149320000Y-72100000D01*
X149530000Y-72300000D02*
X149530000Y-73200000D01*
X149320000Y-73400000D02*
X149530000Y-73200000D01*
X149320000Y-73400000D02*
X148030000Y-73400000D01*
X145180000Y-74900000D02*
X145180000Y-75100000D01*
X147020000Y-76950000D02*
X146230000Y-76950000D01*
%TD*%
D12*
G36*
X147200935Y-80120491D02*
G01*
X147208998Y-80121617D01*
X147216783Y-80123311D01*
X147224274Y-80125549D01*
X147231457Y-80128307D01*
X147238317Y-80131561D01*
X147244838Y-80135287D01*
X147251005Y-80139461D01*
X147256804Y-80144061D01*
X147262218Y-80149061D01*
X147267234Y-80154439D01*
X147271835Y-80160170D01*
X147276007Y-80166230D01*
X147279734Y-80172597D01*
X147283002Y-80179246D01*
X147285795Y-80186153D01*
X147288099Y-80193295D01*
X147289898Y-80200648D01*
X147291176Y-80208188D01*
X147291920Y-80215891D01*
X147292113Y-80223733D01*
X147291741Y-80231692D01*
X147290789Y-80239742D01*
X147289241Y-80247860D01*
X147287082Y-80256023D01*
X147284297Y-80264207D01*
X147280872Y-80272388D01*
X147276791Y-80280541D01*
X147272038Y-80288644D01*
X147266163Y-80297159D01*
X147258934Y-80306491D01*
X147250472Y-80316533D01*
X147240894Y-80327174D01*
X147230320Y-80338308D01*
X147218869Y-80349825D01*
X147206659Y-80361617D01*
X147193809Y-80373576D01*
X147180439Y-80385592D01*
X147166666Y-80397558D01*
X147152610Y-80409364D01*
X147138390Y-80420903D01*
X147124125Y-80432066D01*
X147109932Y-80442744D01*
X147095932Y-80452828D01*
X147082243Y-80462211D01*
X147043126Y-80486582D01*
X147002604Y-80508617D01*
X146960824Y-80528292D01*
X146917937Y-80545588D01*
X146874091Y-80560482D01*
X146829434Y-80572952D01*
X146784116Y-80582976D01*
X146738285Y-80590534D01*
X146692090Y-80595603D01*
X146645681Y-80598161D01*
X146599205Y-80598188D01*
X146552812Y-80595660D01*
X146506651Y-80590557D01*
X146460869Y-80582857D01*
X146415617Y-80572538D01*
X146371043Y-80559578D01*
X146347022Y-80551392D01*
X146322902Y-80542217D01*
X146298767Y-80532103D01*
X146274702Y-80521103D01*
X146250790Y-80509267D01*
X146227114Y-80496648D01*
X146203759Y-80483297D01*
X146180808Y-80469267D01*
X146158345Y-80454607D01*
X146136453Y-80439371D01*
X146115217Y-80423610D01*
X146094719Y-80407376D01*
X146075044Y-80390720D01*
X146056276Y-80373694D01*
X146038498Y-80356350D01*
X146021793Y-80338739D01*
X146010363Y-80326135D01*
X146000135Y-80314211D01*
X145991087Y-80302901D01*
X145983197Y-80292139D01*
X145976445Y-80281861D01*
X145970807Y-80272002D01*
X145966263Y-80262496D01*
X145964395Y-80257855D01*
X145962791Y-80253278D01*
X145961450Y-80248757D01*
X145960369Y-80244284D01*
X145959545Y-80239850D01*
X145958975Y-80235448D01*
X145958657Y-80231069D01*
X145958588Y-80226705D01*
X145958766Y-80222348D01*
X145959186Y-80217990D01*
X145959848Y-80213622D01*
X145960747Y-80209237D01*
X145961882Y-80204827D01*
X145963250Y-80200382D01*
X145966673Y-80191360D01*
X145970993Y-80182105D01*
X145972636Y-80178902D01*
X145974387Y-80175774D01*
X145976244Y-80172724D01*
X145978203Y-80169754D01*
X145980261Y-80166865D01*
X145982416Y-80164059D01*
X145984663Y-80161337D01*
X145987001Y-80158701D01*
X145989425Y-80156153D01*
X145991933Y-80153695D01*
X145994521Y-80151327D01*
X145997187Y-80149053D01*
X145999927Y-80146874D01*
X146002739Y-80144790D01*
X146005619Y-80142805D01*
X146008564Y-80140919D01*
X146011571Y-80139134D01*
X146014637Y-80137452D01*
X146017759Y-80135875D01*
X146020933Y-80134405D01*
X146024158Y-80133042D01*
X146027428Y-80131789D01*
X146030742Y-80130647D01*
X146034096Y-80129619D01*
X146037488Y-80128705D01*
X146040914Y-80127907D01*
X146044370Y-80127228D01*
X146047855Y-80126668D01*
X146051364Y-80126230D01*
X146054895Y-80125915D01*
X146058445Y-80125725D01*
X146062010Y-80125661D01*
X146069558Y-80125803D01*
X146076657Y-80126267D01*
X146083403Y-80127112D01*
X146086673Y-80127695D01*
X146089890Y-80128395D01*
X146093068Y-80129219D01*
X146096217Y-80130174D01*
X146099350Y-80131268D01*
X146102479Y-80132507D01*
X146105615Y-80133899D01*
X146108772Y-80135452D01*
X146111959Y-80137172D01*
X146115191Y-80139067D01*
X146118479Y-80141143D01*
X146121834Y-80143409D01*
X146128797Y-80148536D01*
X146136174Y-80154507D01*
X146144064Y-80161380D01*
X146152561Y-80169211D01*
X146161762Y-80178059D01*
X146171763Y-80187983D01*
X146182660Y-80199039D01*
X146198141Y-80214444D01*
X146213903Y-80229179D01*
X146229963Y-80243253D01*
X146246336Y-80256674D01*
X146263041Y-80269450D01*
X146280093Y-80281589D01*
X146297509Y-80293100D01*
X146315305Y-80303990D01*
X146333497Y-80314269D01*
X146352104Y-80323944D01*
X146371140Y-80333024D01*
X146390623Y-80341517D01*
X146410568Y-80349431D01*
X146430994Y-80356775D01*
X146451915Y-80363556D01*
X146473349Y-80369783D01*
X146487680Y-80373240D01*
X146504026Y-80376204D01*
X146522101Y-80378677D01*
X146541623Y-80380664D01*
X146562306Y-80382168D01*
X146583866Y-80383190D01*
X146606020Y-80383735D01*
X146628483Y-80383806D01*
X146673199Y-80382537D01*
X146694884Y-80381203D01*
X146715740Y-80379408D01*
X146735485Y-80377153D01*
X146753834Y-80374442D01*
X146770501Y-80371279D01*
X146785205Y-80367667D01*
X146806895Y-80361003D01*
X146827827Y-80353947D01*
X146848069Y-80346452D01*
X146867688Y-80338474D01*
X146886754Y-80329967D01*
X146905334Y-80320885D01*
X146923496Y-80311183D01*
X146941309Y-80300815D01*
X146958840Y-80289736D01*
X146976159Y-80277901D01*
X146993333Y-80265264D01*
X147010431Y-80251779D01*
X147027520Y-80237401D01*
X147044670Y-80222085D01*
X147061947Y-80205785D01*
X147079421Y-80188455D01*
X147095912Y-80172178D01*
X147110146Y-80158646D01*
X147116517Y-80152837D01*
X147122445Y-80147627D01*
X147127970Y-80142988D01*
X147133132Y-80138890D01*
X147137971Y-80135305D01*
X147142528Y-80132204D01*
X147146844Y-80129557D01*
X147150958Y-80127337D01*
X147154911Y-80125513D01*
X147158743Y-80124057D01*
X147162494Y-80122940D01*
X147166205Y-80122133D01*
X147175229Y-80120753D01*
X147184036Y-80120034D01*
X147192609Y-80119955D01*
X147200935Y-80120491D01*
G37*
G36*
X147602330Y-80451233D02*
G01*
X147608191Y-80451622D01*
X147613904Y-80452266D01*
X147619463Y-80453159D01*
X147624866Y-80454300D01*
X147630107Y-80455685D01*
X147635183Y-80457309D01*
X147640090Y-80459169D01*
X147644823Y-80461262D01*
X147649378Y-80463584D01*
X147653751Y-80466131D01*
X147657938Y-80468899D01*
X147661935Y-80471886D01*
X147665738Y-80475087D01*
X147669342Y-80478500D01*
X147672744Y-80482119D01*
X147675939Y-80485942D01*
X147678923Y-80489965D01*
X147681692Y-80494184D01*
X147684242Y-80498596D01*
X147686569Y-80503197D01*
X147688668Y-80507984D01*
X147690536Y-80512953D01*
X147692169Y-80518099D01*
X147693561Y-80523421D01*
X147694710Y-80528914D01*
X147695610Y-80534574D01*
X147696259Y-80540397D01*
X147696651Y-80546382D01*
X147696782Y-80552522D01*
X147696511Y-80561100D01*
X147696154Y-80565298D01*
X147695636Y-80569456D01*
X147694943Y-80573588D01*
X147694066Y-80577711D01*
X147692993Y-80581841D01*
X147691711Y-80585992D01*
X147690211Y-80590180D01*
X147688480Y-80594421D01*
X147686507Y-80598731D01*
X147684281Y-80603124D01*
X147681790Y-80607616D01*
X147679023Y-80612223D01*
X147675970Y-80616960D01*
X147672617Y-80621843D01*
X147664970Y-80632108D01*
X147655992Y-80643142D01*
X147645592Y-80655069D01*
X147633679Y-80668013D01*
X147620162Y-80682098D01*
X147604950Y-80697448D01*
X147587952Y-80714187D01*
X147569077Y-80732439D01*
X147547194Y-80753491D01*
X147525677Y-80773558D01*
X147504445Y-80792697D01*
X147483418Y-80810965D01*
X147462515Y-80828418D01*
X147441655Y-80845114D01*
X147420758Y-80861109D01*
X147399743Y-80876460D01*
X147378530Y-80891224D01*
X147357038Y-80905458D01*
X147335186Y-80919219D01*
X147312894Y-80932563D01*
X147290081Y-80945547D01*
X147266666Y-80958229D01*
X147242570Y-80970665D01*
X147217710Y-80982911D01*
X147127635Y-81022605D01*
X147035963Y-81055459D01*
X146943035Y-81081513D01*
X146849190Y-81100805D01*
X146754765Y-81113375D01*
X146660101Y-81119262D01*
X146565536Y-81118506D01*
X146471409Y-81111146D01*
X146378059Y-81097220D01*
X146285826Y-81076769D01*
X146195047Y-81049832D01*
X146106063Y-81016447D01*
X146019212Y-80976654D01*
X145934834Y-80930493D01*
X145853266Y-80878003D01*
X145774849Y-80819222D01*
X145760900Y-80807681D01*
X145745936Y-80794662D01*
X145713940Y-80765214D01*
X145680802Y-80732939D01*
X145648466Y-80699895D01*
X145618876Y-80668141D01*
X145593973Y-80639735D01*
X145583887Y-80627432D01*
X145575702Y-80616737D01*
X145569660Y-80607909D01*
X145566005Y-80601205D01*
X145563888Y-80595829D01*
X145562037Y-80590305D01*
X145560453Y-80584670D01*
X145559136Y-80578958D01*
X145558089Y-80573205D01*
X145557310Y-80567446D01*
X145556803Y-80561716D01*
X145556568Y-80556050D01*
X145556605Y-80550483D01*
X145556916Y-80545050D01*
X145557503Y-80539787D01*
X145558365Y-80534729D01*
X145559504Y-80529910D01*
X145560921Y-80525366D01*
X145562617Y-80521133D01*
X145564593Y-80517244D01*
X145567299Y-80512563D01*
X145570120Y-80508044D01*
X145573054Y-80503691D01*
X145576097Y-80499505D01*
X145579246Y-80495488D01*
X145582496Y-80491641D01*
X145585845Y-80487968D01*
X145589288Y-80484469D01*
X145592822Y-80481147D01*
X145596443Y-80478004D01*
X145600148Y-80475041D01*
X145603934Y-80472261D01*
X145607795Y-80469665D01*
X145611730Y-80467256D01*
X145615734Y-80465035D01*
X145619803Y-80463005D01*
X145623935Y-80461166D01*
X145628124Y-80459522D01*
X145632369Y-80458074D01*
X145636665Y-80456824D01*
X145641008Y-80455774D01*
X145645395Y-80454926D01*
X145649823Y-80454282D01*
X145654287Y-80453844D01*
X145658785Y-80453613D01*
X145663311Y-80453592D01*
X145667864Y-80453783D01*
X145672439Y-80454187D01*
X145677032Y-80454806D01*
X145681641Y-80455644D01*
X145686260Y-80456700D01*
X145690888Y-80457978D01*
X145694961Y-80459404D01*
X145699000Y-80461056D01*
X145703038Y-80462960D01*
X145707105Y-80465144D01*
X145711234Y-80467633D01*
X145715457Y-80470455D01*
X145719806Y-80473636D01*
X145724314Y-80477204D01*
X145729011Y-80481186D01*
X145733931Y-80485607D01*
X145739105Y-80490496D01*
X145744565Y-80495879D01*
X145750344Y-80501783D01*
X145756473Y-80508235D01*
X145762984Y-80515261D01*
X145769910Y-80522889D01*
X145802732Y-80557961D01*
X145836626Y-80591466D01*
X145871575Y-80623391D01*
X145907559Y-80653725D01*
X145944561Y-80682455D01*
X145982561Y-80709569D01*
X146021540Y-80735054D01*
X146061481Y-80758897D01*
X146102364Y-80781087D01*
X146144171Y-80801611D01*
X146186884Y-80820456D01*
X146230483Y-80837611D01*
X146274951Y-80853062D01*
X146320268Y-80866798D01*
X146366416Y-80878805D01*
X146413377Y-80889072D01*
X146435277Y-80893041D01*
X146459002Y-80896480D01*
X146484292Y-80899391D01*
X146510887Y-80901772D01*
X146566955Y-80904947D01*
X146625132Y-80906005D01*
X146683341Y-80904947D01*
X146739509Y-80901772D01*
X146766178Y-80899391D01*
X146791559Y-80896480D01*
X146815391Y-80893041D01*
X146837416Y-80889072D01*
X146877031Y-80880685D01*
X146915159Y-80871323D01*
X146952162Y-80860869D01*
X146988405Y-80849208D01*
X147024250Y-80836224D01*
X147060063Y-80821802D01*
X147096206Y-80805825D01*
X147133043Y-80788178D01*
X147155468Y-80776795D01*
X147177040Y-80765349D01*
X147197866Y-80753758D01*
X147218052Y-80741942D01*
X147237704Y-80729820D01*
X147256930Y-80717311D01*
X147275836Y-80704335D01*
X147294527Y-80690811D01*
X147313111Y-80676659D01*
X147331694Y-80661798D01*
X147350383Y-80646147D01*
X147369283Y-80629626D01*
X147388502Y-80612154D01*
X147408145Y-80593651D01*
X147449132Y-80553228D01*
X147546499Y-80455156D01*
X147583893Y-80451628D01*
X147590177Y-80451232D01*
X147596323Y-80451102D01*
X147602330Y-80451233D01*
G37*
G36*
X148002132Y-80776544D02*
G01*
X148007491Y-80777032D01*
X148012843Y-80777806D01*
X148018171Y-80778859D01*
X148023463Y-80780181D01*
X148028702Y-80781766D01*
X148033876Y-80783604D01*
X148038969Y-80785688D01*
X148043966Y-80788009D01*
X148048855Y-80790559D01*
X148053619Y-80793331D01*
X148058245Y-80796315D01*
X148062717Y-80799505D01*
X148067023Y-80802891D01*
X148071146Y-80806466D01*
X148075073Y-80810221D01*
X148078789Y-80814149D01*
X148082280Y-80818241D01*
X148085531Y-80822489D01*
X148088528Y-80826885D01*
X148091257Y-80831421D01*
X148093702Y-80836088D01*
X148095849Y-80840879D01*
X148097684Y-80845785D01*
X148099193Y-80850799D01*
X148100360Y-80855911D01*
X148101309Y-80861477D01*
X148102028Y-80866946D01*
X148102503Y-80872339D01*
X148102719Y-80877680D01*
X148102663Y-80882990D01*
X148102320Y-80888292D01*
X148101675Y-80893608D01*
X148100713Y-80898961D01*
X148099421Y-80904373D01*
X148097783Y-80909866D01*
X148095786Y-80915462D01*
X148093415Y-80921185D01*
X148090655Y-80927055D01*
X148087492Y-80933097D01*
X148083912Y-80939331D01*
X148079899Y-80945781D01*
X148075440Y-80952469D01*
X148070520Y-80959416D01*
X148065125Y-80966646D01*
X148059240Y-80974181D01*
X148045942Y-80990255D01*
X148030510Y-81007815D01*
X148012830Y-81027042D01*
X147992785Y-81048113D01*
X147970260Y-81071208D01*
X147945138Y-81096506D01*
X147917166Y-81123838D01*
X147889044Y-81150296D01*
X147860718Y-81175915D01*
X147832139Y-81200729D01*
X147803253Y-81224775D01*
X147774010Y-81248087D01*
X147744358Y-81270700D01*
X147714245Y-81292650D01*
X147683619Y-81313971D01*
X147652429Y-81334699D01*
X147620623Y-81354869D01*
X147588149Y-81374516D01*
X147554956Y-81393676D01*
X147520992Y-81412382D01*
X147486205Y-81430671D01*
X147450544Y-81448578D01*
X147371321Y-81485411D01*
X147290895Y-81518381D01*
X147209386Y-81547477D01*
X147126914Y-81572689D01*
X147043598Y-81594007D01*
X146959559Y-81611420D01*
X146874917Y-81624919D01*
X146789791Y-81634492D01*
X146704300Y-81640129D01*
X146618567Y-81641820D01*
X146532709Y-81639555D01*
X146446846Y-81633323D01*
X146361100Y-81623114D01*
X146275589Y-81608918D01*
X146190434Y-81590724D01*
X146105754Y-81568522D01*
X146044066Y-81549508D01*
X145982897Y-81528227D01*
X145922352Y-81504745D01*
X145862536Y-81479126D01*
X145803556Y-81451436D01*
X145745516Y-81421740D01*
X145688522Y-81390104D01*
X145632680Y-81356591D01*
X145578094Y-81321267D01*
X145524870Y-81284198D01*
X145473114Y-81245449D01*
X145422931Y-81205084D01*
X145374426Y-81163169D01*
X145327706Y-81119768D01*
X145282874Y-81074948D01*
X145240038Y-81028772D01*
X145227682Y-81014941D01*
X145215674Y-81001200D01*
X145204294Y-80987906D01*
X145193824Y-80975415D01*
X145184544Y-80964080D01*
X145176736Y-80954259D01*
X145170681Y-80946306D01*
X145166660Y-80940578D01*
X145163808Y-80935359D01*
X145161335Y-80929786D01*
X145159243Y-80923901D01*
X145157532Y-80917746D01*
X145156201Y-80911364D01*
X145155250Y-80904797D01*
X145154679Y-80898087D01*
X145154489Y-80891277D01*
X145154679Y-80884409D01*
X145155250Y-80877526D01*
X145156201Y-80870669D01*
X145157532Y-80863882D01*
X145159243Y-80857206D01*
X145161335Y-80850684D01*
X145163808Y-80844359D01*
X145166660Y-80838272D01*
X145168472Y-80834999D01*
X145170462Y-80831795D01*
X145172622Y-80828664D01*
X145174946Y-80825609D01*
X145177426Y-80822635D01*
X145180053Y-80819745D01*
X145182821Y-80816941D01*
X145185721Y-80814228D01*
X145188747Y-80811609D01*
X145191889Y-80809088D01*
X145195142Y-80806668D01*
X145198497Y-80804352D01*
X145201946Y-80802144D01*
X145205483Y-80800048D01*
X145209098Y-80798066D01*
X145212786Y-80796203D01*
X145216537Y-80794462D01*
X145220345Y-80792847D01*
X145224202Y-80791360D01*
X145228100Y-80790006D01*
X145232031Y-80788788D01*
X145235989Y-80787709D01*
X145239965Y-80786773D01*
X145243951Y-80785984D01*
X145247941Y-80785344D01*
X145251926Y-80784858D01*
X145255899Y-80784528D01*
X145259853Y-80784359D01*
X145263778Y-80784354D01*
X145267669Y-80784516D01*
X145271518Y-80784848D01*
X145275316Y-80785355D01*
X145280325Y-80786368D01*
X145282744Y-80786961D01*
X145285130Y-80787633D01*
X145287500Y-80788399D01*
X145289873Y-80789273D01*
X145292266Y-80790271D01*
X145294696Y-80791408D01*
X145297183Y-80792699D01*
X145299743Y-80794159D01*
X145302395Y-80795803D01*
X145305156Y-80797646D01*
X145308044Y-80799704D01*
X145311077Y-80801992D01*
X145314273Y-80804524D01*
X145317649Y-80807316D01*
X145325015Y-80813740D01*
X145333317Y-80821384D01*
X145342699Y-80830370D01*
X145353302Y-80840819D01*
X145365269Y-80852851D01*
X145378743Y-80866587D01*
X145410782Y-80899656D01*
X145433224Y-80922397D01*
X145456699Y-80945726D01*
X145480521Y-80968972D01*
X145504004Y-80991466D01*
X145526462Y-81012538D01*
X145547208Y-81031517D01*
X145565557Y-81047735D01*
X145580821Y-81060522D01*
X145665501Y-81124386D01*
X145753201Y-81182332D01*
X145843653Y-81234313D01*
X145936587Y-81280281D01*
X146031732Y-81320187D01*
X146128819Y-81353986D01*
X146227578Y-81381629D01*
X146327740Y-81403069D01*
X146429035Y-81418258D01*
X146531192Y-81427149D01*
X146633943Y-81429694D01*
X146737017Y-81425846D01*
X146840145Y-81415556D01*
X146943057Y-81398778D01*
X147045484Y-81375464D01*
X147147155Y-81345567D01*
X147171356Y-81337206D01*
X147197492Y-81327630D01*
X147224917Y-81317078D01*
X147252988Y-81305791D01*
X147281058Y-81294007D01*
X147308484Y-81281967D01*
X147334620Y-81269911D01*
X147358821Y-81258078D01*
X147393813Y-81240448D01*
X147427450Y-81222676D01*
X147459885Y-81204651D01*
X147491267Y-81186265D01*
X147521748Y-81167408D01*
X147551479Y-81147970D01*
X147580611Y-81127841D01*
X147609293Y-81106912D01*
X147637679Y-81085074D01*
X147665917Y-81062217D01*
X147694160Y-81038231D01*
X147722557Y-81013007D01*
X147751261Y-80986436D01*
X147780421Y-80958407D01*
X147810189Y-80928811D01*
X147840716Y-80897539D01*
X147861998Y-80875724D01*
X147882652Y-80855051D01*
X147902182Y-80835998D01*
X147920091Y-80819046D01*
X147935883Y-80804673D01*
X147949063Y-80793359D01*
X147954518Y-80788999D01*
X147959133Y-80785584D01*
X147962848Y-80783174D01*
X147965599Y-80781828D01*
X147970611Y-80780084D01*
X147975717Y-80778683D01*
X147980900Y-80777618D01*
X147986148Y-80776879D01*
X147991446Y-80776459D01*
X147996779Y-80776351D01*
X148002132Y-80776544D01*
G37*
G36*
X147224060Y-79062389D02*
G01*
X147133043Y-79162578D01*
X147055432Y-79248655D01*
X147053179Y-79246933D01*
X147047296Y-79241090D01*
X147026725Y-79219353D01*
X146964945Y-79151818D01*
X146903429Y-79082960D01*
X146883189Y-79059569D01*
X146877521Y-79052652D01*
X146875516Y-79049689D01*
X146875753Y-79049492D01*
X146876459Y-79049300D01*
X146879227Y-79048930D01*
X146889858Y-79048245D01*
X146906658Y-79047642D01*
X146928873Y-79047131D01*
X146986541Y-79046415D01*
X147056843Y-79046161D01*
X147237466Y-79046161D01*
X147224060Y-79062389D01*
G37*
G36*
X146270601Y-79046415D02*
G01*
X146328269Y-79047131D01*
X146367284Y-79048245D01*
X146377916Y-79048930D01*
X146380683Y-79049300D01*
X146381627Y-79049689D01*
X146379622Y-79052652D01*
X146373954Y-79059569D01*
X146353713Y-79082960D01*
X146292198Y-79151818D01*
X146230417Y-79219353D01*
X146209846Y-79241090D01*
X146203963Y-79246933D01*
X146201710Y-79248655D01*
X146178515Y-79222815D01*
X146153986Y-79195573D01*
X146124099Y-79162578D01*
X146033082Y-79062389D01*
X146019677Y-79046161D01*
X146200299Y-79046161D01*
X146270601Y-79046415D01*
G37*
G36*
X147009511Y-78031750D02*
G01*
X147056866Y-78031969D01*
X147208381Y-78034449D01*
X147284738Y-78037922D01*
X147322068Y-78043267D01*
X147358900Y-78050025D01*
X147395203Y-78058170D01*
X147430952Y-78067677D01*
X147500670Y-78090669D01*
X147567831Y-78118796D01*
X147632209Y-78151851D01*
X147693581Y-78189628D01*
X147751722Y-78231918D01*
X147806408Y-78278517D01*
X147857415Y-78329216D01*
X147904517Y-78383810D01*
X147947492Y-78442091D01*
X147986115Y-78503853D01*
X148020162Y-78568890D01*
X148049407Y-78636994D01*
X148073628Y-78707959D01*
X148083783Y-78744449D01*
X148092599Y-78781578D01*
X148095392Y-78795767D01*
X148097946Y-78811717D01*
X148102300Y-78847933D01*
X148105597Y-78888300D01*
X148107769Y-78930891D01*
X148108750Y-78973780D01*
X148108474Y-79015039D01*
X148106876Y-79052744D01*
X148105560Y-79069661D01*
X148103888Y-79084967D01*
X148098222Y-79122599D01*
X148091162Y-79159678D01*
X148082731Y-79196178D01*
X148072952Y-79232073D01*
X148061851Y-79267340D01*
X148049449Y-79301953D01*
X148020842Y-79369118D01*
X147987319Y-79433368D01*
X147949069Y-79494504D01*
X147906283Y-79552327D01*
X147859148Y-79606637D01*
X147807855Y-79657234D01*
X147752591Y-79703919D01*
X147693548Y-79746493D01*
X147630912Y-79784756D01*
X147564874Y-79818509D01*
X147495623Y-79847552D01*
X147423348Y-79871686D01*
X147348238Y-79890711D01*
X147337683Y-79892830D01*
X147326372Y-79894700D01*
X147313485Y-79896337D01*
X147298198Y-79897756D01*
X147279692Y-79898971D01*
X147257143Y-79900000D01*
X147229730Y-79900858D01*
X147196631Y-79901559D01*
X147110092Y-79902555D01*
X146990951Y-79903113D01*
X146832635Y-79903357D01*
X146628571Y-79903411D01*
X146266191Y-79903113D01*
X146060511Y-79901559D01*
X146000000Y-79900000D01*
X145958944Y-79897756D01*
X145930770Y-79894700D01*
X145908905Y-79890711D01*
X145858653Y-79878697D01*
X145809540Y-79864379D01*
X145761630Y-79847805D01*
X145714987Y-79829019D01*
X145669675Y-79808067D01*
X145625759Y-79784993D01*
X145583302Y-79759845D01*
X145542368Y-79732667D01*
X145503022Y-79703504D01*
X145465328Y-79672402D01*
X145429349Y-79639407D01*
X145395150Y-79604564D01*
X145362795Y-79567919D01*
X145332347Y-79529516D01*
X145303872Y-79489402D01*
X145277432Y-79447622D01*
X145257815Y-79412798D01*
X145239722Y-79376922D01*
X145223174Y-79340102D01*
X145208189Y-79302443D01*
X145194787Y-79264053D01*
X145182988Y-79225037D01*
X145172813Y-79185503D01*
X145164279Y-79145556D01*
X145157407Y-79105304D01*
X145152217Y-79064851D01*
X145148728Y-79024306D01*
X145146960Y-78983774D01*
X145146932Y-78943363D01*
X145147136Y-78938619D01*
X145672764Y-78938619D01*
X145672921Y-78942718D01*
X145673260Y-78946846D01*
X145673781Y-78951003D01*
X145674484Y-78955188D01*
X145675368Y-78959403D01*
X145676435Y-78963647D01*
X145677684Y-78967919D01*
X145679114Y-78972221D01*
X145682520Y-78980911D01*
X145686655Y-78989717D01*
X145694289Y-79000268D01*
X145710554Y-79019919D01*
X145764078Y-79081185D01*
X145920811Y-79254212D01*
X146078469Y-79423402D01*
X146133151Y-79479872D01*
X146150169Y-79496407D01*
X146158671Y-79503361D01*
X146164074Y-79505569D01*
X146169680Y-79507429D01*
X146175462Y-79508942D01*
X146181392Y-79510108D01*
X146187442Y-79510927D01*
X146193584Y-79511398D01*
X146199790Y-79511522D01*
X146206032Y-79511299D01*
X146212282Y-79510728D01*
X146218512Y-79509810D01*
X146224696Y-79508545D01*
X146230803Y-79506933D01*
X146236807Y-79504973D01*
X146242680Y-79502667D01*
X146248394Y-79500012D01*
X146253921Y-79497011D01*
X146257427Y-79494465D01*
X146262583Y-79490070D01*
X146269291Y-79483928D01*
X146277447Y-79476142D01*
X146297701Y-79456046D01*
X146322536Y-79430601D01*
X146351142Y-79400624D01*
X146382707Y-79366935D01*
X146416422Y-79330352D01*
X146451477Y-79291694D01*
X146518769Y-79218228D01*
X146574949Y-79158521D01*
X146597053Y-79135728D01*
X146614195Y-79118657D01*
X146625650Y-79108068D01*
X146629016Y-79105442D01*
X146630688Y-79104722D01*
X146632227Y-79105830D01*
X146635461Y-79108823D01*
X146646651Y-79120068D01*
X146663529Y-79137663D01*
X146685368Y-79160814D01*
X146741019Y-79220610D01*
X146807782Y-79293105D01*
X146875802Y-79366715D01*
X146934959Y-79429542D01*
X146959270Y-79454784D01*
X146979034Y-79474775D01*
X146993473Y-79488664D01*
X147001810Y-79495600D01*
X147006988Y-79498857D01*
X147012446Y-79501750D01*
X147018147Y-79504277D01*
X147024057Y-79506437D01*
X147030141Y-79508229D01*
X147036363Y-79509652D01*
X147042689Y-79510705D01*
X147049082Y-79511387D01*
X147055509Y-79511697D01*
X147061934Y-79511633D01*
X147068321Y-79511196D01*
X147074637Y-79510384D01*
X147080844Y-79509195D01*
X147086909Y-79507629D01*
X147092797Y-79505685D01*
X147098471Y-79503361D01*
X147107206Y-79496282D01*
X147124399Y-79479634D01*
X147179290Y-79422950D01*
X147253414Y-79343941D01*
X147337037Y-79253242D01*
X147420429Y-79161484D01*
X147493858Y-79079300D01*
X147547592Y-79017324D01*
X147564032Y-78997237D01*
X147571899Y-78986189D01*
X147574225Y-78981613D01*
X147576308Y-78977017D01*
X147578149Y-78972404D01*
X147579750Y-78967780D01*
X147581111Y-78963147D01*
X147582235Y-78958511D01*
X147583121Y-78953876D01*
X147583772Y-78949246D01*
X147584188Y-78944626D01*
X147584371Y-78940018D01*
X147584322Y-78935429D01*
X147584041Y-78930862D01*
X147583530Y-78926321D01*
X147582791Y-78921811D01*
X147581824Y-78917335D01*
X147580630Y-78912899D01*
X147579211Y-78908506D01*
X147577568Y-78904161D01*
X147575702Y-78899868D01*
X147573615Y-78895631D01*
X147571306Y-78891454D01*
X147568778Y-78887343D01*
X147566032Y-78883300D01*
X147563069Y-78879330D01*
X147559889Y-78875438D01*
X147556495Y-78871628D01*
X147552887Y-78867904D01*
X147549066Y-78864270D01*
X147545035Y-78860730D01*
X147540793Y-78857290D01*
X147536341Y-78853952D01*
X147531682Y-78850722D01*
X147527508Y-78847866D01*
X147525472Y-78846573D01*
X147523389Y-78845366D01*
X147521198Y-78844242D01*
X147518837Y-78843199D01*
X147516245Y-78842232D01*
X147513360Y-78841340D01*
X147510122Y-78840520D01*
X147506470Y-78839768D01*
X147502341Y-78839081D01*
X147497675Y-78838456D01*
X147492411Y-78837891D01*
X147486487Y-78837383D01*
X147479843Y-78836927D01*
X147472416Y-78836523D01*
X147464146Y-78836166D01*
X147454971Y-78835853D01*
X147444830Y-78835582D01*
X147433663Y-78835350D01*
X147421407Y-78835153D01*
X147408001Y-78834990D01*
X147377496Y-78834748D01*
X147341659Y-78834601D01*
X147299998Y-78834526D01*
X147197249Y-78834494D01*
X146886804Y-78834494D01*
X146996871Y-78723722D01*
X147038088Y-78681841D01*
X147054880Y-78664265D01*
X147069301Y-78648625D01*
X147081481Y-78634687D01*
X147091551Y-78622221D01*
X147099640Y-78610996D01*
X147105880Y-78600779D01*
X147108346Y-78595977D01*
X147110399Y-78591340D01*
X147112055Y-78586839D01*
X147113329Y-78582446D01*
X147114239Y-78578131D01*
X147114800Y-78573866D01*
X147115029Y-78569622D01*
X147114942Y-78565369D01*
X147113884Y-78556723D01*
X147111758Y-78547697D01*
X147108694Y-78538059D01*
X147104821Y-78527578D01*
X147102957Y-78522958D01*
X147100939Y-78518493D01*
X147098770Y-78514183D01*
X147096454Y-78510031D01*
X147093992Y-78506038D01*
X147091389Y-78502204D01*
X147088648Y-78498532D01*
X147085771Y-78495023D01*
X147082762Y-78491678D01*
X147079624Y-78488499D01*
X147076359Y-78485487D01*
X147072972Y-78482644D01*
X147069465Y-78479971D01*
X147065841Y-78477469D01*
X147062103Y-78475140D01*
X147058254Y-78472985D01*
X147054299Y-78471006D01*
X147050238Y-78469204D01*
X147046077Y-78467581D01*
X147041817Y-78466138D01*
X147037462Y-78464876D01*
X147033016Y-78463797D01*
X147028480Y-78462902D01*
X147023859Y-78462193D01*
X147019155Y-78461670D01*
X147014371Y-78461337D01*
X147009511Y-78461193D01*
X147004577Y-78461240D01*
X146999573Y-78461481D01*
X146994502Y-78461915D01*
X146989367Y-78462545D01*
X146984171Y-78463372D01*
X146982151Y-78463840D01*
X146980048Y-78464459D01*
X146977845Y-78465244D01*
X146975527Y-78466210D01*
X146973075Y-78467371D01*
X146970474Y-78468744D01*
X146967707Y-78470342D01*
X146964757Y-78472181D01*
X146958243Y-78476638D01*
X146950796Y-78482236D01*
X146942286Y-78489093D01*
X146932577Y-78497327D01*
X146921538Y-78507058D01*
X146909034Y-78518404D01*
X146894932Y-78531485D01*
X146879099Y-78546418D01*
X146861401Y-78563324D01*
X146841706Y-78582320D01*
X146795788Y-78627061D01*
X146732156Y-78688367D01*
X146679371Y-78738627D01*
X146642991Y-78772615D01*
X146632689Y-78781874D01*
X146628571Y-78785105D01*
X146627329Y-78784284D01*
X146624454Y-78781874D01*
X146614151Y-78772615D01*
X146598359Y-78757982D01*
X146577771Y-78738627D01*
X146524987Y-78688367D01*
X146461354Y-78627061D01*
X146415437Y-78582320D01*
X146378044Y-78546418D01*
X146348109Y-78518404D01*
X146324565Y-78497327D01*
X146306346Y-78482236D01*
X146298900Y-78476638D01*
X146292385Y-78472181D01*
X146286668Y-78468744D01*
X146281616Y-78466210D01*
X146277095Y-78464459D01*
X146272971Y-78463372D01*
X146262640Y-78461915D01*
X146252565Y-78461240D01*
X146242771Y-78461337D01*
X146233284Y-78462193D01*
X146224127Y-78463797D01*
X146215325Y-78466138D01*
X146206904Y-78469204D01*
X146202844Y-78471006D01*
X146198888Y-78472985D01*
X146195039Y-78475140D01*
X146191302Y-78477469D01*
X146187678Y-78479971D01*
X146184170Y-78482644D01*
X146180783Y-78485487D01*
X146177519Y-78488499D01*
X146174380Y-78491678D01*
X146171371Y-78495023D01*
X146168494Y-78498532D01*
X146165753Y-78502204D01*
X146163150Y-78506038D01*
X146160689Y-78510031D01*
X146158372Y-78514183D01*
X146156203Y-78518493D01*
X146152321Y-78527578D01*
X146148449Y-78538059D01*
X146146807Y-78542968D01*
X146145384Y-78547696D01*
X146144196Y-78552269D01*
X146143258Y-78556719D01*
X146142588Y-78561072D01*
X146142201Y-78565358D01*
X146142114Y-78569606D01*
X146142342Y-78573844D01*
X146142904Y-78578102D01*
X146143813Y-78582408D01*
X146145088Y-78586792D01*
X146146743Y-78591280D01*
X146148796Y-78595904D01*
X146151263Y-78600691D01*
X146154159Y-78605670D01*
X146157502Y-78610870D01*
X146161308Y-78616320D01*
X146165592Y-78622049D01*
X146170371Y-78628085D01*
X146175661Y-78634458D01*
X146181479Y-78641195D01*
X146187841Y-78648327D01*
X146202262Y-78663887D01*
X146219054Y-78681368D01*
X146238347Y-78701001D01*
X146260271Y-78723017D01*
X146370338Y-78833789D01*
X146051427Y-78835905D01*
X145733221Y-78838022D01*
X145707821Y-78862717D01*
X145701041Y-78869786D01*
X145694989Y-78876971D01*
X145692236Y-78880607D01*
X145689664Y-78884272D01*
X145687275Y-78887966D01*
X145685067Y-78891688D01*
X145683041Y-78895440D01*
X145681198Y-78899221D01*
X145679536Y-78903030D01*
X145678056Y-78906869D01*
X145676758Y-78910736D01*
X145675641Y-78914633D01*
X145674707Y-78918558D01*
X145673955Y-78922512D01*
X145673384Y-78926496D01*
X145672995Y-78930508D01*
X145672789Y-78934549D01*
X145672764Y-78938619D01*
X145147136Y-78938619D01*
X145148664Y-78903177D01*
X145152176Y-78863324D01*
X145157488Y-78823911D01*
X145164351Y-78785426D01*
X145172748Y-78747514D01*
X145182645Y-78710210D01*
X145194009Y-78673544D01*
X145206806Y-78637549D01*
X145221003Y-78602258D01*
X145236568Y-78567703D01*
X145253465Y-78533917D01*
X145271663Y-78500931D01*
X145291128Y-78468779D01*
X145311827Y-78437493D01*
X145333725Y-78407105D01*
X145356790Y-78377648D01*
X145380989Y-78349154D01*
X145406288Y-78321656D01*
X145432654Y-78295185D01*
X145460054Y-78269775D01*
X145488454Y-78245458D01*
X145517820Y-78222266D01*
X145548120Y-78200232D01*
X145579321Y-78179387D01*
X145611388Y-78159766D01*
X145644288Y-78141399D01*
X145677989Y-78124320D01*
X145712457Y-78108560D01*
X145747659Y-78094153D01*
X145783560Y-78081130D01*
X145820129Y-78069525D01*
X145857331Y-78059369D01*
X145895133Y-78050695D01*
X145933502Y-78043535D01*
X145972405Y-78037922D01*
X146048762Y-78034449D01*
X146200277Y-78031969D01*
X146628571Y-78029985D01*
X147009511Y-78031750D01*
G37*
G36*
X146676250Y-65971528D02*
G01*
X146438478Y-65970117D01*
X146200000Y-65968000D01*
X146200000Y-65826889D01*
X146438478Y-65824772D01*
X146676250Y-65823361D01*
X146676250Y-65971528D01*
G37*
G36*
X146859695Y-66338417D02*
G01*
X146859265Y-66430051D01*
X146858690Y-66463432D01*
X146857843Y-66489406D01*
X146856698Y-66508632D01*
X146855230Y-66521773D01*
X146853415Y-66529490D01*
X146852370Y-66531521D01*
X146851228Y-66532445D01*
X146848644Y-66532825D01*
X146842857Y-66533172D01*
X146822356Y-66533768D01*
X146750422Y-66534561D01*
X146646342Y-66534826D01*
X146521028Y-66534561D01*
X146200000Y-66532445D01*
X146200000Y-66391334D01*
X146332645Y-66389217D01*
X146464584Y-66387806D01*
X146464584Y-66162028D01*
X146584528Y-66162028D01*
X146584528Y-66387806D01*
X146732695Y-66387806D01*
X146732695Y-66147917D01*
X146859695Y-66147917D01*
X146859695Y-66338417D01*
G37*
G36*
X146814485Y-65817499D02*
G01*
X146819203Y-65818038D01*
X146823974Y-65818888D01*
X146828791Y-65820054D01*
X146833645Y-65821543D01*
X146838528Y-65823361D01*
X146842416Y-65825165D01*
X146846139Y-65827259D01*
X146849694Y-65829628D01*
X146853078Y-65832255D01*
X146856287Y-65835125D01*
X146859318Y-65838222D01*
X146862167Y-65841531D01*
X146864832Y-65845035D01*
X146867309Y-65848719D01*
X146869594Y-65852567D01*
X146871685Y-65856563D01*
X146873577Y-65860692D01*
X146875268Y-65864938D01*
X146876754Y-65869285D01*
X146878032Y-65873717D01*
X146879098Y-65878218D01*
X146879949Y-65882773D01*
X146880581Y-65887367D01*
X146880993Y-65891982D01*
X146881179Y-65896604D01*
X146881136Y-65901217D01*
X146880862Y-65905804D01*
X146880353Y-65910351D01*
X146879605Y-65914841D01*
X146878615Y-65919259D01*
X146877380Y-65923588D01*
X146875897Y-65927814D01*
X146874162Y-65931920D01*
X146872171Y-65935891D01*
X146869922Y-65939711D01*
X146867411Y-65943364D01*
X146864634Y-65946834D01*
X146862491Y-65949382D01*
X146860286Y-65951739D01*
X146858009Y-65953915D01*
X146855649Y-65955918D01*
X146853194Y-65957754D01*
X146850632Y-65959434D01*
X146847952Y-65960965D01*
X146845143Y-65962356D01*
X146842193Y-65963614D01*
X146839092Y-65964748D01*
X146835827Y-65965766D01*
X146832388Y-65966677D01*
X146828762Y-65967489D01*
X146824939Y-65968209D01*
X146820908Y-65968847D01*
X146816656Y-65969411D01*
X146811488Y-65970004D01*
X146806795Y-65970449D01*
X146802524Y-65970730D01*
X146798620Y-65970833D01*
X146795031Y-65970742D01*
X146791703Y-65970441D01*
X146788581Y-65969914D01*
X146785612Y-65969147D01*
X146782742Y-65968123D01*
X146779918Y-65966827D01*
X146777085Y-65965245D01*
X146774190Y-65963359D01*
X146771180Y-65961155D01*
X146768000Y-65958617D01*
X146764597Y-65955730D01*
X146760917Y-65952478D01*
X146757284Y-65949162D01*
X146754042Y-65946063D01*
X146751170Y-65943131D01*
X146748647Y-65940318D01*
X146747509Y-65938941D01*
X146746450Y-65937575D01*
X146745468Y-65936215D01*
X146744558Y-65934854D01*
X146743720Y-65933487D01*
X146742950Y-65932106D01*
X146742245Y-65930707D01*
X146741603Y-65929283D01*
X146741020Y-65927828D01*
X146740495Y-65926335D01*
X146740025Y-65924800D01*
X146739606Y-65923215D01*
X146739236Y-65921575D01*
X146738913Y-65919874D01*
X146738633Y-65918105D01*
X146738394Y-65916263D01*
X146738029Y-65912334D01*
X146737795Y-65908038D01*
X146737670Y-65903326D01*
X146737634Y-65898150D01*
X146737775Y-65892599D01*
X146738193Y-65887195D01*
X146738880Y-65881943D01*
X146739828Y-65876850D01*
X146741027Y-65871922D01*
X146742471Y-65867165D01*
X146744150Y-65862584D01*
X146746056Y-65858187D01*
X146748182Y-65853979D01*
X146750518Y-65849966D01*
X146753057Y-65846155D01*
X146755791Y-65842551D01*
X146758710Y-65839160D01*
X146761807Y-65835989D01*
X146765074Y-65833043D01*
X146768502Y-65830329D01*
X146772083Y-65827852D01*
X146775808Y-65825620D01*
X146779670Y-65823637D01*
X146783660Y-65821910D01*
X146787770Y-65820445D01*
X146791992Y-65819249D01*
X146796317Y-65818326D01*
X146800737Y-65817684D01*
X146805244Y-65817328D01*
X146809829Y-65817264D01*
X146814485Y-65817499D01*
G37*
G36*
X146672480Y-65156953D02*
G01*
X146720742Y-65157616D01*
X146757213Y-65158816D01*
X146785019Y-65160711D01*
X146807285Y-65163457D01*
X146827137Y-65167213D01*
X146847701Y-65172134D01*
X146890372Y-65184477D01*
X146931568Y-65199248D01*
X146971234Y-65216391D01*
X147009317Y-65235854D01*
X147045763Y-65257582D01*
X147080517Y-65281522D01*
X147113528Y-65307620D01*
X147144739Y-65335822D01*
X147174099Y-65366075D01*
X147201553Y-65398325D01*
X147227048Y-65432517D01*
X147250529Y-65468599D01*
X147271943Y-65506517D01*
X147291236Y-65546216D01*
X147308355Y-65587643D01*
X147323245Y-65630745D01*
X147343000Y-65692834D01*
X147344412Y-66941667D01*
X147343353Y-67966222D01*
X147340641Y-68164340D01*
X147335945Y-68235656D01*
X147323912Y-68283010D01*
X147309033Y-68328708D01*
X147291391Y-68372663D01*
X147271067Y-68414790D01*
X147248142Y-68455002D01*
X147222699Y-68493215D01*
X147194819Y-68529342D01*
X147164583Y-68563298D01*
X147132074Y-68594997D01*
X147097372Y-68624352D01*
X147060560Y-68651279D01*
X147021719Y-68675691D01*
X146980931Y-68697503D01*
X146938278Y-68716628D01*
X146893840Y-68732982D01*
X146852639Y-68745033D01*
X146847701Y-68746478D01*
X146837135Y-68749094D01*
X146827137Y-68751399D01*
X146817318Y-68753412D01*
X146807285Y-68755154D01*
X146796649Y-68756644D01*
X146785019Y-68757901D01*
X146772004Y-68758945D01*
X146757213Y-68759795D01*
X146740256Y-68760472D01*
X146720742Y-68760996D01*
X146698280Y-68761384D01*
X146672480Y-68761658D01*
X146609303Y-68761941D01*
X146528084Y-68762000D01*
X146383687Y-68761658D01*
X146335426Y-68760996D01*
X146298955Y-68759795D01*
X146271149Y-68757901D01*
X146248882Y-68755154D01*
X146229030Y-68751399D01*
X146208467Y-68746478D01*
X146165796Y-68734134D01*
X146124600Y-68719364D01*
X146084934Y-68702220D01*
X146046851Y-68682758D01*
X146010405Y-68661029D01*
X145975650Y-68637089D01*
X145942640Y-68610991D01*
X145911428Y-68582789D01*
X145882069Y-68552536D01*
X145879877Y-68549962D01*
X145854615Y-68520287D01*
X145829120Y-68486094D01*
X145805639Y-68450012D01*
X145784225Y-68412095D01*
X145764932Y-68372396D01*
X145747813Y-68330968D01*
X145732923Y-68287867D01*
X145713167Y-68225778D01*
X145713167Y-68156634D01*
X146195767Y-68156634D01*
X146226106Y-68164395D01*
X146563450Y-68242270D01*
X146852639Y-68306917D01*
X146853094Y-68306844D01*
X146853532Y-68306627D01*
X146853953Y-68306264D01*
X146854358Y-68305755D01*
X146854745Y-68305100D01*
X146855115Y-68304298D01*
X146855468Y-68303350D01*
X146855803Y-68302254D01*
X146856121Y-68301010D01*
X146856421Y-68299618D01*
X146856968Y-68296387D01*
X146857442Y-68292560D01*
X146857843Y-68288131D01*
X146858169Y-68283100D01*
X146858420Y-68277461D01*
X146858595Y-68271213D01*
X146858692Y-68264352D01*
X146858710Y-68256875D01*
X146858649Y-68248779D01*
X146858507Y-68240060D01*
X146858284Y-68230717D01*
X146856167Y-68155222D01*
X146609223Y-68112889D01*
X146362278Y-68070556D01*
X146450473Y-68054328D01*
X146561653Y-68032985D01*
X146693272Y-68006350D01*
X146804386Y-67982890D01*
X146839458Y-67974997D01*
X146854051Y-67971072D01*
X146854315Y-67970780D01*
X146854579Y-67970302D01*
X146855103Y-67968810D01*
X146855619Y-67966635D01*
X146856123Y-67963818D01*
X146856610Y-67960398D01*
X146857077Y-67956413D01*
X146857931Y-67946907D01*
X146858653Y-67935615D01*
X146859210Y-67922852D01*
X146859568Y-67908931D01*
X146859695Y-67894167D01*
X146859636Y-67870720D01*
X146859353Y-67852771D01*
X146859079Y-67845613D01*
X146858690Y-67839535D01*
X146858167Y-67834438D01*
X146857490Y-67830226D01*
X146856639Y-67826799D01*
X146855595Y-67824059D01*
X146854338Y-67821909D01*
X146852849Y-67820249D01*
X146851107Y-67818982D01*
X146849094Y-67818010D01*
X146846789Y-67817234D01*
X146844173Y-67816556D01*
X146776362Y-67803900D01*
X146657818Y-67783042D01*
X146534908Y-67762184D01*
X146454000Y-67749528D01*
X146441154Y-67747619D01*
X146428755Y-67745636D01*
X146417116Y-67743637D01*
X146406552Y-67741679D01*
X146397377Y-67739820D01*
X146389905Y-67738118D01*
X146384451Y-67736631D01*
X146382578Y-67735986D01*
X146381328Y-67735417D01*
X146380918Y-67735138D01*
X146380743Y-67734831D01*
X146380797Y-67734498D01*
X146381075Y-67734138D01*
X146381572Y-67733754D01*
X146382283Y-67733346D01*
X146384327Y-67732462D01*
X146387164Y-67731496D01*
X146390754Y-67730456D01*
X146395055Y-67729349D01*
X146400026Y-67728185D01*
X146405625Y-67726971D01*
X146411811Y-67725715D01*
X146425778Y-67723114D01*
X146441598Y-67720446D01*
X146458939Y-67717778D01*
X146501728Y-67710884D01*
X146557563Y-67700988D01*
X146685952Y-67676591D01*
X146799260Y-67653385D01*
X146836243Y-67644978D01*
X146852639Y-67640167D01*
X146853412Y-67639344D01*
X146854144Y-67637831D01*
X146855479Y-67632920D01*
X146856644Y-67625803D01*
X146857633Y-67616850D01*
X146859076Y-67594911D01*
X146859783Y-67570052D01*
X146859729Y-67545227D01*
X146858890Y-67523386D01*
X146858168Y-67514508D01*
X146857241Y-67507482D01*
X146856104Y-67502679D01*
X146855457Y-67501226D01*
X146854756Y-67500467D01*
X146852428Y-67500626D01*
X146846876Y-67501605D01*
X146826776Y-67505869D01*
X146811816Y-67509352D01*
X146755273Y-67522515D01*
X146676250Y-67541741D01*
X146650961Y-67547893D01*
X146524556Y-67579489D01*
X146200000Y-67661334D01*
X146200000Y-67816556D01*
X146372862Y-67849717D01*
X146445258Y-67863266D01*
X146514414Y-67875558D01*
X146572589Y-67885336D01*
X146612045Y-67891345D01*
X146679073Y-67899811D01*
X146513267Y-67933678D01*
X146374890Y-67962165D01*
X146274084Y-67983772D01*
X146200000Y-68000000D01*
X146197884Y-68078317D01*
X146195767Y-68156634D01*
X145713167Y-68156634D01*
X145713167Y-66272847D01*
X145872379Y-66272847D01*
X145872623Y-66574778D01*
X145874916Y-67238706D01*
X145877782Y-67342929D01*
X145879877Y-67356106D01*
X145882500Y-67350183D01*
X145886818Y-67331915D01*
X145891822Y-67313898D01*
X145897497Y-67296148D01*
X145903827Y-67278680D01*
X145907648Y-67269750D01*
X146196473Y-67269750D01*
X146196473Y-67410861D01*
X146676250Y-67410861D01*
X146676250Y-67343029D01*
X146736647Y-67343029D01*
X146736821Y-67349373D01*
X146737593Y-67355546D01*
X146738933Y-67361525D01*
X146740809Y-67367293D01*
X146743189Y-67372830D01*
X146746042Y-67378115D01*
X146749336Y-67383130D01*
X146753040Y-67387854D01*
X146757123Y-67392268D01*
X146761552Y-67396352D01*
X146766296Y-67400087D01*
X146771324Y-67403453D01*
X146776604Y-67406430D01*
X146782105Y-67409000D01*
X146787795Y-67411141D01*
X146793643Y-67412835D01*
X146799616Y-67414061D01*
X146805685Y-67414801D01*
X146811816Y-67415034D01*
X146817979Y-67414742D01*
X146824142Y-67413903D01*
X146830273Y-67412500D01*
X146836341Y-67410511D01*
X146842315Y-67407918D01*
X146848163Y-67404700D01*
X146853853Y-67400839D01*
X146859354Y-67396314D01*
X146864634Y-67391106D01*
X146866871Y-67388535D01*
X146868950Y-67385857D01*
X146870874Y-67383076D01*
X146872642Y-67380201D01*
X146874254Y-67377239D01*
X146875711Y-67374197D01*
X146877013Y-67371081D01*
X146878161Y-67367900D01*
X146879154Y-67364659D01*
X146879995Y-67361367D01*
X146880682Y-67358030D01*
X146881216Y-67354655D01*
X146881597Y-67351250D01*
X146881827Y-67347822D01*
X146881905Y-67344377D01*
X146881832Y-67340923D01*
X146881608Y-67337467D01*
X146881233Y-67334016D01*
X146880708Y-67330577D01*
X146880033Y-67327158D01*
X146879209Y-67323765D01*
X146878237Y-67320405D01*
X146877115Y-67317086D01*
X146875846Y-67313814D01*
X146874428Y-67310598D01*
X146872863Y-67307443D01*
X146871151Y-67304357D01*
X146869293Y-67301347D01*
X146867288Y-67298421D01*
X146865138Y-67295584D01*
X146862842Y-67292846D01*
X146860401Y-67290211D01*
X146856833Y-67286854D01*
X146853147Y-67283792D01*
X146849356Y-67281022D01*
X146845469Y-67278542D01*
X146841499Y-67276349D01*
X146837455Y-67274442D01*
X146833348Y-67272816D01*
X146829191Y-67271470D01*
X146824993Y-67270401D01*
X146820766Y-67269606D01*
X146816520Y-67269083D01*
X146812267Y-67268830D01*
X146808018Y-67268843D01*
X146803783Y-67269120D01*
X146799574Y-67269658D01*
X146795401Y-67270456D01*
X146791276Y-67271510D01*
X146787210Y-67272817D01*
X146783213Y-67274376D01*
X146779296Y-67276183D01*
X146775471Y-67278236D01*
X146771748Y-67280533D01*
X146768139Y-67283070D01*
X146764654Y-67285846D01*
X146761305Y-67288857D01*
X146758102Y-67292101D01*
X146755056Y-67295576D01*
X146752179Y-67299279D01*
X146749481Y-67303207D01*
X146746973Y-67307358D01*
X146744667Y-67311728D01*
X146742573Y-67316317D01*
X146740035Y-67323156D01*
X146738223Y-67329900D01*
X146737104Y-67336531D01*
X146736647Y-67343029D01*
X146676250Y-67343029D01*
X146676250Y-67269750D01*
X146196473Y-67269750D01*
X145907648Y-67269750D01*
X145918387Y-67244652D01*
X145935373Y-67211939D01*
X145954658Y-67180664D01*
X145976113Y-67150952D01*
X145999611Y-67122927D01*
X146025023Y-67096713D01*
X146052220Y-67072433D01*
X146081076Y-67050212D01*
X146111461Y-67030174D01*
X146143247Y-67012443D01*
X146176307Y-66997143D01*
X146193274Y-66990443D01*
X146210512Y-66984397D01*
X146228004Y-66979021D01*
X146245734Y-66974330D01*
X146263686Y-66970341D01*
X146281845Y-66967067D01*
X146294972Y-66965518D01*
X146315160Y-66964068D01*
X146341401Y-66962751D01*
X146372685Y-66961599D01*
X146408004Y-66960645D01*
X146446350Y-66959923D01*
X146486712Y-66959466D01*
X146528084Y-66959306D01*
X146609818Y-66958688D01*
X146683482Y-66957013D01*
X146741007Y-66954543D01*
X146761195Y-66953093D01*
X146774323Y-66951545D01*
X146804582Y-66945573D01*
X146834434Y-66937505D01*
X146863767Y-66927428D01*
X146892470Y-66915429D01*
X146920433Y-66901594D01*
X146947546Y-66886011D01*
X146973698Y-66868765D01*
X146998778Y-66849945D01*
X147022675Y-66829636D01*
X147045279Y-66807925D01*
X147066480Y-66784901D01*
X147086167Y-66760648D01*
X147104229Y-66735254D01*
X147120556Y-66708806D01*
X147135037Y-66681391D01*
X147147562Y-66653095D01*
X147153779Y-66637578D01*
X147159232Y-66623085D01*
X147163968Y-66608888D01*
X147166082Y-66601673D01*
X147168034Y-66594258D01*
X147169829Y-66586553D01*
X147171475Y-66578466D01*
X147172976Y-66569907D01*
X147174338Y-66560784D01*
X147175568Y-66551006D01*
X147176670Y-66540483D01*
X147178518Y-66516834D01*
X147179927Y-66489109D01*
X147180945Y-66456579D01*
X147181617Y-66418516D01*
X147181990Y-66374191D01*
X147182112Y-66322874D01*
X147182028Y-66263839D01*
X147181428Y-66119695D01*
X147180282Y-65891624D01*
X147178077Y-65765153D01*
X147176164Y-65728607D01*
X147173491Y-65703770D01*
X147169891Y-65686076D01*
X147165201Y-65670961D01*
X147159689Y-65655260D01*
X147153981Y-65640140D01*
X147148045Y-65625553D01*
X147141851Y-65611452D01*
X147135368Y-65597789D01*
X147128564Y-65584517D01*
X147121409Y-65571588D01*
X147113871Y-65558954D01*
X147105920Y-65546569D01*
X147097525Y-65534384D01*
X147088654Y-65522352D01*
X147079277Y-65510425D01*
X147069362Y-65498557D01*
X147058879Y-65486698D01*
X147047797Y-65474803D01*
X147036084Y-65462822D01*
X147019094Y-65445950D01*
X147011250Y-65438470D01*
X147003750Y-65431557D01*
X146996526Y-65425157D01*
X146989513Y-65419216D01*
X146982642Y-65413680D01*
X146975847Y-65408495D01*
X146969060Y-65403607D01*
X146962214Y-65398964D01*
X146955242Y-65394511D01*
X146948077Y-65390194D01*
X146940651Y-65385960D01*
X146932898Y-65381755D01*
X146916139Y-65373217D01*
X146897162Y-65364002D01*
X146879845Y-65355892D01*
X146863680Y-65348815D01*
X146848163Y-65342701D01*
X146832787Y-65337481D01*
X146817045Y-65333083D01*
X146800430Y-65329437D01*
X146782437Y-65326474D01*
X146762558Y-65324122D01*
X146740288Y-65322312D01*
X146715120Y-65320973D01*
X146686547Y-65320036D01*
X146654064Y-65319429D01*
X146617163Y-65319082D01*
X146528084Y-65318889D01*
X146439005Y-65319082D01*
X146369620Y-65320036D01*
X146315880Y-65322312D01*
X146293610Y-65324122D01*
X146273731Y-65326474D01*
X146255738Y-65329437D01*
X146239123Y-65333083D01*
X146223381Y-65337481D01*
X146208004Y-65342701D01*
X146192487Y-65348815D01*
X146176323Y-65355892D01*
X146140028Y-65373217D01*
X146131418Y-65377417D01*
X146123268Y-65381581D01*
X146115512Y-65385759D01*
X146108080Y-65389996D01*
X146100904Y-65394340D01*
X146093916Y-65398840D01*
X146087048Y-65403542D01*
X146080232Y-65408495D01*
X146073400Y-65413745D01*
X146066482Y-65419340D01*
X146059412Y-65425328D01*
X146052120Y-65431756D01*
X146044539Y-65438672D01*
X146036601Y-65446123D01*
X146019378Y-65462822D01*
X146001890Y-65480609D01*
X145994212Y-65488695D01*
X145987154Y-65496369D01*
X145980646Y-65503725D01*
X145974618Y-65510857D01*
X145969002Y-65517858D01*
X145963728Y-65524823D01*
X145958726Y-65531846D01*
X145953928Y-65539021D01*
X145949265Y-65546442D01*
X145944667Y-65554203D01*
X145940064Y-65562398D01*
X145935388Y-65571121D01*
X145925539Y-65590528D01*
X145907031Y-65628074D01*
X145903188Y-65636585D01*
X145899636Y-65645163D01*
X145896363Y-65654017D01*
X145893359Y-65663355D01*
X145890613Y-65673385D01*
X145888113Y-65684316D01*
X145885847Y-65696356D01*
X145883805Y-65709715D01*
X145881976Y-65724600D01*
X145880348Y-65741220D01*
X145878909Y-65759783D01*
X145877650Y-65780499D01*
X145876558Y-65803575D01*
X145875621Y-65829220D01*
X145874173Y-65889052D01*
X145873214Y-65961663D01*
X145872656Y-66048720D01*
X145872407Y-66151892D01*
X145872379Y-66272847D01*
X145713167Y-66272847D01*
X145713167Y-65692834D01*
X145732923Y-65630745D01*
X145747813Y-65587643D01*
X145764932Y-65546216D01*
X145784225Y-65506517D01*
X145805639Y-65468599D01*
X145829120Y-65432517D01*
X145854615Y-65398325D01*
X145882069Y-65366075D01*
X145911428Y-65335822D01*
X145942640Y-65307620D01*
X145975650Y-65281522D01*
X146010405Y-65257582D01*
X146046851Y-65235854D01*
X146084934Y-65216391D01*
X146124600Y-65199248D01*
X146165796Y-65184477D01*
X146208467Y-65172134D01*
X146219033Y-65169518D01*
X146229030Y-65167213D01*
X146238850Y-65165199D01*
X146248882Y-65163457D01*
X146259518Y-65161968D01*
X146271149Y-65160711D01*
X146284164Y-65159667D01*
X146298955Y-65158816D01*
X146315912Y-65158139D01*
X146335426Y-65157616D01*
X146357887Y-65157227D01*
X146383687Y-65156953D01*
X146446865Y-65156671D01*
X146528084Y-65156611D01*
X146672480Y-65156953D01*
G37*
D10*
%TO.C,J1*%
X135070000Y-95212500D02*
X135070000Y-83212500D01*
X147130000Y-95212500D02*
X135070000Y-95212500D01*
X147130000Y-95212500D02*
X147130000Y-83212500D01*
%TD*%
M02*
