(kicad_sch (version 20230121) (generator eeschema)

  (uuid b0b0f3c7-4c4c-45d6-8822-bfa5605e36ae)

  (paper "A4")

  (lib_symbols
    (symbol "Connector:Conn_01x05_Pin" (pin_names (offset 1.016) hide) (in_bom yes) (on_board yes)
      (property "Reference" "J" (at 0 7.62 0)
        (effects (font (size 1.27 1.27)))
      )
      (property "Value" "Conn_01x05_Pin" (at 0 -7.62 0)
        (effects (font (size 1.27 1.27)))
      )
      (property "Footprint" "" (at 0 0 0)
        (effects (font (size 1.27 1.27)) hide)
      )
      (property "Datasheet" "~" (at 0 0 0)
        (effects (font (size 1.27 1.27)) hide)
      )
      (property "ki_locked" "" (at 0 0 0)
        (effects (font (size 1.27 1.27)))
      )
      (property "ki_keywords" "connector" (at 0 0 0)
        (effects (font (size 1.27 1.27)) hide)
      )
      (property "ki_description" "Generic connector, single row, 01x05, script generated" (at 0 0 0)
        (effects (font (size 1.27 1.27)) hide)
      )
      (property "ki_fp_filters" "Connector*:*_1x??_*" (at 0 0 0)
        (effects (font (size 1.27 1.27)) hide)
      )
      (symbol "Conn_01x05_Pin_1_1"
        (polyline
          (pts
            (xy 1.27 -5.08)
            (xy 0.8636 -5.08)
          )
          (stroke (width 0.1524) (type default))
          (fill (type none))
        )
        (polyline
          (pts
            (xy 1.27 -2.54)
            (xy 0.8636 -2.54)
          )
          (stroke (width 0.1524) (type default))
          (fill (type none))
        )
        (polyline
          (pts
            (xy 1.27 0)
            (xy 0.8636 0)
          )
          (stroke (width 0.1524) (type default))
          (fill (type none))
        )
        (polyline
          (pts
            (xy 1.27 2.54)
            (xy 0.8636 2.54)
          )
          (stroke (width 0.1524) (type default))
          (fill (type none))
        )
        (polyline
          (pts
            (xy 1.27 5.08)
            (xy 0.8636 5.08)
          )
          (stroke (width 0.1524) (type default))
          (fill (type none))
        )
        (rectangle (start 0.8636 -4.953) (end 0 -5.207)
          (stroke (width 0.1524) (type default))
          (fill (type outline))
        )
        (rectangle (start 0.8636 -2.413) (end 0 -2.667)
          (stroke (width 0.1524) (type default))
          (fill (type outline))
        )
        (rectangle (start 0.8636 0.127) (end 0 -0.127)
          (stroke (width 0.1524) (type default))
          (fill (type outline))
        )
        (rectangle (start 0.8636 2.667) (end 0 2.413)
          (stroke (width 0.1524) (type default))
          (fill (type outline))
        )
        (rectangle (start 0.8636 5.207) (end 0 4.953)
          (stroke (width 0.1524) (type default))
          (fill (type outline))
        )
        (pin passive line (at 5.08 5.08 180) (length 3.81)
          (name "Pin_1" (effects (font (size 1.27 1.27))))
          (number "1" (effects (font (size 1.27 1.27))))
        )
        (pin passive line (at 5.08 2.54 180) (length 3.81)
          (name "Pin_2" (effects (font (size 1.27 1.27))))
          (number "2" (effects (font (size 1.27 1.27))))
        )
        (pin passive line (at 5.08 0 180) (length 3.81)
          (name "Pin_3" (effects (font (size 1.27 1.27))))
          (number "3" (effects (font (size 1.27 1.27))))
        )
        (pin passive line (at 5.08 -2.54 180) (length 3.81)
          (name "Pin_4" (effects (font (size 1.27 1.27))))
          (number "4" (effects (font (size 1.27 1.27))))
        )
        (pin passive line (at 5.08 -5.08 180) (length 3.81)
          (name "Pin_5" (effects (font (size 1.27 1.27))))
          (number "5" (effects (font (size 1.27 1.27))))
        )
      )
    )
    (symbol "Connector:USB_A" (pin_names (offset 1.016)) (in_bom yes) (on_board yes)
      (property "Reference" "J" (at -5.08 11.43 0)
        (effects (font (size 1.27 1.27)) (justify left))
      )
      (property "Value" "USB_A" (at -5.08 8.89 0)
        (effects (font (size 1.27 1.27)) (justify left))
      )
      (property "Footprint" "" (at 3.81 -1.27 0)
        (effects (font (size 1.27 1.27)) hide)
      )
      (property "Datasheet" " ~" (at 3.81 -1.27 0)
        (effects (font (size 1.27 1.27)) hide)
      )
      (property "ki_keywords" "connector USB" (at 0 0 0)
        (effects (font (size 1.27 1.27)) hide)
      )
      (property "ki_description" "USB Type A connector" (at 0 0 0)
        (effects (font (size 1.27 1.27)) hide)
      )
      (property "ki_fp_filters" "USB*" (at 0 0 0)
        (effects (font (size 1.27 1.27)) hide)
      )
      (symbol "USB_A_0_1"
        (rectangle (start -5.08 -7.62) (end 5.08 7.62)
          (stroke (width 0.254) (type default))
          (fill (type background))
        )
        (circle (center -3.81 2.159) (radius 0.635)
          (stroke (width 0.254) (type default))
          (fill (type outline))
        )
        (rectangle (start -1.524 4.826) (end -4.318 5.334)
          (stroke (width 0) (type default))
          (fill (type outline))
        )
        (rectangle (start -1.27 4.572) (end -4.572 5.842)
          (stroke (width 0) (type default))
          (fill (type none))
        )
        (circle (center -0.635 3.429) (radius 0.381)
          (stroke (width 0.254) (type default))
          (fill (type outline))
        )
        (rectangle (start -0.127 -7.62) (end 0.127 -6.858)
          (stroke (width 0) (type default))
          (fill (type none))
        )
        (polyline
          (pts
            (xy -3.175 2.159)
            (xy -2.54 2.159)
            (xy -1.27 3.429)
            (xy -0.635 3.429)
          )
          (stroke (width 0.254) (type default))
          (fill (type none))
        )
        (polyline
          (pts
            (xy -2.54 2.159)
            (xy -1.905 2.159)
            (xy -1.27 0.889)
            (xy 0 0.889)
          )
          (stroke (width 0.254) (type default))
          (fill (type none))
        )
        (polyline
          (pts
            (xy 0.635 2.794)
            (xy 0.635 1.524)
            (xy 1.905 2.159)
            (xy 0.635 2.794)
          )
          (stroke (width 0.254) (type default))
          (fill (type outline))
        )
        (rectangle (start 0.254 1.27) (end -0.508 0.508)
          (stroke (width 0.254) (type default))
          (fill (type outline))
        )
        (rectangle (start 5.08 -2.667) (end 4.318 -2.413)
          (stroke (width 0) (type default))
          (fill (type none))
        )
        (rectangle (start 5.08 -0.127) (end 4.318 0.127)
          (stroke (width 0) (type default))
          (fill (type none))
        )
        (rectangle (start 5.08 4.953) (end 4.318 5.207)
          (stroke (width 0) (type default))
          (fill (type none))
        )
      )
      (symbol "USB_A_1_1"
        (polyline
          (pts
            (xy -1.905 2.159)
            (xy 0.635 2.159)
          )
          (stroke (width 0.254) (type default))
          (fill (type none))
        )
        (pin power_in line (at 7.62 5.08 180) (length 2.54)
          (name "VBUS" (effects (font (size 1.27 1.27))))
          (number "1" (effects (font (size 1.27 1.27))))
        )
        (pin bidirectional line (at 7.62 -2.54 180) (length 2.54)
          (name "D-" (effects (font (size 1.27 1.27))))
          (number "2" (effects (font (size 1.27 1.27))))
        )
        (pin bidirectional line (at 7.62 0 180) (length 2.54)
          (name "D+" (effects (font (size 1.27 1.27))))
          (number "3" (effects (font (size 1.27 1.27))))
        )
        (pin power_in line (at 0 -10.16 90) (length 2.54)
          (name "GND" (effects (font (size 1.27 1.27))))
          (number "4" (effects (font (size 1.27 1.27))))
        )
        (pin passive line (at -2.54 -10.16 90) (length 2.54)
          (name "Shield" (effects (font (size 1.27 1.27))))
          (number "5" (effects (font (size 1.27 1.27))))
        )
      )
    )
    (symbol "Device:C" (pin_numbers hide) (pin_names (offset 0.254)) (in_bom yes) (on_board yes)
      (property "Reference" "C" (at 0.635 2.54 0)
        (effects (font (size 1.27 1.27)) (justify left))
      )
      (property "Value" "C" (at 0.635 -2.54 0)
        (effects (font (size 1.27 1.27)) (justify left))
      )
      (property "Footprint" "" (at 0.9652 -3.81 0)
        (effects (font (size 1.27 1.27)) hide)
      )
      (property "Datasheet" "~" (at 0 0 0)
        (effects (font (size 1.27 1.27)) hide)
      )
      (property "ki_keywords" "cap capacitor" (at 0 0 0)
        (effects (font (size 1.27 1.27)) hide)
      )
      (property "ki_description" "Unpolarized capacitor" (at 0 0 0)
        (effects (font (size 1.27 1.27)) hide)
      )
      (property "ki_fp_filters" "C_*" (at 0 0 0)
        (effects (font (size 1.27 1.27)) hide)
      )
      (symbol "C_0_1"
        (polyline
          (pts
            (xy -2.032 -0.762)
            (xy 2.032 -0.762)
          )
          (stroke (width 0.508) (type default))
          (fill (type none))
        )
        (polyline
          (pts
            (xy -2.032 0.762)
            (xy 2.032 0.762)
          )
          (stroke (width 0.508) (type default))
          (fill (type none))
        )
      )
      (symbol "C_1_1"
        (pin passive line (at 0 3.81 270) (length 2.794)
          (name "~" (effects (font (size 1.27 1.27))))
          (number "1" (effects (font (size 1.27 1.27))))
        )
        (pin passive line (at 0 -3.81 90) (length 2.794)
          (name "~" (effects (font (size 1.27 1.27))))
          (number "2" (effects (font (size 1.27 1.27))))
        )
      )
    )
    (symbol "Device:R" (pin_numbers hide) (pin_names (offset 0)) (in_bom yes) (on_board yes)
      (property "Reference" "R" (at 2.032 0 90)
        (effects (font (size 1.27 1.27)))
      )
      (property "Value" "R" (at 0 0 90)
        (effects (font (size 1.27 1.27)))
      )
      (property "Footprint" "" (at -1.778 0 90)
        (effects (font (size 1.27 1.27)) hide)
      )
      (property "Datasheet" "~" (at 0 0 0)
        (effects (font (size 1.27 1.27)) hide)
      )
      (property "ki_keywords" "R res resistor" (at 0 0 0)
        (effects (font (size 1.27 1.27)) hide)
      )
      (property "ki_description" "Resistor" (at 0 0 0)
        (effects (font (size 1.27 1.27)) hide)
      )
      (property "ki_fp_filters" "R_*" (at 0 0 0)
        (effects (font (size 1.27 1.27)) hide)
      )
      (symbol "R_0_1"
        (rectangle (start -1.016 -2.54) (end 1.016 2.54)
          (stroke (width 0.254) (type default))
          (fill (type none))
        )
      )
      (symbol "R_1_1"
        (pin passive line (at 0 3.81 270) (length 1.27)
          (name "~" (effects (font (size 1.27 1.27))))
          (number "1" (effects (font (size 1.27 1.27))))
        )
        (pin passive line (at 0 -3.81 90) (length 1.27)
          (name "~" (effects (font (size 1.27 1.27))))
          (number "2" (effects (font (size 1.27 1.27))))
        )
      )
    )
    (symbol "Espressif:ESP32-S2-MINI-1" (pin_names (offset 1.016)) (in_bom yes) (on_board yes)
      (property "Reference" "U" (at -30.48 45.72 0)
        (effects (font (size 1.27 1.27)) (justify left))
      )
      (property "Value" "ESP32-S2-MINI-1" (at -30.48 43.18 0)
        (effects (font (size 1.27 1.27)) (justify left))
      )
      (property "Footprint" "Espressif:ESP32-S2-MINI-1" (at 0 -53.34 0)
        (effects (font (size 1.27 1.27)) hide)
      )
      (property "Datasheet" "https://www.espressif.com/sites/default/files/documentation/esp32-s2-mini-1_esp32-s2-mini-1u_datasheet_en.pdf" (at 2.54 -55.88 0)
        (effects (font (size 1.27 1.27)) hide)
      )
      (property "ki_keywords" "ESP32-S2" (at 0 0 0)
        (effects (font (size 1.27 1.27)) hide)
      )
      (property "ki_description" "ESP32-S2-MINI-1 and ESP32-S2-MINI-1U are two powerful, generic Wi-Fi MCU modules that have a rich set of peripherals. They are an ideal choice for a wide variety of application scenarios relating to Internet of Things (IoT), wearable electronics and smart home." (at 0 0 0)
        (effects (font (size 1.27 1.27)) hide)
      )
      (symbol "ESP32-S2-MINI-1_0_0"
        (pin power_in line (at 0 -43.18 90) (length 2.54)
          (name "GND" (effects (font (size 1.27 1.27))))
          (number "1" (effects (font (size 1.27 1.27))))
        )
        (pin passive line (at 0 -43.18 90) (length 2.54) hide
          (name "GND" (effects (font (size 1.27 1.27))))
          (number "43" (effects (font (size 1.27 1.27))))
        )
        (pin input line (at -33.02 10.16 0) (length 2.54)
          (name "GPIO46" (effects (font (size 1.27 1.27))))
          (number "44" (effects (font (size 1.27 1.27))))
        )
        (pin bidirectional line (at -33.02 38.1 0) (length 2.54)
          (name "CHIP/PU/RESET" (effects (font (size 1.27 1.27))))
          (number "45" (effects (font (size 1.27 1.27))))
        )
        (pin passive line (at 0 -43.18 90) (length 2.54) hide
          (name "GND" (effects (font (size 1.27 1.27))))
          (number "46" (effects (font (size 1.27 1.27))))
        )
        (pin passive line (at 0 -43.18 90) (length 2.54) hide
          (name "GND" (effects (font (size 1.27 1.27))))
          (number "47" (effects (font (size 1.27 1.27))))
        )
        (pin passive line (at 0 -43.18 90) (length 2.54) hide
          (name "GND" (effects (font (size 1.27 1.27))))
          (number "48" (effects (font (size 1.27 1.27))))
        )
        (pin passive line (at 0 -43.18 90) (length 2.54) hide
          (name "GND" (effects (font (size 1.27 1.27))))
          (number "49" (effects (font (size 1.27 1.27))))
        )
        (pin passive line (at 0 -43.18 90) (length 2.54) hide
          (name "GND" (effects (font (size 1.27 1.27))))
          (number "50" (effects (font (size 1.27 1.27))))
        )
        (pin passive line (at 0 -43.18 90) (length 2.54) hide
          (name "GND" (effects (font (size 1.27 1.27))))
          (number "51" (effects (font (size 1.27 1.27))))
        )
        (pin passive line (at 0 -43.18 90) (length 2.54) hide
          (name "GND" (effects (font (size 1.27 1.27))))
          (number "52" (effects (font (size 1.27 1.27))))
        )
        (pin passive line (at 0 -43.18 90) (length 2.54) hide
          (name "GND" (effects (font (size 1.27 1.27))))
          (number "53" (effects (font (size 1.27 1.27))))
        )
        (pin passive line (at 0 -43.18 90) (length 2.54) hide
          (name "GND" (effects (font (size 1.27 1.27))))
          (number "54" (effects (font (size 1.27 1.27))))
        )
        (pin passive line (at 0 -43.18 90) (length 2.54) hide
          (name "GND" (effects (font (size 1.27 1.27))))
          (number "55" (effects (font (size 1.27 1.27))))
        )
        (pin passive line (at 0 -43.18 90) (length 2.54) hide
          (name "GND" (effects (font (size 1.27 1.27))))
          (number "56" (effects (font (size 1.27 1.27))))
        )
        (pin passive line (at 0 -43.18 90) (length 2.54) hide
          (name "GND" (effects (font (size 1.27 1.27))))
          (number "57" (effects (font (size 1.27 1.27))))
        )
        (pin passive line (at 0 -43.18 90) (length 2.54) hide
          (name "GND" (effects (font (size 1.27 1.27))))
          (number "58" (effects (font (size 1.27 1.27))))
        )
        (pin passive line (at 0 -43.18 90) (length 2.54) hide
          (name "GND" (effects (font (size 1.27 1.27))))
          (number "59" (effects (font (size 1.27 1.27))))
        )
        (pin passive line (at 0 -43.18 90) (length 2.54) hide
          (name "GND" (effects (font (size 1.27 1.27))))
          (number "60" (effects (font (size 1.27 1.27))))
        )
        (pin passive line (at 0 -43.18 90) (length 2.54) hide
          (name "GND" (effects (font (size 1.27 1.27))))
          (number "61" (effects (font (size 1.27 1.27))))
        )
        (pin passive line (at 0 -43.18 90) (length 2.54) hide
          (name "GND" (effects (font (size 1.27 1.27))))
          (number "62" (effects (font (size 1.27 1.27))))
        )
        (pin passive line (at 0 -43.18 90) (length 2.54) hide
          (name "GND" (effects (font (size 1.27 1.27))))
          (number "63" (effects (font (size 1.27 1.27))))
        )
        (pin passive line (at 0 -43.18 90) (length 2.54) hide
          (name "GND" (effects (font (size 1.27 1.27))))
          (number "64" (effects (font (size 1.27 1.27))))
        )
        (pin passive line (at 0 -43.18 90) (length 2.54) hide
          (name "GND" (effects (font (size 1.27 1.27))))
          (number "65" (effects (font (size 1.27 1.27))))
        )
      )
      (symbol "ESP32-S2-MINI-1_0_1"
        (rectangle (start -30.48 40.64) (end 30.48 -40.64)
          (stroke (width 0) (type default))
          (fill (type background))
        )
      )
      (symbol "ESP32-S2-MINI-1_1_1"
        (text "ESP32-S2-MINI-1" (at -10.16 0 0)
          (effects (font (size 2.54 2.54)))
        )
        (pin bidirectional line (at 33.02 7.62 180) (length 2.54)
          (name "GPIO6/ADC1_CH5" (effects (font (size 1.27 1.27))))
          (number "10" (effects (font (size 1.27 1.27))))
        )
        (pin bidirectional line (at 33.02 5.08 180) (length 2.54)
          (name "GPIO7/ADC1_CH6" (effects (font (size 1.27 1.27))))
          (number "11" (effects (font (size 1.27 1.27))))
        )
        (pin bidirectional line (at 33.02 2.54 180) (length 2.54)
          (name "GPIO8/ADC1_CH7" (effects (font (size 1.27 1.27))))
          (number "12" (effects (font (size 1.27 1.27))))
        )
        (pin bidirectional line (at 33.02 0 180) (length 2.54)
          (name "GPIO9/ADC1_CH8" (effects (font (size 1.27 1.27))))
          (number "13" (effects (font (size 1.27 1.27))))
        )
        (pin bidirectional line (at 33.02 -2.54 180) (length 2.54)
          (name "GPIO10/ADC1_CH9" (effects (font (size 1.27 1.27))))
          (number "14" (effects (font (size 1.27 1.27))))
        )
        (pin bidirectional line (at 33.02 -5.08 180) (length 2.54)
          (name "GPIO11/ADC2_CH0" (effects (font (size 1.27 1.27))))
          (number "15" (effects (font (size 1.27 1.27))))
        )
        (pin bidirectional line (at 33.02 -7.62 180) (length 2.54)
          (name "GPIO12/ADC2_CH1" (effects (font (size 1.27 1.27))))
          (number "16" (effects (font (size 1.27 1.27))))
        )
        (pin bidirectional line (at 33.02 -10.16 180) (length 2.54)
          (name "GPIO13/ADC2_CH2" (effects (font (size 1.27 1.27))))
          (number "17" (effects (font (size 1.27 1.27))))
        )
        (pin bidirectional line (at 33.02 -12.7 180) (length 2.54)
          (name "GPIO14/ADC2_CH3" (effects (font (size 1.27 1.27))))
          (number "18" (effects (font (size 1.27 1.27))))
        )
        (pin bidirectional line (at -33.02 30.48 0) (length 2.54)
          (name "GPIO15/ADC2_CH4/XTAL_32K_P" (effects (font (size 1.27 1.27))))
          (number "19" (effects (font (size 1.27 1.27))))
        )
        (pin passive line (at 0 -43.18 90) (length 2.54) hide
          (name "GND" (effects (font (size 1.27 1.27))))
          (number "2" (effects (font (size 1.27 1.27))))
        )
        (pin bidirectional line (at -33.02 27.94 0) (length 2.54)
          (name "GPIO16/ADC2_CH5/XTAL_32K_N" (effects (font (size 1.27 1.27))))
          (number "20" (effects (font (size 1.27 1.27))))
        )
        (pin bidirectional line (at 33.02 -15.24 180) (length 2.54)
          (name "ADC2_CH7/DAC_2/GPIO17" (effects (font (size 1.27 1.27))))
          (number "21" (effects (font (size 1.27 1.27))))
        )
        (pin bidirectional line (at 33.02 -17.78 180) (length 2.54)
          (name "ADC2_CH6/DAC_1/GPIO18" (effects (font (size 1.27 1.27))))
          (number "22" (effects (font (size 1.27 1.27))))
        )
        (pin bidirectional line (at 33.02 27.94 180) (length 2.54)
          (name "USB_D-/ADC2_CH8/GPIO19" (effects (font (size 1.27 1.27))))
          (number "23" (effects (font (size 1.27 1.27))))
        )
        (pin bidirectional line (at 33.02 30.48 180) (length 2.54)
          (name "USB_D+/ADC2_CH9/GPIO20" (effects (font (size 1.27 1.27))))
          (number "24" (effects (font (size 1.27 1.27))))
        )
        (pin bidirectional line (at 33.02 -20.32 180) (length 2.54)
          (name "GPIO21" (effects (font (size 1.27 1.27))))
          (number "25" (effects (font (size 1.27 1.27))))
        )
        (pin bidirectional line (at -33.02 -33.02 0) (length 2.54)
          (name "SPI_CS1/GPIO26" (effects (font (size 1.27 1.27))))
          (number "26" (effects (font (size 1.27 1.27))))
        )
        (pin no_connect line (at -30.48 -38.1 0) (length 2.54) hide
          (name "NC" (effects (font (size 1.27 1.27))))
          (number "27" (effects (font (size 1.27 1.27))))
        )
        (pin bidirectional line (at 33.02 -22.86 180) (length 2.54)
          (name "GPIO33" (effects (font (size 1.27 1.27))))
          (number "28" (effects (font (size 1.27 1.27))))
        )
        (pin bidirectional line (at 33.02 -25.4 180) (length 2.54)
          (name "GPIO34" (effects (font (size 1.27 1.27))))
          (number "29" (effects (font (size 1.27 1.27))))
        )
        (pin power_in line (at 0 43.18 270) (length 2.54)
          (name "3V3" (effects (font (size 1.27 1.27))))
          (number "3" (effects (font (size 1.27 1.27))))
        )
        (pin passive line (at 0 -43.18 90) (length 2.54) hide
          (name "GND" (effects (font (size 1.27 1.27))))
          (number "30" (effects (font (size 1.27 1.27))))
        )
        (pin bidirectional line (at 33.02 -27.94 180) (length 2.54)
          (name "GPIO35" (effects (font (size 1.27 1.27))))
          (number "31" (effects (font (size 1.27 1.27))))
        )
        (pin bidirectional line (at 33.02 -30.48 180) (length 2.54)
          (name "GPIO36" (effects (font (size 1.27 1.27))))
          (number "32" (effects (font (size 1.27 1.27))))
        )
        (pin bidirectional line (at 33.02 -33.02 180) (length 2.54)
          (name "GPIO37" (effects (font (size 1.27 1.27))))
          (number "33" (effects (font (size 1.27 1.27))))
        )
        (pin bidirectional line (at 33.02 -35.56 180) (length 2.54)
          (name "GPIO38" (effects (font (size 1.27 1.27))))
          (number "34" (effects (font (size 1.27 1.27))))
        )
        (pin bidirectional line (at -33.02 22.86 0) (length 2.54)
          (name "MTCK/JTAG/GPIO39" (effects (font (size 1.27 1.27))))
          (number "35" (effects (font (size 1.27 1.27))))
        )
        (pin bidirectional line (at -33.02 20.32 0) (length 2.54)
          (name "MTDO/JTAG/GPIO40" (effects (font (size 1.27 1.27))))
          (number "36" (effects (font (size 1.27 1.27))))
        )
        (pin bidirectional line (at -33.02 17.78 0) (length 2.54)
          (name "MTDI/JTAG/GPIO41" (effects (font (size 1.27 1.27))))
          (number "37" (effects (font (size 1.27 1.27))))
        )
        (pin bidirectional line (at -33.02 15.24 0) (length 2.54)
          (name "MTMS/JTAG/GPIO42" (effects (font (size 1.27 1.27))))
          (number "38" (effects (font (size 1.27 1.27))))
        )
        (pin bidirectional line (at 33.02 38.1 180) (length 2.54)
          (name "GPIO43/U0TXD/PROG" (effects (font (size 1.27 1.27))))
          (number "39" (effects (font (size 1.27 1.27))))
        )
        (pin bidirectional line (at 33.02 22.86 180) (length 2.54)
          (name "GPIO0/BOOT" (effects (font (size 1.27 1.27))))
          (number "4" (effects (font (size 1.27 1.27))))
        )
        (pin bidirectional line (at 33.02 35.56 180) (length 2.54)
          (name "GPIO44/U0RXD/PROG" (effects (font (size 1.27 1.27))))
          (number "40" (effects (font (size 1.27 1.27))))
        )
        (pin bidirectional line (at 33.02 -38.1 180) (length 2.54)
          (name "GPIO45" (effects (font (size 1.27 1.27))))
          (number "41" (effects (font (size 1.27 1.27))))
        )
        (pin passive line (at 0 -43.18 90) (length 2.54) hide
          (name "GND" (effects (font (size 1.27 1.27))))
          (number "42" (effects (font (size 1.27 1.27))))
        )
        (pin bidirectional line (at 33.02 20.32 180) (length 2.54)
          (name "GPIO1/ADC1_CH0" (effects (font (size 1.27 1.27))))
          (number "5" (effects (font (size 1.27 1.27))))
        )
        (pin bidirectional line (at 33.02 17.78 180) (length 2.54)
          (name "GPIO2/ADC1_CH1" (effects (font (size 1.27 1.27))))
          (number "6" (effects (font (size 1.27 1.27))))
        )
        (pin bidirectional line (at 33.02 15.24 180) (length 2.54)
          (name "GPIO3/ADC1_CH2" (effects (font (size 1.27 1.27))))
          (number "7" (effects (font (size 1.27 1.27))))
        )
        (pin bidirectional line (at 33.02 12.7 180) (length 2.54)
          (name "GPIO4/ADC1_CH3" (effects (font (size 1.27 1.27))))
          (number "8" (effects (font (size 1.27 1.27))))
        )
        (pin bidirectional line (at 33.02 10.16 180) (length 2.54)
          (name "GPIO5/ADC1_CH4" (effects (font (size 1.27 1.27))))
          (number "9" (effects (font (size 1.27 1.27))))
        )
      )
    )
    (symbol "Regulator_Linear:HT75xx-1-SOT89" (in_bom yes) (on_board yes)
      (property "Reference" "U" (at -5.08 -3.81 0)
        (effects (font (size 1.27 1.27)) (justify left))
      )
      (property "Value" "HT75xx-1-SOT89" (at 0 6.35 0)
        (effects (font (size 1.27 1.27)))
      )
      (property "Footprint" "Package_TO_SOT_SMD:SOT-89-3" (at 0 8.255 0)
        (effects (font (size 1.27 1.27) italic) hide)
      )
      (property "Datasheet" "https://www.holtek.com/documents/10179/116711/HT75xx-1v250.pdf" (at 0 2.54 0)
        (effects (font (size 1.27 1.27)) hide)
      )
      (property "ki_keywords" "100mA LDO Regulator Fixed Positive" (at 0 0 0)
        (effects (font (size 1.27 1.27)) hide)
      )
      (property "ki_description" "100mA Low Dropout Voltage Regulator, Fixed Output, SOT89" (at 0 0 0)
        (effects (font (size 1.27 1.27)) hide)
      )
      (property "ki_fp_filters" "SOT?89*" (at 0 0 0)
        (effects (font (size 1.27 1.27)) hide)
      )
      (symbol "HT75xx-1-SOT89_0_1"
        (rectangle (start -5.08 5.08) (end 5.08 -2.54)
          (stroke (width 0.254) (type default))
          (fill (type background))
        )
      )
      (symbol "HT75xx-1-SOT89_1_1"
        (pin power_in line (at 0 -5.08 90) (length 2.54)
          (name "GND" (effects (font (size 1.27 1.27))))
          (number "1" (effects (font (size 1.27 1.27))))
        )
        (pin power_in line (at -7.62 2.54 0) (length 2.54)
          (name "VIN" (effects (font (size 1.27 1.27))))
          (number "2" (effects (font (size 1.27 1.27))))
        )
        (pin power_out line (at 7.62 2.54 180) (length 2.54)
          (name "VOUT" (effects (font (size 1.27 1.27))))
          (number "3" (effects (font (size 1.27 1.27))))
        )
      )
    )
    (symbol "Switch:SW_DPDT_x2" (pin_names (offset 0) hide) (in_bom yes) (on_board yes)
      (property "Reference" "SW" (at 0 4.318 0)
        (effects (font (size 1.27 1.27)))
      )
      (property "Value" "SW_DPDT_x2" (at 0 -5.08 0)
        (effects (font (size 1.27 1.27)))
      )
      (property "Footprint" "" (at 0 0 0)
        (effects (font (size 1.27 1.27)) hide)
      )
      (property "Datasheet" "~" (at 0 0 0)
        (effects (font (size 1.27 1.27)) hide)
      )
      (property "ki_keywords" "switch dual-pole double-throw DPDT spdt ON-ON" (at 0 0 0)
        (effects (font (size 1.27 1.27)) hide)
      )
      (property "ki_description" "Switch, dual pole double throw, separate symbols" (at 0 0 0)
        (effects (font (size 1.27 1.27)) hide)
      )
      (property "ki_fp_filters" "SW*DPDT*" (at 0 0 0)
        (effects (font (size 1.27 1.27)) hide)
      )
      (symbol "SW_DPDT_x2_0_0"
        (circle (center -2.032 0) (radius 0.508)
          (stroke (width 0) (type default))
          (fill (type none))
        )
        (circle (center 2.032 -2.54) (radius 0.508)
          (stroke (width 0) (type default))
          (fill (type none))
        )
      )
      (symbol "SW_DPDT_x2_0_1"
        (polyline
          (pts
            (xy -1.524 0.254)
            (xy 1.651 2.286)
          )
          (stroke (width 0) (type default))
          (fill (type none))
        )
        (circle (center 2.032 2.54) (radius 0.508)
          (stroke (width 0) (type default))
          (fill (type none))
        )
      )
      (symbol "SW_DPDT_x2_1_1"
        (pin passive line (at 5.08 2.54 180) (length 2.54)
          (name "A" (effects (font (size 1.27 1.27))))
          (number "1" (effects (font (size 1.27 1.27))))
        )
        (pin passive line (at -5.08 0 0) (length 2.54)
          (name "B" (effects (font (size 1.27 1.27))))
          (number "2" (effects (font (size 1.27 1.27))))
        )
        (pin passive line (at 5.08 -2.54 180) (length 2.54)
          (name "C" (effects (font (size 1.27 1.27))))
          (number "3" (effects (font (size 1.27 1.27))))
        )
      )
      (symbol "SW_DPDT_x2_2_1"
        (pin passive line (at 5.08 2.54 180) (length 2.54)
          (name "A" (effects (font (size 1.27 1.27))))
          (number "4" (effects (font (size 1.27 1.27))))
        )
        (pin passive line (at -5.08 0 0) (length 2.54)
          (name "B" (effects (font (size 1.27 1.27))))
          (number "5" (effects (font (size 1.27 1.27))))
        )
        (pin passive line (at 5.08 -2.54 180) (length 2.54)
          (name "C" (effects (font (size 1.27 1.27))))
          (number "6" (effects (font (size 1.27 1.27))))
        )
      )
    )
    (symbol "electroniccats:AP2112K-3.3TRG1" (pin_names (offset 1.016)) (in_bom yes) (on_board yes)
      (property "Reference" "U" (at -7.6708 8.6614 0)
        (effects (font (size 1.27 1.27)) (justify left bottom))
      )
      (property "Value" "AP2112K-3.3TRG1" (at -7.6454 -11.6586 0)
        (effects (font (size 1.27 1.27)) (justify left bottom))
      )
      (property "Footprint" "SOT95P285X140-5N" (at 0 0 0)
        (effects (font (size 1.27 1.27)) (justify left bottom) hide)
      )
      (property "Datasheet" "SOT-753 Diodes Inc." (at 0 0 0)
        (effects (font (size 1.27 1.27)) (justify left bottom) hide)
      )
      (property "Field4" "0.15 USD" (at 0 0 0)
        (effects (font (size 1.27 1.27)) (justify left bottom) hide)
      )
      (property "Field5" "Diodes Inc." (at 0 0 0)
        (effects (font (size 1.27 1.27)) (justify left bottom) hide)
      )
      (property "Field6" "AP2112K-3.3TRG1" (at 0 0 0)
        (effects (font (size 1.27 1.27)) (justify left bottom) hide)
      )
      (property "Field7" "Good" (at 0 0 0)
        (effects (font (size 1.27 1.27)) (justify left bottom) hide)
      )
      (property "Field8" "AP2112 Series 0.6 A 3.3 V Fixed Output SMT LDO Linear Regulator - SOT23-5" (at 0 0 0)
        (effects (font (size 1.27 1.27)) (justify left bottom) hide)
      )
      (property "ki_locked" "" (at 0 0 0)
        (effects (font (size 1.27 1.27)))
      )
      (symbol "AP2112K-3.3TRG1_0_0"
        (polyline
          (pts
            (xy -7.62 -7.62)
            (xy -7.62 7.62)
          )
          (stroke (width 0.4064) (type solid))
          (fill (type none))
        )
        (polyline
          (pts
            (xy -7.62 7.62)
            (xy 7.62 7.62)
          )
          (stroke (width 0.4064) (type solid))
          (fill (type none))
        )
        (polyline
          (pts
            (xy 7.62 -7.62)
            (xy -7.62 -7.62)
          )
          (stroke (width 0.4064) (type solid))
          (fill (type none))
        )
        (polyline
          (pts
            (xy 7.62 7.62)
            (xy 7.62 -7.62)
          )
          (stroke (width 0.4064) (type solid))
          (fill (type none))
        )
        (pin power_in line (at -12.7 5.08 0) (length 5.08)
          (name "VIN" (effects (font (size 1.016 1.016))))
          (number "1" (effects (font (size 1.016 1.016))))
        )
        (pin power_in line (at 12.7 -5.08 180) (length 5.08)
          (name "GND" (effects (font (size 1.016 1.016))))
          (number "2" (effects (font (size 1.016 1.016))))
        )
        (pin input line (at -12.7 0 0) (length 5.08)
          (name "EN" (effects (font (size 1.016 1.016))))
          (number "3" (effects (font (size 1.016 1.016))))
        )
        (pin power_in line (at 12.7 5.08 180) (length 5.08)
          (name "VOUT" (effects (font (size 1.016 1.016))))
          (number "5" (effects (font (size 1.016 1.016))))
        )
      )
    )
  )

  (junction (at 67.31 72.39) (diameter 0) (color 0 0 0 0)
    (uuid 141ad117-2156-49ca-86cb-da3df2588d42)
  )
  (junction (at 45.72 59.69) (diameter 0) (color 0 0 0 0)
    (uuid 33e3dc61-b332-4e3a-b4a0-b0a06a9e8d0f)
  )
  (junction (at 123.19 36.83) (diameter 0) (color 0 0 0 0)
    (uuid 61a26a75-749b-41b2-be32-dc69ee2ef331)
  )
  (junction (at 63.5 59.69) (diameter 0) (color 0 0 0 0)
    (uuid 90405d82-516e-4737-a779-1fa8101b611f)
  )
  (junction (at 38.1 91.44) (diameter 0) (color 0 0 0 0)
    (uuid b43d0a8d-b746-4515-a21f-a3cb58d269b5)
  )

  (wire (pts (xy 156.21 52.07) (xy 167.64 52.07))
    (stroke (width 0) (type default))
    (uuid 0244a9bc-6181-472a-891f-e593d125f39a)
  )
  (wire (pts (xy 156.21 54.61) (xy 163.83 54.61))
    (stroke (width 0) (type default))
    (uuid 049d65d9-32be-408e-a328-109d374f4565)
  )
  (wire (pts (xy 67.31 72.39) (xy 54.61 72.39))
    (stroke (width 0) (type default))
    (uuid 05fbc3cc-49aa-4e92-8e0f-8438829f47ff)
  )
  (wire (pts (xy 196.85 48.26) (xy 222.25 48.26))
    (stroke (width 0) (type default))
    (uuid 0c311de2-58f1-44ef-97f6-a56708f215bc)
  )
  (wire (pts (xy 34.29 67.31) (xy 38.1 67.31))
    (stroke (width 0) (type default))
    (uuid 0e9fdcd2-53a6-4e76-a351-83221a819231)
  )
  (wire (pts (xy 64.77 64.77) (xy 74.93 64.77))
    (stroke (width 0) (type default))
    (uuid 1266d42c-5c65-421c-a28e-bbf395e2408b)
  )
  (wire (pts (xy 173.99 92.71) (xy 189.23 92.71))
    (stroke (width 0) (type default))
    (uuid 201ac819-7cef-41d0-8277-0ea1490f7ba0)
  )
  (wire (pts (xy 90.17 44.45) (xy 90.17 36.83))
    (stroke (width 0) (type default))
    (uuid 27be4585-a01a-405c-af74-cf487a7f0f68)
  )
  (wire (pts (xy 196.85 43.18) (xy 209.55 43.18))
    (stroke (width 0) (type default))
    (uuid 2a364113-2501-43ce-b321-c3914c3c1b13)
  )
  (wire (pts (xy 172.72 100.33) (xy 177.8 100.33))
    (stroke (width 0) (type default))
    (uuid 2c325747-a186-42de-9f35-df8036105621)
  )
  (wire (pts (xy 196.85 38.1) (xy 224.79 38.1))
    (stroke (width 0) (type default))
    (uuid 34f969f7-1ce5-4091-b4c9-21d9e834b022)
  )
  (wire (pts (xy 90.17 36.83) (xy 123.19 36.83))
    (stroke (width 0) (type default))
    (uuid 37a546e4-e6e2-46f2-be1a-b1aa73db26bf)
  )
  (wire (pts (xy 156.21 115.57) (xy 162.56 115.57))
    (stroke (width 0) (type default))
    (uuid 3a5ff0af-2719-478b-9de6-e0b5f5c695da)
  )
  (wire (pts (xy 34.29 64.77) (xy 38.1 64.77))
    (stroke (width 0) (type default))
    (uuid 3d7fca83-b4bc-429c-a7a1-7d523d02189d)
  )
  (wire (pts (xy 26.67 74.93) (xy 26.67 78.74))
    (stroke (width 0) (type default))
    (uuid 42a69dec-7351-4b10-9d4a-31f3a945d8d1)
  )
  (wire (pts (xy 156.21 100.33) (xy 161.29 100.33))
    (stroke (width 0) (type default))
    (uuid 42acce60-ba91-4292-9dd4-d4a6a221e8db)
  )
  (wire (pts (xy 34.29 59.69) (xy 45.72 59.69))
    (stroke (width 0) (type default))
    (uuid 446895ac-3734-4f40-bac0-32dd16e6e8f0)
  )
  (wire (pts (xy 54.61 67.31) (xy 54.61 72.39))
    (stroke (width 0) (type default))
    (uuid 5261f148-cd68-414b-bd2f-f3517d03e843)
  )
  (wire (pts (xy 38.1 91.44) (xy 38.1 96.52))
    (stroke (width 0) (type default))
    (uuid 55731692-cffc-4d6b-9679-b442388c23d6)
  )
  (wire (pts (xy 222.25 48.26) (xy 222.25 49.53))
    (stroke (width 0) (type default))
    (uuid 5e7325e3-1b82-4bc6-9c2a-70c086f1d921)
  )
  (wire (pts (xy 67.31 101.6) (xy 67.31 72.39))
    (stroke (width 0) (type default))
    (uuid 685e3438-fae0-46dc-bce9-eacb5f28a0e0)
  )
  (wire (pts (xy 172.72 105.41) (xy 189.23 105.41))
    (stroke (width 0) (type default))
    (uuid 723f8908-5b25-49ec-a3ab-636c87b2307e)
  )
  (wire (pts (xy 196.85 45.72) (xy 201.93 45.72))
    (stroke (width 0) (type default))
    (uuid 751f1902-489b-46c4-83b5-373543d467f3)
  )
  (wire (pts (xy 45.72 59.69) (xy 46.99 59.69))
    (stroke (width 0) (type default))
    (uuid 7a28302e-0fca-4c75-81c6-7644bbb6eda8)
  )
  (wire (pts (xy 123.19 36.83) (xy 123.19 39.37))
    (stroke (width 0) (type default))
    (uuid 7aa9e80b-d244-4d6c-a4cd-09b5585f95ba)
  )
  (wire (pts (xy 189.23 92.71) (xy 189.23 105.41))
    (stroke (width 0) (type default))
    (uuid 8113003e-eac8-40be-bed2-f23f58ba9b3e)
  )
  (wire (pts (xy 161.29 85.09) (xy 173.99 85.09))
    (stroke (width 0) (type default))
    (uuid 89b4223f-a361-4e5c-a29d-888a2c2e7b84)
  )
  (wire (pts (xy 62.23 59.69) (xy 63.5 59.69))
    (stroke (width 0) (type default))
    (uuid 8e845a39-7584-4aba-81c0-39b25a7ffde1)
  )
  (wire (pts (xy 156.21 46.99) (xy 160.02 46.99))
    (stroke (width 0) (type default))
    (uuid 93a77bb9-7ab1-4702-ab02-1fc716c99d7e)
  )
  (wire (pts (xy 162.56 115.57) (xy 162.56 102.87))
    (stroke (width 0) (type default))
    (uuid 9e4788f4-fda6-4012-8b02-4a7db13b426a)
  )
  (wire (pts (xy 123.19 125.73) (xy 123.19 130.81))
    (stroke (width 0) (type default))
    (uuid a1669c5a-f30e-493b-bb26-90e09471c1cd)
  )
  (wire (pts (xy 63.5 59.69) (xy 64.77 59.69))
    (stroke (width 0) (type default))
    (uuid b2fd48ea-83e1-48f3-99cb-3fb8a1ebfdbc)
  )
  (wire (pts (xy 38.1 91.44) (xy 38.1 72.39))
    (stroke (width 0) (type default))
    (uuid ba47f76e-b7b4-4a88-8f20-448fc3ff7c3d)
  )
  (wire (pts (xy 45.72 59.69) (xy 45.72 72.39))
    (stroke (width 0) (type default))
    (uuid bd1380ea-cd92-4f3f-8d7d-682290354c56)
  )
  (wire (pts (xy 156.21 44.45) (xy 162.56 44.45))
    (stroke (width 0) (type default))
    (uuid bd77d9fd-15ae-49c7-a081-d2e9d092a52c)
  )
  (wire (pts (xy 74.93 72.39) (xy 67.31 72.39))
    (stroke (width 0) (type default))
    (uuid c0d99e02-b194-4b95-8324-4979f99c63dd)
  )
  (wire (pts (xy 156.21 59.69) (xy 162.56 59.69))
    (stroke (width 0) (type default))
    (uuid caff01c6-070e-44a8-8512-6e949fd1f641)
  )
  (wire (pts (xy 123.19 33.02) (xy 123.19 36.83))
    (stroke (width 0) (type default))
    (uuid cfbafd5f-a41e-4b7a-be7d-89d5481831c7)
  )
  (wire (pts (xy 64.77 59.69) (xy 64.77 64.77))
    (stroke (width 0) (type default))
    (uuid d8a98a4a-4439-4732-9dbb-7fddf82d6bab)
  )
  (wire (pts (xy 38.1 72.39) (xy 45.72 72.39))
    (stroke (width 0) (type default))
    (uuid e23cece3-b256-44dc-adbf-e48dfc324233)
  )
  (wire (pts (xy 161.29 100.33) (xy 161.29 85.09))
    (stroke (width 0) (type default))
    (uuid e934d65d-ab52-48d2-ac2a-afe689e743e2)
  )
  (wire (pts (xy 63.5 59.69) (xy 63.5 91.44))
    (stroke (width 0) (type default))
    (uuid efa1936a-3190-43f0-9854-6f5efda0f17b)
  )
  (wire (pts (xy 196.85 40.64) (xy 218.44 40.64))
    (stroke (width 0) (type default))
    (uuid f7e9840b-daff-4e0b-8bf9-5af70fc21276)
  )
  (wire (pts (xy 63.5 101.6) (xy 67.31 101.6))
    (stroke (width 0) (type default))
    (uuid fa5591ea-4dd2-4d5d-b7dc-1dd9733a9f2c)
  )

  (global_label "33v" (shape input) (at 177.8 105.41 0) (fields_autoplaced)
    (effects (font (size 1.27 1.27)) (justify left))
    (uuid 0ffb1537-15e4-4795-ada2-5c5de4831ff5)
    (property "Intersheetrefs" "${INTERSHEET_REFS}" (at 184.0924 105.41 0)
      (effects (font (size 1.27 1.27)) (justify left) hide)
    )
  )
  (global_label "GPIO0" (shape input) (at 162.56 59.69 0) (fields_autoplaced)
    (effects (font (size 1.27 1.27)) (justify left))
    (uuid 12addeb3-90e3-4276-a3f2-8bf1ba625f9b)
    (property "Intersheetrefs" "${INTERSHEET_REFS}" (at 171.1506 59.69 0)
      (effects (font (size 1.27 1.27)) (justify left) hide)
    )
  )
  (global_label "GND" (shape input) (at 123.19 130.81 0) (fields_autoplaced)
    (effects (font (size 1.27 1.27)) (justify left))
    (uuid 2e53dba2-ee62-4493-baa7-c88eaf83921e)
    (property "Intersheetrefs" "${INTERSHEET_REFS}" (at 129.9663 130.81 0)
      (effects (font (size 1.27 1.27)) (justify left) hide)
    )
  )
  (global_label "GND" (shape input) (at 54.61 71.12 0) (fields_autoplaced)
    (effects (font (size 1.27 1.27)) (justify left))
    (uuid 31669c90-2d55-452c-9ac4-4da3a06daa11)
    (property "Intersheetrefs" "${INTERSHEET_REFS}" (at 61.3863 71.12 0)
      (effects (font (size 1.27 1.27)) (justify left) hide)
    )
  )
  (global_label "D-" (shape input) (at 38.1 67.31 0) (fields_autoplaced)
    (effects (font (size 1.27 1.27)) (justify left))
    (uuid 383e7290-bd18-4fe9-9325-322c5e3e107c)
    (property "Intersheetrefs" "${INTERSHEET_REFS}" (at 43.8482 67.31 0)
      (effects (font (size 1.27 1.27)) (justify left) hide)
    )
  )
  (global_label "GPIO0" (shape input) (at 222.25 49.53 0) (fields_autoplaced)
    (effects (font (size 1.27 1.27)) (justify left))
    (uuid 4745ebc6-adb7-4ce9-ae0f-8468a9de1f41)
    (property "Intersheetrefs" "${INTERSHEET_REFS}" (at 230.8406 49.53 0)
      (effects (font (size 1.27 1.27)) (justify left) hide)
    )
  )
  (global_label "GND" (shape input) (at 26.67 78.74 0) (fields_autoplaced)
    (effects (font (size 1.27 1.27)) (justify left))
    (uuid 4b47725a-f34d-454b-9858-1786c6df1c23)
    (property "Intersheetrefs" "${INTERSHEET_REFS}" (at 33.4463 78.74 0)
      (effects (font (size 1.27 1.27)) (justify left) hide)
    )
  )
  (global_label "33v" (shape input) (at 224.79 38.1 0) (fields_autoplaced)
    (effects (font (size 1.27 1.27)) (justify left))
    (uuid 51c38da5-42d1-43cb-b950-132e8bc4537c)
    (property "Intersheetrefs" "${INTERSHEET_REFS}" (at 231.0824 38.1 0)
      (effects (font (size 1.27 1.27)) (justify left) hide)
    )
  )
  (global_label "RX" (shape input) (at 160.02 46.99 0) (fields_autoplaced)
    (effects (font (size 1.27 1.27)) (justify left))
    (uuid 5beab20d-9967-4455-b7ee-ec7d2a7282d1)
    (property "Intersheetrefs" "${INTERSHEET_REFS}" (at 165.4053 46.99 0)
      (effects (font (size 1.27 1.27)) (justify left) hide)
    )
  )
  (global_label "D+" (shape input) (at 167.64 52.07 0) (fields_autoplaced)
    (effects (font (size 1.27 1.27)) (justify left))
    (uuid 6e29ac6a-5ba6-473f-885f-8402e917beb4)
    (property "Intersheetrefs" "${INTERSHEET_REFS}" (at 173.3882 52.07 0)
      (effects (font (size 1.27 1.27)) (justify left) hide)
    )
  )
  (global_label "33v" (shape input) (at 64.77 59.69 0) (fields_autoplaced)
    (effects (font (size 1.27 1.27)) (justify left))
    (uuid 7a9c7db8-b638-44d4-84c1-9d8e073f6f57)
    (property "Intersheetrefs" "${INTERSHEET_REFS}" (at 71.0624 59.69 0)
      (effects (font (size 1.27 1.27)) (justify left) hide)
    )
  )
  (global_label "GND" (shape input) (at 177.8 100.33 0) (fields_autoplaced)
    (effects (font (size 1.27 1.27)) (justify left))
    (uuid 80f087bb-2780-408c-ae92-8f663b3dcfc9)
    (property "Intersheetrefs" "${INTERSHEET_REFS}" (at 184.5763 100.33 0)
      (effects (font (size 1.27 1.27)) (justify left) hide)
    )
  )
  (global_label "33v" (shape input) (at 123.19 33.02 0) (fields_autoplaced)
    (effects (font (size 1.27 1.27)) (justify left))
    (uuid a1fadb9a-4e18-4054-8d99-a98b93eeaad3)
    (property "Intersheetrefs" "${INTERSHEET_REFS}" (at 129.4824 33.02 0)
      (effects (font (size 1.27 1.27)) (justify left) hide)
    )
  )
  (global_label "RX" (shape input) (at 201.93 45.72 0) (fields_autoplaced)
    (effects (font (size 1.27 1.27)) (justify left))
    (uuid a5498c41-c720-42bb-8aca-90c73e1e490f)
    (property "Intersheetrefs" "${INTERSHEET_REFS}" (at 207.3153 45.72 0)
      (effects (font (size 1.27 1.27)) (justify left) hide)
    )
  )
  (global_label "GND" (shape input) (at 218.44 40.64 0) (fields_autoplaced)
    (effects (font (size 1.27 1.27)) (justify left))
    (uuid bb4d48cb-71d3-4ee4-beb6-d555a5e22886)
    (property "Intersheetrefs" "${INTERSHEET_REFS}" (at 225.2163 40.64 0)
      (effects (font (size 1.27 1.27)) (justify left) hide)
    )
  )
  (global_label "TX" (shape input) (at 209.55 43.18 0) (fields_autoplaced)
    (effects (font (size 1.27 1.27)) (justify left))
    (uuid be61412b-f0a7-4ba4-999b-1e5fd007b7cc)
    (property "Intersheetrefs" "${INTERSHEET_REFS}" (at 214.6329 43.18 0)
      (effects (font (size 1.27 1.27)) (justify left) hide)
    )
  )
  (global_label "D+" (shape input) (at 38.1 64.77 0) (fields_autoplaced)
    (effects (font (size 1.27 1.27)) (justify left))
    (uuid c84f3333-c0ca-45ba-ae9b-6715d6119884)
    (property "Intersheetrefs" "${INTERSHEET_REFS}" (at 43.8482 64.77 0)
      (effects (font (size 1.27 1.27)) (justify left) hide)
    )
  )
  (global_label "D-" (shape input) (at 163.83 54.61 0) (fields_autoplaced)
    (effects (font (size 1.27 1.27)) (justify left))
    (uuid e8addb2c-131a-4c23-bf60-9852f56e6785)
    (property "Intersheetrefs" "${INTERSHEET_REFS}" (at 169.5782 54.61 0)
      (effects (font (size 1.27 1.27)) (justify left) hide)
    )
  )
  (global_label "TX" (shape input) (at 162.56 44.45 0) (fields_autoplaced)
    (effects (font (size 1.27 1.27)) (justify left))
    (uuid fae54266-e087-42d8-8b96-c341baad63c5)
    (property "Intersheetrefs" "${INTERSHEET_REFS}" (at 167.6429 44.45 0)
      (effects (font (size 1.27 1.27)) (justify left) hide)
    )
  )

  (symbol (lib_id "Regulator_Linear:HT75xx-1-SOT89") (at 54.61 62.23 0) (unit 1)
    (in_bom yes) (on_board yes) (dnp no) (fields_autoplaced)
    (uuid 15b6a466-fa79-4e28-88a7-4fecf6f3bcf9)
    (property "Reference" "U2" (at 54.61 53.34 0)
      (effects (font (size 1.27 1.27)))
    )
    (property "Value" "HT75xx-1-SOT89" (at 54.61 55.88 0)
      (effects (font (size 1.27 1.27)))
    )
    (property "Footprint" "Package_TO_SOT_SMD:SOT-89-3" (at 54.61 53.975 0)
      (effects (font (size 1.27 1.27) italic) hide)
    )
    (property "Datasheet" "https://www.holtek.com/documents/10179/116711/HT75xx-1v250.pdf" (at 54.61 59.69 0)
      (effects (font (size 1.27 1.27)) hide)
    )
    (pin "1" (uuid 51a7c9f8-e882-4838-b930-cc51767fa3dc))
    (pin "2" (uuid 82e43dfa-fe0f-404b-b5f1-187d492d2d4f))
    (pin "3" (uuid 14f58410-c4e8-4b53-8fbd-9ea9a3de4ab0))
    (instances
      (project "ble_keyboard_kicad"
        (path "/b0b0f3c7-4c4c-45d6-8822-bfa5605e36ae"
          (reference "U2") (unit 1)
        )
      )
    )
  )

  (symbol (lib_id "electroniccats:AP2112K-3.3TRG1") (at 50.8 96.52 0) (unit 1)
    (in_bom yes) (on_board yes) (dnp no) (fields_autoplaced)
    (uuid 69ba5f5c-d6c7-4412-91a8-ad41b6ddc99b)
    (property "Reference" "U3" (at 50.8 85.09 0)
      (effects (font (size 1.27 1.27)))
    )
    (property "Value" "AP2112K-3.3TRG1" (at 50.8 87.63 0)
      (effects (font (size 1.27 1.27)))
    )
    (property "Footprint" "Package_TO_SOT_SMD:SOT-23-5_HandSoldering" (at 50.8 96.52 0)
      (effects (font (size 1.27 1.27)) (justify left bottom) hide)
    )
    (property "Datasheet" "SOT-753 Diodes Inc." (at 50.8 96.52 0)
      (effects (font (size 1.27 1.27)) (justify left bottom) hide)
    )
    (property "desc" "AP2112 Series 0.6 A 3.3 V Fixed Output SMT LDO Linear Regulator - SOT23-5" (at 50.8 96.52 0)
      (effects (font (size 1.27 1.27)) (justify left bottom) hide)
    )
    (pin "1" (uuid ad47793e-7943-48af-8576-8f9e2dd06b1b))
    (pin "2" (uuid 6645d196-ac67-4f38-8b73-04e581e06b22))
    (pin "3" (uuid 1a7b3f68-9c81-4000-946e-217749fc0739))
    (pin "5" (uuid 7be46511-9a4a-4bb7-a930-07e8e64c964b))
    (instances
      (project "ble_keyboard_kicad"
        (path "/b0b0f3c7-4c4c-45d6-8822-bfa5605e36ae"
          (reference "U3") (unit 1)
        )
      )
    )
  )

  (symbol (lib_id "Device:C") (at 74.93 68.58 0) (unit 1)
    (in_bom yes) (on_board yes) (dnp no) (fields_autoplaced)
    (uuid 896f433a-35b1-457f-837d-521c8e36f120)
    (property "Reference" "C1" (at 78.74 67.945 0)
      (effects (font (size 1.27 1.27)) (justify left))
    )
    (property "Value" "C" (at 78.74 70.485 0)
      (effects (font (size 1.27 1.27)) (justify left))
    )
    (property "Footprint" "Capacitor_SMD:C_1206_3216Metric_Pad1.33x1.80mm_HandSolder" (at 75.8952 72.39 0)
      (effects (font (size 1.27 1.27)) hide)
    )
    (property "Datasheet" "~" (at 74.93 68.58 0)
      (effects (font (size 1.27 1.27)) hide)
    )
    (pin "1" (uuid 87660c4e-d12f-446c-9532-afbf876c127c))
    (pin "2" (uuid 3ef7cfd3-c4f7-4229-91dd-d56f7295c701))
    (instances
      (project "ble_keyboard_kicad"
        (path "/b0b0f3c7-4c4c-45d6-8822-bfa5605e36ae"
          (reference "C1") (unit 1)
        )
      )
    )
  )

  (symbol (lib_id "Connector:USB_A") (at 26.67 64.77 0) (unit 1)
    (in_bom yes) (on_board yes) (dnp no) (fields_autoplaced)
    (uuid a52bc0e0-450c-4684-a043-64e3c9a649e2)
    (property "Reference" "J1" (at 26.67 53.34 0)
      (effects (font (size 1.27 1.27)))
    )
    (property "Value" "USB_A" (at 26.67 55.88 0)
      (effects (font (size 1.27 1.27)))
    )
    (property "Footprint" "Connectors:usb-PCB" (at 30.48 66.04 0)
      (effects (font (size 1.27 1.27)) hide)
    )
    (property "Datasheet" " ~" (at 30.48 66.04 0)
      (effects (font (size 1.27 1.27)) hide)
    )
    (pin "1" (uuid 61cfd28a-7961-49b1-b741-de3c0b4d996a))
    (pin "2" (uuid 66c86f38-7c03-4bca-b1e3-81b399a9ee53))
    (pin "3" (uuid 2b39b759-0741-462f-837f-00aeb07dceb1))
    (pin "4" (uuid 582ee701-94ab-45ac-af02-c4371da584d1))
    (pin "5" (uuid 9d7079e7-a0e2-4a65-886f-dc7902b07a8b))
    (instances
      (project "ble_keyboard_kicad"
        (path "/b0b0f3c7-4c4c-45d6-8822-bfa5605e36ae"
          (reference "J1") (unit 1)
        )
      )
    )
  )

  (symbol (lib_id "Espressif:ESP32-S2-MINI-1") (at 123.19 82.55 0) (unit 1)
    (in_bom yes) (on_board yes) (dnp no) (fields_autoplaced)
    (uuid afb75a38-d336-4b13-b227-443d8dcc3659)
    (property "Reference" "U1" (at 125.1459 38.1 0)
      (effects (font (size 1.27 1.27)) (justify left))
    )
    (property "Value" "ESP32-S2-MINI-1" (at 125.1459 40.64 0)
      (effects (font (size 1.27 1.27)) (justify left))
    )
    (property "Footprint" "Espressif:ESP32-S2-MINI-1" (at 123.19 135.89 0)
      (effects (font (size 1.27 1.27)) hide)
    )
    (property "Datasheet" "https://www.espressif.com/sites/default/files/documentation/esp32-s2-mini-1_esp32-s2-mini-1u_datasheet_en.pdf" (at 125.73 138.43 0)
      (effects (font (size 1.27 1.27)) hide)
    )
    (pin "1" (uuid 032bca02-3449-442d-99cd-3eff45ec0cfe))
    (pin "43" (uuid ebe38f1a-e565-40f6-9b16-bbb0d7b7cbfa))
    (pin "44" (uuid e2d43a16-10b5-4046-a4af-b67aea8db395))
    (pin "45" (uuid 41af8bb4-172a-40f1-bcf3-da30bd15805d))
    (pin "46" (uuid e8830be3-9fa2-43c7-adff-5fc13c1267a2))
    (pin "47" (uuid da4f2bf1-7274-41b0-bcc4-1b4e455241d5))
    (pin "48" (uuid 62daf221-0085-451e-86b4-19ee4467964c))
    (pin "49" (uuid af0e15fe-d525-40c6-a2dc-2e9163d6fc00))
    (pin "50" (uuid 85778988-0599-4d29-a3a8-76400b25cdff))
    (pin "51" (uuid 3ca74035-7e4a-4eff-bcd1-11ccc59cb6ac))
    (pin "52" (uuid 8ba333dd-e49b-4d7d-97cc-a85045fc2f48))
    (pin "53" (uuid ca56558a-b2a0-4d56-bf6b-6858d42255f5))
    (pin "54" (uuid 2f812ed1-deda-41e8-8c68-001de66bfd76))
    (pin "55" (uuid 6672837c-eb71-4f26-a439-2f1934375c09))
    (pin "56" (uuid eac4b935-71ca-4c57-be75-824d2be4a459))
    (pin "57" (uuid 6404a407-18c4-47ba-9933-f4c828508427))
    (pin "58" (uuid 54013c6b-ae0c-4607-af92-63df5f33dbf6))
    (pin "59" (uuid bc9c367b-799b-4406-9154-641a0d1cc61e))
    (pin "60" (uuid 0ca35ca8-b559-40c2-9233-89afdea878fb))
    (pin "61" (uuid 67678a20-3a0f-4350-b52b-b4ff7c51773b))
    (pin "62" (uuid 83a52192-67c6-4d1c-bcea-ff8fc88c5a67))
    (pin "63" (uuid 4ce9dc08-7d5d-4f92-a940-ed12f122a846))
    (pin "64" (uuid 5b2bd913-8a62-4a69-95d3-643a396637d9))
    (pin "65" (uuid c0d0b3ac-54e4-4ebf-b174-d200c4138639))
    (pin "10" (uuid d395bbb0-9d10-4206-a0d3-4a4fc8ee7d6b))
    (pin "11" (uuid a41fd260-ba0c-48b6-94d1-90f2385e1911))
    (pin "12" (uuid 9705d51b-59f5-4ecb-8f85-9b4ae897f955))
    (pin "13" (uuid be6235ed-b6bc-4b3c-9a17-97540d680194))
    (pin "14" (uuid 77a781fd-af8d-4eaa-936a-83f048c97a41))
    (pin "15" (uuid fdf4c87b-3e77-4438-bac1-8079c07e3695))
    (pin "16" (uuid e2b7970e-df22-4ef4-bda9-455c01236ce2))
    (pin "17" (uuid 9f0d25bc-b2c7-4723-a7a3-d5224fa4a4b3))
    (pin "18" (uuid eb7ecdbf-f69e-4acb-8cd6-cc9e5d753a53))
    (pin "19" (uuid 541a63b4-66a2-4d10-b562-94b6dafb5154))
    (pin "2" (uuid cea01075-ee04-4f81-ab02-6c6c76723578))
    (pin "20" (uuid ef77868f-2e12-4a78-a201-dfe76c82bedc))
    (pin "21" (uuid 992c026e-41b2-4748-a8bd-9ff3663f3bde))
    (pin "22" (uuid c916155c-dbbf-44fe-bda2-a467338e3312))
    (pin "23" (uuid aaddd7c7-8ce1-41b6-b47d-8bbbbb5f2f46))
    (pin "24" (uuid 2a6b5b6d-4be3-4698-a05f-c3ed637ca48d))
    (pin "25" (uuid b126f32c-a252-4663-94cb-235902684bca))
    (pin "26" (uuid 7f394b4a-84c7-410b-83af-66505f43f65f))
    (pin "27" (uuid 1cee73ba-5d7e-4043-bdea-a7666401ae6b))
    (pin "28" (uuid a61e9feb-f7af-44de-9934-d9df9ca5ac52))
    (pin "29" (uuid 34a877d6-2c52-4fe5-9437-840b4b748520))
    (pin "3" (uuid 8b2b76c0-50c4-4ddd-bc7b-b9cef891e53d))
    (pin "30" (uuid 05f7568d-012e-4616-a997-b60e96e4ea2e))
    (pin "31" (uuid be4b44f4-537b-43d4-a96d-19369648fafa))
    (pin "32" (uuid 23bd6109-8905-44b1-a5aa-a93456419409))
    (pin "33" (uuid 5af2aa9c-bba4-4906-83b0-d33c65842f8e))
    (pin "34" (uuid f5e1fcd7-0551-47e2-bda3-1f21985bec2b))
    (pin "35" (uuid 529cf475-5341-4aca-9208-78871519c43e))
    (pin "36" (uuid f6eb6fae-61eb-441f-b397-9662db563b6c))
    (pin "37" (uuid db17b6d6-3400-44c0-b454-ea47a96a1e6d))
    (pin "38" (uuid 1509915c-8f2c-4b08-954a-d0d5183ea49f))
    (pin "39" (uuid 93e32d7b-0dc2-4014-a7cd-eb9f017d5fc9))
    (pin "4" (uuid 552cf558-e6e9-405b-9370-5d840330bf58))
    (pin "40" (uuid b7cb3201-5793-49a0-8826-62b64500acf0))
    (pin "41" (uuid b7800489-5cc4-4c8a-83a9-43c877c9b7cd))
    (pin "42" (uuid ad94f600-2836-48f0-8bbe-7cf899c7a531))
    (pin "5" (uuid c9ac9bff-5841-4579-bf30-cbdcdcd0d676))
    (pin "6" (uuid 738d332d-4780-4c5c-a9a1-8c10e4c30d6e))
    (pin "7" (uuid 9cca3136-bfb3-4252-b858-d36bae89a138))
    (pin "8" (uuid 138322fd-f3b0-4ce0-96cd-bd49d0f377b7))
    (pin "9" (uuid 546916a3-4960-4275-9145-47f9253e2def))
    (instances
      (project "ble_keyboard_kicad"
        (path "/b0b0f3c7-4c4c-45d6-8822-bfa5605e36ae"
          (reference "U1") (unit 1)
        )
      )
    )
  )

  (symbol (lib_id "Switch:SW_DPDT_x2") (at 167.64 102.87 0) (unit 1)
    (in_bom yes) (on_board yes) (dnp no) (fields_autoplaced)
    (uuid bf58543c-e755-4c67-a661-ad37a04815c3)
    (property "Reference" "SW1" (at 167.64 96.52 0)
      (effects (font (size 1.27 1.27)))
    )
    (property "Value" "SW_DPDT_x2" (at 167.64 99.06 0)
      (effects (font (size 1.27 1.27)))
    )
    (property "Footprint" "Button_Switch_SMD:SW_SPDT_PCM12" (at 167.64 102.87 0)
      (effects (font (size 1.27 1.27)) hide)
    )
    (property "Datasheet" "~" (at 167.64 102.87 0)
      (effects (font (size 1.27 1.27)) hide)
    )
    (pin "1" (uuid bf99d1ea-9450-4e1f-9b38-68bc5a1fbd55))
    (pin "2" (uuid 1eaeaa57-0048-4e0a-9646-458be7942032))
    (pin "3" (uuid 0293f31b-7e96-4fd5-a7b4-f882a9ada6b8))
    (pin "4" (uuid 94f3a73b-e3cc-4bc7-a0d2-7fef1565a48a))
    (pin "5" (uuid 0b97cc95-9373-4cf0-bf93-50f0e7efc508))
    (pin "6" (uuid a8334139-9fc2-4bde-8904-a4de54433598))
    (instances
      (project "ble_keyboard_kicad"
        (path "/b0b0f3c7-4c4c-45d6-8822-bfa5605e36ae"
          (reference "SW1") (unit 1)
        )
      )
    )
  )

  (symbol (lib_id "Connector:Conn_01x05_Pin") (at 191.77 43.18 0) (unit 1)
    (in_bom yes) (on_board yes) (dnp no) (fields_autoplaced)
    (uuid c78f9b05-4f3f-48af-914c-04f572eedcae)
    (property "Reference" "J2" (at 192.405 34.29 0)
      (effects (font (size 1.27 1.27)))
    )
    (property "Value" "Conn_01x05_Pin" (at 192.405 36.83 0)
      (effects (font (size 1.27 1.27)))
    )
    (property "Footprint" "Connector_PinSocket_2.54mm:PinSocket_1x05_P2.54mm_Vertical" (at 191.77 43.18 0)
      (effects (font (size 1.27 1.27)) hide)
    )
    (property "Datasheet" "~" (at 191.77 43.18 0)
      (effects (font (size 1.27 1.27)) hide)
    )
    (pin "1" (uuid ff6234df-46ff-499f-8f8d-98f54dc40499))
    (pin "2" (uuid faeaabec-db3c-4a92-ac5e-821d87dc0006))
    (pin "3" (uuid 31499858-8a14-472b-a4ee-a41b1f0bb386))
    (pin "4" (uuid d991f872-f2d5-4df4-861d-67cddb91734e))
    (pin "5" (uuid 77114a2d-e752-4a71-a151-fe8aab6d3aef))
    (instances
      (project "ble_keyboard_kicad"
        (path "/b0b0f3c7-4c4c-45d6-8822-bfa5605e36ae"
          (reference "J2") (unit 1)
        )
      )
    )
  )

  (symbol (lib_id "Device:R") (at 173.99 88.9 0) (unit 1)
    (in_bom yes) (on_board yes) (dnp no) (fields_autoplaced)
    (uuid f0acd1a5-5af8-4351-b7ac-f6e7673e64d9)
    (property "Reference" "R1" (at 176.53 88.265 0)
      (effects (font (size 1.27 1.27)) (justify left))
    )
    (property "Value" "R" (at 176.53 90.805 0)
      (effects (font (size 1.27 1.27)) (justify left))
    )
    (property "Footprint" "Resistor_SMD:R_0805_2012Metric_Pad1.20x1.40mm_HandSolder" (at 172.212 88.9 90)
      (effects (font (size 1.27 1.27)) hide)
    )
    (property "Datasheet" "~" (at 173.99 88.9 0)
      (effects (font (size 1.27 1.27)) hide)
    )
    (pin "1" (uuid 80e2c3f3-2c47-4c02-bad5-f64e9ba99bdc))
    (pin "2" (uuid cffcdb3b-f8a5-44e8-8e59-35b4f66c0cc6))
    (instances
      (project "ble_keyboard_kicad"
        (path "/b0b0f3c7-4c4c-45d6-8822-bfa5605e36ae"
          (reference "R1") (unit 1)
        )
      )
    )
  )

  (sheet_instances
    (path "/" (page "1"))
  )
)
