Ref,Val,Package,PosX,PosY,Rot,Side
"C1","C","C_1206_3216Metric_Pad1.33x1.80mm_HandSolder",137.200000,-68.200000,-90.000000,bottom
"SW1","SW_DPDT_x2","SW_SPDT_PCM12",146.300000,-73.500000,-90.000000,bottom
"U2","HT75xx-1-SOT89","SOT-89-3",136.200000,-74.700000,180.000000,bottom
"U3","AP2112K-3.3TRG1","SOT-23-5_HandSoldering",142.500000,-66.900000,180.000000,bottom
